Bug ID,Bug Resolution Date by Jira,Classes Touched by Last Fix,Earliest AV,Version of Ticket Creation,Version of Fix,Ticket Creation Date,Fix Date (of most recent commit),Hash (of most recent commit),Git Directory
AXIS-1910,2005-04-27 06:08:08 +0000,src/org/apache/axis/encoding/ser/SimpleDeserializerFactory.java|src/org/apache/axis/encoding/ser/SimpleSerializer.java|src/org/apache/axis/encoding/ser/SimpleSerializerFactory.java|src/org/apache/axis/utils/JavaUtils.java|,15,16,16,2005-04-05 06:29:17 +0000,2005-04-26 21:06:36 +0000,f16008aa6c1e0e84192e5601ebac2c3e5327726c,axis1-java
AXIS-1919,2005-04-28 20:59:07 +0000,src/org/apache/axis/encoding/TypeMappingImpl.java|,15,16,16,2005-04-08 02:16:26 +0000,2005-04-28 04:08:29 +0000,6f373d7c56fadace9c4862af2219e0c6b6b16fd1,axis1-java
AXIS-1903,2005-06-11 10:43:19 +0000,src/org/apache/axis/message/MessageElement.java|,15,16,17,2005-03-29 06:06:20 +0000,2005-06-11 01:42:27 +0000,8270a7f79903b3ee7e09e1bcbc500b1be28a20fd,axis1-java
AXIS-1906,2005-04-24 06:41:20 +0000,src/org/apache/axis/attachments/DimeBodyPart.java|,10,16,16,2005-04-03 01:05:29 +0000,2005-04-23 21:37:38 +0000,9ecb746c1309a04964c6c0ea175f75db1cfcc77c,axis1-java
AXIS-2180,2005-08-20 11:50:35 +0000,src/org/apache/axis/Message.java|,17,18,18,2005-08-19 03:00:51 +0000,2005-08-20 02:49:32 +0000,1578b781d3049e23fae911afca7057dcdb1cb2a2,axis1-java
AXIS-2185,2005-08-22 06:16:26 +0000,src/org/apache/axis/utils/ClasspathUtils.java|,17,18,18,2005-08-21 06:05:02 +0000,2005-08-21 21:15:29 +0000,72ff2882d780c972ae52faba1c578bd728565f06,axis1-java
AXIS-928,2004-02-24 16:19:49 +0000,integration/pom.xml|integration/src/test/java/test/wsdl/rpcParams/RpcParamsBindingImpl.java|integration/src/test/java/test/wsdl/rpcParams/RpcParamsServiceTestCase.java|integration/src/test/wsdd/wsdl/rpcParams/deploy.wsdd|integration/src/test/wsdl/rpcParams/rpcParams.wsdl|test/wsdl/rpcParams/RpcParamsBindingStub.java|test/wsdl/rpcParams/RpcParamsServiceTestCase.java|test/wsdl/rpcParams/build.xml|test/wsdl/rpcParams/readme.txt|,10,11,20,2003-06-20 06:19:47 +0000,2012-09-29 11:13:38 +0000,48023b7b0156ede96d5bd4729725071b6a00ddfc,axis1-java
AXIS-2172,2005-08-22 15:40:12 +0000,src/org/apache/axis/description/JavaServiceDesc.java|,17,18,18,2005-08-09 14:47:46 +0000,2005-08-22 06:40:08 +0000,d1a88d67d510b527cf14742a023d4e054785d6df,axis1-java
AXIS-935,2005-04-29 21:52:07 +0000,src/org/apache/axis/client/Service.java|src/org/apache/axis/client/Stub.java|src/org/apache/axis/i18n/resource.properties|,9,11,16,2003-06-30 19:12:42 +0000,2005-04-22 13:59:29 +0000,449ca1d917c334aa34a9b8cb0632ed229b2e9518,axis1-java
AXIS-2179,2005-08-22 07:33:17 +0000,src/org/apache/axis/utils/XMLUtils.java|,17,18,18,2005-08-17 10:06:21 +0000,2005-08-21 22:32:59 +0000,335a5e4b20654eee08b92f1bde60c7d4a188dce2,axis1-java
AXIS-1970,2005-05-02 20:56:06 +0000,src/org/apache/axis/providers/java/JavaProvider.java|src/org/apache/axis/providers/java/RPCProvider.java|src/org/apache/axis/wsdl/fromJava/Emitter.java|src/org/apache/axis/wsdl/toJava/JavaDeployWriter.java|src/org/apache/axis/wsdl/toJava/JavaGeneratorFactory.java|src/org/apache/axis/wsdl/toJava/JavaImplWriter.java|src/org/apache/axis/wsdl/toJava/JavaSkelWriter.java|src/org/apache/axis/wsdl/toJava/JavaStubWriter.java|src/org/apache/axis/wsdl/toJava/JavaTestCaseWriter.java|,15,16,16,2005-05-02 15:38:05 +0000,2005-05-02 11:39:36 +0000,c737fff55c8077eb317abb8a205bc740bd9ba1f8,axis1-java
AXIS-1975,2005-06-01 21:32:58 +0000,src/org/apache/axis/description/OperationDesc.java|test/outparams2/PackageTests.java|test/outparams2/TestOutParams2.java|,16,17,17,2005-05-04 17:55:56 +0000,2005-06-01 12:29:45 +0000,d524937a503fd765597364afa775758255bc03c8,axis1-java
AXIS-1960,2005-06-26 19:19:16 +0000,src/org/apache/axis/message/MessageElement.java|src/org/apache/axis/message/NodeImpl.java|test/message/TestSOAPBody.java|,15,16,17,2005-04-27 23:34:52 +0000,2005-06-09 16:36:27 +0000,a786c66c59ae1fbcebfbbbaf175c5deb8d4d11a2,axis1-java
AXIS-1722,2004-12-14 21:28:34 +0000,src/org/apache/axis/utils/cache/MethodCache.java|,14,15,15,2004-12-14 19:40:10 +0000,2004-12-14 21:27:28 +0000,50f987145814f891b98d201d19c35438232b5a7a,axis1-java
AXIS-1725,2005-04-25 19:18:58 +0000,samples/message/MessageService.java|samples/message/TestMsg.java|samples/message/build.xml|samples/message/deploy.wsdd|,14,15,16,2004-12-14 23:36:05 +0000,2005-04-25 10:02:00 +0000,bd97d706a945bf070d24cc657134d7a94e295657,axis1-java
AXIS-1993,2005-07-29 12:28:53 +0000,src/org/apache/axis/wsdl/symbolTable/SchemaUtils.java|src/org/apache/axis/wsdl/symbolTable/SymbolTable.java|,16,17,18,2005-05-13 17:45:25 +0000,2005-07-29 03:28:43 +0000,76c19e473540a07fa95a7477e5b1b0c106e0af68,axis1-java
AXIS-1992,2005-06-26 20:18:05 +0000,src/org/apache/axis/wsdl/toJava/JavaStubWriter.java|,16,17,18,2005-05-13 04:03:13 +0000,2005-06-26 11:17:24 +0000,e890dc0c8fb0961fb552291e059de1f682f10170,axis1-java
AXIS-1997,2005-05-31 02:24:05 +0000,src/org/apache/axis/Message.java|,16,17,17,2005-05-14 10:07:57 +0000,2005-05-30 20:06:29 +0000,964753d07587857b0f87b0c291461e447cf3f069,axis1-java
AXIS-1754,2005-04-21 08:55:28 +0000,src/org/apache/axis/client/Service.java|src/org/apache/axis/transport/http/AxisServlet.java|,14,15,16,2005-01-08 00:07:32 +0000,2005-04-20 23:55:18 +0000,e6ea7144df4b84a88539f5be6292964d8c117723,axis1-java
AXIS-1995,2006-01-11 03:17:41 +0000,src/org/apache/axis/transport/http/AxisHTTPSessionListener.java|,16,17,19,2005-05-13 22:06:25 +0000,2006-01-10 18:17:15 +0000,0db6abf32cc47f1406d7ed665f9e855134260d0f,axis1-java
AXIS-1513,2004-08-18 04:28:48 +0000,src/org/apache/axis/handlers/soap/SOAPService.java|,12,13,13,2004-08-16 08:03:19 +0000,2004-08-18 04:26:26 +0000,8bea6593ac844f4ae9b85d1d83fb4e45bfd75dc2,axis1-java
AXIS-1503,2012-01-03 13:25:03 +0000,docs/install.html|,12,13,20,2004-08-11 10:48:14 +0000,2012-01-03 13:17:55 +0000,641a781b5e58849eae306cf5b6ccafb6a2dacade,axis1-java
AXIS-1989,2005-07-28 05:39:45 +0000,test/wsdl/uddiv2/build.xml|,16,17,18,2005-05-12 13:24:41 +0000,2005-07-28 18:03:09 +0000,94f8b3f179720599769d1236aad0d25d1886b891,axis1-java
AXIS-526,2004-06-03 14:06:56 +0000,src/org/apache/axis/wsdl/fromJava/Types.java|,6,7,13,2002-11-25 20:38:08 +0000,2004-06-03 14:01:33 +0000,9e1a7cc6dfc7a92c0afc2823a19ffdf1d0641727,axis1-java
AXIS-530,2005-04-25 08:54:09 +0000,src/org/apache/axis/wsdl/toJava/JavaBeanHelperWriter.java|,6,7,16,2002-11-28 00:51:38 +0000,2005-03-03 18:28:35 +0000,d3d790bde6e81da1200d241046e3990642d85741,axis1-java
AXIS-1928,2005-04-30 13:29:14 +0000,src/org/apache/axis/transport/http/AxisServlet.java|,15,16,16,2005-04-14 22:06:37 +0000,2005-04-23 01:46:20 +0000,4453ac97de4795d685a991fc8cffddb01b5a5531,axis1-java
AXIS-1711,2004-12-21 20:26:10 +0000,src/org/apache/axis/wsdl/toJava/JavaServiceImplWriter.java|,14,15,15,2004-12-09 12:57:21 +0000,2004-12-21 20:17:01 +0000,5b91fc11d6a0fbdf6926505a332a83c6dc77ad83,axis1-java
AXIS-1957,2005-04-27 07:01:16 +0000,src/org/apache/axis/encoding/ser/BeanSerializer.java|,15,16,16,2005-04-27 06:40:22 +0000,2005-04-26 22:01:02 +0000,240c1e11481e21e96c8f53a89deaf62723330504,axis1-java
AXIS-1714,2005-01-26 03:47:45 +0000,src/org/apache/axis/wsdl/symbolTable/SymbolTable.java|,14,15,15,2004-12-10 20:03:33 +0000,2005-01-25 18:47:35 +0000,44e158aabcc766b7e9b9dac13e0d67ab1c0e464b,axis1-java
AXIS-1713,2004-12-14 12:59:25 +0000,src/org/apache/axis/message/NodeImpl.java|test/saaj/TestDOM.java|,14,15,15,2004-12-10 15:46:31 +0000,2004-12-14 12:58:57 +0000,e4fd39293abec62cff2290a9cd60b3e0ca2fce53,axis1-java
AXIS-1942,2005-04-27 22:38:37 +0000,src/org/apache/axis/encoding/ser/ArraySerializer.java|,15,16,16,2005-04-21 04:49:43 +0000,2005-04-27 13:37:35 +0000,3c2991e5997281da6581e8ce58bade99d4a94a76,axis1-java
AXIS-1700,2004-12-09 13:56:54 +0000,src/org/apache/axis/utils/XMLUtils.java|,14,15,15,2004-12-07 09:27:02 +0000,2004-12-09 13:56:38 +0000,491dacde2ec2af5424cbb6bd13e668cb448662b1,axis1-java
AXIS-1332,2004-11-18 17:06:47 +0000,src/org/apache/axis/description/ElementDesc.java|src/org/apache/axis/encoding/ser/BeanSerializer.java|src/org/apache/axis/i18n/resource.properties|src/org/apache/axis/types/Notation.java|src/org/apache/axis/wsdl/fromJava/Types.java|src/org/apache/axis/wsdl/toJava/JavaBeanHelperWriter.java|test/encoding/DerivatedBean.java|test/encoding/ParentBean.java|test/encoding/SuperBean.java|test/encoding/TestAutoTypes.java|test/encoding/build.xml|test/wsdl/_import/Import.xsd|test/wsdl/include/address/Address.xsd|test/wsdl/multiref/MultiRefTest.wsdl|test/wsdl/omit/OmitTestCase.java|test/wsdl/omit/omit.wsdl|test/wsdl/types/ComprehensiveTypes.wsdl|test/wsdl/wrapped2/employee.wsdl|,3,13,15,2004-04-22 22:44:47 +0000,2004-11-18 17:00:41 +0000,73ee95a26434fb59c1c0843dc2b405753353776f,axis1-java
AXIS-1578,2004-10-15 16:36:37 +0000,src/org/apache/axis/wsdl/toJava/JavaServiceImplWriter.java|,12,14,14,2004-09-30 02:16:03 +0000,2004-10-15 16:34:13 +0000,8ca2776cc5e5d2dced19eb1af5a895dcdb0fbe9d,axis1-java
AXIS-2650,2007-04-21 01:28:44 +0000,test/wsdl/interop/build.xml|,19,20,20,2007-04-12 23:39:03 +0000,2011-12-30 12:04:18 +0000,0dec40cd6f3994da6b37fc047a5acc0eb1c9b581,axis1-java
AXIS-1321,2004-11-18 17:06:11 +0000,src/org/apache/axis/description/ElementDesc.java|src/org/apache/axis/encoding/ser/BeanSerializer.java|src/org/apache/axis/i18n/resource.properties|src/org/apache/axis/types/Notation.java|src/org/apache/axis/wsdl/fromJava/Types.java|src/org/apache/axis/wsdl/toJava/JavaBeanHelperWriter.java|test/encoding/DerivatedBean.java|test/encoding/ParentBean.java|test/encoding/SuperBean.java|test/encoding/TestAutoTypes.java|test/encoding/build.xml|test/wsdl/_import/Import.xsd|test/wsdl/include/address/Address.xsd|test/wsdl/multiref/MultiRefTest.wsdl|test/wsdl/omit/OmitTestCase.java|test/wsdl/omit/omit.wsdl|test/wsdl/types/ComprehensiveTypes.wsdl|test/wsdl/wrapped2/employee.wsdl|,12,13,15,2004-04-19 06:25:16 +0000,2004-11-18 17:00:41 +0000,73ee95a26434fb59c1c0843dc2b405753353776f,axis1-java
AXIS-1329,2004-09-22 00:12:14 +0000,samples/ws-i/scm/build.xml|src/org/apache/axis/utils/JavaUtils.java|test/utils/TestJavaUtils.java|,12,13,13,2004-04-21 17:39:36 +0000,2004-09-22 00:09:20 +0000,37dfb1348a72ff72df983141750b6a3565a11759,axis1-java
AXIS-1350,2004-06-24 14:15:47 +0000,src/org/apache/axis/encoding/SerializationContextImpl.java|src/org/apache/axis/message/MessageElement.java|test/encoding/TestDOM.java|test/message/TestMessageElement.java|test/wsdl/faults/FaultServiceSoapBindingImpl.java|test/wsdl/sequence/SequenceService.java|,12,13,13,2004-05-06 23:57:15 +0000,2004-06-24 12:27:38 +0000,a856758244fc2273c9a3c36ff8a9c8080af088bb,axis1-java
AXIS-1594,2004-10-14 21:13:49 +0000,src/org/apache/axis/transport/http/AxisServlet.java|,13,14,14,2004-10-07 17:05:40 +0000,2004-10-14 21:10:51 +0000,f4dbf45487c3eae637480c35dfe4427e8b7e3ad9,axis1-java
AXIS-2202,2005-09-20 23:05:48 +0000,src/org/apache/axis/utils/BeanPropertyDescriptor.java|,16,18,18,2005-08-31 18:32:31 +0000,2005-09-20 14:05:35 +0000,b5271ad630299a8cac481256aaaca33327331834,axis1-java
AXIS-2442,2007-06-25 15:04:34 +0000,axis-codegen/src/main/java/org/apache/axis/wsdl/toJava/JavaBeanWriter.java|,18,19,20,2006-03-20 22:15:49 +0000,2015-06-27 12:02:57 +0000,5c0eba49fee50885365443b02985ea1c5f140ce8,axis1-java
AXIS-1597,2004-10-14 15:35:03 +0000,src/org/apache/axis/utils/XMLUtils.java|,10,14,14,2004-10-10 22:39:11 +0000,2004-10-14 15:32:22 +0000,a14964bdfb2adf89e2bca0363e4f2814df9396ff,axis1-java
AXIS-1357,2004-11-18 17:07:25 +0000,src/org/apache/axis/description/ElementDesc.java|src/org/apache/axis/encoding/ser/BeanSerializer.java|src/org/apache/axis/i18n/resource.properties|src/org/apache/axis/types/Notation.java|src/org/apache/axis/wsdl/fromJava/Types.java|src/org/apache/axis/wsdl/toJava/JavaBeanHelperWriter.java|test/encoding/DerivatedBean.java|test/encoding/ParentBean.java|test/encoding/SuperBean.java|test/encoding/TestAutoTypes.java|test/encoding/build.xml|test/wsdl/_import/Import.xsd|test/wsdl/include/address/Address.xsd|test/wsdl/multiref/MultiRefTest.wsdl|test/wsdl/omit/OmitTestCase.java|test/wsdl/omit/omit.wsdl|test/wsdl/types/ComprehensiveTypes.wsdl|test/wsdl/wrapped2/employee.wsdl|,12,13,15,2004-05-11 18:57:00 +0000,2004-11-18 17:00:41 +0000,73ee95a26434fb59c1c0843dc2b405753353776f,axis1-java
AXIS-1581,2012-10-02 21:17:37 +0000,axis/src/main/java/org/apache/axis/client/Call.java|,12,14,20,2004-10-01 03:31:30 +0000,2012-10-02 19:24:36 +0000,c71c23f95a92e6a865db54e3c6b491be41b38784,axis1-java
AXIS-1583,2004-10-13 03:23:17 +0000,src/org/apache/axis/encoding/ser/BeanDeserializerFactory.java|,10,14,14,2004-10-04 15:05:20 +0000,2004-10-13 03:21:01 +0000,d0425461b12194263a670a37ea6464bdd9da23b8,axis1-java
AXIS-1585,2004-10-14 20:32:58 +0000,src/org/apache/axis/encoding/SerializationContext.java|src/org/apache/axis/encoding/ser/BeanSerializer.java|,8,14,14,2004-10-04 18:42:30 +0000,2004-10-14 20:28:47 +0000,8b938eb764df6034019a8ec044690e24c2356743,axis1-java
AXIS-1584,2004-10-15 14:40:20 +0000,src/org/apache/axis/attachments/ManagedMemoryDataSource.java|,12,14,14,2004-10-04 16:06:47 +0000,2004-10-15 14:38:08 +0000,d34fc31fc88662ed4f3d2dad3e491a5eb9d7bcec,axis1-java
AXIS-1344,2004-11-23 23:26:37 +0000,src/org/apache/axis/types/UnsignedLong.java|test/types/TestUnsignedLong.java|,12,13,15,2004-05-04 12:17:58 +0000,2004-11-23 23:25:44 +0000,aeda7c3d317041d87ff857877f7e827eb2d0de8e,axis1-java
AXIS-1589,2004-11-15 20:09:59 +0000,src/org/apache/axis/encoding/SerializationContext.java|src/org/apache/axis/encoding/ser/ArraySerializer.java|src/org/apache/axis/encoding/ser/BeanSerializer.java|src/org/apache/axis/message/MessageElement.java|src/org/apache/axis/message/RPCParam.java|,13,14,14,2004-10-05 14:37:46 +0000,2004-11-04 13:23:35 +0000,b9a042e3954a8ad9c51d582eb86957fe03bc5442,axis1-java
AXIS-1347,2004-08-04 02:57:36 +0000,src/org/apache/axis/wsdl/toJava/JavaGeneratorFactory.java|,12,13,13,2004-05-05 13:42:53 +0000,2004-08-04 02:54:29 +0000,dc149585d88deffe1702459426d04418cc7e6223,axis1-java
AXIS-2435,2006-03-27 15:18:14 +0000,src/org/apache/axis/transport/http/CommonsHTTPSender.java|,18,19,19,2006-03-15 19:44:30 +0000,2006-03-27 06:16:37 +0000,5b09ff459f54e29ca2e4d52b228cea2a273e88c4,axis1-java
AXIS-2863,2012-02-02 19:24:58 +0000,axis/src/main/java/org/apache/axis/encoding/DeserializationContext.java|axis/src/main/java/org/apache/axis/message/SAX2EventRecorder.java|,19,20,20,2011-10-10 11:41:38 +0000,2012-01-28 19:16:38 +0000,a0dc9041808a52ff51dc8b02a52af19f9d3ea5eb,axis1-java
AXIS-2866,2012-01-04 09:00:47 +0000,axis-war/pom.xml|axis-war/src/test/web.xml|axis/src/main/java/org/apache/axis/transport/http/AxisServlet.java|docs/reference.html|,19,20,20,2012-01-03 23:03:04 +0000,2012-01-03 23:40:25 +0000,5d4894313e097dfacb14f37e84a948cfc5a9a9d0,axis1-java
AXIS-2867,2012-01-04 09:00:14 +0000,axis-war/src/test/web.xml|axis/src/main/java/org/apache/axis/transport/http/AxisServletBase.java|docs/reference.html|,19,20,20,2012-01-04 00:03:56 +0000,2012-01-04 00:25:09 +0000,36d4bc3ba70d096302dbcf14427db95a2a80d39e,axis1-java
AXIS-1539,2004-09-02 12:21:36 +0000,src/org/apache/axis/encoding/ser/SimpleListDeserializer.java|src/org/apache/axis/wsdl/symbolTable/ContainedAttribute.java|src/org/apache/axis/wsdl/symbolTable/ElementDecl.java|src/org/apache/axis/wsdl/symbolTable/SchemaUtils.java|src/org/apache/axis/wsdl/toJava/JavaBeanWriter.java|src/org/apache/axis/wsdl/toJava/JavaGeneratorFactory.java|test/wsdl/uddiv2/InquiryServiceTestCase.java|,3,13,13,2004-09-01 18:30:27 +0000,2004-09-02 12:15:59 +0000,2fc18c6c3fad9029e1c0af57c132a14f520c7784,axis1-java
AXIS-2850,2012-01-07 18:21:52 +0000,axis-rt-core/src/main/java/org/apache/axis/client/Stub.java|integration/src/test/java/test/wsdl/multithread/MultithreadTestCase.java|,19,20,20,2011-04-24 18:03:35 +0000,2015-07-06 19:01:34 +0000,e6c11f55f749b22c72b3336534a8e4d0749c5c40,axis1-java
AXIS-1525,2005-05-28 01:03:21 +0000,src/org/apache/axis/wsdl/gen/Parser.java|src/org/apache/axis/wsdl/symbolTable/SchemaUtils.java|src/org/apache/axis/wsdl/toJava/Utils.java|test/wsdl/groups/Groups.wsdl|test/wsdl/groups/GroupsTestCase.java|test/wsdl/groups/SomeType.java|test/wsdl/groups/build.xml|,12,13,17,2004-08-23 22:25:13 +0000,2005-05-20 12:55:49 +0000,1849947d986acd9ca5b3eab0b280fd5f91e8eb7a,axis1-java
AXIS-1769,2005-01-22 01:56:34 +0000,src/org/apache/axis/encoding/DeserializationContext.java|,14,15,15,2005-01-18 10:59:01 +0000,2005-01-21 16:57:31 +0000,11c21d472901571436049e626e5f42bda80098c7,axis1-java
AXIS-1790,2005-01-28 19:09:55 +0000,src/org/apache/axis/wsdl/toJava/JavaStubWriter.java|,14,15,15,2005-01-28 18:32:41 +0000,2005-01-28 09:39:03 +0000,7107a97bb9c4e86bad805603b62fa5d4e2fd21c2,axis1-java
AXIS-1310,2004-07-07 03:05:26 +0000,src/org/apache/axis/handlers/HandlerChainImpl.java|src/org/apache/axis/handlers/soap/SOAPService.java|test/jaxrpc/AAAHandler.java|test/jaxrpc/PackageTests.java|test/jaxrpc/TestSOAPService.java|test/jaxrpc/build.xml|,12,13,13,2004-04-14 15:56:28 +0000,2004-07-07 03:04:01 +0000,f0b361a74b2f48e241f87af165556cd4741baf43,axis1-java
AXIS-2889,2013-05-28 19:40:52 +0000,src/site/xdoc/releases.xml|,18,20,20,2013-03-21 17:26:08 +0000,2013-05-28 19:31:59 +0000,d04f6d0911a947afeb6dc9f647e201a8f19aaaf9,axis1-java
AXIS-2649,2008-01-08 00:40:19 +0000,test/utils/TestSrcContent.java|,19,20,20,2007-04-12 21:30:46 +0000,2008-01-08 00:39:58 +0000,f08449c5f262bb6750dcd7d8ed6e1f5eeb77bbd2,axis1-java
AXIS-1319,2004-09-02 12:18:05 +0000,src/org/apache/axis/encoding/ser/SimpleListDeserializer.java|src/org/apache/axis/wsdl/symbolTable/ContainedAttribute.java|src/org/apache/axis/wsdl/symbolTable/ElementDecl.java|src/org/apache/axis/wsdl/symbolTable/SchemaUtils.java|src/org/apache/axis/wsdl/toJava/JavaBeanWriter.java|src/org/apache/axis/wsdl/toJava/JavaGeneratorFactory.java|test/wsdl/uddiv2/InquiryServiceTestCase.java|,10,13,13,2004-04-16 17:18:31 +0000,2004-09-02 12:15:59 +0000,2fc18c6c3fad9029e1c0af57c132a14f520c7784,axis1-java
AXIS-1300,2004-04-12 21:06:05 +0000,src/org/apache/axis/wsdl/fromJava/Emitter.java|,12,13,13,2004-04-12 01:30:59 +0000,2004-04-12 21:04:25 +0000,16861291925bf7c178c1f44efe10537f4dfd8924,axis1-java
AXIS-2877,2012-09-19 19:42:16 +0000,axis-ant/pom.xml|axis-ant/src/main/java/org/apache/axis/tools/ant/wsdl/Wsdl2javaAntTask.java|axis-ant/src/test/ant/generatorfactory/build.xml|axis-ant/src/test/java/org/apache/axis/tools/ant/wsdl/CustomGeneratorFactoryTest.java|axis-ant/src/test/java/org/apache/axis/tools/ant/wsdl/MyGeneratorFactory.java|axis-ant/src/test/java/org/apache/axis/tools/ant/wsdl/MyServiceImplWriter.java|axis-ant/src/test/java/org/apache/axis/tools/ant/wsdl/MyServiceWriter.java|axis-ant/src/test/wsdl/generatorfactory/sample.wsdl|pom.xml|samples/integrationguide-sample/pom.xml|,19,20,20,2012-09-19 19:07:13 +0000,2012-09-19 19:34:55 +0000,000aa0df73a6ffcee8c384c68e6830dca416f9a1,axis1-java
AXIS-2878,2012-09-22 09:27:49 +0000,axis/src/main/java/org/apache/axis/deployment/wsdd/WSDDUndeployment.java|axis/src/main/java/org/apache/axis/handlers/soap/SOAPService.java|axis/src/main/java/org/apache/axis/providers/java/JavaProvider.java|,19,20,20,2012-09-22 07:21:25 +0000,2012-09-22 09:15:20 +0000,9d36dda2637684d298a521ddd5b3285124dd93ec,axis1-java
AXIS-2875,2012-09-19 07:24:30 +0000,integration/pom.xml|,19,20,20,2012-09-10 19:56:37 +0000,2012-09-19 07:16:21 +0000,99f80ebecad45aa044533d47b13cd08daaa0f43d,axis1-java
AXIS-1305,2004-04-13 13:07:11 +0000,src/org/apache/axis/wsdl/fromJava/Emitter.java|,12,13,13,2004-04-13 06:44:57 +0000,2004-04-13 13:06:15 +0000,bb040366fca079c7bb1fd7e909dd64120df79365,axis1-java
AXIS-1170,2004-03-25 10:37:29 +0000,src/org/apache/axis/encoding/MixedContentType.java|src/org/apache/axis/wsdl/toJava/JavaBeanWriter.java|,11,12,12,2003-12-14 04:47:54 +0000,2004-03-25 10:36:38 +0000,5e481911888ce067f48e6335cdf12d50223bdf89,axis1-java
AXIS-2264,2005-10-21 06:06:39 +0000,src/org/apache/axis/client/Call.java|,16,19,19,2005-10-21 01:12:40 +0000,2005-10-20 21:06:18 +0000,1dbef1f3f575aaa7cb33d0db061a89a46ab7c9d1,axis1-java
AXIS-2020,2005-05-30 21:35:42 +0000,src/org/apache/axis/wsdl/symbolTable/ElementDecl.java|src/org/apache/axis/wsdl/symbolTable/SchemaUtils.java|src/org/apache/axis/wsdl/toJava/JavaBeanWriter.java|,16,17,17,2005-05-27 20:37:23 +0000,2005-05-30 12:35:17 +0000,07d4cfcaaf119743e50f3b2dc525baa387fd3789,axis1-java
AXIS-2021,2005-06-10 21:26:26 +0000,src/org/apache/axis/encoding/SerializationContext.java|,16,17,17,2005-05-28 05:28:45 +0000,2005-06-10 03:04:52 +0000,679f8964357fd16009365fe5294fb68e97b1f7a3,axis1-java
AXIS-2027,2005-06-01 04:46:41 +0000,src/org/apache/axis/i18n/resource.properties|src/org/apache/axis/transport/http/HTTPSender.java|,16,17,17,2005-05-31 17:55:07 +0000,2005-05-31 19:46:13 +0000,81f1089a069eb4743fbd4ac710cae5793c4b87c0,axis1-java
AXIS-2016,2005-05-27 23:51:26 +0000,src/org/apache/axis/message/NamedNodeMapImpl.java|,16,17,17,2005-05-25 21:50:41 +0000,2005-05-27 14:51:07 +0000,1a1d273333a33b5194b479e8a9ea3ad870773cd7,axis1-java
AXIS-2019,2005-05-28 00:34:51 +0000,src/org/apache/axis/message/SOAPDocumentImpl.java|,2,17,17,2005-05-27 17:50:12 +0000,2005-05-27 15:34:36 +0000,58469a537a0c4d99798f720882393b59f6d6ac1d,axis1-java
AXIS-1191,2004-08-18 11:39:27 +0000,src/org/apache/axis/wsdl/symbolTable/Utils.java|src/org/apache/axis/wsdl/toJava/JavaGeneratorFactory.java|src/org/apache/axis/wsdl/toJava/JavaHolderWriter.java|src/org/apache/axis/wsdl/toJava/JavaStubWriter.java|src/org/apache/axis/wsdl/toJava/JavaTestCaseWriter.java|src/org/apache/axis/wsdl/toJava/Utils.java|test/encoding/TestDeser2001.java|,10,12,13,2004-01-16 18:13:46 +0000,2004-08-18 11:33:57 +0000,89351a8e0c396bde1e3e8b2c0d03828e479496bb,axis1-java
AXIS-2280,2006-02-04 16:11:41 +0000,test/wsdl/extension2/ArrayExtensionTest.wsdl|test/wsdl/extension2/ArrayExtensionTestBindingImpl.java|test/wsdl/extension2/ArrayExtensionTestClient.java|test/wsdl/extension2/ArrayExtensionTestServiceTestCase.java|test/wsdl/extension2/build.xml|,18,19,19,2005-11-02 09:44:03 +0000,2006-02-04 07:03:59 +0000,892fce97ca32ea4694594b363b346bde0b1b3fb3,axis1-java
AXIS-2044,2005-09-05 19:37:16 +0000,src/org/apache/axis/transport/http/CommonsHTTPSender.java|,16,17,18,2005-06-09 03:51:23 +0000,2005-08-08 14:14:33 +0000,0e8df0b534240ccf20018a65a17df71e103aa5e7,axis1-java
AXIS-2284,2005-11-12 11:44:52 +0000,src/org/apache/axis/utils/JavaUtils.java|,15,19,19,2005-11-04 06:45:04 +0000,2005-11-12 02:43:42 +0000,d3887038c50cca4e48be8b3234caeba2cf279d13,axis1-java
AXIS-2033,2005-06-07 07:04:31 +0000,src/org/apache/axis/transport/http/CommonsHTTPSender.java|,16,17,17,2005-06-02 21:05:05 +0000,2005-06-06 22:03:39 +0000,31e39232b950a3702fce74241d56da4099724538,axis1-java
AXIS-2038,2005-06-10 22:37:11 +0000,src/org/apache/axis/transport/http/QSMethodHandler.java|,16,17,17,2005-06-04 08:12:00 +0000,2005-06-10 13:36:56 +0000,4759ff51a4c1af9f6b538f2aee23e3f2bfcdf1cf,axis1-java
AXIS-2278,2005-11-03 03:19:06 +0000,src/org/apache/axis/utils/JavaUtils.java|,18,19,19,2005-11-01 00:13:06 +0000,2005-11-02 18:18:58 +0000,a208eb756e2e8bef4c36feb68ecba53adbe00aa2,axis1-java
AXIS-1371,2004-06-03 15:28:51 +0000,src/org/apache/axis/AxisEngine.java|src/org/apache/axis/utils/ByteArray.java|,12,13,13,2004-05-27 12:39:38 +0000,2004-06-03 15:26:41 +0000,407a9505a714c103a40fad74bde3e3212965e7ae,axis1-java
AXIS-1378,2004-06-08 17:41:28 +0000,src/org/apache/axis/deployment/wsdd/WSDDDeployment.java|,10,13,13,2004-06-01 13:24:47 +0000,2004-06-08 17:40:06 +0000,2bcefc338e350d672418f07d2d6f5e209b8e359b,axis1-java
AXIS-1377,2004-06-09 19:40:47 +0000,src/org/apache/axis/AxisEngine.java|src/org/apache/axis/client/client-config.wsdd|src/org/apache/axis/encoding/SerializationContextImpl.java|src/org/apache/axis/server/server-config.wsdd|,10,13,13,2004-06-01 05:18:16 +0000,2004-06-08 19:45:48 +0000,658c47529c1d6d03875a8bd730e280aa50b658ef,axis1-java
AXIS-1369,2004-06-01 18:07:45 +0000,src/org/apache/axis/transport/http/CommonsHTTPSender.java|,12,13,13,2004-05-25 19:35:42 +0000,2004-05-28 23:22:42 +0000,2aecb4d1d7871aacd928a36876ec70e09032f31a,axis1-java
AXIS-1126,2005-04-24 06:40:53 +0000,src/org/apache/axis/attachments/DimeBodyPart.java|,10,11,16,2003-11-12 03:30:32 +0000,2005-04-23 21:37:38 +0000,9ecb746c1309a04964c6c0ea175f75db1cfcc77c,axis1-java
AXIS-2002,2005-06-01 21:32:41 +0000,src/org/apache/axis/description/OperationDesc.java|test/outparams2/PackageTests.java|test/outparams2/TestOutParams2.java|,16,17,17,2005-05-19 20:21:54 +0000,2005-06-01 12:29:45 +0000,d524937a503fd765597364afa775758255bc03c8,axis1-java
AXIS-2008,2005-06-02 15:48:40 +0000,src/org/apache/axis/transport/http/HTTPSender.java|,10,17,17,2005-05-21 06:27:51 +0000,2005-06-02 06:47:03 +0000,237de5c29b1ffcfd13be417101b9a7a85c7135c8,axis1-java
AXIS-1381,2004-06-08 17:26:14 +0000,src/org/apache/axis/encoding/ser/CalendarDeserializer.java|,12,13,13,2004-06-04 01:16:30 +0000,2004-06-08 17:23:35 +0000,b7f76b721972a4db2fc8ca4cae519d92387e9e2c,axis1-java
AXIS-1385,2004-10-05 14:31:44 +0000,src/org/apache/axis/transport/http/AxisServlet.java|,12,13,14,2004-06-09 09:41:59 +0000,2004-10-05 14:25:08 +0000,f81fa034cd8a04e02a8f84df3b93b76df55f954a,axis1-java
AXIS-843,2004-12-23 20:10:03 +0000,src/org/apache/axis/transport/http/AxisServlet.java|,9,10,15,2003-04-28 04:50:42 +0000,2004-12-23 19:59:06 +0000,7bf5d2ee901c5441be38d0a9ed9887c3e0f77986,axis1-java
AXIS-844,2004-04-12 03:31:51 +0000,src/org/apache/axis/encoding/ser/BeanSerializer.java|src/org/apache/axis/utils/FieldPropertyDescriptor.java|,9,10,13,2003-04-29 03:00:05 +0000,2004-04-12 03:30:59 +0000,62c1e896584c766872370323107c65ac3097c89b,axis1-java
AXIS-2098,2005-08-02 03:23:58 +0000,src/org/apache/axis/deployment/wsdd/WSDDTypeMapping.java|src/org/apache/axis/encoding/SerializationContext.java|src/org/apache/axis/encoding/TypeMappingImpl.java|src/org/apache/axis/encoding/ser/ArraySerializer.java|src/org/apache/axis/encoding/ser/BeanSerializer.java|src/org/apache/axis/utils/JavaUtils.java|src/org/apache/axis/wsdl/toJava/JavaBeanHelperWriter.java|src/org/apache/axis/wsdl/toJava/JavaStubWriter.java|test/wsdl/axis2098/MySOAPBindingImpl.java|test/wsdl/axis2098/MyServiceTestCase.java|test/wsdl/axis2098/TestHandler.java|test/wsdl/axis2098/build.xml|test/wsdl/axis2098/deploy.wsdd|test/wsdl/axis2098/helloworld.wsdl|test/wsdl/axis2098/helloworld.xsd|test/wsdl/axis2098/undeploy.wsdd|,17,18,18,2005-07-01 22:36:25 +0000,2005-08-01 18:23:29 +0000,52bbcbe3573eab6e9d724fc4c39f64cf9f38e594,axis1-java
AXIS-2068,2005-06-21 07:51:06 +0000,src/org/apache/axis/message/NodeImpl.java|,17,18,18,2005-06-21 06:53:35 +0000,2005-06-20 22:50:52 +0000,e7e2d93f0e574c97e21f266bdaf53c0f5b26ea6e,axis1-java
AXIS-2069,2005-06-21 07:50:25 +0000,src/org/apache/axis/message/EnvelopeBuilder.java|src/org/apache/axis/message/SOAPEnvelope.java|,17,18,18,2005-06-21 07:02:04 +0000,2005-06-20 22:49:44 +0000,22c74017276d0367e475a0b9f1381c184213fb84,axis1-java
AXIS-814,2004-04-03 09:46:34 +0000,src/org/apache/axis/types/URI.java|test/types/PackageTests.java|test/types/TestURI.java|,9,10,13,2003-04-11 13:42:43 +0000,2004-04-03 09:43:19 +0000,65a2da9eda6056ada5e2fce20c1a865f0f53deee,axis1-java
AXIS-2054,2005-07-01 05:09:46 +0000,src/org/apache/axis/description/ParameterDesc.java|src/org/apache/axis/message/RPCParam.java|src/org/apache/axis/wsdl/symbolTable/Parameter.java|src/org/apache/axis/wsdl/symbolTable/SymbolTable.java|src/org/apache/axis/wsdl/toJava/JavaStubWriter.java|test/wsdl/wrapped/CityBBB.wsdl|,16,18,18,2005-06-15 07:20:49 +0000,2005-06-30 20:09:17 +0000,71b1a1ec9a9f340a98973a5de57cbf605c422bf9,axis1-java
AXIS-2084,2005-07-28 04:43:12 +0000,src/org/apache/axis/attachments/DimeBodyPart.java|,16,18,18,2005-06-23 16:33:12 +0000,2005-07-21 21:29:05 +0000,126de967433fb09a4de987818802e1c7bb5d0a7d,axis1-java
AXIS-2088,2005-07-07 22:15:47 +0000,src/org/apache/axis/wsdl/symbolTable/BackslashUtil.java|,17,18,18,2005-06-27 05:09:43 +0000,2005-07-20 11:52:16 +0000,7826c91a5eaa4616c9d9a8bf29dcca39198a83ae,axis1-java
AXIS-2087,2005-06-25 12:20:20 +0000,src/org/apache/axis/soap/SOAPConnectionImpl.java|,17,18,18,2005-06-25 11:52:29 +0000,2005-06-25 03:20:04 +0000,8046d7ce190a7221c6be490626034eaba6c6c64b,axis1-java
AXIS-837,2004-02-24 16:11:57 +0000,axis-ant/pom.xml|axis-ant/src/test/ant/qname/build.xml|axis-ant/src/test/java/test/wsdl/qname/MyServiceImpl.java|axis-ant/src/test/java/test/wsdl/qname/MyServiceInterface.java|axis-ant/src/test/java/test/wsdl/qname/foo.java|integration/pom.xml|pom.xml|test/wsdl/qname/build.xml|,10,10,20,2003-04-24 21:08:10 +0000,2012-01-03 08:59:53 +0000,208135676f170b6946e50db2f0e36553403a9b91,axis1-java
AXIS-1611,2004-10-15 16:03:27 +0000,src/org/apache/axis/transport/http/CommonsHTTPSender.java|,13,14,14,2004-10-15 15:35:48 +0000,2004-10-15 16:01:05 +0000,7420745468154a8ecd75091efa696bf20277b2c5,axis1-java
AXIS-2705,2012-01-29 15:31:07 +0000,axis/src/test/java/test/message/TestSOAPFault.java|,19,20,20,2007-11-06 09:00:35 +0000,2012-01-29 12:01:34 +0000,5d444f674cac956663988e315ef6f5ce9503735a,axis1-java
AXIS-1857,2005-03-09 00:50:41 +0000,src/org/apache/axis/encoding/ser/SimpleDeserializerFactory.java|,15,16,16,2005-03-07 23:53:02 +0000,2005-03-08 15:50:27 +0000,2b9162b489b0d4511a19d8521ca06fc682dc8e06,axis1-java
AXIS-1617,2004-10-25 14:46:57 +0000,src/org/apache/axis/i18n/resource.properties|src/org/apache/axis/wsdl/symbolTable/SymbolTable.java|,2,14,14,2004-10-22 20:11:41 +0000,2004-10-25 14:32:21 +0000,37cf25289aace1a653e34f0226c4bf0b2ea7da3e,axis1-java
AXIS-1602,2004-11-01 14:30:44 +0000,src/org/apache/axis/constants/Scope.java|src/org/apache/axis/constants/Style.java|src/org/apache/axis/constants/Use.java|src/org/apache/axis/enum/Scope.java|src/org/apache/axis/enum/Style.java|src/org/apache/axis/enum/Use.java|src/org/apache/axis/wsdl/toJava/JavaStubWriter.java|,13,14,14,2004-10-12 01:45:07 +0000,2004-10-28 14:04:35 +0000,0427d375a5cb0d276a09967fc1ac9aca249459e7,axis1-java
AXIS-1873,2005-03-22 06:46:19 +0000,src/org/apache/axis/wsdl/toJava/JavaBeanWriter.java|,15,16,16,2005-03-15 04:34:05 +0000,2005-03-22 12:24:13 +0000,caa4b551dd15275e1ea43158cb0b19ebcba34a96,axis1-java
AXIS-1639,2004-11-04 12:55:36 +0000,src/org/apache/axis/client/Call.java|src/org/apache/axis/client/Service.java|,13,14,14,2004-11-03 01:23:17 +0000,2004-11-04 12:54:19 +0000,07cb7e6ff58ea4569b8b64b25cf46326e96dc98e,axis1-java
AXIS-1638,2004-11-04 12:56:03 +0000,src/org/apache/axis/client/Call.java|src/org/apache/axis/client/Service.java|,13,14,14,2004-11-02 23:50:45 +0000,2004-11-04 12:54:19 +0000,07cb7e6ff58ea4569b8b64b25cf46326e96dc98e,axis1-java
AXIS-1862,2005-03-10 12:23:42 +0000,src/org/apache/axis/message/NodeImpl.java|,14,16,16,2005-03-10 04:15:56 +0000,2005-03-10 03:23:20 +0000,87288609b8d6e3b2a5cccf669f2d2e283f13d478,axis1-java
AXIS-1624,2005-02-11 03:14:35 +0000,src/org/apache/axis/AxisEngine.java|src/org/apache/axis/encoding/SerializationContext.java|src/org/apache/axis/utils/NSStack.java|test/utils/PackageTests.java|test/utils/TestNSStack.java|,13,14,15,2004-10-26 22:20:57 +0000,2005-02-10 18:14:39 +0000,57c680886946b1524ccebfbe9dab4d28582f2407,axis1-java
AXIS-1865,2005-03-22 06:46:42 +0000,src/org/apache/axis/wsdl/toJava/JavaBeanWriter.java|,15,16,16,2005-03-12 00:15:20 +0000,2005-03-22 12:24:13 +0000,caa4b551dd15275e1ea43158cb0b19ebcba34a96,axis1-java
AXIS-2717,2012-01-11 11:17:20 +0000,src/site/xdoc/releases.xml|,18,20,20,2008-01-08 10:08:13 +0000,2012-01-11 10:36:25 +0000,783871e8957cf86d52ff1b3f3292057da40303db,axis1-java
AXIS-1867,2005-03-16 07:03:23 +0000,src/org/apache/axis/transport/http/AxisServletBase.java|,15,16,16,2005-03-14 01:10:42 +0000,2005-03-15 22:02:57 +0000,27a0f1969e131917f71c87f30e11aa1ec6f654dc,axis1-java
AXIS-1869,2005-03-21 03:59:37 +0000,src/org/apache/axis/wsdl/toJava/JavaBeanHelperWriter.java|,15,16,16,2005-03-15 01:09:58 +0000,2005-03-20 18:58:49 +0000,294075c0dc28519b174293b4ad69735a3866121b,axis1-java
AXIS-1629,2004-11-01 15:09:46 +0000,src/org/apache/axis/wsdl/toJava/Utils.java|,10,14,14,2004-10-27 21:31:08 +0000,2004-11-01 15:08:34 +0000,89fcb475dfa8ec03d57e97c925c925fbb0d6faf8,axis1-java
AXIS-2900,2014-02-26 12:25:08 +0000,axis-ant/pom.xml|axis-ant/src/test/ant/axis2900/build.xml|axis-ant/src/test/java/test/wsdl/axis2900/VerifyFilesTestCase.java|axis-ant/src/test/wsdl/axis2900/sample.wsdl|axis-codegen/src/main/java/org/apache/axis/wsdl/toJava/JavaGeneratorFactory.java|,19,20,20,2014-02-20 16:05:18 +0000,2014-02-26 11:43:39 +0000,f07dfe3ca43b9af0f393120312c0ee25423ab757,axis1-java
AXIS-1817,2005-02-19 00:09:54 +0000,src/org/apache/axis/message/MessageElement.java|src/org/apache/axis/message/SOAPEnvelope.java|src/org/apache/axis/message/SOAPHandler.java|test/message/TestMessageElement.java|test/saaj/TestEnvelope.java|,14,15,15,2005-02-15 08:32:03 +0000,2005-02-18 13:03:58 +0000,c684d995fea82a3b46597294d2791ec28475eae4,axis1-java
AXIS-2909,2015-07-04 10:20:35 +0000,axis-rt-core/src/main/java/org/apache/axis/description/JavaServiceDesc.java|,19,20,20,2015-05-08 15:34:58 +0000,2015-07-03 20:41:45 +0000,880a254f0b63d1b8fc59f3d02d6eb0a40e11a834,axis1-java
AXIS-895,2005-06-14 10:45:51 +0000,src/org/apache/axis/transport/http/CommonsHTTPSender.java|src/org/apache/axis/transport/http/HTTPSender.java|,5,10,17,2003-05-28 18:28:32 +0000,2005-06-14 01:45:34 +0000,02a09c2384b67569ab279359ec3ddd2cb697a067,axis1-java
AXIS-1806,2005-04-23 11:11:45 +0000,lib/commons-discovery-0.2.LICENSE|lib/commons-discovery-0.2.jar|lib/commons-discovery.LICENSE|lib/commons-discovery.jar|lib/commons-logging-1.0.4.LICENSE|lib/commons-logging-1.0.4.jar|lib/commons-logging.jar|lib/wsdl4j-1.5.1.LICENSE|lib/wsdl4j-1.5.1.jar|,14,15,16,2005-02-08 05:38:33 +0000,2005-04-22 14:42:41 +0000,7a79f5d22790907b0a7e9cc220a3d4f7d3491aa3,axis1-java
AXIS-2910,2015-06-07 18:19:13 +0000,axis-rt-core/pom.xml|axis-rt-core/src/main/java/org/apache/axis/attachments/DimeBodyPart.java|axis-rt-core/src/test/java/org/apache/axis/attachments/TestDimeBodyPart.java|pom.xml|samples/mtomstub-sample/pom.xml|,19,20,20,2015-06-03 23:59:03 +0000,2015-06-07 18:02:52 +0000,1d682c2b9d0397e3dcfa54ba1b0e4aab62bb0c74,axis1-java
AXIS-1690,2004-12-02 12:38:13 +0000,src/org/apache/axis/deployment/wsdd/WSDDJAXRPCHandlerInfo.java|,14,15,15,2004-11-30 16:24:19 +0000,2004-12-02 12:37:43 +0000,7d75109bf34e79a3eea001707e06ba5a54b5e12f,axis1-java
AXIS-1694,2004-12-02 13:04:30 +0000,src/org/apache/axis/configuration/FileProvider.java|src/org/apache/axis/deployment/wsdd/WSDDDocumentation.java|,14,15,15,2004-12-01 15:43:40 +0000,2004-12-02 13:04:17 +0000,f4cff4bf44a34e7458d31c3dd2de74011ec0330a,axis1-java
AXIS-1696,2004-12-09 21:27:31 +0000,src/org/apache/axis/client/AxisClient.java|src/org/apache/axis/handlers/HandlerChainImpl.java|test/jaxrpc/AJAXRPC.java|test/jaxrpc/PackageTests.java|test/jaxrpc/TestAxisClient.java|test/jaxrpc/TestSOAPService.java|,14,15,15,2004-12-03 13:44:51 +0000,2004-12-09 14:36:14 +0000,d731113e33d546cb46d258e908b38d990e908d28,axis1-java
AXIS-1217,2004-03-23 16:25:18 +0000,samples/userguide/example3/Client.java|,11,12,12,2004-02-04 02:04:43 +0000,2004-03-23 16:24:24 +0000,912a701531a35f02e3732d4ba732d948bf77476f,axis1-java
AXIS-1684,2004-12-09 12:55:07 +0000,src/org/apache/axis/wsdl/toJava/JavaTypeWriter.java|,14,15,15,2004-11-25 15:51:28 +0000,2004-12-09 12:54:33 +0000,d35ff5a4f39f0ad3447391a6ad028f95f57e512b,axis1-java
AXIS-1442,2004-07-08 15:13:47 +0000,src/org/apache/axis/wsdl/toJava/JavaServiceImplWriter.java|,12,13,13,2004-07-08 14:53:47 +0000,2004-07-08 15:12:08 +0000,6b14e98501a2cbbac98b601be2fb701e97e54564,axis1-java
AXIS-1202,2004-07-17 19:56:23 +0000,src/org/apache/axis/utils/XMLUtils.java|,11,12,13,2004-01-20 01:18:52 +0000,2004-07-17 19:53:57 +0000,79ce574a981520fc0e0d34601c84c9a0864a3bc6,axis1-java
AXIS-1203,2004-04-11 11:08:51 +0000,src/org/apache/axis/attachments/ManagedMemoryDataSource.java|,10,12,13,2004-01-22 00:27:56 +0000,2004-04-11 11:07:28 +0000,fd97a9148878e6445ccf7b188b58da4619b55a7e,axis1-java
AXIS-1449,2004-09-02 12:19:11 +0000,src/org/apache/axis/encoding/ser/SimpleListDeserializer.java|src/org/apache/axis/wsdl/symbolTable/ContainedAttribute.java|src/org/apache/axis/wsdl/symbolTable/ElementDecl.java|src/org/apache/axis/wsdl/symbolTable/SchemaUtils.java|src/org/apache/axis/wsdl/toJava/JavaBeanWriter.java|src/org/apache/axis/wsdl/toJava/JavaGeneratorFactory.java|test/wsdl/uddiv2/InquiryServiceTestCase.java|,12,13,13,2004-07-13 21:56:34 +0000,2004-09-02 12:15:59 +0000,2fc18c6c3fad9029e1c0af57c132a14f520c7784,axis1-java
AXIS-2327,2006-07-06 23:08:21 +0000,src/org/apache/axis/types/UnsignedByte.java|src/org/apache/axis/types/UnsignedInt.java|src/org/apache/axis/types/UnsignedLong.java|src/org/apache/axis/types/UnsignedShort.java|test/types/TestUnsignedByte.java|test/types/TestUnsignedInt.java|test/types/TestUnsignedLong.java|test/types/TestUnsignedShort.java|,18,19,20,2005-12-05 18:46:15 +0000,2006-07-06 16:08:03 +0000,a4980c1ac60b9792b2fb7c75fd732ce71a46418a,axis1-java
AXIS-1464,2004-11-23 23:30:45 +0000,src/org/apache/axis/encoding/SerializationContext.java|,12,13,15,2004-07-20 08:53:47 +0000,2004-11-23 23:30:08 +0000,f54ec8c0629dd6db02129a38f6fddea555871d66,axis1-java
AXIS-2310,2006-03-24 03:49:08 +0000,src/org/apache/axis/wsdl/toJava/JavaStubWriter.java|,18,19,19,2005-11-19 04:56:52 +0000,2006-03-23 19:46:41 +0000,1ccd360d9f10a66256e5528f979028d712cbd06b,axis1-java
AXIS-1466,2004-11-23 23:30:38 +0000,src/org/apache/axis/encoding/SerializationContext.java|,12,13,15,2004-07-20 13:37:35 +0000,2004-11-23 23:30:08 +0000,f54ec8c0629dd6db02129a38f6fddea555871d66,axis1-java
AXIS-1467,2004-12-17 17:04:00 +0000,docs/reference.html|src/org/apache/axis/AxisEngine.java|src/org/apache/axis/description/JavaServiceDesc.java|src/org/apache/axis/encoding/TypeMappingImpl.java|,12,13,15,2004-07-20 15:37:45 +0000,2004-12-17 17:00:46 +0000,0cc75b08a3bc3146b847425c997d295611165d73,axis1-java
AXIS-2314,2005-11-23 01:41:38 +0000,axis/src/main/java/org/apache/axis/deployment/wsdd/WSDDUndeployment.java|axis/src/main/java/org/apache/axis/handlers/soap/SOAPService.java|axis/src/main/java/org/apache/axis/providers/java/JavaProvider.java|,18,19,20,2005-11-22 23:49:34 +0000,2012-09-22 09:15:20 +0000,9d36dda2637684d298a521ddd5b3285124dd93ec,axis1-java
AXIS-1227,2004-03-27 12:22:07 +0000,lib/commons-discovery.jar|,11,12,12,2004-02-12 08:27:09 +0000,2004-03-27 12:20:51 +0000,2fdeef397a67c0c81816513b5132985ccd014dfc,axis1-java
AXIS-1413,2005-06-11 23:19:32 +0000,src/org/apache/axis/encoding/ser/BeanPropertyTarget.java|,12,13,17,2004-06-24 06:47:16 +0000,2005-06-11 14:19:07 +0000,f575222d3d97cb9ddd7ca6dda5d914dc3aa43b01,axis1-java
AXIS-1412,2004-06-29 13:14:30 +0000,src/org/apache/axis/SOAPPart.java|test/saaj/PackageTests.java|test/saaj/TestDOM.java|,12,13,13,2004-06-24 06:45:26 +0000,2004-06-28 12:52:24 +0000,3b1f6b9d99147c2ce3934f2422792796ef0f1b67,axis1-java
AXIS-1415,2004-06-29 13:34:06 +0000,src/org/apache/axis/encoding/SerializationContextImpl.java|src/org/apache/axis/message/RPCElement.java|src/org/apache/axis/message/SOAPEnvelope.java|src/org/apache/axis/message/SOAPHeader.java|src/org/apache/axis/message/SOAPHeaderElement.java|test/saaj/TestDOM.java|,12,13,13,2004-06-25 12:39:50 +0000,2004-06-29 13:32:29 +0000,1bf5838793b3a0839d7473b27dff5eccb5bc8fc8,axis1-java
AXIS-1418,2004-06-29 13:20:01 +0000,src/org/apache/axis/message/MessageElement.java|,12,13,13,2004-06-28 09:05:43 +0000,2004-06-29 13:18:40 +0000,43d666b618e69443eb94510268a856589316b052,axis1-java
AXIS-1640,2004-11-04 12:59:10 +0000,src/org/apache/axis/attachments/AttachmentPart.java|,13,14,14,2004-11-03 01:31:39 +0000,2004-11-04 12:58:51 +0000,8afc00f997a2d45b2f929b7ccc1f14919ecc6d5c,axis1-java
AXIS-1887,2005-04-30 22:03:19 +0000,src/org/apache/axis/utils/tcpmon.java|,15,16,16,2005-03-18 11:17:45 +0000,2005-04-30 13:03:01 +0000,4114d2f20a2cfe50f83799b7749d74e7096319f8,axis1-java
AXIS-1403,2004-06-27 22:50:41 +0000,src/org/apache/axis/message/SOAPHandler.java|src/org/apache/axis/utils/StringUtils.java|,2,13,13,2004-06-21 08:22:00 +0000,2004-06-27 22:49:17 +0000,c3dbcb65e8c1950eda08a2dc050813e258823d20,axis1-java
AXIS-1674,2004-12-08 16:43:01 +0000,webapps/axis/happyaxis.jsp|,14,15,15,2004-11-19 14:28:05 +0000,2004-12-21 01:56:34 +0000,a5ded332cb4ca36b2899cdb15fc95b6f0ff97ce1,axis1-java
AXIS-1432,2004-07-06 19:41:33 +0000,samples/jaxm/SOAPFaultTest.java|src/org/apache/axis/message/Detail.java|src/org/apache/axis/message/DetailEntry.java|src/org/apache/axis/message/SOAPFault.java|test/functional/TestJAXMSamples.java|test/saaj/TestSOAPFaults.java|,10,13,13,2004-07-03 04:22:13 +0000,2004-07-06 19:00:55 +0000,2555827dbb677bca26ebac362f3d59f6d42cd606,axis1-java
AXIS-1676,2004-11-23 00:08:42 +0000,src/org/apache/axis/attachments/DimeDelimitedInputStream.java|,10,15,15,2004-11-19 22:20:08 +0000,2004-11-23 00:08:30 +0000,c535969a021233ff95175e65aa34db30d3e617fe,axis1-java
AXIS-1678,2004-11-22 23:56:36 +0000,src/org/apache/axis/message/MessageElement.java|,4,15,15,2004-11-21 14:30:01 +0000,2004-11-22 23:56:28 +0000,5336af00d8854948f765a60058489f5be32b7e5d,axis1-java
AXIS-1436,2004-07-08 14:15:32 +0000,src/org/apache/axis/message/MessageElement.java|src/org/apache/axis/message/SOAPBody.java|test/saaj/TestDOM.java|,12,13,13,2004-07-06 17:11:39 +0000,2004-07-08 14:13:29 +0000,f30383469923a9e9dbfb74be83525f466de4695d,axis1-java
AXIS-1667,2005-07-13 15:11:52 +0000,src/org/apache/axis/wsdl/toJava/JavaBeanWriter.java|,13,14,18,2004-11-12 22:53:33 +0000,2005-07-13 06:05:11 +0000,85262aecc82804729d9c9f3fb11e5a82ee885625,axis1-java
AXIS-1293,2004-04-10 06:23:25 +0000,build.xml|buildTest.xml|xmls/targets.xml|,12,13,13,2004-04-09 00:14:47 +0000,2004-04-10 06:22:10 +0000,0866247988a50d8febf0da13d72b1e95e5016ba7,axis1-java
AXIS-1292,2004-04-10 06:23:02 +0000,build.xml|buildTest.xml|xmls/targets.xml|,12,13,13,2004-04-08 23:52:30 +0000,2004-04-10 06:22:10 +0000,0866247988a50d8febf0da13d72b1e95e5016ba7,axis1-java
AXIS-1294,2004-04-11 03:13:41 +0000,src/org/apache/axis/client/Call.java|,12,13,13,2004-04-09 01:17:16 +0000,2004-04-11 03:12:38 +0000,3b3cb665c3e89fca5d72ea4c76dd720aa523de22,axis1-java
AXIS-1297,2004-11-01 15:43:45 +0000,src/javax/xml/transform/Source.java|src/javax/xml/transform/dom/DOMSource.java|src/javax/xml/transform/sax/SAXSource.java|src/javax/xml/transform/stream/StreamSource.java|,10,13,13,2004-04-11 00:13:53 +0000,2004-07-16 02:17:02 +0000,37d96c7f8207a1487f6c89081f7068fa70b67320,axis1-java
AXIS-1296,2004-04-10 21:12:17 +0000,src/org/apache/axis/message/MessageElement.java|test/message/TestMessageElement.java|,10,13,13,2004-04-09 12:13:13 +0000,2004-04-10 21:12:06 +0000,2454a966d88e5cc4d3db812e79f5ecbdf1356b8e,axis1-java
AXIS-1054,2004-06-24 14:17:07 +0000,src/org/apache/axis/encoding/SerializationContextImpl.java|src/org/apache/axis/message/MessageElement.java|test/encoding/TestDOM.java|test/message/TestMessageElement.java|test/wsdl/faults/FaultServiceSoapBindingImpl.java|test/wsdl/sequence/SequenceService.java|,10,11,13,2003-09-10 07:25:43 +0000,2004-06-24 12:27:38 +0000,a856758244fc2273c9a3c36ff8a9c8080af088bb,axis1-java
AXIS-1299,2004-04-12 20:48:55 +0000,src/org/apache/axis/wsdl/fromJava/Emitter.java|,12,13,13,2004-04-12 00:37:51 +0000,2004-04-12 20:47:40 +0000,eebbadaa60f4a4889d8ae9ee497071b139d08bf2,axis1-java
AXIS-1281,2004-04-02 19:28:51 +0000,src/org/apache/axis/message/SOAPFaultDetailsBuilder.java|,12,13,13,2004-04-02 00:18:54 +0000,2004-04-02 19:27:54 +0000,10ab20f0bccf4d715f1c5e429abd25724b23b780,axis1-java
AXIS-1045,2004-03-27 12:36:38 +0000,docs/install.html|docs/user-guide.html|,10,11,12,2003-09-03 02:35:40 +0000,2004-03-27 12:35:46 +0000,f08320ba50827358c2fc7fe24dccdb076409db53,axis1-java
AXIS-2134,2005-07-27 12:23:23 +0000,src/org/apache/axis/attachments/ManagedMemoryDataSource.java|,17,18,18,2005-07-22 00:32:10 +0000,2005-07-27 03:22:57 +0000,c9f3322e4207904a9ca9e4a5f114335d3d76bef2,axis1-java
AXIS-2135,2005-07-27 12:16:19 +0000,src/org/apache/axis/encoding/ser/castor/CastorDeserializerFactory.java|src/org/apache/axis/encoding/ser/castor/CastorEnumTypeDeserializerFactory.java|src/org/apache/axis/encoding/ser/castor/CastorEnumTypeSerializerFactory.java|src/org/apache/axis/encoding/ser/castor/CastorSerializer.java|src/org/apache/axis/encoding/ser/castor/CastorSerializerFactory.java|,16,18,18,2005-07-22 02:06:41 +0000,2005-07-27 03:16:09 +0000,d838d9108d22228f89f555dbbcc01c7aed58dff0,axis1-java
AXIS-2165,2005-11-23 03:12:18 +0000,src/org/apache/axis/wsdl/toJava/JavaBeanWriter.java|,17,18,18,2005-08-05 04:25:45 +0000,2005-09-26 02:08:33 +0000,9fa0d227bc5bcd8beb3e5a06a84d37e5e93fb99a,axis1-java
AXIS-2167,2005-08-22 16:04:24 +0000,tools/org/apache/axis/antlib.xml|,17,18,18,2005-08-06 11:44:25 +0000,2005-08-22 07:04:09 +0000,464f43eb6a1d0b6db6919786a8105132f498e812,axis1-java
AXIS-2394,2006-05-13 12:07:03 +0000,axis/src/main/java/org/apache/axis/message/SOAPFaultBuilder.java|,18,19,20,2006-02-05 17:08:04 +0000,2012-01-29 11:46:01 +0000,9ca276774cf9a5d37bd26b28d85ec2f692f92ef4,axis1-java
AXIS-1066,2004-03-25 13:40:58 +0000,src/org/apache/axis/encoding/ser/BeanSerializer.java|,10,11,12,2003-09-19 00:58:41 +0000,2004-03-25 13:39:58 +0000,03d4c7b808be81b9ab8fc5c6bf083972b936f97e,axis1-java
AXIS-2153,2005-08-01 22:34:33 +0000,src/org/apache/axis/message/MessageElement.java|,17,18,18,2005-07-29 19:47:14 +0000,2005-08-01 13:33:23 +0000,f3f46bbe2af0314ef87df7b035b8848225d000e8,axis1-java
AXIS-2157,2012-09-22 12:51:32 +0000,samples/jaxrpc-sample/src/main/wsdd/hello/deploy.wsdd|,17,18,20,2005-08-02 00:07:11 +0000,2012-09-22 12:01:20 +0000,92cf020dda14ce304707ea4547aebe13999c3bee,axis1-java
AXIS-2100,2005-07-21 11:08:45 +0000,src/org/apache/axis/encoding/SerializationContext.java|,16,18,18,2005-07-06 00:56:34 +0000,2005-07-21 02:08:00 +0000,b45f4684faaa82e96f0349066e12dde5ce5c8864,axis1-java
AXIS-2103,2005-08-02 03:24:10 +0000,src/org/apache/axis/deployment/wsdd/WSDDTypeMapping.java|src/org/apache/axis/encoding/SerializationContext.java|src/org/apache/axis/encoding/TypeMappingImpl.java|src/org/apache/axis/encoding/ser/ArraySerializer.java|src/org/apache/axis/encoding/ser/BeanSerializer.java|src/org/apache/axis/utils/JavaUtils.java|src/org/apache/axis/wsdl/toJava/JavaBeanHelperWriter.java|src/org/apache/axis/wsdl/toJava/JavaStubWriter.java|test/wsdl/axis2098/MySOAPBindingImpl.java|test/wsdl/axis2098/MyServiceTestCase.java|test/wsdl/axis2098/TestHandler.java|test/wsdl/axis2098/build.xml|test/wsdl/axis2098/deploy.wsdd|test/wsdl/axis2098/helloworld.wsdl|test/wsdl/axis2098/helloworld.xsd|test/wsdl/axis2098/undeploy.wsdd|,17,18,18,2005-07-07 23:34:00 +0000,2005-08-01 18:23:29 +0000,52bbcbe3573eab6e9d724fc4c39f64cf9f38e594,axis1-java
AXIS-2346,2005-12-19 13:10:27 +0000,src/org/apache/axis/encoding/ser/BeanDeserializer.java|src/org/apache/axis/utils/StringUtils.java|,1,19,19,2005-12-19 03:10:24 +0000,2005-12-19 04:10:11 +0000,2203fbc0776f2f403cea2ecc9c866ceba9264580,axis1-java
AXIS-1017,2004-11-27 21:08:30 +0000,src/org/apache/axis/i18n/resource.properties|src/org/apache/axis/types/Duration.java|,10,11,15,2003-08-18 22:34:34 +0000,2004-11-30 01:57:53 +0000,4cd762328765a7ead31385094d495659a5ee96f8,axis1-java
AXIS-1242,2004-03-23 14:30:41 +0000,src/org/apache/axis/transport/jms/JMSSender.java|src/org/apache/axis/transport/jms/SimpleJMSWorker.java|,11,12,12,2004-02-27 14:47:07 +0000,2004-03-23 14:29:49 +0000,912d85d79e6670fd76ffb94d067b14a3fa8aff41,axis1-java
AXIS-2334,2012-01-03 14:14:23 +0000,docs/user-guide.html|,18,19,20,2005-12-10 09:18:39 +0000,2012-01-03 13:29:31 +0000,78718a1144c00192324684b040f0797d36f8497b,axis1-java
AXIS-1485,2004-09-22 12:29:37 +0000,src/org/apache/axis/message/RPCElement.java|,12,13,13,2004-08-01 22:06:28 +0000,2004-09-22 12:27:33 +0000,1aad0f43b997a4c0635d5d262798a37737d1745c,axis1-java
AXIS-2574,2008-11-04 06:58:13 +0000,src/org/apache/axis/client/Call.java|,17,20,20,2006-10-19 10:16:42 +0000,2008-11-04 07:21:28 +0000,8f4f256a7d8d6bb139c365e0a82f981e53eab7f5,axis1-java
AXIS-1488,2004-09-02 12:20:11 +0000,src/org/apache/axis/encoding/ser/SimpleListDeserializer.java|src/org/apache/axis/wsdl/symbolTable/ContainedAttribute.java|src/org/apache/axis/wsdl/symbolTable/ElementDecl.java|src/org/apache/axis/wsdl/symbolTable/SchemaUtils.java|src/org/apache/axis/wsdl/toJava/JavaBeanWriter.java|src/org/apache/axis/wsdl/toJava/JavaGeneratorFactory.java|test/wsdl/uddiv2/InquiryServiceTestCase.java|,3,13,13,2004-08-03 20:51:28 +0000,2004-09-02 12:15:59 +0000,2fc18c6c3fad9029e1c0af57c132a14f520c7784,axis1-java
AXIS-1246,2004-03-25 20:32:54 +0000,src/org/apache/axis/attachments/AttachmentsImpl.java|,11,12,12,2004-03-03 20:16:00 +0000,2004-03-25 20:32:05 +0000,a593f30d1460a7eb7a5177ca7dc6afe35f0fe0c7,axis1-java
AXIS-1245,2004-03-07 17:53:45 +0000,src/org/apache/axis/wsdl/symbolTable/Utils.java|,11,12,12,2004-03-03 17:29:05 +0000,2004-03-07 17:52:33 +0000,51006202143dd2e365015e9d00a3edf3e5b4a297,axis1-java
AXIS-1249,2004-03-24 18:52:34 +0000,src/org/apache/axis/encoding/DefaultTypeMappingImpl.java|,10,12,13,2004-03-09 16:22:36 +0000,2004-06-17 05:12:24 +0000,35373bb1f8adeba0d931c6ddae0599aee37e9e82,axis1-java
AXIS-2121,2005-07-27 12:44:28 +0000,src/org/apache/axis/message/SOAPFaultBuilder.java|,15,18,18,2005-07-14 21:03:40 +0000,2005-07-27 03:44:02 +0000,dd27e256a5116a71fbcabc7064cc854a3bf1fc5c,axis1-java
AXIS-2122,2005-07-22 00:49:32 +0000,src/org/apache/axis/wsdl/toJava/JavaWriter.java|,10,18,18,2005-07-15 05:36:52 +0000,2005-07-21 15:48:04 +0000,c59aa5c818d7fa77d35e546a66ad7b7c46476d4a,axis1-java
AXIS-2361,2006-03-24 02:19:22 +0000,src/org/apache/axis/transport/http/CommonsHTTPSender.java|,16,19,19,2006-01-09 18:41:53 +0000,2006-03-23 18:17:56 +0000,b0e3e0294dd275a0481d6ac1c9d4a64c1f8290a2,axis1-java
AXIS-2123,2005-07-21 12:08:51 +0000,src/org/apache/axis/encoding/ser/BeanSerializer.java|,17,18,18,2005-07-15 23:29:25 +0000,2005-07-21 03:08:40 +0000,7c4542f8eae8b68972742899373bc6d4a5b9e471,axis1-java
AXIS-2129,2005-07-20 23:14:19 +0000,src/org/apache/axis/utils/ArrayUtil.java|,17,18,18,2005-07-20 06:12:26 +0000,2005-07-20 14:13:29 +0000,75ec4fcd6b29963a1b9610fbffd873269a4b8a4d,axis1-java
AXIS-2127,2005-07-21 11:08:11 +0000,src/org/apache/axis/encoding/SerializationContext.java|,17,18,18,2005-07-19 18:04:28 +0000,2005-07-21 02:08:00 +0000,b45f4684faaa82e96f0349066e12dde5ce5c8864,axis1-java
AXIS-2113,2005-07-29 12:29:14 +0000,src/org/apache/axis/wsdl/symbolTable/SchemaUtils.java|src/org/apache/axis/wsdl/symbolTable/SymbolTable.java|,17,18,18,2005-07-12 23:22:08 +0000,2005-07-29 03:28:43 +0000,76c19e473540a07fa95a7477e5b1b0c106e0af68,axis1-java
