Bug ID,Bug Resolution Date by Jira,Classes Touched by Last Fix,Earliest AV,Version of Ticket Creation,Version of Fix,Ticket Creation Date,Fix Date (of most recent commit),Hash (of most recent commit),Git Directory
CARBONDATA-3068,2018-11-02 01:37:18 +0000,integration/spark-common/src/main/scala/org/apache/spark/util/FileUtils.scala|,12,13,13,2018-11-01 08:41:12 +0000,2018-11-02 09:10:35 +0800,269f4c378bad1294430b7d1662469e300f0e04ed,carbondata
CARBONDATA-280,2016-10-14 14:32:03 +0000,integration/spark/src/main/scala/org/apache/spark/sql/CarbonSqlParser.scala|integration/spark/src/test/scala/org/apache/carbondata/spark/testsuite/createtable/TestCreateTableSyntax.scala|integration/spark/src/test/scala/org/apache/carbondata/spark/testsuite/deleteTable/TestDeleteTableNewDDL.scala|,2,2,3,2016-09-28 04:56:09 +0000,2016-10-14 22:30:39 +0800,9e35dc2805871b0cba4e4d3e68eecf4afd005dbb,carbondata
CARBONDATA-289,2016-11-09 22:51:27 +0000,docs/DDL-Operations-on-Carbon.md|integration/spark/src/main/scala/org/apache/carbondata/spark/util/CommonUtil.scala|integration/spark/src/main/scala/org/apache/spark/sql/CarbonSqlParser.scala|integration/spark/src/main/scala/org/apache/spark/sql/execution/command/carbonTableSchema.scala|integration/spark/src/test/scala/org/apache/carbondata/spark/testsuite/dataload/TestTableLevelBlockSize.scala|integration/spark/src/test/scala/org/apache/spark/sql/TestCarbonSqlParser.scala|,1,2,2,2016-10-09 03:41:58 +0000,2016-10-09 22:44:34 +0800,64615f1008d6dc12d878f70dd152aa751457b9f0,carbondata
CARBONDATA-273,2016-10-08 16:16:56 +0000,core/src/test/java/org/apache/carbondata/core/util/ByteUtilTest.java|examples/src/main/scala/org/apache/carbondata/examples/GenerateDictionaryExample.scala|hadoop/src/main/java/org/apache/carbondata/hadoop/util/ObjectSerializationUtil.java|integration/spark/src/main/scala/org/apache/carbondata/spark/CarbonOption.scala|integration/spark/src/main/scala/org/apache/spark/sql/CarbonSqlParser.scala|integration/spark/src/main/scala/org/apache/spark/sql/hive/CarbonMetastoreCatalog.scala|integration/spark/src/test/java/org/carbondata/integration/spark/testsuite/validation/FileFooterValidator.java|integration/spark/src/test/scala/org/apache/carbondata/integration/spark/testsuite/complexType/TestCreateTableWithDouble.scala|integration/spark/src/test/scala/org/apache/carbondata/spark/testsuite/datacompaction/CompactionSystemLockFeatureTest.scala|integration/spark/src/test/scala/org/apache/carbondata/spark/testsuite/datacompaction/DataCompactionCardinalityBoundryTest.scala|integration/spark/src/test/scala/org/apache/carbondata/spark/testsuite/datacompaction/DataCompactionLockTest.scala|integration/spark/src/test/scala/org/apache/carbondata/spark/testsuite/datacompaction/DataCompactionNoDictionaryTest.scala|integration/spark/src/test/scala/org/apache/carbondata/spark/testsuite/datacompaction/DataCompactionTest.scala|integration/spark/src/test/scala/org/apache/carbondata/spark/testsuite/datacompaction/MajorCompactionIgnoreInMinorTest.scala|integration/spark/src/test/scala/org/apache/carbondata/spark/testsuite/datacompaction/MajorCompactionStopsAfterCompaction.scala|integration/spark/src/test/scala/org/apache/carbondata/spark/testsuite/dataretention/DataRetentionTestCase.scala|integration/spark/src/test/scala/org/apache/carbondata/spark/util/AllDictionaryTestCase.scala|integration/spark/src/test/scala/org/apache/carbondata/spark/util/AutoHighCardinalityIdentifyTestCase.scala|integration/spark/src/test/scala/org/apache/carbondata/spark/util/ExternalColumnDictionaryTestCase.scala|integration/spark/src/test/scala/org/apache/carbondata/spark/util/GlobalDictionaryUtilConcurrentTestCase.scala|integration/spark/src/test/scala/org/apache/carbondata/spark/util/GlobalDictionaryUtilTestCase.scala|processing/src/main/java/org/apache/carbondata/lcm/status/SegmentStatusManager.java|processing/src/main/java/org/apache/carbondata/processing/csvload/DataGraphExecuter.java|processing/src/main/java/org/apache/carbondata/processing/graphgenerator/GraphGenerator.java|processing/src/test/java/org/apache/carbondata/carbon/datastore/BlockIndexStoreTest.java|,1,2,2,2016-09-26 08:25:36 +0000,2016-10-09 00:12:33 +0800,958dfde64ec43c0d1286062d2c04579940d54d57,carbondata
CARBONDATA-261,2016-09-20 19:04:14 +0000,integration/spark/src/main/java/org/apache/carbondata/spark/load/CarbonLoaderUtil.java|integration/spark/src/main/scala/org/apache/carbondata/spark/rdd/CarbonDataRDDFactory.scala|,1,2,2,2016-09-20 18:27:09 +0000,2016-09-21 00:32:56 +0530,0391d42234cb5fcb90d41b52402c5c15a5e9960f,carbondata
CARBONDATA-2199,2018-02-28 04:18:54 +0000,core/src/main/java/org/apache/carbondata/core/scan/collector/impl/DictionaryBasedVectorResultCollector.java|core/src/main/java/org/apache/carbondata/core/scan/executor/impl/AbstractQueryExecutor.java|core/src/main/java/org/apache/carbondata/core/scan/executor/infos/DimensionInfo.java|core/src/main/java/org/apache/carbondata/core/scan/executor/util/RestructureUtil.java|core/src/test/java/org/apache/carbondata/core/scan/executor/util/RestructureUtilTest.java|integration/spark-common-test/src/test/scala/org/apache/carbondata/spark/testsuite/dblocation/DBLocationCarbonTableTestCase.scala|integration/spark2/src/test/scala/org/apache/spark/carbondata/restructure/vectorreader/ChangeDataTypeTestCases.scala|,8,9,9,2018-02-23 10:48:25 +0000,2018-02-28 09:44:58 +0530,5da6433dbe5ba810b631da267159dc7ddf4f3064,carbondata
CARBONDATA-268,2017-01-13 11:48:22 +0000,integration/spark/src/main/scala/org/apache/spark/sql/CarbonDatasourceRelation.scala|integration/spark/src/main/scala/org/apache/spark/sql/optimizer/CarbonDecoderOptimizerHelper.scala|integration/spark/src/main/scala/org/apache/spark/sql/optimizer/CarbonOptimizer.scala|,1,2,2,2016-09-22 12:51:51 +0000,2016-09-23 17:14:53 +0530,5a1521bd960f9f3228e7c75400c772ae58e9520d,carbondata
CARBONDATA-262,2016-11-09 22:50:33 +0000,core/src/main/java/org/apache/carbondata/scan/executor/QueryExecutor.java|core/src/main/java/org/apache/carbondata/scan/executor/QueryExecutorFactory.java|core/src/main/java/org/apache/carbondata/scan/executor/impl/AbstractQueryExecutor.java|core/src/main/java/org/apache/carbondata/scan/executor/impl/DetailQueryExecutor.java|core/src/main/java/org/apache/carbondata/scan/executor/impl/QueryExecutorProperties.java|core/src/main/java/org/apache/carbondata/scan/model/QueryModel.java|core/src/main/java/org/apache/carbondata/scan/result/iterator/AbstractDetailQueryResultIterator.java|core/src/main/java/org/apache/carbondata/scan/result/iterator/DetailQueryResultIterator.java|hadoop/src/main/java/org/apache/carbondata/hadoop/CarbonRecordReader.java|integration/spark/src/main/java/org/apache/carbondata/integration/spark/merger/CarbonCompactionExecutor.java|integration/spark/src/main/scala/org/apache/carbondata/spark/rdd/CarbonMergerRDD.scala|integration/spark/src/main/scala/org/apache/carbondata/spark/rdd/CarbonScanRDD.scala|,1,2,2,2016-09-20 18:47:50 +0000,2016-09-21 03:46:29 +0530,b04a579d5def6213808cc9eef103f7208b843a2b,carbondata
CARBONDATA-255,2016-11-09 22:49:52 +0000,docs/DML-Operations-on-Carbon.md|,1,2,2,2016-09-18 06:50:30 +0000,2016-09-21 22:18:56 -0700,0be0f30830c3a9487b5fc13f6fe27e4ca4b5a300,carbondata
CARBONDATA-3036,2018-10-25 13:19:11 +0000,core/src/main/java/org/apache/carbondata/core/indexstore/blockletindex/BlockDataMap.java|core/src/main/java/org/apache/carbondata/core/indexstore/blockletindex/BlockletDataMap.java|core/src/main/java/org/apache/carbondata/core/indexstore/schema/SchemaGenerator.java|core/src/main/java/org/apache/carbondata/core/util/BlockletDataMapUtil.java|integration/spark-common-test/src/test/scala/org/apache/carbondata/spark/testsuite/allqueries/TestQueryWithColumnMetCacheAndCacheLevelProperty.scala|integration/spark2/src/main/scala/org/apache/spark/sql/execution/command/management/RefreshCarbonTableCommand.scala|,12,13,13,2018-10-23 06:54:58 +0000,2018-10-25 18:46:00 +0530,2c50ca5cf42a456dd1f1d5a5df13b43a729e3148,carbondata
CARBONDATA-3002,2018-10-19 08:38:34 +0000,core/src/main/java/org/apache/carbondata/core/datastore/FileReader.java|core/src/main/java/org/apache/carbondata/core/datastore/impl/FileReaderImpl.java|core/src/main/java/org/apache/carbondata/core/locks/CarbonLockUtil.java|core/src/main/java/org/apache/carbondata/core/scan/result/iterator/AbstractDetailQueryResultIterator.java|core/src/main/java/org/apache/carbondata/core/util/CarbonProperties.java|integration/spark-common-cluster-test/src/test/scala/org/apache/carbondata/cluster/sdv/register/TestRegisterCarbonTable.scala|integration/spark-common-test/src/test/scala/org/apache/carbondata/spark/testsuite/allqueries/TestQueryWithColumnMetCacheAndCacheLevelProperty.scala|integration/spark-common-test/src/test/scala/org/apache/carbondata/spark/testsuite/createTable/TestCreateTableAsSelect.scala|integration/spark-common-test/src/test/scala/org/apache/carbondata/spark/testsuite/dblocation/DBLocationCarbonTableTestCase.scala|integration/spark-common-test/src/test/scala/org/apache/carbondata/spark/testsuite/iud/DeleteCarbonTableTestCase.scala|integration/spark-common-test/src/test/scala/org/apache/carbondata/spark/testsuite/standardpartition/StandardPartitionTableLoadingTestCase.scala|integration/spark-common/src/main/scala/org/apache/spark/rdd/CarbonMergeFilesRDD.scala|integration/spark2/src/main/scala/org/apache/carbondata/spark/rdd/CarbonDataRDDFactory.scala|integration/spark2/src/main/scala/org/apache/spark/sql/CarbonDatasourceHadoopRelation.scala|integration/spark2/src/main/scala/org/apache/spark/sql/CarbonEnv.scala|integration/spark2/src/main/scala/org/apache/spark/sql/CarbonSource.scala|integration/spark2/src/main/scala/org/apache/spark/sql/execution/command/datamap/CarbonDropDataMapCommand.scala|integration/spark2/src/main/scala/org/apache/spark/sql/execution/command/management/CarbonAlterTableCompactionCommand.scala|integration/spark2/src/main/scala/org/apache/spark/sql/execution/command/management/CarbonLoadDataCommand.scala|integration/spark2/src/main/scala/org/apache/spark/sql/execution/command/management/RefreshCarbonTableCommand.scala|integration/spark2/src/main/scala/org/apache/spark/sql/execution/command/package.scala|integration/spark2/src/main/scala/org/apache/spark/sql/execution/command/partition/CarbonAlterTableDropPartitionCommand.scala|integration/spark2/src/main/scala/org/apache/spark/sql/execution/command/partition/CarbonAlterTableSplitPartitionCommand.scala|integration/spark2/src/main/scala/org/apache/spark/sql/execution/command/partition/CarbonShowCarbonPartitionsCommand.scala|integration/spark2/src/main/scala/org/apache/spark/sql/execution/command/preaaggregate/PreAggregateUtil.scala|integration/spark2/src/main/scala/org/apache/spark/sql/execution/command/schema/CarbonAlterTableAddColumnCommand.scala|integration/spark2/src/main/scala/org/apache/spark/sql/execution/command/schema/CarbonAlterTableDataTypeChangeCommand.scala|integration/spark2/src/main/scala/org/apache/spark/sql/execution/command/schema/CarbonAlterTableDropColumnCommand.scala|integration/spark2/src/main/scala/org/apache/spark/sql/execution/command/schema/CarbonAlterTableRenameCommand.scala|integration/spark2/src/main/scala/org/apache/spark/sql/execution/command/table/CarbonCreateTableAsSelectCommand.scala|integration/spark2/src/main/scala/org/apache/spark/sql/execution/command/table/CarbonCreateTableCommand.scala|integration/spark2/src/main/scala/org/apache/spark/sql/execution/command/table/CarbonDescribeFormattedCommand.scala|integration/spark2/src/main/scala/org/apache/spark/sql/execution/command/table/CarbonDropTableCommand.scala|integration/spark2/src/main/scala/org/apache/spark/sql/execution/strategy/DDLStrategy.scala|integration/spark2/src/main/scala/org/apache/spark/sql/hive/CarbonFileMetastore.scala|integration/spark2/src/main/scala/org/apache/spark/sql/hive/CarbonPreAggregateRules.scala|integration/spark2/src/main/scala/org/apache/spark/sql/parser/CarbonSparkSqlParserUtil.scala|integration/spark2/src/main/scala/org/apache/spark/util/AlterTableUtil.scala|integration/spark2/src/main/scala/org/apache/spark/util/CleanFiles.scala|integration/spark2/src/main/scala/org/apache/spark/util/Compaction.scala|integration/spark2/src/main/scala/org/apache/spark/util/DeleteSegmentByDate.scala|integration/spark2/src/main/scala/org/apache/spark/util/DeleteSegmentById.scala|integration/spark2/src/main/scala/org/apache/spark/util/TableAPIUtil.scala|integration/spark2/src/main/scala/org/apache/spark/util/TableLoader.scala|integration/spark2/src/main/spark2.1/org/apache/spark/sql/hive/CarbonSessionState.scala|integration/spark2/src/test/scala/org/apache/carbondata/spark/util/AllDictionaryTestCase.scala|integration/spark2/src/test/scala/org/apache/carbondata/spark/util/DictionaryLRUCacheTestCase.scala|integration/spark2/src/test/scala/org/apache/carbondata/spark/util/ExternalColumnDictionaryTestCase.scala|integration/spark2/src/test/scala/org/apache/spark/carbondata/TestStreamingTableOpName.scala|integration/spark2/src/test/scala/org/apache/spark/carbondata/TestStreamingTableWithRowParser.scala|integration/spark2/src/test/scala/org/apache/spark/carbondata/register/TestRegisterCarbonTable.scala|processing/src/main/java/org/apache/carbondata/processing/loading/CarbonDataLoadConfiguration.java|processing/src/main/java/org/apache/carbondata/processing/loading/model/CarbonLoadModel.java|processing/src/main/java/org/apache/carbondata/processing/util/CarbonLoaderUtil.java|,12,12,14,2018-10-11 10:07:14 +0000,2018-12-15 11:15:18 +0800,3ff61cacc774c433a82f30fdfc18437df2863cbe,carbondata
CARBONDATA-2155,2018-04-12 07:08:37 +0000,integration/presto/src/main/scala/org/apache/carbondata/presto/CarbonDictionaryDecodeReadSupport.scala|integration/presto/src/test/resources/alldatatype.csv|integration/presto/src/test/scala/org/apache/carbondata/presto/integrationtest/PrestoAllDataTypeTest.scala|integration/presto/src/test/scala/org/apache/carbondata/presto/util/CarbonDataStoreCreator.scala|,8,9,10,2018-02-09 11:38:29 +0000,2018-04-12 15:07:31 +0800,687118a1cf7113aed4718bad3c87d8bed1fd49af,carbondata
CARBONDATA-3483,2019-08-08 14:51:56 +0000,integration/spark-common-test/src/test/scala/org/apache/carbondata/spark/testsuite/iud/HorizontalCompactionTestCase.scala|integration/spark-common-test/src/test/scala/org/apache/carbondata/spark/testsuite/iud/UpdateCarbonTableTestCase.scala|integration/spark2/src/main/scala/org/apache/carbondata/spark/rdd/CarbonDataRDDFactory.scala|integration/spark2/src/main/scala/org/apache/spark/sql/execution/command/management/CarbonAlterTableCompactionCommand.scala|,15,17,17,2019-07-31 15:49:55 +0000,2019-08-03 14:42:31 +0800,35f1501ff38023bf09f108ffb984699abdd6f639,carbondata
CARBONDATA-2152,2018-04-12 07:08:25 +0000,integration/presto/src/main/scala/org/apache/carbondata/presto/CarbonDictionaryDecodeReadSupport.scala|integration/presto/src/test/resources/alldatatype.csv|integration/presto/src/test/scala/org/apache/carbondata/presto/integrationtest/PrestoAllDataTypeTest.scala|integration/presto/src/test/scala/org/apache/carbondata/presto/util/CarbonDataStoreCreator.scala|,8,9,10,2018-02-09 08:40:05 +0000,2018-04-12 15:07:31 +0800,687118a1cf7113aed4718bad3c87d8bed1fd49af,carbondata
CARBONDATA-1061,2017-05-17 19:37:04 +0000,integration/spark-common-test/src/test/resources/predefdic/allpredefdictionary.csv|integration/spark-common-test/src/test/resources/predefdic/data3.csv|integration/spark-common-test/src/test/resources/predefdic/dicfilepath.csv|integration/spark-common-test/src/test/scala/org/apache/carbondata/spark/testsuite/predefdic/TestPreDefDictionary.scala|integration/spark-common/src/main/scala/org/apache/carbondata/spark/util/GlobalDictionaryUtil.scala|integration/spark/src/main/scala/org/apache/spark/sql/execution/command/carbonTableSchema.scala|integration/spark2/src/main/scala/org/apache/spark/sql/execution/command/carbonTableSchema.scala|integration/spark2/src/test/scala/org/apache/carbondata/spark/util/AllDictionaryTestCase.scala|integration/spark2/src/test/scala/org/apache/carbondata/spark/util/DictionaryTestCaseUtil.scala|integration/spark2/src/test/scala/org/apache/carbondata/spark/util/ExternalColumnDictionaryTestCase.scala|,5,6,6,2017-05-17 14:02:53 +0000,2017-05-18 01:06:24 +0530,608fb3a267709e9ad7ee2343c48490896e481291,carbondata
CARBONDATA-3247,2019-06-22 08:08:46 +0000,datamap/mv/core/src/main/scala/org/apache/carbondata/mv/datamap/MVHelper.scala|datamap/mv/core/src/main/scala/org/apache/carbondata/mv/rewrite/Navigator.scala|datamap/mv/core/src/test/scala/org/apache/carbondata/mv/rewrite/SelectAllColumnsSuite.scala|datamap/mv/plan/src/main/scala/org/apache/carbondata/mv/plans/modular/ModularPlan.scala|datamap/mv/plan/src/main/scala/org/apache/carbondata/mv/plans/util/SQLBuildDSL.scala|,13,14,17,2019-01-13 12:52:08 +0000,2019-06-22 13:36:36 +0530,675b5bb215f52775d6a3288032dbfb641140d8ca,carbondata
CARBONDATA-1076,2017-05-24 08:20:55 +0000,integration/spark-common-test/src/test/scala/org/apache/carbondata/spark/testsuite/joinquery/AllDataTypesTestCaseJoin.scala|integration/spark/src/main/scala/org/apache/spark/sql/optimizer/CarbonOptimizer.scala|integration/spark2/src/main/scala/org/apache/spark/sql/optimizer/CarbonLateDecodeRule.scala|,2,6,6,2017-05-22 10:40:44 +0000,2017-05-24 16:19:37 +0800,b10cf4f1cc1d3ba464b11a67d1b7f7e4599ba07f,carbondata
CARBONDATA-3224,2019-02-01 05:53:05 +0000,integration/spark-common-test/src/test/scala/org/apache/carbondata/spark/testsuite/badrecordloger/BadRecordLoggerTest.scala|integration/spark-common/src/main/scala/org/apache/spark/sql/catalyst/CarbonDDLSqlParser.scala|store/CSDK/test/main.cpp|store/sdk/src/main/java/org/apache/carbondata/sdk/file/CarbonWriterBuilder.java|store/sdk/src/test/java/org/apache/carbondata/sdk/file/CarbonReaderTest.java|,13,14,14,2019-01-03 01:21:18 +0000,2019-01-07 23:25:56 +0800,03ec2e040be3fd805cf6160d044d8696c2b46f7d,carbondata
CARBONDATA-2133,2018-02-22 06:19:34 +0000,core/src/main/java/org/apache/carbondata/core/scan/collector/impl/RestructureBasedVectorResultCollector.java|core/src/main/java/org/apache/carbondata/core/scan/executor/util/RestructureUtil.java|integration/spark2/src/test/scala/org/apache/spark/carbondata/restructure/AlterTableValidationTestCase.scala|,8,8,9,2018-02-06 06:45:53 +0000,2018-02-22 11:50:30 +0530,cc4bc810005003130f66d8021a06bbc8e3f87bbd,carbondata
CARBONDATA-3221,2019-01-08 07:29:20 +0000,examples/spark2/src/main/java/org/apache/carbondata/examples/sdk/SDKS3Example.java|hadoop/src/main/java/org/apache/carbondata/hadoop/util/CarbonVectorizedRecordReader.java|,13,14,14,2019-01-02 04:11:15 +0000,2019-01-08 12:58:56 +0530,c0ba982e61ba5393168f8664b87ee27cd249d1ca,carbondata
CARBONDATA-3227,2019-01-08 01:36:35 +0000,integration/spark-common-test/src/test/scala/org/apache/carbondata/integration/spark/testsuite/complexType/TestComplexDataType.scala|integration/spark-common-test/src/test/scala/org/apache/carbondata/spark/testsuite/dataload/TestLoadDataWithMalformedCarbonCommandException.scala|integration/spark-common/src/main/scala/org/apache/carbondata/spark/util/CarbonScalaUtil.scala|integration/spark-common/src/main/scala/org/apache/spark/sql/catalyst/CarbonDDLSqlParser.scala|integration/spark2/src/main/scala/org/apache/spark/util/AlterTableUtil.scala|,13,14,14,2019-01-04 01:17:05 +0000,2019-01-08 09:35:13 +0800,027625002e0f8537b245e57ced67d3182f2d7803,carbondata
CARBONDATA-1056,2017-05-17 17:36:30 +0000,core/src/main/java/org/apache/carbondata/core/dictionary/generator/ServerDictionaryGenerator.java|integration/spark-common-test/src/test/scala/org/apache/carbondata/integration/spark/testsuite/dataload/TestLoadDataWithSinglePass.scala|integration/spark/src/main/scala/org/apache/spark/sql/execution/command/carbonTableSchema.scala|integration/spark2/src/main/scala/org/apache/carbondata/spark/rdd/CarbonDataRDDFactory.scala|integration/spark2/src/main/scala/org/apache/spark/sql/execution/command/carbonTableSchema.scala|,5,6,6,2017-05-16 10:40:46 +0000,2017-05-17 23:05:41 +0530,781d6fa73e53acb581fa408ed7936436fd3dda00,carbondata
CARBONDATA-3238,2019-01-18 14:56:46 +0000,datamap/mv/core/src/main/scala/org/apache/carbondata/mv/rewrite/DefaultMatchMaker.scala|datamap/mv/core/src/test/scala/org/apache/carbondata/mv/rewrite/MVCreateTestCase.scala|,13,14,14,2019-01-09 01:32:49 +0000,2019-01-18 20:26:07 +0530,980487306ce700f718851b6fb27d450544c07ee4,carbondata
CARBONDATA-2147,2018-03-04 11:34:01 +0000,examples/spark2/src/main/scala/org/apache/carbondata/examples/CarbonStructuredStreamingExample.scala|examples/spark2/src/main/scala/org/apache/carbondata/examples/CarbonStructuredStreamingWithRowParser.scala|integration/spark2/src/test/scala/org/apache/spark/carbondata/TestStreamingTableOperation.scala|integration/spark2/src/test/scala/org/apache/spark/carbondata/TestStreamingTableWithRowParser.scala|streaming/src/main/java/org/apache/carbondata/streaming/parser/CSVStreamParserImp.java|streaming/src/main/java/org/apache/carbondata/streaming/parser/CarbonStreamParser.java|streaming/src/main/scala/org/apache/carbondata/streaming/parser/RowStreamParserImp.scala|streaming/src/main/scala/org/apache/spark/sql/execution/streaming/CarbonAppendableStreamSink.scala|,8,9,9,2018-02-08 11:53:08 +0000,2018-02-28 09:30:28 +0800,648c3d3493d3bdf278c09021ac4596731d165715,carbondata
CARBONDATA-1023,2017-05-10 06:51:41 +0000,integration/spark/src/main/scala/org/apache/carbondata/spark/CarbonDataFrameWriter.scala|integration/spark2/src/main/scala/org/apache/spark/sql/CarbonDataFrameWriter.scala|,4,5,5,2017-05-05 05:38:22 +0000,2017-05-09 15:16:58 +0800,2c1265ddb8fe80aae771f21b7d377b7155afcbca,carbondata
CARBONDATA-1267,2017-07-10 13:38:19 +0000,core/src/main/java/org/apache/carbondata/core/datastore/page/encoding/DeltaIntegerCodec.java|integration/spark-common-test/src/test/resources/short_int_as_target_type.csv|integration/spark-common-test/src/test/scala/org/apache/carbondata/integration/spark/testsuite/aggquery/IntegerDataTypeTestCase.scala|,5,6,7,2017-07-05 12:54:19 +0000,2017-07-10 21:19:45 +0800,c6bc1f07180c4740ba9b3e518ead34daa093be1c,carbondata
CARBONDATA-1034,2017-05-18 11:33:34 +0000,core/src/main/java/org/apache/carbondata/core/datastore/page/FixLengthColumnPage.java|core/src/main/java/org/apache/carbondata/core/datastore/page/statistics/PageStatistics.java|core/src/main/java/org/apache/carbondata/core/scan/collector/impl/AbstractScannedResultCollector.java|core/src/main/java/org/apache/carbondata/core/scan/collector/impl/RestructureBasedDictionaryResultCollector.java|core/src/main/java/org/apache/carbondata/core/scan/expression/ExpressionResult.java|core/src/main/java/org/apache/carbondata/core/scan/filter/executer/RowLevelFilterExecuterImpl.java|core/src/main/java/org/apache/carbondata/core/util/DataTypeUtil.java|core/src/test/java/org/apache/carbondata/core/util/DataTypeUtilTest.java|integration/spark-common-test/src/test/resources/outofrange.csv|integration/spark-common-test/src/test/scala/org/apache/carbondata/spark/testsuite/filterexpr/FilterProcessorTestCase.scala|integration/spark/src/main/scala/org/apache/spark/sql/CarbonDatasourceRelation.scala|integration/spark/src/main/scala/org/apache/spark/sql/optimizer/CarbonFilters.scala|integration/spark/src/test/scala/org/apache/carbondata/integration/spark/testsuite/dataload/SparkDatasourceSuite.scala|integration/spark2/src/main/java/org/apache/carbondata/spark/readsupport/SparkRowReadSupportImpl.java|integration/spark2/src/main/scala/org/apache/spark/sql/hive/CarbonMetastore.scala|integration/spark2/src/main/scala/org/apache/spark/sql/optimizer/CarbonFilters.scala|integration/spark2/src/test/scala/org/apache/spark/carbondata/restructure/AlterTableValidationTestCase.scala|processing/src/main/java/org/apache/carbondata/processing/newflow/sort/unsafe/UnsafeCarbonRowPage.java|processing/src/main/java/org/apache/carbondata/processing/newflow/sort/unsafe/holder/UnsafeSortTempFileChunkHolder.java|processing/src/main/java/org/apache/carbondata/processing/sortandgroupby/sortdata/SortDataRows.java|processing/src/main/java/org/apache/carbondata/processing/sortandgroupby/sortdata/SortTempFileChunkHolder.java|,5,5,6,2017-05-07 10:26:44 +0000,2017-05-18 17:01:44 +0530,7cb21cb56cb0a6b1fc0f807abaa46b385d9a47ee,carbondata
CARBONDATA-3212,2019-01-03 05:39:16 +0000,core/src/main/java/org/apache/carbondata/core/datastore/page/LocalDictColumnPage.java|,13,14,14,2018-12-28 05:44:10 +0000,2019-01-03 11:06:59 +0530,deb08c329287dc7bcdf96af6a6611f7c4b0fc83a,carbondata
CARBONDATA-3216,2019-02-01 05:52:12 +0000,store/CSDK/src/CarbonWriter.cpp|store/CSDK/test/main.cpp|,13,14,14,2018-12-29 01:51:29 +0000,2019-01-04 18:11:49 +0800,9fa045d407aab57584a27ed0fd2c9bb529d89b2f,carbondata
CARBONDATA-1279,2017-08-30 04:49:31 +0000,integration/spark2/src/main/scala/org/apache/spark/sql/CarbonBoundReference.scala|integration/spark2/src/main/scala/org/apache/spark/sql/execution/CarbonLateDecodeStrategy.scala|integration/spark2/src/main/scala/org/apache/spark/sql/optimizer/CarbonFilters.scala|,5,6,7,2017-07-08 13:57:26 +0000,2017-08-30 10:17:14 +0530,f70f230493535994919126f60fb3461b57be2447,carbondata
CARBONDATA-1484,2017-10-16 08:51:40 +0000,integration/spark2/src/main/scala/org/apache/spark/sql/hive/CarbonFileMetastore.scala|integration/spark2/src/main/scala/org/apache/spark/sql/hive/CarbonSessionState.scala|,5,7,8,2017-09-18 10:08:53 +0000,2017-10-16 16:51:01 +0800,311a5b7e31e98777cc32f27ecdcde86859eadaa5,carbondata
CARBONDATA-642,2017-05-09 06:31:19 +0000,integration/spark/src/main/scala/org/apache/spark/sql/CarbonSqlParser.scala|integration/spark/src/test/scala/org/apache/carbondata/spark/testsuite/iud/DeleteCarbonTableTestCase.scala|,4,4,5,2017-01-16 06:26:54 +0000,2017-04-18 21:31:29 +0800,b1347e913c50b54fa346bd7ad0f5b90edf0c5457,carbondata
CARBONDATA-400,2017-04-06 10:05:03 +0000,integration/spark-common/src/main/scala/org/apache/carbondata/spark/rdd/CarbonGlobalDictionaryRDD.scala|integration/spark-common/src/main/scala/org/apache/carbondata/spark/util/GlobalDictionaryUtil.scala|processing/src/main/java/org/apache/carbondata/processing/csvload/CSVInputFormat.java|,1,3,5,2016-11-09 15:44:17 +0000,2017-04-06 15:34:24 +0530,58cd9339e992a2e5b5d67d714210c0ef59bd099c,carbondata
CARBONDATA-1246,2017-07-05 05:56:13 +0000,core/src/main/java/org/apache/carbondata/core/datastore/filesystem/AlluxioCarbonFile.java|core/src/main/java/org/apache/carbondata/core/datastore/filesystem/HDFSCarbonFile.java|core/src/main/java/org/apache/carbondata/core/datastore/filesystem/LocalCarbonFile.java|core/src/main/java/org/apache/carbondata/core/datastore/filesystem/ViewFSCarbonFile.java|core/src/test/java/org/apache/carbondata/core/datastore/filesystem/AlluxioCarbonFileTest.java|core/src/test/java/org/apache/carbondata/core/datastore/filesystem/HDFSCarbonFileTest.java|core/src/test/java/org/apache/carbondata/core/datastore/filesystem/LocalCarbonFileTest.java|core/src/test/java/org/apache/carbondata/core/datastore/filesystem/ViewFsCarbonFileTest.java|,5,6,6,2017-06-29 04:39:38 +0000,2017-07-05 11:23:46 +0530,d9c3b4837b81c02056a10446da18db0a1b427852,carbondata
CARBONDATA-1254,2017-07-04 08:36:12 +0000,core/src/main/java/org/apache/carbondata/core/metadata/schema/table/CarbonTable.java|integration/spark/src/main/scala/org/apache/spark/sql/execution/command/carbonTableSchema.scala|integration/spark2/src/main/scala/org/apache/spark/sql/execution/command/carbonTableSchema.scala|integration/spark2/src/test/scala/org/apache/spark/carbondata/restructure/AlterTableValidationTestCase.scala|,5,6,6,2017-06-30 14:37:19 +0000,2017-07-03 20:31:45 +0530,0140a12e6b34bbc36838221d1117553d3644bcea,carbondata
CARBONDATA-1257,2017-07-31 11:50:49 +0000,core/src/main/java/org/apache/carbondata/core/datastore/block/SegmentProperties.java|core/src/main/java/org/apache/carbondata/core/datastore/chunk/reader/measure/v1/CompressedMeasureChunkFileBasedReaderV1.java|core/src/main/java/org/apache/carbondata/core/datastore/chunk/reader/measure/v2/CompressedMeasureChunkFileBasedReaderV2.java|core/src/main/java/org/apache/carbondata/core/datastore/chunk/reader/measure/v3/CompressedMeasureChunkFileBasedReaderV3.java|core/src/main/java/org/apache/carbondata/core/datastore/page/ColumnPage.java|core/src/main/java/org/apache/carbondata/core/datastore/page/encoding/EncodingStrategy.java|core/src/main/java/org/apache/carbondata/core/datastore/page/statistics/ColumnPageStatsCollector.java|core/src/main/java/org/apache/carbondata/core/datastore/page/statistics/PrimitivePageStatsCollector.java|core/src/main/java/org/apache/carbondata/core/datastore/page/statistics/VarLengthPageStatsCollector.java|core/src/main/java/org/apache/carbondata/core/indexstore/blockletindex/BlockletDataMap.java|core/src/main/java/org/apache/carbondata/core/metadata/ColumnPageCodecMeta.java|core/src/main/java/org/apache/carbondata/core/metadata/ValueEncoderMeta.java|core/src/main/java/org/apache/carbondata/core/metadata/schema/table/CarbonTable.java|core/src/main/java/org/apache/carbondata/core/scan/expression/ColumnExpression.java|core/src/main/java/org/apache/carbondata/core/scan/expression/conditional/ConditionalExpression.java|core/src/main/java/org/apache/carbondata/core/scan/expression/logical/BinaryLogicalExpression.java|core/src/main/java/org/apache/carbondata/core/scan/filter/ColumnFilterInfo.java|core/src/main/java/org/apache/carbondata/core/scan/filter/FilterExpressionProcessor.java|core/src/main/java/org/apache/carbondata/core/scan/filter/FilterUtil.java|core/src/main/java/org/apache/carbondata/core/scan/filter/executer/ExcludeColGroupFilterExecuterImpl.java|core/src/main/java/org/apache/carbondata/core/scan/filter/executer/ExcludeFilterExecuterImpl.java|core/src/main/java/org/apache/carbondata/core/scan/filter/executer/IncludeColGroupFilterExecuterImpl.java|core/src/main/java/org/apache/carbondata/core/scan/filter/executer/IncludeFilterExecuterImpl.java|core/src/main/java/org/apache/carbondata/core/scan/filter/executer/MeasureColumnExecuterFilterInfo.java|core/src/main/java/org/apache/carbondata/core/scan/filter/executer/RestructureEvaluatorImpl.java|core/src/main/java/org/apache/carbondata/core/scan/filter/executer/RestructureExcludeFilterExecutorImpl.java|core/src/main/java/org/apache/carbondata/core/scan/filter/executer/RestructureIncludeFilterExecutorImpl.java|core/src/main/java/org/apache/carbondata/core/scan/filter/executer/RowLevelFilterExecuterImpl.java|core/src/main/java/org/apache/carbondata/core/scan/filter/executer/RowLevelRangeGrtThanFiterExecuterImpl.java|core/src/main/java/org/apache/carbondata/core/scan/filter/executer/RowLevelRangeGrtrThanEquaToFilterExecuterImpl.java|core/src/main/java/org/apache/carbondata/core/scan/filter/executer/RowLevelRangeLessThanEqualFilterExecuterImpl.java|core/src/main/java/org/apache/carbondata/core/scan/filter/executer/RowLevelRangeLessThanFiterExecuterImpl.java|core/src/main/java/org/apache/carbondata/core/scan/filter/executer/RowLevelRangeTypeExecuterFacory.java|core/src/main/java/org/apache/carbondata/core/scan/filter/resolver/ConditionalFilterResolverImpl.java|core/src/main/java/org/apache/carbondata/core/scan/filter/resolver/FilterResolverIntf.java|core/src/main/java/org/apache/carbondata/core/scan/filter/resolver/LogicalFilterResolverImpl.java|core/src/main/java/org/apache/carbondata/core/scan/filter/resolver/RowLevelFilterResolverImpl.java|core/src/main/java/org/apache/carbondata/core/scan/filter/resolver/RowLevelRangeFilterResolverImpl.java|core/src/main/java/org/apache/carbondata/core/scan/filter/resolver/resolverinfo/ColumnResolvedFilterInfo.java|core/src/main/java/org/apache/carbondata/core/scan/filter/resolver/resolverinfo/DimColumnResolvedFilterInfo.java|core/src/main/java/org/apache/carbondata/core/scan/filter/resolver/resolverinfo/MeasureColumnResolvedFilterInfo.java|core/src/main/java/org/apache/carbondata/core/scan/filter/resolver/resolverinfo/TrueConditionalResolverImpl.java|core/src/main/java/org/apache/carbondata/core/scan/filter/resolver/resolverinfo/visitor/CustomTypeDictionaryVisitor.java|core/src/main/java/org/apache/carbondata/core/scan/filter/resolver/resolverinfo/visitor/DictionaryColumnVisitor.java|core/src/main/java/org/apache/carbondata/core/scan/filter/resolver/resolverinfo/visitor/FilterInfoTypeVisitorFactory.java|core/src/main/java/org/apache/carbondata/core/scan/filter/resolver/resolverinfo/visitor/MeasureColumnVisitor.java|core/src/main/java/org/apache/carbondata/core/scan/filter/resolver/resolverinfo/visitor/NoDictionaryTypeVisitor.java|core/src/main/java/org/apache/carbondata/core/scan/filter/resolver/resolverinfo/visitor/RangeDictionaryColumnVisitor.java|core/src/main/java/org/apache/carbondata/core/scan/filter/resolver/resolverinfo/visitor/RangeDirectDictionaryVisitor.java|core/src/main/java/org/apache/carbondata/core/scan/filter/resolver/resolverinfo/visitor/RangeNoDictionaryTypeVisitor.java|core/src/main/java/org/apache/carbondata/core/scan/filter/resolver/resolverinfo/visitor/ResolvedFilterInfoVisitorIntf.java|core/src/main/java/org/apache/carbondata/core/scan/model/QueryModel.java|core/src/main/java/org/apache/carbondata/core/util/ByteUtil.java|core/src/main/java/org/apache/carbondata/core/util/CarbonMetadataUtil.java|core/src/main/java/org/apache/carbondata/core/util/CarbonUtil.java|core/src/main/java/org/apache/carbondata/core/util/DataTypeUtil.java|core/src/main/java/org/apache/carbondata/core/util/comparator/Comparator.java|core/src/main/java/org/apache/carbondata/core/util/comparator/SerializableComparator.java|core/src/test/java/org/apache/carbondata/core/scan/filter/FilterUtilTest.java|integration/spark-common-test/src/test/scala/org/apache/carbondata/spark/testsuite/detailquery/ExpressionWithNullTestCase.scala|integration/spark/src/main/scala/org/apache/spark/sql/SparkUnknownExpression.scala|integration/spark2/src/main/scala/org/apache/spark/sql/SparkUnknownExpression.scala|,5,6,7,2017-07-03 09:03:13 +0000,2017-07-31 17:18:43 +0530,946e4ce5a2bc6fb49ed3db7c02d8f40b5bc56502,carbondata
CARBONDATA-629,2017-01-13 08:47:27 +0000,integration/spark-common-test/src/test/scala/org/apache/carbondata/spark/testsuite/createTable/TestCreateTableWithDatabaseNameCaseChange.scala|integration/spark-common/src/main/scala/org/apache/spark/sql/catalyst/CarbonDDLSqlParser.scala|integration/spark/src/main/scala/org/apache/spark/sql/CarbonCatalystOperators.scala|integration/spark/src/main/scala/org/apache/spark/sql/CarbonSqlParser.scala|integration/spark/src/main/scala/org/apache/spark/sql/hive/CarbonStrategies.scala|integration/spark2/src/main/scala/org/apache/spark/sql/parser/CarbonSpark2SqlParser.scala|integration/spark2/src/main/scala/org/apache/spark/sql/parser/CarbonSparkSqlParser.scala|,1,4,4,2017-01-12 09:18:43 +0000,2017-01-12 20:35:01 +0530,9e204dde2e2b22584e8765e0b586a338f3a77584,carbondata
CARBONDATA-865,2017-04-06 06:50:16 +0000,docs/installation-guide.md|,4,5,5,2017-04-05 11:34:24 +0000,2017-04-06 12:16:22 +0530,81cebdb459884abd7fbb8b057df06f1327dfbb6c,carbondata
CARBONDATA-2792,2018-08-02 11:09:47 +0000,integration/spark-common-test/src/test/scala/org/apache/carbondata/spark/testsuite/createTable/TestCreateExternalTable.scala|integration/spark2/src/main/scala/org/apache/carbondata/spark/util/CarbonSparkUtil.scala|,10,11,11,2018-07-27 07:21:55 +0000,2018-08-02 16:38:02 +0530,b483a57464a860fe9dbd2d074a3e08fd59141edc,carbondata
CARBONDATA-862,2017-04-06 11:44:08 +0000,docs/dml-operation-on-carbondata.md|,4,5,5,2017-04-05 07:45:15 +0000,2017-04-06 16:51:52 +0530,bbade2aa855ada21777139c22088788bc8b397d1,carbondata
CARBONDATA-2329,2018-04-11 09:07:47 +0000,core/src/main/java/org/apache/carbondata/core/util/CarbonSessionInfo.java|integration/spark2/src/main/scala/org/apache/spark/sql/CarbonEnv.scala|integration/spark2/src/main/scala/org/apache/spark/sql/CarbonSession.scala|,8,10,10,2018-04-10 14:59:07 +0000,2018-04-11 14:25:55 +0530,359f6e6b22cca44a344545470720c02d07bbb4f4,carbondata
CARBONDATA-2529,2018-06-01 06:39:40 +0000,core/src/main/java/org/apache/carbondata/core/datastore/filesystem/HDFSCarbonFile.java|,9,10,11,2018-05-24 15:47:02 +0000,2018-06-01 14:37:36 +0800,4d22ddc9d932891af7d3f6557a423d65969f1fd3,carbondata
CARBONDATA-1211,2017-06-22 03:41:09 +0000,core/src/main/java/org/apache/carbondata/core/scan/result/AbstractScannedResult.java|,5,6,6,2017-06-21 11:42:01 +0000,2017-06-22 09:09:55 +0530,843c26ca7e10bbc9b7d55a9caf3c1dacd046bb0d,carbondata
CARBONDATA-830,2017-03-30 05:36:45 +0000,integration/spark-common/src/main/scala/org/apache/carbondata/spark/rdd/NewCarbonDataLoadRDD.scala|,4,5,5,2017-03-29 08:25:27 +0000,2017-03-30 11:05:08 +0530,5d2ae6be272038fa8dd607b5c7f2ee087adeb87d,carbondata
CARBONDATA-1454,2018-02-03 19:34:34 +0000,core/src/main/java/org/apache/carbondata/core/scan/filter/FilterExpressionProcessor.java|core/src/main/java/org/apache/carbondata/core/scan/filter/FilterUtil.java|core/src/main/java/org/apache/carbondata/core/scan/filter/executer/FalseFilterExecutor.java|core/src/main/java/org/apache/carbondata/core/scan/filter/intf/FilterExecuterType.java|core/src/main/java/org/apache/carbondata/core/scan/filter/resolver/resolverinfo/FalseConditionalResolverImpl.java|integration/spark-common-test/src/test/scala/org/apache/carbondata/spark/testsuite/filterexpr/FilterProcessorTestCase.scala|integration/spark2/src/main/scala/org/apache/spark/sql/CarbonBoundReference.scala|integration/spark2/src/main/scala/org/apache/spark/sql/execution/CastExpressionOptimization.scala|integration/spark2/src/main/scala/org/apache/spark/sql/execution/strategy/CarbonLateDecodeStrategy.scala|integration/spark2/src/main/scala/org/apache/spark/sql/optimizer/CarbonFilters.scala|,6,7,8,2017-09-06 09:42:57 +0000,2018-02-04 00:59:25 +0530,e16e878189baa82bee5ca8af8d1229b7733b454a,carbondata
CARBONDATA-820,2017-03-27 14:24:54 +0000,processing/src/main/java/org/apache/carbondata/processing/store/CarbonFactDataHandlerColumnar.java|,4,5,5,2017-03-26 05:48:38 +0000,2017-03-27 19:53:56 +0530,50a24089c78e8991f3b4a0ab7da408efc8fe6ca8,carbondata
CARBONDATA-828,2017-03-29 05:28:24 +0000,integration/spark-common/src/main/scala/org/apache/carbondata/spark/rdd/CarbonGlobalDictionaryRDD.scala|,4,5,5,2017-03-28 06:06:25 +0000,2017-03-29 10:55:59 +0530,08a6e81619f894c85b259279e8cadb13a0b95963,carbondata
CARBONDATA-2991,2018-10-04 15:42:01 +0000,core/src/main/java/org/apache/carbondata/core/datastore/chunk/store/impl/unsafe/UnsafeAbstractDimensionDataChunkStore.java|core/src/main/java/org/apache/carbondata/core/datastore/page/UnsafeFixLengthColumnPage.java|core/src/main/java/org/apache/carbondata/core/datastore/page/VarLengthColumnPageBase.java|core/src/main/java/org/apache/carbondata/core/indexstore/AbstractMemoryDMStore.java|core/src/main/java/org/apache/carbondata/core/memory/IntPointerBuffer.java|core/src/main/java/org/apache/carbondata/core/memory/UnsafeMemoryManager.java|core/src/main/java/org/apache/carbondata/core/memory/UnsafeSortMemoryManager.java|core/src/main/java/org/apache/carbondata/core/util/CarbonTaskInfo.java|core/src/main/java/org/apache/carbondata/core/util/CarbonUtil.java|core/src/main/java/org/apache/carbondata/core/util/ThreadLocalTaskInfo.java|integration/spark-common/src/main/scala/org/apache/carbondata/spark/rdd/CarbonRDD.scala|integration/spark-common/src/main/scala/org/apache/carbondata/spark/util/CommonUtil.scala|processing/src/main/java/org/apache/carbondata/processing/loading/sort/unsafe/UnsafeCarbonRowPage.java|processing/src/main/java/org/apache/carbondata/processing/loading/sort/unsafe/UnsafeSortDataRows.java|store/sdk/src/main/java/org/apache/carbondata/sdk/file/CarbonReader.java|store/search/src/main/java/org/apache/carbondata/store/worker/SearchRequestHandler.java|,9,12,12,2018-10-03 13:49:44 +0000,2018-10-04 21:11:09 +0530,d3927172f19b2251e77b840e53d8678cba2a38bd,carbondata
CARBONDATA-2516,2018-06-26 08:56:18 +0000,integration/presto/src/main/java/org/apache/carbondata/presto/PrestoFilterUtil.java|integration/presto/src/test/scala/org/apache/carbondata/presto/integrationtest/PrestoAllDataTypeTest.scala|,10,10,11,2018-05-22 11:23:13 +0000,2018-06-26 16:52:56 +0800,53a9fa7f85f0ca302c77e2e27d1791fdf616f55a,carbondata
CARBONDATA-2515,2018-06-26 08:56:01 +0000,integration/presto/src/main/java/org/apache/carbondata/presto/PrestoFilterUtil.java|integration/presto/src/test/scala/org/apache/carbondata/presto/integrationtest/PrestoAllDataTypeTest.scala|,10,10,11,2018-05-22 11:17:52 +0000,2018-06-26 16:52:56 +0800,53a9fa7f85f0ca302c77e2e27d1791fdf616f55a,carbondata
CARBONDATA-2996,2018-11-07 01:56:42 +0000,docs/csdk-guide.md|docs/sdk-guide.md|examples/spark2/src/main/java/org/apache/carbondata/examples/sdk/CarbonReaderExample.java|store/CSDK/src/CarbonSchemaReader.cpp|store/CSDK/src/CarbonSchemaReader.h|store/CSDK/test/main.cpp|store/sdk/src/main/java/org/apache/carbondata/sdk/file/CarbonSchemaReader.java|store/sdk/src/main/java/org/apache/carbondata/sdk/file/Field.java|store/sdk/src/main/java/org/apache/carbondata/sdk/file/Schema.java|store/sdk/src/test/java/org/apache/carbondata/sdk/file/CarbonReaderTest.java|store/sdk/src/test/java/org/apache/carbondata/sdk/file/CarbonSchemaReaderTest.java|,12,12,13,2018-10-09 06:37:55 +0000,2018-11-07 09:55:24 +0800,6093a32d7ed7e85c5821bf45b97ac87d6ddf6f55,carbondata
CARBONDATA-804,2017-03-23 04:37:29 +0000,docs/file-structure-of-carbondata.md|docs/images/carbon_data_file_structure_new.png|docs/images/carbon_data_format_new.png|,4,5,5,2017-03-22 09:37:45 +0000,2017-03-23 10:03:06 +0530,e441ab0d45e54069aa08f555d0aed8253b72290e,carbondata
CARBONDATA-481,2016-12-02 05:01:35 +0000,conf/dataload.properties.template|examples/spark2/src/main/resources/data.csv|examples/spark2/src/main/scala/org/apache/carbondata/examples/CarbonExample.scala|integration/spark2/src/main/scala/org/apache/spark/sql/CarbonDatasourceHadoopRelation.scala|integration/spark2/src/main/scala/org/apache/spark/sql/CarbonDictionaryDecoder.scala|integration/spark2/src/main/scala/org/apache/spark/sql/execution/CarbonLateDecodeStrategy.scala|integration/spark2/src/main/scala/org/apache/spark/sql/optimizer/CarbonLateDecodeRule.scala|,3,4,4,2016-12-01 23:57:55 +0000,2016-12-02 12:27:26 +0800,f47bbc2c23c330c6c30f768efb0f18ea610d5e30,carbondata
CARBONDATA-246,2016-11-09 22:46:51 +0000,integration/spark/src/main/scala/org/apache/carbondata/spark/rdd/CarbonMergerRDD.scala|integration/spark/src/main/scala/org/apache/carbondata/spark/rdd/Compactor.scala|integration/spark/src/main/scala/org/apache/spark/sql/execution/command/carbonTableSchema.scala|,1,2,2,2016-09-16 19:22:27 +0000,2016-09-18 03:03:33 +0530,8802e9ebb9a999c08b5015ebf6934187d77ee1d8,carbondata
CARBONDATA-1885,2017-12-29 08:40:51 +0000,integration/spark-common-test/src/test/scala/org/apache/carbondata/spark/testsuite/partition/TestShowPartitions.scala|integration/spark-common/src/main/scala/org/apache/carbondata/events/AlterTableEvents.scala|integration/spark2/src/main/scala/org/apache/spark/sql/execution/command/preaaggregate/CreatePreAggregateTableCommand.scala|integration/spark2/src/main/scala/org/apache/spark/sql/execution/command/preaaggregate/PreAggregateListeners.scala|integration/spark2/src/main/scala/org/apache/spark/sql/execution/command/schema/CarbonAlterTableRenameCommand.scala|integration/spark2/src/test/scala/org/apache/spark/carbondata/restructure/AlterTableValidationTestCase.scala|integration/spark2/src/test/scala/org/apache/spark/carbondata/restructure/vectorreader/DropColumnTestCases.scala|integration/spark2/src/test/scala/org/apache/spark/util/CarbonCommandSuite.scala|,7,8,8,2017-12-12 10:58:46 +0000,2017-12-29 16:40:11 +0800,73d516c21c3fa7aa37f464df560e58e5596dfdcd,carbondata
CARBONDATA-2729,2018-07-14 06:51:25 +0000,core/pom.xml|core/src/main/java/org/apache/carbondata/core/metadata/schema/table/DataMapSchema.java|core/src/main/java/org/apache/carbondata/core/metadata/schema/table/TableSchema.java|core/src/test/java/org/apache/carbondata/core/metadata/schema/table/TableInfoTest.java|integration/spark-common/pom.xml|,10,11,11,2018-07-11 12:31:22 +0000,2018-07-14 14:50:08 +0800,bc12de004b654d3f61c836672f3ff857bb3e9a97,carbondata
CARBONDATA-2715,2018-07-10 11:30:04 +0000,store/search/src/main/java/org/apache/carbondata/store/worker/SearchRequestHandler.java|,10,11,11,2018-07-10 07:31:53 +0000,2018-07-10 19:29:26 +0800,a5039baa3e72523a06428ff18e61d920b07bd320,carbondata
CARBONDATA-2711,2018-10-12 06:21:55 +0000,integration/presto/src/main/java/org/apache/carbondata/presto/impl/CarbonTableReader.java|,10,11,11,2018-07-09 14:30:43 +0000,2018-07-10 16:26:04 +0800,1dc86d2919d4e5e0b3285c3fb28f3b6e816380ae,carbondata
CARBONDATA-215,2016-11-09 22:41:42 +0000,core/src/test/java/org/apache/carbondata/scan/QueryExecutor_UT.java|integration/spark/src/main/java/org/apache/carbondata/spark/partition/api/DataPartitioner.java|integration/spark/src/main/java/org/apache/carbondata/spark/partition/api/Partition.java|integration/spark/src/main/java/org/apache/carbondata/spark/partition/api/impl/CSVFilePartitioner.java|integration/spark/src/main/java/org/apache/carbondata/spark/partition/api/impl/DataPartitionerProperties.java|integration/spark/src/main/java/org/apache/carbondata/spark/partition/api/impl/DefaultLoadBalancer.java|integration/spark/src/main/java/org/apache/carbondata/spark/partition/api/impl/PartitionImpl.java|integration/spark/src/main/java/org/apache/carbondata/spark/partition/api/impl/QueryPartitionHelper.java|integration/spark/src/main/java/org/apache/carbondata/spark/partition/reader/CSVIterator.java|integration/spark/src/main/java/org/apache/carbondata/spark/partition/reader/CSVParser.java|integration/spark/src/main/java/org/apache/carbondata/spark/partition/reader/CSVReader.java|integration/spark/src/main/java/org/apache/carbondata/spark/partition/reader/CSVWriter.java|integration/spark/src/main/java/org/apache/carbondata/spark/partition/reader/LineReader.java|integration/spark/src/main/java/org/apache/carbondata/spark/partition/reader/ResultSetHelper.java|integration/spark/src/main/java/org/apache/carbondata/spark/partition/reader/ResultSetHelperService.java|integration/spark/src/main/scala/org/apache/carbondata/spark/rdd/CarbonDataPartitionRDD.scala|integration/spark/src/main/scala/org/apache/carbondata/spark/rdd/CarbonDataRDDFactory.scala|integration/spark/src/main/scala/org/apache/carbondata/spark/rdd/CarbonGlobalDictionaryRDD.scala|integration/spark/src/main/scala/org/apache/carbondata/spark/util/GlobalDictionaryUtil.scala|integration/spark/src/main/scala/org/apache/spark/sql/CarbonContext.scala|integration/spark/src/main/scala/org/apache/spark/sql/execution/command/carbonTableSchema.scala|,1,2,2,2016-09-06 16:28:59 +0000,2016-09-21 09:24:56 -0700,64ddf9fd2d4a0eda489baa2c51691c725f8cdfbf,carbondata
CARBONDATA-216,2017-01-13 11:50:48 +0000,core/src/test/java/org/apache/carbondata/scan/QueryExecutor_UT.java|integration/spark/src/main/java/org/apache/carbondata/spark/partition/api/DataPartitioner.java|integration/spark/src/main/java/org/apache/carbondata/spark/partition/api/Partition.java|integration/spark/src/main/java/org/apache/carbondata/spark/partition/api/impl/CSVFilePartitioner.java|integration/spark/src/main/java/org/apache/carbondata/spark/partition/api/impl/DataPartitionerProperties.java|integration/spark/src/main/java/org/apache/carbondata/spark/partition/api/impl/DefaultLoadBalancer.java|integration/spark/src/main/java/org/apache/carbondata/spark/partition/api/impl/PartitionImpl.java|integration/spark/src/main/java/org/apache/carbondata/spark/partition/api/impl/QueryPartitionHelper.java|integration/spark/src/main/java/org/apache/carbondata/spark/partition/reader/CSVIterator.java|integration/spark/src/main/java/org/apache/carbondata/spark/partition/reader/CSVParser.java|integration/spark/src/main/java/org/apache/carbondata/spark/partition/reader/CSVReader.java|integration/spark/src/main/java/org/apache/carbondata/spark/partition/reader/CSVWriter.java|integration/spark/src/main/java/org/apache/carbondata/spark/partition/reader/LineReader.java|integration/spark/src/main/java/org/apache/carbondata/spark/partition/reader/ResultSetHelper.java|integration/spark/src/main/java/org/apache/carbondata/spark/partition/reader/ResultSetHelperService.java|integration/spark/src/main/scala/org/apache/carbondata/spark/rdd/CarbonDataPartitionRDD.scala|integration/spark/src/main/scala/org/apache/carbondata/spark/rdd/CarbonDataRDDFactory.scala|integration/spark/src/main/scala/org/apache/carbondata/spark/rdd/CarbonGlobalDictionaryRDD.scala|integration/spark/src/main/scala/org/apache/carbondata/spark/util/GlobalDictionaryUtil.scala|integration/spark/src/main/scala/org/apache/spark/sql/CarbonContext.scala|integration/spark/src/main/scala/org/apache/spark/sql/execution/command/carbonTableSchema.scala|,1,2,2,2016-09-06 16:31:53 +0000,2016-09-21 09:24:56 -0700,64ddf9fd2d4a0eda489baa2c51691c725f8cdfbf,carbondata
CARBONDATA-697,2017-02-15 09:18:23 +0000,integration/spark-common-test/src/test/scala/org/apache/carbondata/integration/spark/testsuite/dataload/TestLoadDataGeneral.scala|integration/spark2/src/main/scala/org/apache/carbondata/spark/rdd/CarbonDataRDDFactory.scala|integration/spark2/src/main/scala/org/apache/spark/sql/execution/command/carbonTableSchema.scala|,2,5,5,2017-02-06 07:31:40 +0000,2017-02-15 14:46:50 +0530,35afe80e335ead86baa3b7b76fc364d110598d4e,carbondata
CARBONDATA-214,2016-11-15 22:44:03 +0000,core/src/test/java/org/apache/carbondata/core/carbon/datastore/BlockIndexStoreTest.java|core/src/test/resources/part-0-0-1466029397000.carbondata|processing/src/test/java/org/apache/carbondata/carbon/datastore/BlockIndexStoreTest.java|processing/src/test/java/org/apache/carbondata/test/util/StoreCreator.java|,1,2,2,2016-09-06 15:43:12 +0000,2016-09-21 09:30:10 -0700,5894980b5661a0e656665a271de55b78323c1d67,carbondata
CARBONDATA-2724,2018-07-18 01:13:44 +0000,core/src/main/java/org/apache/carbondata/core/util/CarbonUtil.java|integration/spark2/src/main/scala/org/apache/spark/sql/execution/command/datamap/CarbonCreateDataMapCommand.scala|,9,11,11,2018-07-11 09:17:21 +0000,2018-07-17 23:35:50 +0800,a162897862c92947ea8fd63713b7dbe6098f3b13,carbondata
CARBONDATA-696,2017-03-27 15:05:14 +0000,core/src/main/java/org/apache/carbondata/core/datastore/compression/nondecimal/CompressionNonDecimalMaxMinInt.java|core/src/main/java/org/apache/carbondata/core/datastore/compression/none/CompressionNoneDefault.java|core/src/main/java/org/apache/carbondata/core/datastore/compression/none/CompressionNoneLong.java|integration/spark-common-test/src/test/resources/oscon_10.csv|integration/spark-common-test/src/test/scala/org/apache/carbondata/spark/testsuite/allqueries/DoubleDataTypeTest.scala|,4,5,5,2017-02-05 18:39:50 +0000,2017-03-27 20:34:14 +0530,e81dec7f7254dc7bb5ecb09d6f5a56a9a9cd2798,carbondata
CARBONDATA-691,2017-03-07 06:45:32 +0000,hadoop/src/main/java/org/apache/carbondata/hadoop/util/CarbonInputSplitTaskInfo.java|integration/spark-common-test/src/test/resources/compaction/compactionIUD1.csv|integration/spark-common-test/src/test/resources/compaction/compactionIUD2.csv|integration/spark-common-test/src/test/resources/compaction/compactionIUD3.csv|integration/spark-common-test/src/test/resources/compaction/compactionIUD4.csv|integration/spark-common-test/src/test/scala/org/apache/carbondata/spark/testsuite/datacompaction/DataCompactionBlockletBoundryTest.scala|integration/spark-common-test/src/test/scala/org/apache/carbondata/spark/testsuite/datacompaction/DataCompactionCardinalityBoundryTest.scala|integration/spark-common/src/main/scala/org/apache/carbondata/spark/rdd/CarbonIUDMergerRDD.scala|integration/spark-common/src/main/scala/org/apache/carbondata/spark/rdd/CarbonMergerRDD.scala|integration/spark/src/main/scala/org/apache/carbondata/spark/rdd/CarbonDataRDDFactory.scala|integration/spark/src/test/scala/org/apache/carbondata/spark/testsuite/datacompaction/DataCompactionTest.scala|integration/spark/src/test/scala/org/apache/carbondata/spark/testsuite/iud/IUDCompactionTestCases.scala|,4,5,5,2017-02-01 08:49:57 +0000,2017-03-07 12:13:53 +0530,8e8bc5de2aee3497c60667d128910255a5c5d1f9,carbondata
CARBONDATA-448,2016-11-25 09:52:19 +0000,assembly/pom.xml|core/src/main/java/org/apache/carbondata/scan/complextypes/StructQueryType.java|examples/spark/CARBON_EXAMPLESLogResource.properties|examples/spark/pom.xml|examples/spark/src/main/resources/complexdata.csv|examples/spark/src/main/resources/data.csv|examples/spark/src/main/resources/dimSample.csv|examples/spark/src/main/resources/factSample.csv|examples/spark/src/main/scala/org/apache/carbondata/examples/AllDictionaryExample.scala|examples/spark/src/main/scala/org/apache/carbondata/examples/AlluxioExample.scala|examples/spark/src/main/scala/org/apache/carbondata/examples/CarbonExample.scala|examples/spark/src/main/scala/org/apache/carbondata/examples/CaseClassDataFrameAPIExample.scala|examples/spark/src/main/scala/org/apache/carbondata/examples/ComplexTypeExample.scala|examples/spark/src/main/scala/org/apache/carbondata/examples/DataFrameAPIExample.scala|examples/spark/src/main/scala/org/apache/carbondata/examples/DataManagementExample.scala|examples/spark/src/main/scala/org/apache/carbondata/examples/DatasourceExample.scala|examples/spark/src/main/scala/org/apache/carbondata/examples/DirectSQLExample.scala|examples/spark/src/main/scala/org/apache/carbondata/examples/GenerateDictionaryExample.scala|examples/spark/src/main/scala/org/apache/carbondata/examples/HadoopFileExample.scala|examples/spark/src/main/scala/org/apache/carbondata/examples/PerfTest.scala|examples/spark/src/main/scala/org/apache/carbondata/examples/util/AllDictionaryUtil.scala|examples/spark/src/main/scala/org/apache/carbondata/examples/util/ExampleUtils.scala|examples/spark2/pom.xml|integration/spark/src/test/resources/dimSample.csv|integration/spark/src/test/resources/example-data.csv|integration/spark/src/test/scala/org/apache/carbondata/spark/testsuite/dataload/TestLoadTblNameIsKeyword.scala|integration/spark/src/test/scala/org/apache/carbondata/spark/testsuite/dataload/TestNoInvertedIndexLoadAndQuery.scala|integration/spark/src/test/scala/org/apache/carbondata/spark/testsuite/dataload/TestTableLevelBlockSize.scala|pom.xml|,3,4,4,2016-11-25 02:16:14 +0000,2016-11-25 17:43:04 +0800,5c697e942fdcc320c6060225b354986a00ad910e,carbondata
CARBONDATA-685,2017-02-21 01:36:32 +0000,integration/spark2/src/main/scala/org/apache/spark/sql/CarbonSource.scala|,4,5,5,2017-01-30 05:34:44 +0000,2017-02-21 09:35:58 +0800,57f22e83433da7ee2cc3146b38d2b3324dffca7c,carbondata
CARBONDATA-672,2017-02-21 06:24:39 +0000,examples/spark2/src/main/resources/data.csv|examples/spark2/src/main/scala/org/apache/carbondata/examples/CarbonSessionExample.scala|integration/spark/src/main/scala/org/apache/spark/sql/CarbonDictionaryDecoder.scala|integration/spark2/src/main/scala/org/apache/spark/sql/CarbonDictionaryDecoder.scala|,4,4,5,2017-01-20 13:22:44 +0000,2017-02-21 11:53:38 +0530,b400b82cecf2d3276731662cce6f9cb6bbff5d91,carbondata
CARBONDATA-2908,2018-09-09 12:54:30 +0000,integration/spark-common/src/main/scala/org/apache/carbondata/spark/CarbonOption.scala|integration/spark2/src/main/scala/org/apache/spark/sql/CarbonDataFrameWriter.scala|,10,12,12,2018-09-02 13:33:57 +0000,2018-09-09 20:51:49 +0800,0483b46e9de49787c5bdac82bb9570ded1664bce,carbondata
CARBONDATA-892,2017-04-14 07:30:59 +0000,integration/spark-common-test/src/test/resources/temp/data1.csv|integration/spark2/src/main/scala/org/apache/spark/sql/optimizer/CarbonLateDecodeRule.scala|integration/spark2/src/test/scala/org/apache/spark/carbondata/query/SubQueryTestSuite.scala|,3,5,5,2017-04-10 12:46:01 +0000,2017-04-14 12:58:29 +0530,f27b4918c8b9979aa69277cdc3cf73ab8b766b85,carbondata
CARBONDATA-649,2017-09-11 08:39:36 +0000,integration/spark-common-test/src/test/scala/org/apache/carbondata/spark/testsuite/iud/UpdateCarbonTableTestCase.scala|integration/spark/src/main/scala/org/apache/spark/sql/CustomDeterministicExpression.scala|integration/spark/src/main/scala/org/apache/spark/sql/hive/CarbonStrategies.scala|integration/spark/src/main/scala/org/apache/spark/sql/optimizer/CarbonOptimizer.scala|integration/spark2/src/main/scala/org/apache/spark/sql/CustomDeterministicExpression.scala|integration/spark2/src/main/scala/org/apache/spark/sql/execution/CarbonLateDecodeStrategy.scala|integration/spark2/src/main/scala/org/apache/spark/sql/optimizer/CarbonLateDecodeRule.scala|,4,4,7,2017-01-17 11:58:53 +0000,2017-09-11 14:07:09 +0530,8b38e0b3844d2220d6639d25bcafbab7a7af75f7,carbondata
CARBONDATA-404,2016-11-14 01:41:10 +0000,integration/spark/src/main/scala/org/apache/carbondata/spark/CarbonDataFrameWriter.scala|,1,3,3,2016-11-10 15:26:50 +0000,2016-11-14 09:40:00 +0800,fc28fef2c15bcca0ce640e41baf71951797f0ad6,carbondata
CARBONDATA-405,2016-11-14 08:35:56 +0000,integration/spark/src/main/scala/org/apache/carbondata/spark/CarbonDataFrameWriter.scala|integration/spark/src/test/resources/test.json|integration/spark/src/test/scala/org/apache/carbondata/integration/spark/testsuite/dataload/SparkDatasourceSuite.scala|,1,3,3,2016-11-10 15:44:20 +0000,2016-11-14 16:34:27 +0800,6fe4f96e1a670f9b4807749e73f5018fb7c47010,carbondata
CARBONDATA-195,2016-09-01 07:17:27 +0000,core/src/main/java/org/apache/carbondata/scan/filter/FilterExpressionProcessor.java|integration/spark/src/test/scala/org/apache/carbondata/spark/testsuite/filterexpr/TestAndEqualFilterEmptyOperandValue.scala|,1,2,2,2016-08-31 14:46:32 +0000,2016-09-01 12:45:14 +0530,faba524b2f0d893ef50c780dc48b2129aa32e77e,carbondata
CARBONDATA-3165,2018-12-27 15:25:33 +0000,datamap/bloom/src/main/java/org/apache/carbondata/datamap/bloom/BloomCoarseGrainDataMap.java|,13,14,14,2018-12-12 07:56:37 +0000,2018-12-27 23:24:11 +0800,56aecb6b618d80feabad0236d9556314f9d18e63,carbondata
CARBONDATA-3380,2019-08-20 11:02:20 +0000,examples/spark2/src/main/scala/org/apache/carbondata/examples/DirectSQLExample.scala|examples/spark2/src/test/scala/org/apache/carbondata/examplesCI/RunExamples.scala|,15,16,17,2019-05-12 15:47:45 +0000,2019-06-24 20:07:51 +0800,d1d9531825f311b497b74c3b6bb1bd51ffbd033c,carbondata
CARBONDATA-3154,2018-12-09 07:41:29 +0000,integration/spark-datasource/src/test/scala/org/apache/spark/sql/carbondata/datasource/SparkCarbonDataSourceTest.scala|,13,14,14,2018-12-07 14:51:55 +0000,2018-12-09 13:09:02 +0530,d9f1a81154a0b917d16bde8ffba7cf013cc3cf2f,carbondata
CARBONDATA-2275,2018-04-26 14:31:37 +0000,core/src/main/java/org/apache/carbondata/core/datastore/filesystem/AbstractDFSCarbonFile.java|core/src/main/java/org/apache/carbondata/core/mutate/DeleteDeltaBlockDetails.java|core/src/main/java/org/apache/carbondata/core/statusmanager/SegmentUpdateStatusManager.java|core/src/main/java/org/apache/carbondata/core/writer/CarbonDeleteDeltaWriterImpl.java|,8,10,10,2018-03-23 17:57:36 +0000,2018-04-26 20:03:49 +0530,1849358278df7e5c738e7497e2d0d2be26f87d5a,carbondata
CARBONDATA-3127,2018-12-21 08:02:17 +0000,examples/flink/pom.xml|examples/spark2/pom.xml|examples/spark2/src/main/resources/sample.csv|examples/spark2/src/main/scala/org/apache/carbondata/examples/HiveExample.scala|examples/spark2/src/main/scala/org/apache/carbondata/examples/util/ExampleUtils.scala|examples/spark2/src/test/scala/org/apache/carbondata/examplesCI/RunExamples.scala|integration/hive/src/main/java/org/apache/carbondata/hive/CarbonHiveInputSplit.java|integration/hive/src/main/java/org/apache/carbondata/hive/MapredCarbonInputFormat.java|integration/hive/src/test/java/org/apache/carbondata/hive/TestCarbonSerDe.java|integration/hive/src/test/java/org/apache/carbondata/hive/TestCarbonSerde.java|integration/hive/src/test/scala/org/apache/carbondata/hiveexampleCI/RunHiveExampleTest.scala|pom.xml|,13,13,14,2018-11-24 02:20:50 +0000,2018-12-21 16:01:42 +0800,bd752e9d5aa17a8b047dc15f04eea6ecee9dac98,carbondata
CARBONDATA-3345,2019-05-07 06:58:31 +0000,integration/presto/src/main/java/org/apache/carbondata/presto/impl/CarbonTableReader.java|,14,15,16,2019-04-08 17:58:09 +0000,2019-05-07 12:26:19 +0530,0ab2412b2f403392a7a17ce20a2327a35f4b8dd0,carbondata
CARBONDATA-3102,2018-12-15 09:12:04 +0000,examples/spark2/src/main/scala/org/apache/carbondata/benchmark/SimpleQueryBenchmark.scala|examples/spark2/src/main/scala/org/apache/carbondata/examples/S3Example.scala|integration/hive/pom.xml|integration/presto/pom.xml|integration/spark2/pom.xml|pom.xml|,13,13,14,2018-11-15 07:37:39 +0000,2018-12-15 17:11:04 +0800,0e467eb06d592c38a82ec20f1cad61afbe486231,carbondata
CARBONDATA-1167,2017-06-13 16:36:41 +0000,common/src/test/java/org/apache/carbondata/common/logging/LogServiceFactoryTest_UT.java|core/src/main/java/org/apache/carbondata/core/cache/dictionary/ReverseDictionaryCache.java|core/src/test/java/org/apache/carbondata/core/datastore/filesystem/HDFSCarbonFileTest.java|core/src/test/java/org/apache/carbondata/core/load/LoadMetadataDetailsUnitTest.java|processing/src/main/java/org/apache/carbondata/processing/merger/CarbonCompactionUtil.java|processing/src/main/java/org/apache/carbondata/processing/newflow/sort/impl/ParallelReadMergeSorterWithBucketingImpl.java|processing/src/main/java/org/apache/carbondata/processing/newflow/sort/impl/UnsafeParallelReadMergeSorterWithBucketingImpl.java|,5,6,6,2017-06-13 07:50:12 +0000,2017-06-14 00:24:22 +0800,3a63bd249776d060576d5010b60247273732080e,carbondata
CARBONDATA-2261,2018-03-21 15:19:55 +0000,hadoop/src/main/java/org/apache/carbondata/hadoop/api/CarbonTableInputFormat.java|integration/spark-common/src/main/scala/org/apache/carbondata/spark/rdd/CarbonScanRDD.scala|integration/spark2/src/test/scala/org/apache/spark/carbondata/TestStreamingTableOperation.scala|,8,10,10,2018-03-18 16:32:27 +0000,2018-03-21 20:27:16 +0530,65b69a9cd902168ffec16cda9d84457d08bae22c,carbondata
CARBONDATA-3116,2018-12-11 15:28:51 +0000,integration/spark-common-test/src/test/scala/org/apache/carbondata/integration/spark/testsuite/preaggregate/TestPreAggCreateCommand.scala|integration/spark2/src/main/scala/org/apache/spark/sql/optimizer/CarbonLateDecodeRule.scala|,13,13,14,2018-11-21 16:19:36 +0000,2018-12-11 23:26:47 +0800,1f4614a2ce6cbdd7246ea3c6da19a16754386fdd,carbondata
CARBONDATA-2478,2018-08-02 03:16:54 +0000,README.md|,10,10,11,2018-05-14 10:23:17 +0000,2018-08-02 11:10:57 +0800,77642cfff219687f621a2d2d24fbcbdb7e8d8c52,carbondata
CARBONDATA-2244,2018-03-16 06:43:53 +0000,integration/spark2/src/main/scala/org/apache/spark/sql/execution/command/preaaggregate/PreAggregateTableHelper.scala|,8,9,10,2018-03-09 09:08:44 +0000,2018-03-16 14:43:06 +0800,a386f1f4e220210e031f10a73c26a7f56f57a603,carbondata
CARBONDATA-1392,2017-08-19 07:36:10 +0000,integration/presto/src/main/java/org/apache/carbondata/presto/CarbondataErrorCode.java|integration/presto/src/main/java/org/apache/carbondata/presto/CarbondataRecordCursor.java|integration/presto/src/main/java/org/apache/carbondata/presto/CarbondataUtil.java|,6,7,7,2017-08-18 06:34:01 +0000,2017-08-19 15:29:55 +0800,8eef8fe30231165d23fede64059aebe11b5ccd03,carbondata
CARBONDATA-1121,2017-06-08 17:06:05 +0000,integration/spark2/src/main/scala/org/apache/spark/sql/parser/CarbonSpark2SqlParser.scala|integration/spark2/src/test/scala/org/apache/spark/carbondata/restructure/vectorreader/AddColumnTestCases.scala|,5,6,6,2017-06-05 09:38:30 +0000,2017-06-08 22:34:48 +0530,7dfd19352daf086e8889f492d22545ed342ec880,carbondata
CARBONDATA-518,2016-12-11 09:28:02 +0000,examples/spark/src/main/scala/org/apache/carbondata/examples/util/ExampleUtils.scala|,3,4,4,2016-12-10 06:13:44 +0000,2016-12-11 17:27:03 +0800,05c02ef0e10ad0b64da28be8927632f8b59f48d4,carbondata
CARBONDATA-752,2017-03-15 06:11:13 +0000,integration/spark-common/src/main/scala/org/apache/carbondata/spark/util/DataTypeConverterUtil.scala|integration/spark/src/test/scala/org/apache/carbondata/integration/spark/testsuite/complexType/TestComplexTypeQuery.scala|,4,5,5,2017-03-08 10:59:57 +0000,2017-03-15 11:39:40 +0530,dca475ba7a764ab975a36bc11fd9bbac0710e668,carbondata
CARBONDATA-753,2017-03-13 11:55:34 +0000,core/src/main/java/org/apache/carbondata/core/constants/CarbonCommonConstants.java|examples/spark/src/main/scala/org/apache/carbondata/examples/AllDictionaryExample.scala|examples/spark/src/main/scala/org/apache/carbondata/examples/AlluxioExample.scala|examples/spark/src/main/scala/org/apache/carbondata/examples/CarbonExample.scala|examples/spark/src/main/scala/org/apache/carbondata/examples/DataUpdateDeleteExample.scala|examples/spark2/src/main/resources/data.csv|examples/spark2/src/main/scala/org/apache/carbondata/examples/SparkSessionExample.scala|,4,5,5,2017-03-08 13:17:57 +0000,2017-03-09 23:11:09 +0800,5fb1ec08810be755729710e19c6e816578a78bad,carbondata
CARBONDATA-980,2017-07-03 18:39:47 +0000,integration/presto/src/main/java/org/apache/carbondata/presto/CarbondataRecordSetProvider.java|,5,5,6,2017-04-24 13:10:03 +0000,2017-07-03 23:35:07 +0800,bbb95ceb4041b818982214c395637c10d3904912,carbondata
CARBONDATA-738,2017-03-03 07:23:37 +0000,integration/spark/src/main/scala/org/apache/carbondata/spark/CarbonDataFrameWriter.scala|integration/spark2/src/main/scala/org/apache/spark/sql/CarbonDataFrameWriter.scala|,4,5,5,2017-03-02 10:04:21 +0000,2017-03-03 12:52:46 +0530,1d8fd0e0c8a30cfd153de075819bb133084d011a,carbondata
CARBONDATA-732,2017-03-14 11:05:20 +0000,assembly/pom.xml|,4,5,5,2017-02-28 08:25:00 +0000,2017-03-14 16:33:59 +0530,c16917e75c40f9e4858e7e38b5a3ca4951b5e43a,carbondata
CARBONDATA-1118,2017-06-08 17:16:42 +0000,integration/spark2/src/main/scala/org/apache/spark/sql/execution/CarbonLateDecodeStrategy.scala|integration/spark2/src/main/scala/org/apache/spark/sql/optimizer/CarbonFilters.scala|,5,6,6,2017-06-02 12:58:40 +0000,2017-06-08 22:45:47 +0530,b754390e6f81535575bae77654b12f3b03045a4d,carbondata
CARBONDATA-2447,2019-02-22 09:08:47 +0000,integration/spark-common-test/src/test/scala/org/apache/carbondata/spark/testsuite/partition/TestUpdateForPartitionTable.scala|integration/spark2/src/main/scala/org/apache/spark/sql/execution/command/mutation/CarbonProjectForUpdateCommand.scala|,9,10,15,2018-05-07 03:59:10 +0000,2019-02-22 17:06:28 +0800,1470f786451c841841cee21cd7d4a3bdf95ecc76,carbondata
CARBONDATA-2418,2018-06-18 16:26:19 +0000,integration/presto/README.md|integration/presto/pom.xml|integration/presto/src/main/java/org/apache/carbondata/presto/CarbondataMetadata.java|integration/presto/src/main/java/org/apache/carbondata/presto/impl/CarbonTableConfig.java|integration/presto/src/main/java/org/apache/carbondata/presto/impl/CarbonTableReader.java|,10,10,11,2018-04-30 10:00:44 +0000,2018-06-19 00:25:33 +0800,dc4f87ba5047568e3800c6ed873846b408131da0,carbondata
CARBONDATA-2658,2018-07-09 07:18:53 +0000,processing/src/main/java/org/apache/carbondata/processing/loading/sort/unsafe/UnsafeSortDataRows.java|processing/src/main/java/org/apache/carbondata/processing/loading/sort/unsafe/merger/UnsafeIntermediateMerger.java|,10,11,11,2018-06-26 12:27:41 +0000,2018-07-09 15:18:12 +0800,c3bc1ba10ef4c468f199fdea6e38d8b197908fcd,carbondata
CARBONDATA-716,2017-02-21 15:45:15 +0000,core/src/main/java/org/apache/carbondata/core/constants/CarbonCommonConstants.java|core/src/main/java/org/apache/carbondata/core/locks/HdfsFileLock.java|,4,5,5,2017-02-21 09:58:49 +0000,2017-02-21 21:14:29 +0530,1bce0bc0d7e3b3b2925354cd589d4b2b59a78436,carbondata
CARBONDATA-712,2017-02-24 12:54:32 +0000,processing/src/main/java/org/apache/carbondata/processing/newflow/steps/DataConverterProcessorStepImpl.java|processing/src/main/java/org/apache/carbondata/processing/newflow/steps/DataConverterProcessorWithBucketingStepImpl.java|,4,5,5,2017-02-17 13:05:44 +0000,2017-02-24 18:22:39 +0530,922683eb8957ef17b66fbd2585abdc8af788b047,carbondata
CARBONDATA-709,2017-02-22 09:21:33 +0000,docs/ddl-operation-on-carbondata.md|,4,5,5,2017-02-16 05:51:36 +0000,2017-02-22 17:15:39 +0800,766671c79535a6ef82383c15360d7dffcb452f28,carbondata
CARBONDATA-1787,2018-06-18 16:35:22 +0000,docs/data-management-on-carbondata.md|,8,8,11,2017-11-21 06:55:52 +0000,2018-06-19 00:34:39 +0800,ca466d9f4b07db1a088dc62cebaf6b4733c28a9b,carbondata
CARBONDATA-2646,2018-08-14 12:08:38 +0000,processing/src/main/java/org/apache/carbondata/processing/loading/sort/impl/UnsafeParallelReadMergeSorterWithColumnRangeImpl.java|,10,11,11,2018-06-25 06:31:47 +0000,2018-06-30 14:40:23 +0800,ca201604a89c1f1b73f02f160505c2c94d185095,carbondata
CARBONDATA-2644,2018-06-30 15:09:42 +0000,core/src/main/java/org/apache/carbondata/core/constants/CarbonLoadOptionConstants.java|core/src/main/java/org/apache/carbondata/core/util/CarbonProperties.java|integration/spark-common-test/src/test/scala/org/apache/carbondata/integration/spark/testsuite/dataload/TestLoadDataWithUnsafeMemory.scala|processing/src/main/java/org/apache/carbondata/processing/loading/sort/unsafe/merger/UnsafeIntermediateMerger.java|,10,11,11,2018-06-25 06:14:15 +0000,2018-06-30 23:04:30 +0800,8cb37dd75541e23fbb0cfabd1f853d45ea51e5c2,carbondata
CARBONDATA-2854,2018-08-15 02:59:12 +0000,core/src/main/java/org/apache/carbondata/core/statusmanager/SegmentStatusManager.java|,10,12,12,2018-08-14 01:57:40 +0000,2018-08-15 10:51:37 +0800,f66a9fdca12e2a3d92dd1762150d09c351e9c2a8,carbondata
CARBONDATA-1764,2017-11-17 17:33:25 +0000,integration/spark-common-test/src/test/scala/org/apache/carbondata/integration/spark/testsuite/aggquery/IntegerDataTypeTestCase.scala|integration/spark-common-test/src/test/scala/org/apache/carbondata/spark/util/DataTypeConverterUtilSuite.scala|integration/spark-common/src/main/scala/org/apache/carbondata/spark/util/DataTypeConverterUtil.scala|,7,8,8,2017-11-17 15:23:53 +0000,2017-11-18 01:32:34 +0800,d74251fa35debc5703fc8cb128eef3f58d9ab59f,carbondata
CARBONDATA-2610,2018-06-18 16:23:49 +0000,integration/spark-common-test/src/test/scala/org/apache/carbondata/datamap/lucene/LuceneFineGrainDataMapSuite.scala|integration/spark2/src/main/scala/org/apache/carbondata/datamap/IndexDataMapRebuildRDD.scala|,10,11,11,2018-06-14 06:30:37 +0000,2018-06-19 00:23:01 +0800,e7fed361b93d7986392c469009f0f6633d71def5,carbondata
CARBONDATA-1763,2018-02-24 05:29:55 +0000,core/src/main/java/org/apache/carbondata/core/locks/CarbonLockUtil.java|core/src/main/java/org/apache/carbondata/core/metadata/AbsoluteTableIdentifier.java|integration/spark2/src/main/scala/org/apache/spark/sql/execution/command/datamap/CarbonDropDataMapCommand.scala|integration/spark2/src/main/scala/org/apache/spark/sql/execution/command/preaaggregate/CreatePreAggregateTableCommand.scala|integration/spark2/src/main/scala/org/apache/spark/sql/execution/command/preaaggregate/PreAggregateUtil.scala|integration/spark2/src/main/scala/org/apache/spark/sql/hive/CarbonHiveMetaStore.scala|,8,8,9,2017-11-17 11:34:02 +0000,2018-02-24 10:59:14 +0530,e9430312d61c0770f402e3475178addba3c37e5e,carbondata
CARBONDATA-595,2017-01-09 10:41:37 +0000,core/src/main/java/org/apache/carbondata/locks/HdfsFileLock.java|integration/spark/src/main/scala/org/apache/spark/sql/execution/command/carbonTableSchema.scala|integration/spark2/src/main/scala/org/apache/spark/sql/execution/command/carbonTableSchema.scala|,3,4,4,2017-01-04 15:17:56 +0000,2017-01-09 18:40:53 +0800,45211a4c590ab95b47300db05089b68afaf51050,carbondata
CARBONDATA-2621,2018-07-24 10:01:32 +0000,core/src/main/java/org/apache/carbondata/core/util/CarbonProperties.java|core/src/test/java/org/apache/carbondata/core/metadata/schema/table/DiskBasedDMSchemaStoraheProviderSuite.java|hadoop/src/test/java/org/apache/carbondata/hadoop/ft/CarbonTableInputFormatTest.java|hadoop/src/test/java/org/apache/carbondata/hadoop/ft/CarbonTableOutputFormatTest.java|integration/presto/src/test/scala/org/apache/carbondata/presto/integrationtest/PrestoAllDataTypeTest.scala|integration/spark-common-test/src/test/scala/org/apache/carbondata/datamap/lucene/LuceneFineGrainDataMapSuite.scala|integration/spark-common-test/src/test/scala/org/apache/carbondata/datamap/lucene/LuceneFineGrainDataMapWithSearchModeSuite.scala|integration/spark-common/src/main/scala/org/apache/spark/sql/test/TestQueryExecutor.scala|store/sdk/src/test/java/org/apache/carbondata/sdk/file/AvroCarbonWriterTest.java|store/sdk/src/test/java/org/apache/carbondata/sdk/file/CSVCarbonWriterTest.java|store/sdk/src/test/java/org/apache/carbondata/sdk/file/CSVNonTransactionalCarbonWriterTest.java|store/sdk/src/test/java/org/apache/carbondata/sdk/file/CarbonReaderTest.java|store/sdk/src/test/java/org/apache/carbondata/store/LocalCarbonStoreTest.java|,10,11,11,2018-06-20 10:18:27 +0000,2018-07-24 15:34:56 +0530,bea277f83001c6d3f0cc3702bd35fa90435dd400,carbondata
CARBONDATA-341,2017-01-20 15:25:36 +0000,core/src/main/java/org/apache/carbondata/core/metadata/AbsoluteTableIdentifier.java|hadoop/src/main/java/org/apache/carbondata/hadoop/CarbonInputFormat.java|integration/spark-common-test/src/test/scala/org/apache/carbondata/spark/testsuite/createTable/TestTableIdTest.scala|integration/spark/src/main/scala/org/apache/spark/sql/CarbonDatasourceHadoopRelation.scala|integration/spark2/src/main/scala/org/apache/spark/sql/CarbonDatasourceHadoopRelation.scala|processing/src/main/java/org/apache/carbondata/processing/newflow/DataLoadExecutor.java|,1,3,4,2016-10-27 14:39:54 +0000,2017-01-20 20:50:03 +0530,b2eb9c74446560635bd21e394bdd273a93586441,carbondata
CARBONDATA-1751,2017-12-14 03:58:53 +0000,integration/spark-common-test/src/test/scala/org/apache/carbondata/spark/testsuite/iud/UpdateCarbonTableTestCase.scala|integration/spark-common/src/main/scala/org/apache/carbondata/spark/rdd/CarbonMergerRDD.scala|integration/spark-common/src/main/scala/org/apache/carbondata/spark/rdd/CarbonScanPartitionRDD.scala|integration/spark-common/src/main/scala/org/apache/carbondata/spark/util/DataLoadingUtil.scala|integration/spark2/src/main/scala/org/apache/carbondata/spark/rdd/CarbonDataRDDFactory.scala|integration/spark2/src/main/scala/org/apache/spark/sql/CarbonDataFrameWriter.scala|integration/spark2/src/main/scala/org/apache/spark/sql/CarbonDatasourceHadoopRelation.scala|integration/spark2/src/main/scala/org/apache/spark/sql/CarbonSource.scala|integration/spark2/src/main/scala/org/apache/spark/sql/execution/command/CarbonCreateTableCommand.scala|integration/spark2/src/main/scala/org/apache/spark/sql/execution/command/CarbonDropTableCommand.scala|integration/spark2/src/main/scala/org/apache/spark/sql/execution/command/management/AlterTableCompactionCommand.scala|integration/spark2/src/main/scala/org/apache/spark/sql/execution/command/management/LoadTableCommand.scala|integration/spark2/src/main/scala/org/apache/spark/sql/execution/command/package.scala|integration/spark2/src/main/scala/org/apache/spark/sql/hive/CarbonAnalysisRules.scala|integration/spark2/src/main/scala/org/apache/spark/sql/hive/CarbonPreAggregateRules.scala|integration/spark2/src/main/scala/org/apache/spark/sql/hive/CarbonRelation.scala|integration/spark2/src/main/scala/org/apache/spark/sql/parser/CarbonSpark2SqlParser.scala|integration/spark2/src/main/scala/org/apache/spark/sql/parser/CarbonSparkSqlParser.scala|integration/spark2/src/main/scala/org/apache/spark/util/Compaction.scala|integration/spark2/src/test/scala/org/apache/carbondata/spark/testsuite/booleantype/BooleanDataTypesInsertTest.scala|integration/spark2/src/test/scala/org/apache/spark/carbondata/CarbonDataSourceSuite.scala|,7,8,8,2017-11-17 02:48:41 +0000,2017-11-20 18:43:16 +0800,82277ddfb3465109260c11d7274d85a1ce19100b,carbondata
CARBONDATA-1752,2017-11-17 09:24:35 +0000,core/src/test/java/org/apache/carbondata/core/CarbonPropertiesValidationTest.java|core/src/test/java/org/apache/carbondata/core/cache/CacheProviderTest.java|core/src/test/java/org/apache/carbondata/core/cache/dictionary/DictionaryCacheLoaderImplTest.java|core/src/test/java/org/apache/carbondata/core/cache/dictionary/ForwardDictionaryCacheTest.java|core/src/test/java/org/apache/carbondata/core/dictionary/client/DictionaryClientTest.java|core/src/test/java/org/apache/carbondata/core/dictionary/generator/ServerDictionaryGeneratorTest.java|core/src/test/java/org/apache/carbondata/core/dictionary/generator/TableDictionaryGeneratorTest.java|core/src/test/java/org/apache/carbondata/core/keygenerator/mdkey/MultiDimKeyVarLengthGeneratorUnitTest.java|core/src/test/java/org/apache/carbondata/core/reader/CarbonDictionaryReaderImplTest.java|core/src/test/java/org/apache/carbondata/core/reader/sortindex/CarbonDictionarySortIndexReaderImplTest.java|core/src/test/java/org/apache/carbondata/core/scan/expression/conditional/ListExpressionUnitTest.java|core/src/test/java/org/apache/carbondata/core/scan/filter/FilterExpressionProcessorTest.java|core/src/test/java/org/apache/carbondata/core/util/CarbonMetadataUtilTest.java|core/src/test/java/org/apache/carbondata/core/util/DataFileFooterConverterTest.java|core/src/test/java/org/apache/carbondata/core/util/DataTypeUtilTest.java|core/src/test/java/org/apache/carbondata/core/writer/sortindex/CarbonDictionarySortIndexWriterImplTest.java|integration/presto/src/main/java/org/apache/carbondata/presto/readers/ObjectStreamReader.java|integration/presto/src/main/java/org/apache/carbondata/presto/readers/SliceStreamReader.java|integration/spark-common-test/src/test/scala/org/apache/carbondata/spark/testsuite/allqueries/MeasureOnlyTableTestCases.scala|integration/spark-common-test/src/test/scala/org/apache/carbondata/spark/testsuite/datacompaction/CompactionSupportGlobalSortFunctionTest.scala|integration/spark-common-test/src/test/scala/org/apache/carbondata/spark/testsuite/datacompaction/DataCompactionBlockletBoundryTest.scala|integration/spark-common-test/src/test/scala/org/apache/carbondata/spark/testsuite/datacompaction/DataCompactionLockTest.scala|integration/spark-common-test/src/test/scala/org/apache/carbondata/spark/testsuite/datacompaction/MajorCompactionIgnoreInMinorTest.scala|integration/spark-common-test/src/test/scala/org/apache/carbondata/spark/testsuite/datacompaction/MajorCompactionStopsAfterCompaction.scala|processing/src/test/java/org/apache/carbondata/lcm/locks/LocalFileLockTest.java|processing/src/test/java/org/apache/carbondata/lcm/locks/ZooKeeperLockingTest.java|,7,8,8,2017-11-17 03:24:40 +0000,2017-12-20 17:56:31 +0800,15f04c35c24628f339b3e5917ef7b0e9d3751c22,carbondata
CARBONDATA-563,2016-12-26 02:07:26 +0000,integration/spark-common/src/main/scala/org/apache/carbondata/spark/rdd/CarbonScanRDD.scala|,3,4,4,2016-12-25 16:48:52 +0000,2016-12-26 10:03:52 +0800,a0e66461ba6b27bfdf96fe9bf77667d2ffd26f9d,carbondata
CARBONDATA-320,2016-10-17 18:46:05 +0000,integration/spark/src/main/scala/org/apache/spark/sql/execution/command/carbonTableSchema.scala|integration/spark/src/main/scala/org/apache/spark/sql/hive/CarbonMetastoreCatalog.scala|integration/spark/src/main/scala/org/apache/spark/sql/hive/CarbonStrategies.scala|processing/src/main/java/org/apache/carbondata/lcm/locks/LockUsage.java|,1,3,3,2016-10-17 09:58:41 +0000,2016-10-18 00:13:26 +0530,617b69aacf2088b845853ee0d341792a8b611c4c,carbondata
CARBONDATA-317,2016-10-17 19:01:18 +0000,integration/spark/src/main/scala/org/apache/carbondata/spark/csv/CarbonCsvRelation.scala|integration/spark/src/test/resources/emptyrow/csvwithonlyspacechar.csv|integration/spark/src/test/scala/org/apache/carbondata/integration/spark/testsuite/emptyrow/TestCSVHavingOnlySpaceChar.scala|,2,3,3,2016-10-13 18:28:37 +0000,2016-10-18 00:25:57 +0530,2963bdbfe3a666075c1856dace593a4dbd690a62,carbondata
CARBONDATA-315,2016-10-14 14:32:53 +0000,core/src/main/java/org/apache/carbondata/core/util/DataTypeUtil.java|integration/spark/src/test/resources/invalidMeasures.csv|integration/spark/src/test/scala/org/apache/carbondata/integration/spark/testsuite/dataload/TestLoadDataGeneral.scala|processing/src/main/java/org/apache/carbondata/processing/surrogatekeysgenerator/csvbased/CarbonCSVBasedSeqGenStep.java|,1,3,3,2016-10-13 10:14:39 +0000,2016-10-14 22:00:28 +0800,7ea31a6ae7cf1df7bc1af2591e608d0d63d5b4aa,carbondata
CARBONDATA-304,2016-10-17 17:30:11 +0000,processing/src/main/java/org/apache/carbondata/processing/store/writer/AbstractFactDataWriter.java|,1,3,3,2016-10-11 10:08:43 +0000,2016-10-17 22:51:55 +0530,c693001eff95564af721e25c583b99bcec7a2439,carbondata
CARBONDATA-1955,2018-01-04 14:57:40 +0000,core/src/main/java/org/apache/carbondata/core/datastore/page/encoding/DefaultEncodingFactory.java|core/src/test/java/org/apache/carbondata/core/datastore/page/encoding/TestEncodingFactory.java|,7,8,8,2017-12-29 16:01:13 +0000,2018-01-04 20:26:31 +0530,38038add7065a05957f84d884298c901253f3d4d,carbondata
