Bug ID,Bug Resolution Date by Jira,Classes Touched by Last Fix,Earliest AV,Version of Ticket Creation,Version of Fix,Ticket Creation Date,Fix Date (of most recent commit),Hash (of most recent commit),Git Directory
JSPWIKI-191,2008-06-12 20:15:47 +0000,src/webdocs/templates/default/Favorites.jsp|,3,4,6,2008-02-18 17:55:24 +0000,2008-06-12 20:33:18 +0000,84c0de66e80608caff860069c7c236458d71e24c,jspwiki
JSPWIKI-195,2008-02-24 18:23:34 +0000,ChangeLog|jspwiki-it-tests/jspwiki-selenium-tests/src/main/config/hsql-userdb-setup.sql|jspwiki-war/src/main/config/db/hsql.ddl|jspwiki-war/src/main/config/db/postgresql.ddl|jspwiki-war/src/main/java/org/apache/wiki/Release.java|jspwiki-war/src/main/java/org/apache/wiki/auth/UserManager.java|jspwiki-war/src/main/java/org/apache/wiki/auth/user/DefaultUserProfile.java|jspwiki-war/src/main/java/org/apache/wiki/auth/user/XMLUserDatabase.java|jspwiki-war/src/main/java/org/apache/wiki/ui/InputValidator.java|jspwiki-war/src/main/resources/CoreResources.properties|jspwiki-war/src/main/resources/CoreResources_nl.properties|jspwiki-war/src/test/config/hsql-userdb-setup.ddl|,2,4,17,2008-02-21 01:29:23 +0000,2014-07-31 18:46:53 +0000,d78fb1237f3c9479718dce51630772f6a911d684,jspwiki
JSPWIKI-750,2012-10-28 22:13:01 +0000,ChangeLog|src/org/apache/wiki/Release.java|src/org/apache/wiki/plugin/PageViewPlugin.java|tests/org/apache/wiki/plugin/PageViewPluginTest.java|,11,12,12,2012-10-28 21:59:24 +0000,2012-10-28 22:07:55 +0000,3a155a8b068326e65282cd4d79c3938bd131355c,jspwiki
JSPWIKI-510,2010-02-20 18:11:06 +0000,src/java/org/apache/wiki/action/EditDialogActionBean.java|src/java/org/apache/wiki/action/SearchActionBean.java|src/java/org/apache/wiki/search/SearchManager.java|,8,9,11,2009-02-17 18:57:53 +0000,2010-02-20 18:03:55 +0000,2082602a105792cd55b754ab23536a5329c14fbc,jspwiki
JSPWIKI-874,2015-01-13 21:06:17 +0000,ChangeLog|jspwiki-war/src/main/java/org/apache/wiki/Release.java|jspwiki-war/src/main/java/org/apache/wiki/util/UtilJ2eeCompat.java|jspwiki-war/src/test/java/org/apache/wiki/util/UtilJ2eeCompatTest.java|,16,17,17,2014-12-19 07:47:45 +0000,2015-01-13 21:02:40 +0000,b2d771a44990eebcd24e6fb64e628a5c21ae7dd1,jspwiki
JSPWIKI-503,2009-02-15 13:29:01 +0000,ChangeLog|src/java/org/apache/wiki/Release.java|src/java/org/apache/wiki/util/TextUtil.java|tests/java/org/apache/wiki/TextUtilTest.java|,7,9,9,2009-02-13 20:23:14 +0000,2009-02-15 13:28:04 +0000,5844c1e3df9fc6cef1f4382349a0812d0655e5da,jspwiki
JSPWIKI-505,2009-02-25 20:52:46 +0000,ChangeLog|ReleaseNotes|src/java/org/apache/wiki/LinkCollector.java|src/java/org/apache/wiki/Release.java|src/java/org/apache/wiki/WikiEngine.java|src/java/org/apache/wiki/parser/JSPWikiMarkupParser.java|src/java/org/apache/wiki/plugin/InterWikiLinksPlugin.java|src/java/org/apache/wiki/plugin/WikiPlugin.java|tests/java/org/apache/wiki/plugin/AllTests.java|tests/java/org/apache/wiki/plugin/InterWikiLinksPluginTest.java|,8,9,9,2009-02-16 12:50:25 +0000,2009-02-25 20:49:52 +0000,57cbe16dcba8d1a63a9d10f89b11e426079e3d25,jspwiki
JSPWIKI-869,2015-01-17 15:04:10 +0000,jspwiki-war/pom.xml|pom.xml|,16,17,17,2014-10-17 09:33:38 +0000,2015-01-17 13:26:46 +0000,9a6b1ff8c10794dda49dbe0cd550ed4b08a405f2,jspwiki
JSPWIKI-882,2015-05-31 12:43:30 +0000,ChangeLog|jspwiki-war/src/main/java/org/apache/wiki/Release.java|jspwiki-war/src/test/java/org/apache/wiki/workflow/OutcomeTest.java|,16,17,17,2015-05-30 12:41:05 +0000,2015-05-31 12:41:48 +0000,610fa2325b94195dad719109175865d04508ce29,jspwiki
JSPWIKI-761,2013-08-02 20:33:15 +0000,ChangeLog|jspwiki-war/pom.xml|jspwiki-war/src/main/config/wro/wro.properties|jspwiki-war/src/main/config/wro/wro.xml|jspwiki-war/src/main/java/org/apache/wiki/Release.java|jspwiki-war/src/main/scripts/jspwiki-common.js|jspwiki-war/src/main/scripts/jspwiki-commonstyles.js|jspwiki-war/src/main/scripts/jspwiki-edit.js|jspwiki-war/src/main/scripts/jspwiki-prefs.js|jspwiki-war/src/main/scripts/posteditor.js|jspwiki-war/src/main/scripts/prettify.js|jspwiki-war/src/main/styles/jspwiki.css|jspwiki-war/src/main/styles/jspwiki_print.css|jspwiki-war/src/main/webapp/templates/default/commonheader.jsp|jspwiki-war/src/main/webapp/templates/default/editors/plain.jsp|mvn_cheat-sheet.txt|pom.xml|,12,13,14,2013-02-09 08:18:43 +0000,2013-08-02 18:37:54 +0000,1743947169aa8fa469e385587e33092d08177bef,jspwiki
JSPWIKI-876,2015-01-24 10:55:40 +0000,jspwiki-war/src/main/java/org/apache/wiki/plugin/Note.java|,16,17,17,2015-01-24 10:50:49 +0000,2015-01-24 10:54:30 +0000,3b8db5e3fc692a0bbd8e878454730a4d07575533,jspwiki
JSPWIKI-890,2015-06-28 19:15:20 +0000,ChangeLog|jspwiki-war/src/main/java/org/apache/wiki/Release.java|jspwiki-war/src/main/scripts/behaviors/TableX.js|jspwiki-war/src/main/scripts/moo-extend/Textarea.js|jspwiki-war/src/main/scripts/wiki-edit/Wiki.Edit.js|jspwiki-war/src/main/scripts/wiki-edit/Wiki.Snips.js|jspwiki-war/src/main/scripts/wiki/Wiki.Behaviors.js|jspwiki-war/src/main/styles/haddock/default/Template.View.less|jspwiki-war/src/main/webapp/templates/haddock/fonts/FontJspwiki.eot|jspwiki-war/src/main/webapp/templates/haddock/fonts/FontJspwiki.svg|jspwiki-war/src/main/webapp/templates/haddock/fonts/FontJspwiki.ttf|jspwiki-war/src/main/webapp/templates/haddock/fonts/FontJspwiki.woff|jspwiki-war/src/main/webapp/templates/reader/fonts/FontJspwiki.eot|jspwiki-war/src/main/webapp/templates/reader/fonts/FontJspwiki.svg|jspwiki-war/src/main/webapp/templates/reader/fonts/FontJspwiki.ttf|jspwiki-war/src/main/webapp/templates/reader/fonts/FontJspwiki.woff|,16,17,17,2015-06-27 11:41:21 +0000,2015-06-28 13:34:04 +0000,9057abd95ceba8a68975eff04f28ef3520f93796,jspwiki
JSPWIKI-893,2019-08-16 16:13:41 +0000,jspwiki-main/src/main/java/org/apache/wiki/search/LuceneSearchProvider.java|jspwiki-main/src/test/java/org/apache/wiki/search/SearchManagerTest.java|,15,17,25,2015-06-30 07:03:37 +0000,2019-08-16 18:09:49 +0200,322f3c80d06a62f7317da5f965b2bc70414dec82,jspwiki
JSPWIKI-411,2008-11-04 18:41:56 +0000,ChangeLog|src/com/ecyrd/jspwiki/search/LuceneSearchProvider.java|src/webdocs/scripts/jspwiki-edit.js|src/webdocs/templates/default/editors/plain.jsp|,6,8,8,2008-11-04 07:37:36 +0000,2008-11-04 18:45:27 +0000,cc5b82a824e0d1d9769001b65b34d97877596163,jspwiki
JSPWIKI-403,2008-11-03 21:41:32 +0000,ChangeLog|src/webdocs/templates/default/jspwiki.css|,7,8,8,2008-10-21 23:37:55 +0000,2008-11-04 07:22:14 +0000,cd295aba55fdfd1abace7a62289db60754d7bc38,jspwiki
JSPWIKI-646,2011-01-10 14:22:48 +0000,ChangeLog|src/java/org/apache/wiki/Release.java|src/java/org/apache/wiki/auth/AuthenticationManager.java|src/java/org/apache/wiki/auth/AuthorizationManager.java|,10,11,11,2010-04-22 17:14:57 +0000,2010-05-16 12:31:24 +0000,b2eea3798bc13aa4122fae72a3f4c4149fed6ce4,jspwiki
JSPWIKI-408,2008-11-03 21:42:11 +0000,ChangeLog|src/webdocs/templates/default/jspwiki.css|,7,8,8,2008-10-31 14:59:06 +0000,2008-11-04 07:22:14 +0000,cd295aba55fdfd1abace7a62289db60754d7bc38,jspwiki
JSPWIKI-1107,2019-05-03 18:41:22 +0000,ChangeLog|jspwiki-main/src/main/java/org/apache/wiki/Release.java|jspwiki-main/src/main/java/org/apache/wiki/tags/BreadcrumbsTag.java|jspwiki-war/src/main/webapp/templates/default/AttachmentTab.jsp|jspwiki-war/src/main/webapp/templates/default/InfoContent.jsp|jspwiki-war/src/main/webapp/templates/default/Nav.jsp|,23,24,24,2019-04-22 13:04:36 +0000,2019-04-28 21:10:32 +0200,4c4b8bf2490f7d09228120507453e49ebded6b5b,jspwiki
JSPWIKI-2,2007-10-29 21:00:40 +0000,ChangeLog|,1,2,18,2007-10-14 10:08:05 +0000,2017-03-26 19:53:50 +0200,c03da1c2113a09e06104aba58e7e99ece5950f64,jspwiki
JSPWIKI-5,2008-04-20 15:15:16 +0000,tests/com/ecyrd/jspwiki/providers/FileSystemProviderTest.java|,1,2,5,2007-10-22 11:52:08 +0000,2008-04-20 15:48:45 +0000,982774f960d7d3ec43a3fca50286c88393de5062,jspwiki
JSPWIKI-784,2013-07-28 20:09:13 +0000,ChangeLog|jspwiki-war/src/main/java/org/apache/wiki/Release.java|jspwiki-war/src/main/java/org/apache/wiki/util/UtilJ2eeCompat.java|,13,14,14,2013-06-29 15:17:16 +0000,2013-07-28 20:07:34 +0000,e20148addf02a73cb8e2b0ef8988c55c17d48d91,jspwiki
JSPWIKI-663,2012-12-26 11:21:30 +0000,ChangeLog|src/org/apache/wiki/Release.java|src/org/apache/wiki/content/PageRenamer.java|src/org/apache/wiki/plugin/PageViewPlugin.java|,11,12,13,2010-09-21 11:52:44 +0000,2012-12-26 11:19:33 +0000,6e0eca0c628d9f6cc6c278a450a34a319489130e,jspwiki
JSPWIKI-664,2010-09-30 18:46:52 +0000,src/org/apache/wiki/PropertyReader.java|,11,12,12,2010-09-23 17:39:24 +0000,2012-11-13 17:50:09 +0000,49ff23023c70fe7fce0faf17c5e56cac504c0c31,jspwiki
JSPWIKI-302,2008-08-11 21:06:00 +0000,ChangeLog|etc/i18n/templates/default.properties|etc/i18n/templates/default_nl.properties|etc/ini/default_jspwiki.properties|src/com/ecyrd/jspwiki/Release.java|src/com/ecyrd/jspwiki/plugin/TableOfContents.java|src/com/ecyrd/jspwiki/preferences/Preferences.java|src/com/ecyrd/jspwiki/tags/SetPaginationTag.java|src/webdocs/scripts/jspwiki-common.js|src/webdocs/scripts/jspwiki-commonstyles.js|src/webdocs/scripts/jspwiki-edit.js|src/webdocs/templates/default/EditTemplate.jsp|src/webdocs/templates/default/InfoContent.jsp|src/webdocs/templates/default/PreferencesTab.jsp|src/webdocs/templates/default/UploadTemplate.jsp|src/webdocs/templates/default/editors/FCK.jsp|src/webdocs/templates/default/editors/plain.jsp|src/webdocs/templates/default/jspwiki.css|src/webdocs/templates/default/skins/PlainVanilla 1024x768/skin.css|src/webdocs/templates/default/skins/PlainVanilla 1024x768/skin.js|,3,6,6,2008-06-30 14:52:23 +0000,2008-08-11 20:48:40 +0000,1d6e6b5bce632d6520e18f78ce9bc2d8bde988ed,jspwiki
JSPWIKI-535,2014-05-23 05:37:52 +0000,ChangeLog|jspwiki-war/src/main/java/org/apache/wiki/Release.java|jspwiki-war/src/main/java/org/apache/wiki/parser/JSPWikiMarkupParser.java|jspwiki-war/src/main/webapp/WEB-INF/classes/jspwiki-custom.properties|jspwiki-war/src/test/java/org/apache/wiki/parser/JSPWikiMarkupParserTest.java|,9,10,16,2009-05-18 09:57:47 +0000,2014-05-23 05:36:16 +0000,b4ecc94c92eccddccba3f080795fc200c142d63e,jspwiki
JSPWIKI-415,2008-11-09 14:23:07 +0000,ChangeLog|etc/i18n/plugin/PluginResources.properties|etc/i18n/plugin/PluginResources_nl.properties|src/com/ecyrd/jspwiki/Release.java|src/com/ecyrd/jspwiki/plugin/InsertPage.java|tests/com/ecyrd/jspwiki/plugin/InsertPageTest.java|,7,8,8,2008-11-05 19:59:28 +0000,2008-11-09 14:23:06 +0000,3746f8bca8091e53d9761a261e01a50e21ee92cc,jspwiki
JSPWIKI-659,2015-01-30 12:37:54 +0000,ChangeLog|etc/web.xml|src/org/apache/wiki/Release.java|src/org/apache/wiki/auth/SessionMonitor.java|src/org/apache/wiki/rpc/json/JSONRPCManager.java|,10,11,13,2010-08-09 08:37:48 +0000,2013-03-20 20:04:22 +0000,da254735a6d604341498f8b76679111b9074377e,jspwiki
JSPWIKI-391,2009-04-04 17:31:37 +0000,ChangeLog|src/java/org/apache/wiki/Release.java|src/java/org/apache/wiki/htmltowiki/XHtmlElementToWikiTranslator.java|tests/java/org/apache/wiki/htmltowiki/HtmlStringToWikiTranslatorTest.java|,7,7,12,2008-10-01 05:38:20 +0000,2011-09-18 13:28:38 +0000,06ca09f8a00cbe5a3d4f0ce8e0aada9a102a2ed5,jspwiki
JSPWIKI-150,2013-01-28 20:11:54 +0000,ChangeLog|etc/i18n/CoreResources.properties|etc/i18n/CoreResources_nl.properties|etc/i18n/templates/default_nl.properties|src/org/apache/wiki/Release.java|,2,3,13,2008-01-24 12:36:12 +0000,2013-01-28 20:24:45 +0000,f3da87710783d84097537aa3fe4f438af290a3bd,jspwiki
JSPWIKI-151,2008-05-20 20:31:49 +0000,ChangeLog|etc/i18n/CoreResources.properties|etc/i18n/CoreResources_fi.properties|src/webdocs/LostPassword.jsp|src/webdocs/templates/default/LoginContent.jsp|,2,3,5,2008-01-24 13:02:35 +0000,2008-05-20 20:34:00 +0000,841bf9a89f5a0fb63ba5a7e12015377add7ff804,jspwiki
JSPWIKI-278,2008-06-14 03:37:21 +0000,ChangeLog|etc/i18n/templates/default_nl.properties|src/com/ecyrd/jspwiki/Release.java|src/webdocs/scripts/jspwiki-common.js|src/webdocs/scripts/jspwiki-edit.js|src/webdocs/scripts/jspwiki-prefs.js|src/webdocs/scripts/prettify.js|src/webdocs/templates/default/GroupContent.jsp|src/webdocs/templates/default/InfoContent.jsp|src/webdocs/templates/default/PageActionsBottom.jsp|src/webdocs/templates/default/PageActionsTop.jsp|src/webdocs/templates/default/PreferencesTab.jsp|src/webdocs/templates/default/commonheader.jsp|src/webdocs/templates/default/editors/plain.jsp|,2,5,6,2008-05-23 09:57:49 +0000,2008-06-14 03:10:33 +0000,56aa408f221fc5635171c1951e1f4f08a5ff7dee,jspwiki
JSPWIKI-821,2014-02-19 23:57:54 +0000,jspwiki-war/src/test/java/org/apache/wiki/TestEngine.java|jspwiki-war/src/test/java/org/apache/wiki/WikiEngineTest.java|jspwiki-war/src/test/java/org/apache/wiki/providers/FileSystemProviderTest.java|,15,16,17,2014-02-13 17:59:26 +0000,2015-07-07 23:03:09 +0000,d1474fc70c987d40b030e555f4a3e749e9823606,jspwiki
JSPWIKI-822,2014-04-22 18:26:40 +0000,ChangeLog|jspwiki-war/src/main/java/org/apache/wiki/Release.java|,15,16,16,2014-02-25 09:53:22 +0000,2014-04-22 18:24:31 +0000,1b5a0c3c11dd7aea448f966e96aea6fc27ea63d1,jspwiki
JSPWIKI-825,2019-08-05 19:47:30 +0000,jspwiki-it-tests/pom.xml|,16,16,17,2014-03-10 17:54:33 +0000,2015-06-25 20:59:31 +0000,29d274675157ed1e915366508bb7c83c322d67bb,jspwiki
JSPWIKI-280,2008-06-17 17:52:05 +0000,ChangeLog|etc/i18n/templates/default.properties|etc/i18n/templates/default_nl.properties|src/com/ecyrd/jspwiki/Release.java|src/webdocs/templates/default/jspwiki.css|,5,6,6,2008-06-05 20:15:02 +0000,2008-06-17 17:40:06 +0000,f98383950cbb589e20755f7a8269e7fbbefc1e7a,jspwiki
JSPWIKI-162,2008-03-13 20:32:13 +0000,src/com/ecyrd/jspwiki/attachment/AttachmentManager.java|,2,3,4,2008-01-25 11:32:21 +0000,2008-03-13 20:54:31 +0000,3e390c0d4cd6b58ab9d431762008206c8be50396,jspwiki
JSPWIKI-286,2008-06-09 19:26:29 +0000,etc/i18n/templates/default_fi.properties|,5,6,6,2008-06-09 17:44:40 +0000,2008-06-09 19:59:38 +0000,52fd798676fbdc92c0a83414304dcdbb628ec5a0,jspwiki
JSPWIKI-1090,2019-02-03 12:25:11 +0000,jspwiki-it-tests/jspwiki-selenide-tests/src/main/java/org/apache/wiki/its/AnonymousViewIT.java|jspwiki-it-tests/jspwiki-selenide-tests/src/main/java/org/apache/wiki/its/environment/Env.java|jspwiki-it-tests/jspwiki-selenide-tests/src/main/java/org/apache/wiki/pages/Page.java|jspwiki-it-tests/jspwiki-selenide-tests/src/main/java/org/apache/wiki/pages/haddock/HaddockPage.java|jspwiki-it-tests/jspwiki-selenide-tests/src/main/java/org/apache/wiki/pages/haddock/ReadWikiPage.java|,21,22,22,2019-02-03 12:06:12 +0000,2019-02-09 18:38:33 +0100,46505f12a2e400d203d70c367e34aea2cdbad038,jspwiki
JSPWIKI-1091,2019-02-13 20:02:47 +0000,ChangeLog|jspwiki-main/src/main/java/org/apache/wiki/Release.java|jspwiki-war/src/main/webapp/Error.jsp|jspwiki-war/src/main/webapp/templates/default/DiffContent.jsp|jspwiki-war/src/main/webapp/templates/default/DisplayMessage.jsp|jspwiki-war/src/main/webapp/templates/default/UploadTemplate.jsp|jspwiki-war/src/main/webapp/templates/default/ViewTemplate.jsp|jspwiki-war/src/main/webapp/templates/reader/ViewTemplate.jsp|,21,22,22,2019-02-13 19:22:00 +0000,2019-02-13 20:52:49 +0100,0c86536d25e263cb3326ae4fcfd335b29c24c580,jspwiki
JSPWIKI-1093,2019-03-17 21:52:19 +0000,ChangeLog|jspwiki-main/src/main/java/org/apache/wiki/Release.java|jspwiki-war/src/main/webapp/XHRMarkup2Wysiwyg.jsp|,18,23,23,2019-03-17 21:38:04 +0000,2019-03-17 22:44:57 +0100,b17f699a4a099639beebb905cf4e04a8bea63b3c,jspwiki
JSPWIKI-1094,2019-03-19 20:21:43 +0000,.gitignore|ChangeLog|pom.xml|,22,23,23,2019-03-18 21:20:24 +0000,2019-03-19 21:18:55 +0100,f140a2a4371735ad24d04a1d78c6e1d9ceaed76f,jspwiki
JSPWIKI-831,2014-04-01 19:13:59 +0000,ChangeLog|jspwiki-it-tests/jspwiki-it-test-cma-jdbc/src/main/webapp/WEB-INF/web.xml|jspwiki-it-tests/jspwiki-it-test-cma/src/main/webapp/WEB-INF/web.xml|jspwiki-it-tests/jspwiki-it-test-custom-absolute-urls/src/main/webapp/WEB-INF/web.xml|jspwiki-it-tests/jspwiki-it-test-custom-jdbc/src/main/webapp/WEB-INF/web.xml|jspwiki-it-tests/jspwiki-it-test-custom/src/main/webapp/WEB-INF/web.xml|jspwiki-war/src/main/java/org/apache/wiki/Release.java|jspwiki-war/src/main/java/org/apache/wiki/auth/authorize/WebContainerAuthorizer.java|jspwiki-war/src/test/resources/WEB-INF/web.xml|,15,16,16,2014-03-15 16:58:09 +0000,2014-04-01 18:53:37 +0000,7ba29d491182a2983d4f3951f90b1d6cecd22b12,jspwiki
JSPWIKI-833,2014-03-17 20:21:25 +0000,ChangeLog|jspwiki-war/src/main/java/org/apache/wiki/Release.java|jspwiki-war/src/main/java/org/apache/wiki/auth/AuthenticationManager.java|,15,16,16,2014-03-17 19:06:51 +0000,2014-03-17 20:20:10 +0000,051fd9964a18422227e0d53aa025725a01f4ad15,jspwiki
JSPWIKI-712,2014-02-14 17:40:09 +0000,ChangeLog|jspwiki-war/pom.xml|jspwiki-war/src/main/config/wro/wro-haddock.xml|jspwiki-war/src/main/config/wro/wro.properties|jspwiki-war/src/main/java/org/apache/wiki/Release.java|jspwiki-war/src/main/scripts/dynamic-styles/Accordion.js|jspwiki-war/src/main/scripts/dynamic-styles/Collapsible.js|jspwiki-war/src/main/scripts/dynamic-styles/Columns.js|jspwiki-war/src/main/scripts/dynamic-styles/CommentBox.js|jspwiki-war/src/main/scripts/dynamic-styles/Element.Reflect.js|jspwiki-war/src/main/scripts/dynamic-styles/GraphBar.js|jspwiki-war/src/main/scripts/dynamic-styles/TableX.Filter.js|jspwiki-war/src/main/scripts/dynamic-styles/TableX.Sort.js|jspwiki-war/src/main/scripts/dynamic-styles/TableX.Zebra.js|jspwiki-war/src/main/scripts/dynamic-styles/TableX.js|jspwiki-war/src/main/scripts/dynamic-styles/Tabs.js|jspwiki-war/src/main/scripts/dynamic-styles/Viewer.Carousel.js|jspwiki-war/src/main/scripts/dynamic-styles/Viewer.Slimbox.js|jspwiki-war/src/main/scripts/dynamic-styles/Viewer.js|jspwiki-war/src/main/scripts/lib/mootools-core-1.4.5.js|jspwiki-war/src/main/scripts/lib/mootools-more-1.4.0.1.js|jspwiki-war/src/main/scripts/lib/prettify4mar13.js|jspwiki-war/src/main/scripts/moo-extend/Accesskey.js|jspwiki-war/src/main/scripts/moo-extend/Array.Extend.js|jspwiki-war/src/main/scripts/moo-extend/Array.NaturalSort.js|jspwiki-war/src/main/scripts/moo-extend/Behavior.js|jspwiki-war/src/main/scripts/moo-extend/Color.js|jspwiki-war/src/main/scripts/moo-extend/Cookie.Flags.js|jspwiki-war/src/main/scripts/moo-extend/Date.Extend.js|jspwiki-war/src/main/scripts/moo-extend/Element.Extend.js|jspwiki-war/src/main/scripts/moo-extend/Element.Placeholder.js|jspwiki-war/src/main/scripts/moo-extend/Form.File.js|jspwiki-war/src/main/scripts/moo-extend/Form.MultipleFile.js|jspwiki-war/src/main/scripts/moo-extend/HighlightQuery.js|jspwiki-war/src/main/scripts/moo-extend/Request.File.js|jspwiki-war/src/main/scripts/moo-extend/String.Extend.js|jspwiki-war/src/main/scripts/moo-extend/Textarea.js|jspwiki-war/src/main/scripts/moo-extend/Tips.js|jspwiki-war/src/main/scripts/wiki-edit/Wiki.Edit.js|jspwiki-war/src/main/scripts/wiki/Category.js|jspwiki-war/src/main/scripts/wiki/Dynamic-styles.js|jspwiki-war/src/main/scripts/wiki/Findpages.js|jspwiki-war/src/main/scripts/wiki/Group.js|jspwiki-war/src/main/scripts/wiki/Prefs.js|jspwiki-war/src/main/scripts/wiki/Recents.js|jspwiki-war/src/main/scripts/wiki/Search.js|jspwiki-war/src/main/scripts/wiki/Wiki.js|jspwiki-war/src/main/styles/haddock/Accordion.less|jspwiki-war/src/main/styles/haddock/Calendar.less|jspwiki-war/src/main/styles/haddock/Category.less|jspwiki-war/src/main/styles/haddock/Collapsible.less|jspwiki-war/src/main/styles/haddock/Columns.less|jspwiki-war/src/main/styles/haddock/CommentBox.less|jspwiki-war/src/main/styles/haddock/GraphBar.less|jspwiki-war/src/main/styles/haddock/ImagePlugin.less|jspwiki-war/src/main/styles/haddock/IndexPlugin.less|jspwiki-war/src/main/styles/haddock/RecentChangesPlugin.less|jspwiki-war/src/main/styles/haddock/TOCPlugin.less|jspwiki-war/src/main/styles/haddock/TableX.Filter.less|jspwiki-war/src/main/styles/haddock/TableX.Sort.less|jspwiki-war/src/main/styles/haddock/Tabs.less|jspwiki-war/src/main/styles/haddock/Template.Attach.less|jspwiki-war/src/main/styles/haddock/Template.Content.less|jspwiki-war/src/main/styles/haddock/Template.Diff.less|jspwiki-war/src/main/styles/haddock/Template.Edit.less|jspwiki-war/src/main/styles/haddock/Template.Nav.less|jspwiki-war/src/main/styles/haddock/Template.Preview.less|jspwiki-war/src/main/styles/haddock/Template.Search.less|jspwiki-war/src/main/styles/haddock/Template.SearchBox.less|jspwiki-war/src/main/styles/haddock/Template.Sidebar.less|jspwiki-war/src/main/styles/haddock/Template.View.less|jspwiki-war/src/main/styles/haddock/Tips.less|jspwiki-war/src/main/styles/haddock/Viewer.Carousel.less|jspwiki-war/src/main/styles/haddock/Viewer.Slimbox.less|jspwiki-war/src/main/styles/haddock/Viewer.less|jspwiki-war/src/main/styles/haddock/WeblogPlugin.less|jspwiki-war/src/main/styles/haddock/Wiki.Layouts.less|jspwiki-war/src/main/styles/haddock/bootstrap/alerts.less|jspwiki-war/src/main/styles/haddock/bootstrap/badges.less|jspwiki-war/src/main/styles/haddock/bootstrap/bootstrap.less|jspwiki-war/src/main/styles/haddock/bootstrap/breadcrumbs.less|jspwiki-war/src/main/styles/haddock/bootstrap/button-groups.less|jspwiki-war/src/main/styles/haddock/bootstrap/buttons.less|jspwiki-war/src/main/styles/haddock/bootstrap/carousel.less|jspwiki-war/src/main/styles/haddock/bootstrap/close.less|jspwiki-war/src/main/styles/haddock/bootstrap/code.less|jspwiki-war/src/main/styles/haddock/bootstrap/component-animations.less|jspwiki-war/src/main/styles/haddock/bootstrap/dropdowns.less|jspwiki-war/src/main/styles/haddock/bootstrap/forms.less|jspwiki-war/src/main/styles/haddock/bootstrap/glyphicons.less|jspwiki-war/src/main/styles/haddock/bootstrap/grid.less|jspwiki-war/src/main/styles/haddock/bootstrap/input-groups.less|jspwiki-war/src/main/styles/haddock/bootstrap/jumbotron.less|jspwiki-war/src/main/styles/haddock/bootstrap/labels.less|jspwiki-war/src/main/styles/haddock/bootstrap/list-group.less|jspwiki-war/src/main/styles/haddock/bootstrap/mixins.less|jspwiki-war/src/main/styles/haddock/bootstrap/modals.less|jspwiki-war/src/main/styles/haddock/bootstrap/navbar.less|jspwiki-war/src/main/styles/haddock/bootstrap/navs.less|jspwiki-war/src/main/styles/haddock/bootstrap/normalize.less|jspwiki-war/src/main/styles/haddock/bootstrap/pager.less|jspwiki-war/src/main/styles/haddock/bootstrap/pagination.less|jspwiki-war/src/main/styles/haddock/bootstrap/panels.less|jspwiki-war/src/main/styles/haddock/bootstrap/popovers.less|jspwiki-war/src/main/styles/haddock/bootstrap/print.less|jspwiki-war/src/main/styles/haddock/bootstrap/progress-bars.less|jspwiki-war/src/main/styles/haddock/bootstrap/responsive-utilities.less|jspwiki-war/src/main/styles/haddock/bootstrap/scaffolding.less|jspwiki-war/src/main/styles/haddock/bootstrap/tables.less|jspwiki-war/src/main/styles/haddock/bootstrap/theme.less|jspwiki-war/src/main/styles/haddock/bootstrap/tooltip.less|jspwiki-war/src/main/styles/haddock/bootstrap/type.less|jspwiki-war/src/main/styles/haddock/bootstrap/utilities.less|jspwiki-war/src/main/styles/haddock/bootstrap/variables.less|jspwiki-war/src/main/styles/haddock/forms.less|jspwiki-war/src/main/styles/haddock/grid.less|jspwiki-war/src/main/styles/haddock/jspwiki.less|jspwiki-war/src/main/styles/haddock/pagination.less|jspwiki-war/src/main/styles/haddock/prettify.less|jspwiki-war/src/main/styles/haddock/print.less|jspwiki-war/src/main/styles/haddock/tables.less|jspwiki-war/src/main/styles/haddock/type.less|jspwiki-war/src/main/styles/haddock/variables.less|jspwiki-war/src/main/webapp/Install.jsp|jspwiki-war/src/main/webapp/admin/Admin.jsp|jspwiki-war/src/main/webapp/admin/SecurityConfig.jsp|jspwiki-war/src/main/webapp/templates/haddock/AttachmentTab.jsp|jspwiki-war/src/main/webapp/templates/haddock/CommentContent.jsp|jspwiki-war/src/main/webapp/templates/haddock/ConflictContent.jsp|jspwiki-war/src/main/webapp/templates/haddock/DiffTab.jsp|jspwiki-war/src/main/webapp/templates/haddock/EditContent.jsp|jspwiki-war/src/main/webapp/templates/haddock/EditGroupContent.jsp|jspwiki-war/src/main/webapp/templates/haddock/EditTemplate.jsp|jspwiki-war/src/main/webapp/templates/haddock/FindContent.jsp|jspwiki-war/src/main/webapp/templates/haddock/Footer.jsp|jspwiki-war/src/main/webapp/templates/haddock/GroupContent.jsp|jspwiki-war/src/main/webapp/templates/haddock/GroupTab.jsp|jspwiki-war/src/main/webapp/templates/haddock/Header.jsp|jspwiki-war/src/main/webapp/templates/haddock/InfoContent.jsp|jspwiki-war/src/main/webapp/templates/haddock/LoginContent.jsp|jspwiki-war/src/main/webapp/templates/haddock/Nav.jsp|jspwiki-war/src/main/webapp/templates/haddock/NewGroupContent.jsp|jspwiki-war/src/main/webapp/templates/haddock/PageContent.jsp|jspwiki-war/src/main/webapp/templates/haddock/PageInfo.jsp|jspwiki-war/src/main/webapp/templates/haddock/PageTab.jsp|jspwiki-war/src/main/webapp/templates/haddock/PreferencesContent.jsp|jspwiki-war/src/main/webapp/templates/haddock/PreferencesTab.jsp|jspwiki-war/src/main/webapp/templates/haddock/PreviewContent.jsp|jspwiki-war/src/main/webapp/templates/haddock/ProfileTab.jsp|jspwiki-war/src/main/webapp/templates/haddock/SearchBox.jsp|jspwiki-war/src/main/webapp/templates/haddock/Sidebar.jsp|jspwiki-war/src/main/webapp/templates/haddock/UploadTemplate.jsp|jspwiki-war/src/main/webapp/templates/haddock/UserBox.jsp|jspwiki-war/src/main/webapp/templates/haddock/ViewTemplate.jsp|jspwiki-war/src/main/webapp/templates/haddock/WorkflowContent.jsp|jspwiki-war/src/main/webapp/templates/haddock/admin/AdminTemplate.jsp|jspwiki-war/src/main/webapp/templates/haddock/admin/UserManagement.jsp|jspwiki-war/src/main/webapp/templates/haddock/admin/admin.css|jspwiki-war/src/main/webapp/templates/haddock/commonheader.jsp|jspwiki-war/src/main/webapp/templates/haddock/editors/plain.jsp|jspwiki-war/src/main/webapp/templates/haddock/editors/preview.jsp|jspwiki-war/src/main/webapp/templates/haddock/images/attach-strip.png|jspwiki-war/src/main/webapp/templates/haddock/images/form-select-arrow.png|jspwiki-war/src/main/webapp/templates/haddock/images/icon-filter.gif|jspwiki-war/src/main/webapp/templates/haddock/images/icon-search.png|jspwiki-war/src/main/webapp/templates/haddock/images/jspwiki-strip.gif|jspwiki-war/src/main/webapp/templates/reader/ViewTemplate.jsp|pom.xml|,11,12,16,2011-12-20 09:34:46 +0000,2014-02-14 17:24:32 +0000,3908a706d81e8aa4924f927b19854f9d43c7b0c0,jspwiki
JSPWIKI-170,2008-05-20 19:55:02 +0000,etc/i18n/CoreResources.properties|etc/i18n/CoreResources_fi.properties|src/com/ecyrd/jspwiki/plugin/RecentChangesPlugin.java|src/com/ecyrd/jspwiki/providers/BasicAttachmentProvider.java|src/com/ecyrd/jspwiki/providers/RCSFileProvider.java|src/com/ecyrd/jspwiki/tags/AuthorTag.java|,2,3,5,2008-01-29 10:19:20 +0000,2008-05-20 19:57:38 +0000,5a39fbe851284dc29669b4048a7c196471e7db06,jspwiki
JSPWIKI-171,2008-02-14 22:15:18 +0000,src/webdocs/Comment.jsp|,2,3,4,2008-01-30 23:13:40 +0000,2008-02-14 22:22:22 +0000,798703cbf3793e3712dd80a478e7e6654765b4af,jspwiki
JSPWIKI-847,2014-06-22 18:45:59 +0000,ChangeLog|jspwiki-war/src/main/java/org/apache/wiki/Release.java|jspwiki-war/src/main/java/org/apache/wiki/plugin/RecentChangesPlugin.java|jspwiki-war/src/main/java/org/apache/wiki/ui/admin/beans/PluginBean.java|jspwiki-war/src/main/java/org/apache/wiki/util/XhtmlUtil.java|jspwiki-war/src/test/java/org/apache/wiki/plugin/RecentChangesPluginTest.java|,16,17,17,2014-06-22 18:40:32 +0000,2014-06-22 18:45:32 +0000,5a2e9fcbf65041ddf3eea72b14dcdb83daea9642,jspwiki
JSPWIKI-183,2008-05-11 19:18:31 +0000,ChangeLog|src/com/ecyrd/jspwiki/content/PageRenamer.java|,2,4,5,2008-02-11 09:39:18 +0000,2008-05-11 19:19:16 +0000,b5dbd043aeb1c4a2921547f01fa725882498889f,jspwiki
JSPWIKI-185,2008-06-14 11:17:48 +0000,src/com/ecyrd/jspwiki/util/WatchDog.java|,3,4,6,2008-02-13 13:46:32 +0000,2008-06-14 12:30:29 +0000,57930cf6a4b922b45d5cd00cde09f999ea07b4a1,jspwiki
JSPWIKI-82,2007-12-10 00:29:33 +0000,src/com/ecyrd/jspwiki/auth/authorize/JDBCGroupDatabase.java|src/com/ecyrd/jspwiki/auth/user/JDBCUserDatabase.java|,1,2,2,2007-11-28 21:37:43 +0000,2007-11-29 01:13:06 +0000,96461c6e3083fc1b2abd0d856d7d21401ae37ca0,jspwiki
JSPWIKI-742,2012-12-16 11:04:36 +0000,ChangeLog|build.xml|src/org/apache/wiki/Release.java|src/org/apache/wiki/util/PriorityList.java|,10,12,13,2012-08-24 12:41:36 +0000,2012-12-12 18:16:19 +0000,959481fcc7530c9f56d58631dc6e09a9b118cbf6,jspwiki
JSPWIKI-500,2009-02-14 17:35:05 +0000,ChangeLog|src/java/org/apache/wiki/Release.java|src/java/org/apache/wiki/filters/SpamFilter.java|,8,9,9,2009-02-10 16:47:09 +0000,2009-02-14 17:36:47 +0000,e4429fe7a98c937ddb1deaa09f54ac951d866c08,jspwiki
JSPWIKI-733,2012-07-07 05:52:13 +0000,ChangeLog|src/org/apache/wiki/Release.java|src/webdocs/templates/default/editors/FCK.jsp|src/webdocs/templates/default/editors/plain.jsp|src/webdocs/templates/default/jspwiki.css|,11,12,12,2012-06-17 09:02:28 +0000,2012-07-07 05:32:46 +0000,bc5a3308fe32d667869b1a1ef43f12c94c922806,jspwiki
JSPWIKI-612,2009-11-21 14:13:17 +0000,ChangeLog|src/WebContent/templates/default/admin/UserManagement.jsp|src/java/org/apache/wiki/Release.java|,10,11,11,2009-11-19 11:59:23 +0000,2009-11-21 14:10:12 +0000,eb3d0c5cd53d0b53a161ea562fd352c5a688b78e,jspwiki
JSPWIKI-855,2014-08-11 23:25:56 +0000,ChangeLog|jspwiki-war/src/main/java/org/apache/wiki/Release.java|jspwiki-war/src/main/java/org/apache/wiki/forms/FormInput.java|,16,17,17,2014-08-04 08:25:10 +0000,2014-08-11 23:17:02 +0000,85297fc9cadd575b456b5dc29724e5b68cd69db3,jspwiki
JSPWIKI-734,2012-07-07 05:52:53 +0000,ChangeLog|src/org/apache/wiki/Release.java|src/webdocs/templates/default/editors/FCK.jsp|src/webdocs/templates/default/editors/plain.jsp|src/webdocs/templates/default/jspwiki.css|,11,12,12,2012-06-19 12:35:06 +0000,2012-07-07 05:32:46 +0000,bc5a3308fe32d667869b1a1ef43f12c94c922806,jspwiki
JSPWIKI-737,2012-07-05 15:29:19 +0000,src/org/apache/wiki/plugin/IfPlugin.java|tests/org/apache/wiki/plugin/IfPluginTest.java|,11,12,12,2012-07-04 20:48:53 +0000,2012-07-05 16:00:43 +0000,5b8f30a3e5f0afae9ea5172143086787ad5e6718,jspwiki
JSPWIKI-618,2009-12-15 19:26:52 +0000,ChangeLog|etc/jspwiki.properties|src/java/org/apache/wiki/Release.java|src/java/org/apache/wiki/attachment/AttachmentServlet.java|,10,11,11,2009-12-08 13:54:54 +0000,2009-12-15 19:26:03 +0000,9cc782cc5aa42811a2937bbd362ad70b6925a17b,jspwiki
JSPWIKI-59,2008-01-20 12:46:20 +0000,src/com/ecyrd/jspwiki/plugin/ReferringPagesPlugin.java|,1,2,3,2007-11-26 08:05:17 +0000,2008-01-20 13:11:06 +0000,491d53eda8a3191efd56d9589ceacb62d055e60a,jspwiki
JSPWIKI-57,2008-06-14 20:54:20 +0000,ChangeLog|src/com/ecyrd/jspwiki/auth/UserManager.java|,2,2,6,2007-11-25 13:56:03 +0000,2008-06-14 20:55:53 +0000,e18adf1887c9172508c4dd4e13a4a4083549aff9,jspwiki
JSPWIKI-591,2009-09-26 13:39:13 +0000,ChangeLog|,9,10,10,2009-08-31 15:15:11 +0000,2009-09-26 13:36:49 +0000,6f62d3e17359f1794422fcf828178cfd3e5b630c,jspwiki
JSPWIKI-473,2009-03-31 09:24:11 +0000,ChangeLog|src/java/org/apache/wiki/Release.java|src/java/org/apache/wiki/attachment/AttachmentManager.java|src/java/org/apache/wiki/auth/AuthenticationManager.java|src/java/org/apache/wiki/auth/AuthorizationManager.java|src/java/org/apache/wiki/auth/Authorizer.java|src/java/org/apache/wiki/auth/login/WebContainerCallbackHandler.java|src/java/org/apache/wiki/auth/login/WebContainerLoginModule.java|src/java/org/apache/wiki/forms/FormClose.java|src/java/org/apache/wiki/forms/FormInfo.java|src/java/org/apache/wiki/forms/FormInput.java|src/java/org/apache/wiki/forms/FormOpen.java|src/java/org/apache/wiki/forms/FormSelect.java|src/java/org/apache/wiki/forms/FormTextarea.java|src/java/org/apache/wiki/management/SimpleMBean.java|src/java/org/apache/wiki/modules/ModuleManager.java|src/java/org/apache/wiki/parser/CreoleToJSPWikiTranslator.java|src/java/org/apache/wiki/parser/JSPWikiMarkupParser.java|src/java/org/apache/wiki/plugin/AbstractFilteredPlugin.java|src/java/org/apache/wiki/plugin/BugReportHandler.java|src/java/org/apache/wiki/plugin/Counter.java|src/java/org/apache/wiki/plugin/CurrentTimePlugin.java|src/java/org/apache/wiki/plugin/Denounce.java|src/java/org/apache/wiki/plugin/Groups.java|src/java/org/apache/wiki/plugin/IfPlugin.java|src/java/org/apache/wiki/plugin/Image.java|src/java/org/apache/wiki/plugin/IndexPlugin.java|src/java/org/apache/wiki/plugin/InterWikiLinksPlugin.java|src/java/org/apache/wiki/plugin/ListLocksPlugin.java|src/java/org/apache/wiki/plugin/Note.java|src/java/org/apache/wiki/plugin/ParserStagePlugin.java|src/java/org/apache/wiki/plugin/PluginIndexPlugin.java|src/java/org/apache/wiki/plugin/PluginManager.java|src/java/org/apache/wiki/plugin/RPCSamplePlugin.java|src/java/org/apache/wiki/plugin/RecentChangesPlugin.java|src/java/org/apache/wiki/plugin/ReferredPagesPlugin.java|src/java/org/apache/wiki/plugin/ReferringPagesPlugin.java|src/java/org/apache/wiki/plugin/Search.java|src/java/org/apache/wiki/plugin/SessionsPlugin.java|src/java/org/apache/wiki/plugin/TableOfContents.java|src/java/org/apache/wiki/plugin/UndefinedPagesPlugin.java|src/java/org/apache/wiki/plugin/UnusedPagesPlugin.java|src/java/org/apache/wiki/plugin/WeblogArchivePlugin.java|src/java/org/apache/wiki/plugin/WeblogEntryPlugin.java|src/java/org/apache/wiki/plugin/WeblogPlugin.java|src/java/org/apache/wiki/plugin/WikiPlugin.java|src/java/org/apache/wiki/search/BasicSearchProvider.java|src/java/org/apache/wiki/search/LuceneSearchProvider.java|src/java/org/apache/wiki/search/SearchManager.java|src/java/org/apache/wiki/search/SearchProvider.java|src/java/org/apache/wiki/tags/AdminBeanIteratorTag.java|src/java/org/apache/wiki/tags/AttachmentsIteratorTag.java|src/java/org/apache/wiki/tags/CookieTag.java|src/java/org/apache/wiki/tags/IteratorTag.java|src/java/org/apache/wiki/tags/PluginTag.java|src/java/org/apache/wiki/tags/SearchResultIteratorTag.java|src/java/org/apache/wiki/tags/SearchResultsSizeTag.java|src/java/org/apache/wiki/tags/SearchResultsTag.java|src/java/org/apache/wiki/ui/EditorManager.java|src/java/org/apache/wiki/ui/TemplateManager.java|src/java/org/apache/wiki/ui/WikiRequestWrapper.java|src/java/org/apache/wiki/ui/admin/AdminBeanManager.java|src/java/org/apache/wiki/ui/admin/WikiFormAdminBean.java|tests/java/org/apache/wiki/auth/AuthenticationManagerTest.java|tests/java/org/apache/wiki/auth/AuthorizationManagerTest.java|tests/java/org/apache/wiki/auth/login/AnonymousLoginModuleTest.java|tests/java/org/apache/wiki/auth/login/CookieAssertionLoginModuleTest.java|tests/java/org/apache/wiki/auth/login/UserDatabaseLoginModuleTest.java|tests/java/org/apache/wiki/auth/login/WebContainerLoginModuleTest.java|tests/java/org/apache/wiki/search/SearchManagerTest.java|tests/java/org/apache/wiki/ui/migrator/BundleMigratorTest.java|tests/java/org/apache/wiki/ui/migrator/JSPWikiJspTransformerTest.java|tests/java/org/apache/wiki/ui/migrator/JspParserTest.java|tests/java/org/apache/wiki/ui/migrator/StripesJspTransformerTest.java|tests/java/org/apache/wiki/util/ClassUtilTest.java|tests/java/org/apache/wiki/util/PriorityListTest.java|,7,9,10,2009-01-22 02:38:19 +0000,2009-04-10 13:16:16 +0000,c516a89bc9a860dfa8c8e1a53690c21e52afe448,jspwiki
JSPWIKI-55,2007-12-11 20:39:34 +0000,src/com/ecyrd/jspwiki/htmltowiki/XHtmlToWikiConfig.java|,1,2,2,2007-11-24 03:35:17 +0000,2007-12-11 21:02:25 +0000,566bbfa6e7b8e5cd662d63d1fd18388f680b6e4a,jspwiki
JSPWIKI-477,2009-02-06 17:55:47 +0000,ChangeLog|build.properties|build.xml|etc/dtd/web-app_2_3.dtd|src/java/org/apache/wiki/Release.java|src/java/org/apache/wiki/content/PageRenamer.java|,8,9,9,2009-01-27 15:37:08 +0000,2009-02-06 17:54:42 +0000,dc6d7dd5ad76164e82b87ef821149049415f7364,jspwiki
JSPWIKI-114,2008-01-19 17:26:18 +0000,src/com/ecyrd/jspwiki/VariableManager.java|,1,3,3,2007-12-26 18:03:20 +0000,2008-01-19 17:25:46 +0000,1aba9698d1ecc40adc397693f9b854a615c99ba4,jspwiki
JSPWIKI-236,2008-05-20 19:40:43 +0000,ChangeLog|etc/i18n/templates/default.properties|etc/i18n/templates/default_fi.properties|etc/i18n/templates/default_nl.properties|etc/i18n/templates/default_zh_CN.properties|src/com/ecyrd/jspwiki/Release.java|src/webdocs/templates/default/LoginContent.jsp|,4,5,5,2008-04-09 03:48:35 +0000,2008-05-20 19:58:45 +0000,da73ca4aa276471ed301d338bcba4831031cd403,jspwiki
JSPWIKI-348,2008-10-21 19:55:11 +0000,ChangeLog|src/com/ecyrd/jspwiki/ui/WikiJSPFilter.java|,2,6,7,2008-08-17 12:02:07 +0000,2008-09-03 20:06:01 +0000,11340de5a5a7948e8e3c0796be4f0f089e30c974,jspwiki
JSPWIKI-227,2008-04-04 22:20:44 +0000,etc/i18n/CoreResources.properties|etc/i18n/CoreResources_nl.properties|,4,5,5,2008-04-02 17:35:52 +0000,2008-04-04 22:41:24 +0000,6cd0a45b433b7179b14dbff1f56a5f561a5785ac,jspwiki
JSPWIKI-228,2008-06-09 18:41:23 +0000,tests/com/ecyrd/jspwiki/plugin/TableOfContentsTest.java|,4,5,6,2008-04-03 11:53:34 +0000,2008-06-09 20:02:09 +0000,fa61f098b1c102e01bc5c3e09a4bb47a7b5dad5c,jspwiki
JSPWIKI-1042,2017-01-14 12:22:55 +0000,ChangeLog|jspwiki-war/src/main/java/org/apache/wiki/Release.java|jspwiki-war/src/main/java/org/apache/wiki/auth/UserManager.java|jspwiki-war/src/main/java/org/apache/wiki/util/MailUtil.java|,17,18,18,2017-01-06 19:33:11 +0000,2017-01-14 13:21:21 +0100,2e3da23a887548876fa7f61303efaf1fa15fc333,jspwiki
JSPWIKI-900,2015-08-04 13:13:58 +0000,ChangeLog|jspwiki-war/src/main/java/org/apache/wiki/Release.java|,16,17,17,2015-08-04 12:27:33 +0000,2015-08-04 13:13:00 +0000,5c83c10525492204fa2acdab4e7525fac5a1f3b7,jspwiki
JSPWIKI-1043,2017-01-14 12:22:18 +0000,ChangeLog|jspwiki-war/src/main/java/org/apache/wiki/Release.java|jspwiki-war/src/main/java/org/apache/wiki/auth/UserManager.java|jspwiki-war/src/main/java/org/apache/wiki/util/MailUtil.java|,17,18,18,2017-01-14 02:19:54 +0000,2017-01-14 13:21:21 +0100,2e3da23a887548876fa7f61303efaf1fa15fc333,jspwiki
JSPWIKI-901,2016-03-27 19:27:18 +0000,ChangeLog|jspwiki-war/src/main/java/org/apache/wiki/Release.java|jspwiki-war/src/main/java/org/apache/wiki/plugin/WeblogPlugin.java|jspwiki-war/src/main/java/org/apache/wiki/preferences/Preferences.java|jspwiki-war/src/main/scripts/wiki-edit/Wiki.Snips.js|jspwiki-war/src/main/scripts/wiki/Wiki.js|jspwiki-war/src/main/styles/haddock/default/Template.Edit.less|jspwiki-war/src/main/styles/haddock/default/Template.Nav.less|jspwiki-war/src/main/styles/haddock/default/Template.View.less|jspwiki-war/src/main/styles/haddock/default/Viewer.Slimbox.less|jspwiki-war/src/main/styles/haddock/default/WeblogPlugin.less|jspwiki-war/src/main/styles/haddock/default/print.less|jspwiki-war/src/main/styles/haddock/default/type.less|jspwiki-war/src/main/styles/haddock/fontjspwiki/core.less|jspwiki-war/src/main/webapp/templates/haddock/InfoContent.jsp|jspwiki-war/src/main/webapp/templates/haddock/Nav.jsp|jspwiki-war/src/main/webapp/templates/haddock/PageTab.jsp|jspwiki-war/src/main/webapp/templates/haddock/PreferencesTab.jsp|jspwiki-war/src/main/webapp/templates/haddock/ViewTemplate.jsp|jspwiki-war/src/main/webapp/templates/haddock/editors/plain.jsp|,17,17,18,2015-08-07 12:00:56 +0000,2016-03-27 19:24:42 +0000,9fddd644dabc5b64d1bc50c4eee6185f15a392a4,jspwiki
JSPWIKI-907,2015-08-14 21:11:20 +0000,jspwiki-portable/build.xml|jspwiki-portable/readme.md|jspwiki-portable/src/overlay/launchers/tomcat/woas.app/Contents/Info.plist|jspwiki-portable/src/overlay/launchers/tomcat/woas.app/Contents/Java/bootstrap.jar|jspwiki-portable/src/overlay/launchers/tomcat/woas.app/Contents/Java/tomcat-juli.jar|jspwiki-portable/src/overlay/launchers/tomcat/woas.app/Contents/Java/tomcat-launcher-7.0.52.jar|,16,17,17,2015-08-13 18:50:35 +0000,2015-08-14 19:29:20 +0000,79b46aa45e3e780adcbbadfcb7a3638fa689e0c1,jspwiki
JSPWIKI-481,2009-08-23 18:59:48 +0000,ChangeLog|etc/jspwiki.properties.tmpl|src/WebContent/scripts/jspwiki-common.js|src/WebContent/templates/default/jspwiki.css|src/java/org/apache/wiki/Release.java|,8,9,10,2009-02-02 15:08:59 +0000,2009-08-19 06:49:45 +0000,a0ecccad4da8459b53f49f4443ad838d7489d152,jspwiki
JSPWIKI-482,2016-12-18 21:30:46 +0000,ChangeLog|jspwiki-war/src/main/config/wro/wro-haddock.xml|jspwiki-war/src/main/config/wro/wro.properties|jspwiki-war/src/main/java/org/apache/wiki/Release.java|jspwiki-war/src/main/resources/templates/default.properties|jspwiki-war/src/main/scripts/behaviors/Accordion.js|jspwiki-war/src/main/scripts/behaviors/AddCSS.js|jspwiki-war/src/main/scripts/behaviors/Collapsible.js|jspwiki-war/src/main/scripts/behaviors/Columns.js|jspwiki-war/src/main/scripts/behaviors/CommentBox.js|jspwiki-war/src/main/scripts/behaviors/Element.Reflect.js|jspwiki-war/src/main/scripts/behaviors/Flip.js|jspwiki-war/src/main/scripts/behaviors/GraphBar.js|jspwiki-war/src/main/scripts/behaviors/TableX.Filter.js|jspwiki-war/src/main/scripts/behaviors/TableX.Sort.js|jspwiki-war/src/main/scripts/behaviors/TableX.Zebra.js|jspwiki-war/src/main/scripts/behaviors/TableX.js|jspwiki-war/src/main/scripts/behaviors/Tabs.js|jspwiki-war/src/main/scripts/behaviors/Viewer.Carousel.js|jspwiki-war/src/main/scripts/behaviors/Viewer.Slimbox.js|jspwiki-war/src/main/scripts/behaviors/Viewer.js|jspwiki-war/src/main/scripts/dialog/Dialog.Buttons.js|jspwiki-war/src/main/scripts/dialog/Dialog.Chars.js|jspwiki-war/src/main/scripts/dialog/Dialog.Color.js|jspwiki-war/src/main/scripts/dialog/Dialog.Find.js|jspwiki-war/src/main/scripts/dialog/Dialog.Font.js|jspwiki-war/src/main/scripts/dialog/Dialog.Selection.js|jspwiki-war/src/main/scripts/dialog/Dialog.js|jspwiki-war/src/main/scripts/dynamic-styles/Viewer.js|jspwiki-war/src/main/scripts/lib/mootools-core-1.5.1.js|jspwiki-war/src/main/scripts/lib/mootools-more-1.5.1.js|jspwiki-war/src/main/scripts/moo-extend/Accesskey.js|jspwiki-war/src/main/scripts/moo-extend/Array.Extend.HSV.js|jspwiki-war/src/main/scripts/moo-extend/Array.Extend.js|jspwiki-war/src/main/scripts/moo-extend/Array.NaturalSort.js|jspwiki-war/src/main/scripts/moo-extend/Behavior.js|jspwiki-war/src/main/scripts/moo-extend/Color.js|jspwiki-war/src/main/scripts/moo-extend/Date.Extend.js|jspwiki-war/src/main/scripts/moo-extend/Element.Extend.js|jspwiki-war/src/main/scripts/moo-extend/Form.File.js|jspwiki-war/src/main/scripts/moo-extend/Form.MultipleFile.js|jspwiki-war/src/main/scripts/moo-extend/Function.Extend.js|jspwiki-war/src/main/scripts/moo-extend/HighlightQuery.js|jspwiki-war/src/main/scripts/moo-extend/Request.File.js|jspwiki-war/src/main/scripts/moo-extend/String.Extend.js|jspwiki-war/src/main/scripts/moo-extend/Textarea.js|jspwiki-war/src/main/scripts/moo-extend/Tips.js|jspwiki-war/src/main/scripts/wiki-edit/Snipe.Commands.js|jspwiki-war/src/main/scripts/wiki-edit/Snipe.Sections.js|jspwiki-war/src/main/scripts/wiki-edit/Snipe.Sections.old.js|jspwiki-war/src/main/scripts/wiki-edit/Snipe.Snips.js|jspwiki-war/src/main/scripts/wiki-edit/Snipe.js|jspwiki-war/src/main/scripts/wiki-edit/UndoRedo.js|jspwiki-war/src/main/scripts/wiki-edit/Undoable.js|jspwiki-war/src/main/scripts/wiki-edit/Wiki.Edit.js|jspwiki-war/src/main/scripts/wiki-edit/Wiki.Snips.js|jspwiki-war/src/main/scripts/wiki/Category.js|jspwiki-war/src/main/scripts/wiki/Dynamic-styles.js|jspwiki-war/src/main/scripts/wiki/Findpages.js|jspwiki-war/src/main/scripts/wiki/Group.js|jspwiki-war/src/main/scripts/wiki/Prefs.js|jspwiki-war/src/main/scripts/wiki/Recents.js|jspwiki-war/src/main/scripts/wiki/Search.js|jspwiki-war/src/main/scripts/wiki/Wiki.Behaviors.js|jspwiki-war/src/main/scripts/wiki/Wiki.js|jspwiki-war/src/main/styles/haddock/Columns.less|jspwiki-war/src/main/styles/haddock/CommentBox.less|jspwiki-war/src/main/styles/haddock/Dialog.less|jspwiki-war/src/main/styles/haddock/ImagePlugin.less|jspwiki-war/src/main/styles/haddock/IndexPlugin.less|jspwiki-war/src/main/styles/haddock/RecentChangesPlugin.less|jspwiki-war/src/main/styles/haddock/TableX.Filter.less|jspwiki-war/src/main/styles/haddock/Tabs.less|jspwiki-war/src/main/styles/haddock/Template.Content.less|jspwiki-war/src/main/styles/haddock/Template.Edit.less|jspwiki-war/src/main/styles/haddock/Template.Nav.less|jspwiki-war/src/main/styles/haddock/Template.Preview.less|jspwiki-war/src/main/styles/haddock/Template.Search.less|jspwiki-war/src/main/styles/haddock/Template.SearchBox.less|jspwiki-war/src/main/styles/haddock/Template.View.less|jspwiki-war/src/main/styles/haddock/Tips.less|jspwiki-war/src/main/styles/haddock/Viewer.less|jspwiki-war/src/main/styles/haddock/Wiki.Layouts.less|jspwiki-war/src/main/styles/haddock/default/Accordion.less|jspwiki-war/src/main/styles/haddock/default/Calendar.less|jspwiki-war/src/main/styles/haddock/default/Category.less|jspwiki-war/src/main/styles/haddock/default/Collapsible.less|jspwiki-war/src/main/styles/haddock/default/Columns.less|jspwiki-war/src/main/styles/haddock/default/CommentBox.less|jspwiki-war/src/main/styles/haddock/default/Dialog.less|jspwiki-war/src/main/styles/haddock/default/Flip.less|jspwiki-war/src/main/styles/haddock/default/GraphBar.less|jspwiki-war/src/main/styles/haddock/default/ImagePlugin.less|jspwiki-war/src/main/styles/haddock/default/IndexPlugin.less|jspwiki-war/src/main/styles/haddock/default/RecentChangesPlugin.less|jspwiki-war/src/main/styles/haddock/default/TOCPlugin.less|jspwiki-war/src/main/styles/haddock/default/TableX.Filter.less|jspwiki-war/src/main/styles/haddock/default/TableX.Sort.less|jspwiki-war/src/main/styles/haddock/default/Tabs.less|jspwiki-war/src/main/styles/haddock/default/Template.Attach.less|jspwiki-war/src/main/styles/haddock/default/Template.Content.less|jspwiki-war/src/main/styles/haddock/default/Template.Diff.less|jspwiki-war/src/main/styles/haddock/default/Template.Edit.less|jspwiki-war/src/main/styles/haddock/default/Template.Nav.less|jspwiki-war/src/main/styles/haddock/default/Template.Preview.less|jspwiki-war/src/main/styles/haddock/default/Template.Search.less|jspwiki-war/src/main/styles/haddock/default/Template.SearchBox.less|jspwiki-war/src/main/styles/haddock/default/Template.Sidebar.less|jspwiki-war/src/main/styles/haddock/default/Template.UserBox.less|jspwiki-war/src/main/styles/haddock/default/Template.View.less|jspwiki-war/src/main/styles/haddock/default/Tips.less|jspwiki-war/src/main/styles/haddock/default/Viewer.Carousel.less|jspwiki-war/src/main/styles/haddock/default/Viewer.Slimbox.less|jspwiki-war/src/main/styles/haddock/default/Viewer.less|jspwiki-war/src/main/styles/haddock/default/WeblogPlugin.less|jspwiki-war/src/main/styles/haddock/default/build.less|jspwiki-war/src/main/styles/haddock/default/forms.less|jspwiki-war/src/main/styles/haddock/default/grid.less|jspwiki-war/src/main/styles/haddock/default/pagination.less|jspwiki-war/src/main/styles/haddock/default/prettify.less|jspwiki-war/src/main/styles/haddock/default/print.less|jspwiki-war/src/main/styles/haddock/default/tables.less|jspwiki-war/src/main/styles/haddock/default/type.less|jspwiki-war/src/main/styles/haddock/default/variables.less|jspwiki-war/src/main/styles/haddock/fontjspwiki/core.less|jspwiki-war/src/main/styles/haddock/fontjspwiki/font-jspwiki.less|jspwiki-war/src/main/styles/haddock/fontjspwiki/fonts/FontJspwiki.eot|jspwiki-war/src/main/styles/haddock/fontjspwiki/fonts/FontJspwiki.svg|jspwiki-war/src/main/styles/haddock/fontjspwiki/fonts/FontJspwiki.ttf|jspwiki-war/src/main/styles/haddock/fontjspwiki/fonts/FontJspwiki.woff|jspwiki-war/src/main/styles/haddock/fontjspwiki/icons.less|jspwiki-war/src/main/styles/haddock/fontjspwiki/path.less|jspwiki-war/src/main/styles/haddock/grid.less|jspwiki-war/src/main/styles/haddock/pagination.less|jspwiki-war/src/main/styles/haddock/prettify.less|jspwiki-war/src/main/styles/haddock/print.less|jspwiki-war/src/main/styles/haddock/tables.less|jspwiki-war/src/main/styles/haddock/variables.less|jspwiki-war/src/main/webapp/Install.jsp|jspwiki-war/src/main/webapp/Search.jsp|jspwiki-war/src/main/webapp/WEB-INF/web.xml|jspwiki-war/src/main/webapp/error/Forbidden.html|jspwiki-war/src/main/webapp/templates/default/AJAXSearch.jsp|jspwiki-war/src/main/webapp/templates/default/FindContent.jsp|jspwiki-war/src/main/webapp/templates/default/admin/UserManagement.jsp|jspwiki-war/src/main/webapp/templates/default/skins/CleanBlue/skin.js|jspwiki-war/src/main/webapp/templates/default/skins/Smart/skin.css|jspwiki-war/src/main/webapp/templates/haddock/AttachmentTab.jsp|jspwiki-war/src/main/webapp/templates/haddock/CommentContent.jsp|jspwiki-war/src/main/webapp/templates/haddock/EditGroupContent.jsp|jspwiki-war/src/main/webapp/templates/haddock/EditTemplate.jsp|jspwiki-war/src/main/webapp/templates/haddock/FindContent.jsp|jspwiki-war/src/main/webapp/templates/haddock/Footer.jsp|jspwiki-war/src/main/webapp/templates/haddock/GroupContent.jsp|jspwiki-war/src/main/webapp/templates/haddock/GroupTab.jsp|jspwiki-war/src/main/webapp/templates/haddock/Header.jsp|jspwiki-war/src/main/webapp/templates/haddock/InfoContent.jsp|jspwiki-war/src/main/webapp/templates/haddock/LoginContent.jsp|jspwiki-war/src/main/webapp/templates/haddock/Nav.jsp|jspwiki-war/src/main/webapp/templates/haddock/PageContent.jsp|jspwiki-war/src/main/webapp/templates/haddock/PageInfo.jsp|jspwiki-war/src/main/webapp/templates/haddock/PageTab.jsp|jspwiki-war/src/main/webapp/templates/haddock/PreferencesTab.jsp|jspwiki-war/src/main/webapp/templates/haddock/ProfileTab.jsp|jspwiki-war/src/main/webapp/templates/haddock/SearchBox.jsp|jspwiki-war/src/main/webapp/templates/haddock/Sidebar.jsp|jspwiki-war/src/main/webapp/templates/haddock/UploadTemplate.jsp|jspwiki-war/src/main/webapp/templates/haddock/UserBox.jsp|jspwiki-war/src/main/webapp/templates/haddock/ViewTemplate.jsp|jspwiki-war/src/main/webapp/templates/haddock/admin/UserManagement.jsp|jspwiki-war/src/main/webapp/templates/haddock/commonheader.jsp|jspwiki-war/src/main/webapp/templates/haddock/editors/plain.jsp|jspwiki-war/src/main/webapp/templates/haddock/images/circle-256.png|jspwiki-war/src/main/webapp/templates/haddock/images/hue-wheel.png|jspwiki-war/src/main/webapp/templates/haddock/images/icon-filter.gif|jspwiki-war/src/main/webapp/templates/haddock/images/icon-search.png|jspwiki-war/src/main/webapp/templates/haddock/images/jspwiki-strip.gif|jspwiki-war/src/main/webapp/templates/reader/ViewTemplate.jsp|pom.xml|,8,9,17,2009-02-02 15:13:12 +0000,2015-06-22 20:11:42 +0000,42feeeefb30888d3826a01cb09b82a7bcff58221,jspwiki
JSPWIKI-487,2009-03-29 13:01:04 +0000,ChangeLog|src/java/org/apache/wiki/Release.java|src/java/org/apache/wiki/action/AbstractPageActionBean.java|src/java/org/apache/wiki/action/DeleteActionBean.java|src/java/org/apache/wiki/action/RenameActionBean.java|src/java/org/apache/wiki/tags/BreadcrumbsTag.java|,8,9,9,2009-02-02 15:39:51 +0000,2009-03-29 13:00:24 +0000,97858e26b4eed2c49b0166bd21ed4f0fcd332eda,jspwiki
JSPWIKI-368,2008-09-24 12:49:39 +0000,ChangeLog|src/com/ecyrd/jspwiki/Release.java|src/webdocs/scripts/jspwiki-common.js|,6,7,7,2008-09-01 08:18:20 +0000,2008-09-24 10:09:51 +0000,72e58a9eab000d1a31396ad5b3ac1182dc3ac960,jspwiki
JSPWIKI-1050,2017-02-04 21:35:46 +0000,ChangeLog|jspwiki-war/src/main/java/org/apache/wiki/Release.java|jspwiki-war/src/main/scripts/behaviors/AddCSS.js|jspwiki-war/src/main/scripts/dialog/Dialog.Find.js|jspwiki-war/src/main/scripts/moo-extend/Element.Extend.js|jspwiki-war/src/main/scripts/wiki-edit/Snipe.Sections.js|jspwiki-war/src/main/scripts/wiki-edit/Snipe.js|jspwiki-war/src/main/scripts/wiki-edit/Wiki.Snips.js|jspwiki-war/src/main/styles/haddock/default/Dialog.less|jspwiki-war/src/main/styles/haddock/default/Template.Edit.less|jspwiki-war/src/main/styles/haddock/default/type.less|jspwiki-war/src/main/webapp/templates/haddock/editors/plain.jsp|,17,18,18,2017-02-02 19:17:38 +0000,2017-02-04 16:36:31 +0100,3dcd27654fa89cd9ef198e38c412827e666715eb,jspwiki
JSPWIKI-116,2007-12-28 15:49:33 +0000,ChangeLog|src/com/ecyrd/jspwiki/Release.java|src/com/ecyrd/jspwiki/auth/UserManager.java|,2,3,3,2007-12-28 15:43:29 +0000,2007-12-28 15:47:59 +0000,1e3329514207242e1fc77a86281ce43739b5f4b5,jspwiki
JSPWIKI-1051,2017-03-03 18:55:58 +0000,ChangeLog|jspwiki-war/src/main/java/org/apache/wiki/Release.java|jspwiki-war/src/main/java/org/apache/wiki/ui/Installer.java|jspwiki-war/src/main/resources/ini/jspwiki.properties|jspwiki-war/src/main/webapp/Install.jsp|jspwiki-war/src/test/resources/ini/jspwiki.properties|,17,18,18,2017-02-26 01:12:17 +0000,2017-03-03 19:54:34 +0100,ea5a5b7674aaa0474d31cff803cb6962ddde3d05,jspwiki
JSPWIKI-118,2008-01-19 17:30:07 +0000,src/webdocs/Comment.jsp|,2,3,3,2008-01-01 15:37:24 +0000,2008-01-19 17:36:46 +0000,860c59dbdb7966fc35a2e1d1612f4be3f2be1eed,jspwiki
JSPWIKI-119,2008-01-05 21:03:37 +0000,src/com/ecyrd/jspwiki/parser/JSPWikiMarkupParser.java|,2,3,3,2008-01-05 10:33:15 +0000,2008-01-05 21:09:32 +0000,aec587170ab75e0b851178031930af62d9a60977,jspwiki
JSPWIKI-916,2015-09-19 16:52:46 +0000,ChangeLog|jspwiki-war/src/main/java/org/apache/wiki/Release.java|jspwiki-war/src/main/styles/jspwiki.css|,16,17,17,2015-09-15 19:31:09 +0000,2015-09-19 16:50:56 +0000,f2164cd34b91b59ddce2f4e25c2397f25c3213a1,jspwiki
JSPWIKI-1059,2017-05-15 16:30:36 +0000,ChangeLog|jspwiki-war/src/main/java/org/apache/wiki/Release.java|jspwiki-war/src/main/java/org/apache/wiki/auth/SessionMonitor.java|jspwiki-war/src/main/webapp/WEB-INF/userdatabase.xml|,17,18,18,2017-05-14 13:17:59 +0000,2017-05-15 18:29:11 +0200,340aaea503a5643edf4d17d8c0af9fe9453e918a,jspwiki
JSPWIKI-370,2008-09-03 19:26:53 +0000,ChangeLog|src/com/ecyrd/jspwiki/Release.java|src/webdocs/scripts/jspwiki-commonstyles.js|src/webdocs/scripts/jspwiki-edit.js|src/webdocs/templates/default/InfoContent.jsp|src/webdocs/templates/default/editors/FCK.jsp|src/webdocs/templates/default/editors/plain.jsp|src/webdocs/templates/default/jspwiki.css|,4,7,7,2008-09-02 20:11:06 +0000,2008-09-03 19:20:59 +0000,103b89857c4a5059a99b1bbe299f14cf989befe3,jspwiki
JSPWIKI-493,2011-09-18 13:29:29 +0000,ChangeLog|src/java/org/apache/wiki/Release.java|src/java/org/apache/wiki/htmltowiki/XHtmlElementToWikiTranslator.java|tests/java/org/apache/wiki/htmltowiki/HtmlStringToWikiTranslatorTest.java|,7,9,12,2009-02-04 09:54:04 +0000,2011-09-18 13:28:38 +0000,06ca09f8a00cbe5a3d4f0ce8e0aada9a102a2ed5,jspwiki
JSPWIKI-30,2008-06-07 21:36:30 +0000,ChangeLog|src/com/ecyrd/jspwiki/PageManager.java|src/com/ecyrd/jspwiki/Release.java|src/com/ecyrd/jspwiki/content/PageRenamer.java|,1,2,6,2007-11-10 14:53:24 +0000,2008-06-07 21:44:43 +0000,f28794b0dccc253f7d23cc7efe20d8e89ef11c2c,jspwiki
JSPWIKI-373,2008-09-23 20:27:21 +0000,ChangeLog|src/com/ecyrd/jspwiki/Release.java|src/webdocs/scripts/jspwiki-edit.js|,5,7,7,2008-09-09 12:28:28 +0000,2008-09-23 21:24:35 +0000,8d4b2c10177d806fdef553acb0907734dd909736,jspwiki
JSPWIKI-132,2008-01-19 17:04:06 +0000,src/webdocs/templates/default/FindContent.jsp|,2,3,3,2008-01-14 12:02:39 +0000,2008-01-19 17:03:13 +0000,aede2ebc07da9345f2b84e2163903c3a58a33d12,jspwiki
JSPWIKI-133,2008-01-19 16:56:04 +0000,src/webdocs/templates/default/GroupContent.jsp|,2,3,3,2008-01-14 14:40:41 +0000,2008-01-19 16:59:29 +0000,52de500d6d5123f4d6f63d8c520db7995cd63026,jspwiki
JSPWIKI-134,2008-01-19 16:58:47 +0000,src/webdocs/templates/default/EditGroupContent.jsp|,2,3,3,2008-01-14 15:06:06 +0000,2008-01-19 16:57:53 +0000,0e51dfaaf6b224e5a512b669ed2c941dd3055aab,jspwiki
JSPWIKI-135,2008-01-19 16:53:33 +0000,src/webdocs/templates/default/ConflictContent.jsp|,2,3,3,2008-01-14 19:58:22 +0000,2008-01-19 16:59:54 +0000,878994c3c93ab6da95198f5ecf2df4da320021f9,jspwiki
JSPWIKI-136,2008-01-19 16:49:21 +0000,src/webdocs/templates/default/WorkflowContent.jsp|,2,3,3,2008-01-16 09:46:23 +0000,2008-01-19 17:01:01 +0000,33805be3332aead5b53492bff655c017b50f4696,jspwiki
JSPWIKI-1064,2018-03-25 21:21:51 +0000,jspwiki-war/src/main/java/org/apache/wiki/render/RenderingManager.java|,18,18,19,2017-12-10 14:12:00 +0000,2018-03-25 23:15:31 +0200,3e3b53cfc71687ec5c5d147f2091e6563da8f2e8,jspwiki
JSPWIKI-1067,2018-03-30 20:29:10 +0000,jspwiki-war/src/main/java/org/apache/wiki/auth/acl/DefaultAclManager.java|,18,19,19,2018-03-26 15:03:51 +0000,2018-03-30 22:20:05 +0200,28489c5c43a8cfa74fc4aa1ac669daa9b67d37b5,jspwiki
JSPWIKI-1068,2018-03-31 15:42:20 +0000,ChangeLog|jspwiki-war/src/main/java/org/apache/wiki/Release.java|jspwiki-war/src/main/scripts/moo-extend/String.Extend.js|jspwiki-war/src/main/scripts/wiki/Wiki.Behaviors.js|jspwiki-war/src/main/scripts/wiki/Wiki.js|jspwiki-war/src/main/styles/haddock/default/Collapsible.less|jspwiki-war/src/main/styles/haddock/default/RecentChangesPlugin.less|jspwiki-war/src/main/styles/haddock/default/Template.Content.less|jspwiki-war/src/main/styles/haddock/default/Template.Diff.less|jspwiki-war/src/main/styles/haddock/default/Template.Edit.less|jspwiki-war/src/main/styles/haddock/default/Template.Nav.less|jspwiki-war/src/main/styles/haddock/default/Template.Search.less|jspwiki-war/src/main/styles/haddock/default/Template.Sidebar.less|jspwiki-war/src/main/styles/haddock/default/Template.View.less|jspwiki-war/src/main/styles/haddock/default/build.less|jspwiki-war/src/main/styles/haddock/default/prettify.less|jspwiki-war/src/main/styles/haddock/default/print.less|jspwiki-war/src/main/styles/haddock/default/responsive-viewport.less|jspwiki-war/src/main/styles/haddock/default/tables.less|jspwiki-war/src/main/styles/haddock/fontjspwiki/icons.less|jspwiki-war/src/main/webapp/templates/haddock/Nav.jsp|jspwiki-war/src/main/webapp/templates/haddock/UploadTemplate.jsp|jspwiki-war/src/main/webapp/templates/haddock/editors/plain.jsp|,18,19,19,2018-03-30 22:25:58 +0000,2018-04-22 21:36:13 +0200,1336c7179b5268bd36f0ba9832ab6f1b5d5c4239,jspwiki
JSPWIKI-1069,2018-04-11 20:01:32 +0000,ChangeLog|jspwiki-war/src/main/java/org/apache/wiki/Release.java|jspwiki-war/src/main/resources/templates/default.properties|jspwiki-war/src/main/resources/templates/default_de.properties|jspwiki-war/src/main/resources/templates/default_fr.properties|jspwiki-war/src/main/resources/templates/default_nl.properties|jspwiki-war/src/main/webapp/templates/haddock/AttachmentTab.jsp|jspwiki-war/src/main/webapp/templates/haddock/InfoContent.jsp|jspwiki-war/src/main/webapp/templates/haddock/editors/plain.jsp|,18,19,19,2018-04-11 15:50:52 +0000,2018-04-11 22:00:10 +0200,9de699a366c419549edb0c8020a39db27dbc8e3b,jspwiki
JSPWIKI-807,2013-12-28 12:35:16 +0000,ChangeLog|jspwiki-war/src/main/java/org/apache/wiki/PageManager.java|jspwiki-war/src/main/java/org/apache/wiki/Release.java|jspwiki-war/src/main/java/org/apache/wiki/providers/AbstractFileProvider.java|jspwiki-war/src/main/java/org/apache/wiki/providers/CachingProvider.java|jspwiki-war/src/main/java/org/apache/wiki/providers/VersioningFileProvider.java|jspwiki-war/src/main/java/org/apache/wiki/providers/WikiPageProvider.java|jspwiki-war/src/test/java/org/apache/wiki/providers/CounterProvider.java|jspwiki-war/src/test/java/org/apache/wiki/providers/VerySimpleProvider.java|,13,14,14,2013-12-18 04:47:02 +0000,2013-12-28 12:35:01 +0000,297ad9f3a2650cba3313f2344f09912b8226d187,jspwiki
JSPWIKI-46,2007-11-25 20:33:05 +0000,ChangeLog|jspwiki-war/src/main/java/org/apache/wiki/Release.java|,1,2,14,2007-11-18 18:37:15 +0000,2013-12-30 15:23:48 +0000,49963aacdd9de6a4abf9a9fcdf9d524d7a677cb0,jspwiki
JSPWIKI-260,2008-05-17 08:12:26 +0000,ChangeLog|build.xml|src/com/ecyrd/jspwiki/i18n/InternationalizationManager.java|src/com/ecyrd/jspwiki/plugin/ReferringPagesPlugin.java|src/com/ecyrd/jspwiki/plugin/WikiPlugin.java|src/com/ecyrd/jspwiki/preferences/Preferences.java|tests/TranslationsCheck.java|tests/com/ecyrd/jspwiki/plugin/ReferringPagesPluginTest.java|,2,5,5,2008-05-05 18:48:40 +0000,2008-05-11 18:27:54 +0000,8e71fca12411eb6f87d934a03bdc739ef0778588,jspwiki
JSPWIKI-383,2009-08-19 06:54:58 +0000,ChangeLog|etc/jspwiki.properties.tmpl|src/WebContent/scripts/jspwiki-common.js|src/WebContent/templates/default/jspwiki.css|src/java/org/apache/wiki/Release.java|,7,7,10,2008-09-23 16:36:37 +0000,2009-08-19 06:49:45 +0000,a0ecccad4da8459b53f49f4443ad838d7489d152,jspwiki
JSPWIKI-263,2008-09-18 08:32:36 +0000,ChangeLog|README|,4,5,7,2008-05-06 16:37:25 +0000,2008-09-18 08:32:06 +0000,14868b221a58027131b41e93c398ceefa5919dfe,jspwiki
JSPWIKI-385,2008-09-29 20:51:44 +0000,ChangeLog|src/com/ecyrd/jspwiki/Release.java|src/webdocs/scripts/jspwiki-edit.js|src/webdocs/templates/default/jspwiki.css|,4,7,7,2008-09-27 14:30:58 +0000,2008-09-29 20:49:25 +0000,e111870c36a88c2e96b153621f5f4a1998e15ef3,jspwiki
JSPWIKI-145,2008-06-15 17:38:34 +0000,ChangeLog|src/com/ecyrd/jspwiki/Release.java|src/com/ecyrd/jspwiki/WikiEngine.java|,2,3,6,2008-01-20 22:31:25 +0000,2008-06-15 17:39:02 +0000,984c0184bbe7a71341b5a286a8c3a73fbbcfc89b,jspwiki
JSPWIKI-1071,2018-06-05 20:47:00 +0000,ChangeLog|jspwiki-war/src/main/java/org/apache/wiki/Release.java|jspwiki-war/src/main/scripts/jspwiki-common.js|jspwiki-war/src/main/scripts/jspwiki-edit.js|,19,20,20,2018-06-04 15:27:00 +0000,2018-06-05 22:45:29 +0200,dbbe7f67ad0398e04cb11ad0ce5569a12eb6f911,jspwiki
JSPWIKI-259,2008-06-14 03:43:39 +0000,ChangeLog|etc/i18n/templates/default_nl.properties|src/com/ecyrd/jspwiki/Release.java|src/webdocs/scripts/jspwiki-common.js|src/webdocs/scripts/jspwiki-edit.js|src/webdocs/scripts/jspwiki-prefs.js|src/webdocs/scripts/prettify.js|src/webdocs/templates/default/GroupContent.jsp|src/webdocs/templates/default/InfoContent.jsp|src/webdocs/templates/default/PageActionsBottom.jsp|src/webdocs/templates/default/PageActionsTop.jsp|src/webdocs/templates/default/PreferencesTab.jsp|src/webdocs/templates/default/commonheader.jsp|src/webdocs/templates/default/editors/plain.jsp|,2,5,6,2008-05-02 20:23:26 +0000,2008-06-14 03:10:33 +0000,56aa408f221fc5635171c1951e1f4f08a5ff7dee,jspwiki
JSPWIKI-931,2016-03-15 18:18:59 +0000,ChangeLog|jspwiki-war/src/main/java/org/apache/wiki/Release.java|jspwiki-war/src/main/java/org/apache/wiki/providers/VersioningFileProvider.java|,16,18,18,2016-03-07 22:17:56 +0000,2016-03-15 18:18:01 +0000,0ae2f4214127b5dc5fcac2bb59bcbdaa0ecaa383,jspwiki
JSPWIKI-1074,2019-02-03 12:34:36 +0000,ChangeLog|jspwiki-main/src/main/java/org/apache/wiki/Release.java|jspwiki-war/src/main/styles/haddock/default/Template.View.less|jspwiki-war/src/main/styles/haddock/default/grid.less|jspwiki-war/src/main/styles/haddock/default/print.less|jspwiki-war/src/main/styles/haddock/default/responsive-viewport.less|,20,21,22,2018-09-19 18:42:16 +0000,2019-02-03 13:30:17 +0100,c6766ebe0d6e5483c29d0dcccb3608ff5a8cad2e,jspwiki
JSPWIKI-932,2018-09-17 20:48:40 +0000,ChangeLog|jspwiki-war/src/main/java/org/apache/wiki/providers/CachingAttachmentProvider.java|,16,18,21,2016-03-09 08:07:38 +0000,2018-09-17 22:43:10 +0200,df172d74925ee3cadae65ac7f7aa334a77b7eb95,jspwiki
JSPWIKI-813,2014-03-03 17:18:43 +0000,ChangeLog|jspwiki-it-tests/jspwiki-selenium-tests/jspwiki-selenium-tests.iml|jspwiki-war/src/main/java/org/apache/wiki/Release.java|jspwiki-war/src/test/java/org/apache/wiki/ReferenceManagerTest.java|,15,15,16,2014-01-23 16:14:48 +0000,2014-03-03 19:34:58 +0000,ca8eb9afed0ddc68a34e056fa7c9052878033086,jspwiki
JSPWIKI-935,2016-04-17 13:19:53 +0000,ChangeLog|jspwiki-war/src/main/java/org/apache/wiki/Release.java|jspwiki-war/src/main/java/org/apache/wiki/render/RenderingManager.java|,17,18,18,2016-04-06 15:35:10 +0000,2016-04-17 13:19:25 +0000,330e1cf6592b616667d95bb8cbb80ca93c9297cf,jspwiki
JSPWIKI-814,2014-04-22 18:25:41 +0000,ChangeLog|jspwiki-war/src/main/java/org/apache/wiki/Release.java|,15,15,16,2014-01-24 12:44:27 +0000,2014-04-22 18:24:31 +0000,1b5a0c3c11dd7aea448f966e96aea6fc27ea63d1,jspwiki
JSPWIKI-936,2016-04-17 16:48:36 +0000,ChangeLog|jspwiki-war/src/main/java/org/apache/wiki/Release.java|jspwiki-war/src/main/java/org/apache/wiki/WikiEngine.java|,17,18,18,2016-04-12 10:25:25 +0000,2016-04-17 16:48:16 +0000,e635eb75f8c71443aa521ef75e742cf0579dc881,jspwiki
JSPWIKI-817,2014-02-08 12:08:01 +0000,ChangeLog|jspwiki-war/src/main/java/org/apache/wiki/Release.java|,15,16,16,2014-02-02 13:55:44 +0000,2014-02-20 00:00:58 +0000,f580850e57ce792e974e151a9758520d114d769a,jspwiki
JSPWIKI-14,2008-06-09 19:17:44 +0000,src/com/ecyrd/jspwiki/xmlrpc/MetaWeblogHandler.java|,1,2,6,2007-10-29 18:09:55 +0000,2008-06-09 20:01:48 +0000,bcce5275ee0216a60d65b6d1c70631af6cba7797,jspwiki
JSPWIKI-671,2010-12-12 12:34:24 +0000,ChangeLog|src/java/org/apache/wiki/Release.java|src/java/org/apache/wiki/content/ContentManager.java|,10,12,12,2010-11-24 16:38:53 +0000,2010-12-12 12:33:23 +0000,06c5dbf632118db6ce08e3459e6afe1375945858,jspwiki
JSPWIKI-674,2010-12-05 10:32:58 +0000,ChangeLog|src/WebContent/scripts/jspwiki-common.js|src/java/org/apache/wiki/Release.java|,10,12,12,2010-12-02 15:45:53 +0000,2010-12-05 10:30:29 +0000,8ea0b1f91876920ee709507e2d12444316c5b17c,jspwiki
JSPWIKI-311,2014-06-05 19:37:57 +0000,ChangeLog|jspwiki-war/src/main/java/org/apache/wiki/Release.java|,5,6,17,2008-07-08 02:14:14 +0000,2014-06-05 19:34:15 +0000,fa5e3b46994a23c4048d0110688fbd85a0f3ec19,jspwiki
JSPWIKI-11,2007-11-07 21:34:33 +0000,ChangeLog|src/com/ecyrd/jspwiki/Release.java|src/com/ecyrd/jspwiki/util/MailUtil.java|,1,2,2,2007-10-26 12:49:44 +0000,2007-11-07 21:08:51 +0000,58af45af7bc09e91ba8920ad74fecb80927c57ae,jspwiki
JSPWIKI-675,2010-12-05 10:33:48 +0000,ChangeLog|src/WebContent/scripts/jspwiki-common.js|src/java/org/apache/wiki/Release.java|,11,12,12,2010-12-02 16:06:13 +0000,2010-12-05 10:30:29 +0000,8ea0b1f91876920ee709507e2d12444316c5b17c,jspwiki
JSPWIKI-10,2008-04-13 20:49:53 +0000,ChangeLog|src/com/ecyrd/jspwiki/Release.java|src/com/ecyrd/jspwiki/providers/AbstractFileProvider.java|src/com/ecyrd/jspwiki/providers/VersioningFileProvider.java|,1,2,5,2007-10-25 08:52:46 +0000,2008-04-13 20:52:22 +0000,aa2f419687c13461a0c01432cf34f2310eb40d50,jspwiki
JSPWIKI-667,2010-12-05 10:34:09 +0000,ChangeLog|src/WebContent/scripts/jspwiki-common.js|src/java/org/apache/wiki/Release.java|,11,12,12,2010-10-12 12:52:30 +0000,2010-12-05 10:30:29 +0000,8ea0b1f91876920ee709507e2d12444316c5b17c,jspwiki
JSPWIKI-428,2008-11-15 11:28:57 +0000,ChangeLog|src/com/ecyrd/jspwiki/Release.java|src/com/ecyrd/jspwiki/plugin/WeblogPlugin.java|,7,8,8,2008-11-14 04:03:04 +0000,2008-11-15 11:36:41 +0000,405af696c45d2967c336f849c81b019fdbcde2f4,jspwiki
JSPWIKI-27,2008-08-30 16:00:18 +0000,ChangeLog|src/com/ecyrd/jspwiki/ReferenceManager.java|src/com/ecyrd/jspwiki/Release.java|,1,2,7,2007-11-08 13:25:55 +0000,2008-08-30 16:01:51 +0000,e9c60bf867eb0adc1b4c4c4413b65630b8ea2f2c,jspwiki
JSPWIKI-683,2012-05-02 20:45:13 +0000,ChangeLog|src/org/apache/wiki/Release.java|src/webdocs/scripts/jspwiki-common.js|,11,12,12,2011-01-31 18:19:45 +0000,2012-05-02 20:35:10 +0000,f1d1f702b6620314cc142adda332d54b249dfc1c,jspwiki
JSPWIKI-320,2008-08-10 12:04:06 +0000,ChangeLog|src/com/ecyrd/jspwiki/Release.java|src/com/ecyrd/jspwiki/dav/WikiDavServlet.java|src/com/ecyrd/jspwiki/ui/Installer.java|src/com/ecyrd/jspwiki/ui/WikiServletFilter.java|src/com/ecyrd/jspwiki/url/DefaultURLConstructor.java|src/com/ecyrd/jspwiki/url/ShortURLConstructor.java|,4,6,6,2008-07-27 16:39:34 +0000,2008-08-10 12:05:44 +0000,27c9b13ae1df7f97da022d362dd718852d775a0e,jspwiki
JSPWIKI-442,2010-05-08 12:16:32 +0000,ChangeLog|doc/2.8 Auth Changes|src/java/org/apache/wiki/Release.java|src/java/org/apache/wiki/action/UserPreferencesActionBean.java|src/wikipages/pt_BR/FullRecentChanges.txt|src/wikipages/pt_BR/RecentChanges.txt|src/wikipages/pt_BR/UndefinedPages.txt|src/wikipages/pt_BR/UnusedPages.txt|,7,9,11,2008-11-23 14:46:43 +0000,2010-05-08 12:12:54 +0000,9499867ca0413f242a167fe04011ef99f5a2ecb5,jspwiki
JSPWIKI-564,2009-05-29 19:03:13 +0000,ChangeLog|src/WebContent/Comment.jsp|src/java/org/apache/wiki/Release.java|,9,10,10,2009-05-28 19:42:56 +0000,2009-05-29 19:01:08 +0000,4e9095475445a3e442989790cf31f70e523ccf70,jspwiki
JSPWIKI-444,2008-12-03 19:24:42 +0000,ChangeLog|src/com/ecyrd/jspwiki/Release.java|src/com/ecyrd/jspwiki/parser/JSPWikiMarkupParser.java|,7,9,9,2008-11-28 00:41:54 +0000,2008-12-03 19:24:22 +0000,8c9ab4118b432089ae97a6dd0fda263465148ee0,jspwiki
JSPWIKI-317,2008-07-31 19:53:10 +0000,ChangeLog|src/com/ecyrd/jspwiki/diff/ExternalDiffProvider.java|,5,6,6,2008-07-18 11:53:34 +0000,2008-07-31 19:50:39 +0000,1093c237d2b52ef89d54033eb4568674e9cd5b27,jspwiki
JSPWIKI-319,2008-08-16 09:19:44 +0000,ChangeLog|src/webdocs/templates/default/AttachmentTab.jsp|,3,6,6,2008-07-24 01:09:56 +0000,2008-08-11 19:55:07 +0000,4b805ba0f7a96bd7a61cfa2a3e3cd8f09b49eb4c,jspwiki
JSPWIKI-570,2016-02-05 23:38:47 +0000,ChangeLog|jspwiki-war/src/main/java/org/apache/wiki/Release.java|jspwiki-war/src/main/java/org/apache/wiki/parser/JSPWikiMarkupParser.java|jspwiki-war/src/main/java/org/apache/wiki/parser/MarkupParser.java|jspwiki-war/src/main/java/org/apache/wiki/parser/PluginContent.java|jspwiki-war/src/main/java/org/apache/wiki/parser/VariableContent.java|jspwiki-war/src/main/java/org/apache/wiki/plugin/TableOfContents.java|jspwiki-war/src/main/java/org/apache/wiki/render/RenderingManager.java|jspwiki-war/src/main/java/org/apache/wiki/util/ClassUtil.java|jspwiki-war/src/main/resources/ini/jspwiki.properties|jspwiki-war/src/main/webapp/templates/default/editors/CKeditor.jsp|jspwiki-war/src/main/webapp/templates/default/editors/FCK.jsp|jspwiki-war/src/main/webapp/templates/default/editors/TinyMCE.jsp|jspwiki-war/src/main/webapp/templates/haddock/editors/CKeditor.jsp|jspwiki-war/src/main/webapp/templates/haddock/editors/TinyMCE.jsp|jspwiki-war/src/main/webapp/templates/haddock/editors/wysiwyg.jsp|jspwiki-war/src/test/java/org/apache/wiki/render/RenderingManagerTest.java|jspwiki-war/src/test/java/org/apache/wiki/util/ClassUtilTest.java|,9,10,17,2009-06-05 16:27:03 +0000,2016-02-05 23:35:42 +0000,013864c76c560828b7b4fb710f6d72a34178fb80,jspwiki
JSPWIKI-576,2009-08-19 06:54:26 +0000,ChangeLog|etc/jspwiki.properties.tmpl|src/WebContent/scripts/jspwiki-common.js|src/WebContent/templates/default/jspwiki.css|src/java/org/apache/wiki/Release.java|,9,10,10,2009-07-20 11:06:06 +0000,2009-08-19 06:49:45 +0000,a0ecccad4da8459b53f49f4443ad838d7489d152,jspwiki
JSPWIKI-577,2009-08-30 08:49:58 +0000,ChangeLog|src/WebContent/scripts/jspwiki-common.js|src/WebContent/templates/default/jspwiki.css|src/java/org/apache/wiki/Release.java|,9,10,10,2009-07-22 09:31:16 +0000,2009-08-30 08:34:14 +0000,370ea01368f858e294f6146bf9c577645a8b8a6a,jspwiki
JSPWIKI-688,2011-04-03 16:56:24 +0000,ChangeLog|src/java/org/apache/wiki/Release.java|src/java/org/apache/wiki/parser/CreoleToJSPWikiTranslator.java|src/java/org/apache/wiki/render/CreoleRenderer.java|tests/java/org/apache/wiki/parser/CreoleToJSPWikiTranslatorTest.java|,7,12,12,2011-04-02 23:26:17 +0000,2011-04-03 16:53:29 +0000,20c33b2ad545b212bc88a3dc18c7b2db38f67f2d,jspwiki
JSPWIKI-447,2008-11-30 14:23:23 +0000,ChangeLog|etc/log4j.properties|src/com/ecyrd/jspwiki/Release.java|src/com/ecyrd/jspwiki/plugin/PluginManager.java|src/com/ecyrd/jspwiki/util/WatchDog.java|,7,9,9,2008-11-30 13:31:01 +0000,2008-11-30 14:23:12 +0000,e83850c92f40b42ad8e1a7eff499ce1b8dfac362,jspwiki
JSPWIKI-327,2008-09-30 21:00:32 +0000,ChangeLog|src/com/ecyrd/jspwiki/Release.java|src/webdocs/scripts/jspwiki-common.js|,3,6,7,2008-07-31 13:56:28 +0000,2008-10-01 18:04:37 +0000,51eff8ceb27fb44830ca196c602abd95027741a6,jspwiki
JSPWIKI-206,2008-06-12 20:31:00 +0000,ChangeLog|,2,4,6,2008-03-11 11:02:32 +0000,2008-06-14 03:34:12 +0000,224cfa541781d22b96ec8d94ad5a0ebd65488eae,jspwiki
JSPWIKI-329,2008-08-25 20:22:01 +0000,ChangeLog|src/com/ecyrd/jspwiki/Release.java|src/webdocs/scripts/jspwiki-common.js|src/webdocs/scripts/jspwiki-edit.js|src/webdocs/templates/default/InfoContent.jsp|,5,6,7,2008-08-01 09:00:36 +0000,2008-08-25 20:18:12 +0000,a83ca46ac77ef2f0cb1db440434d165d448b8536,jspwiki
JSPWIKI-580,2009-08-25 20:04:55 +0000,ChangeLog|src/WebContent/scripts/jspwiki-edit.js|src/java/org/apache/wiki/Release.java|,9,10,10,2009-07-29 12:24:46 +0000,2009-08-25 20:03:39 +0000,d261db7a487d5ca2f84e19834351afc011722c7b,jspwiki
JSPWIKI-463,2014-02-14 17:39:22 +0000,ChangeLog|jspwiki-war/pom.xml|jspwiki-war/src/main/config/wro/wro-haddock.xml|jspwiki-war/src/main/config/wro/wro.properties|jspwiki-war/src/main/java/org/apache/wiki/Release.java|jspwiki-war/src/main/scripts/dynamic-styles/Accordion.js|jspwiki-war/src/main/scripts/dynamic-styles/Collapsible.js|jspwiki-war/src/main/scripts/dynamic-styles/Columns.js|jspwiki-war/src/main/scripts/dynamic-styles/CommentBox.js|jspwiki-war/src/main/scripts/dynamic-styles/Element.Reflect.js|jspwiki-war/src/main/scripts/dynamic-styles/GraphBar.js|jspwiki-war/src/main/scripts/dynamic-styles/TableX.Filter.js|jspwiki-war/src/main/scripts/dynamic-styles/TableX.Sort.js|jspwiki-war/src/main/scripts/dynamic-styles/TableX.Zebra.js|jspwiki-war/src/main/scripts/dynamic-styles/TableX.js|jspwiki-war/src/main/scripts/dynamic-styles/Tabs.js|jspwiki-war/src/main/scripts/dynamic-styles/Viewer.Carousel.js|jspwiki-war/src/main/scripts/dynamic-styles/Viewer.Slimbox.js|jspwiki-war/src/main/scripts/dynamic-styles/Viewer.js|jspwiki-war/src/main/scripts/lib/mootools-core-1.4.5.js|jspwiki-war/src/main/scripts/lib/mootools-more-1.4.0.1.js|jspwiki-war/src/main/scripts/lib/prettify4mar13.js|jspwiki-war/src/main/scripts/moo-extend/Accesskey.js|jspwiki-war/src/main/scripts/moo-extend/Array.Extend.js|jspwiki-war/src/main/scripts/moo-extend/Array.NaturalSort.js|jspwiki-war/src/main/scripts/moo-extend/Behavior.js|jspwiki-war/src/main/scripts/moo-extend/Color.js|jspwiki-war/src/main/scripts/moo-extend/Cookie.Flags.js|jspwiki-war/src/main/scripts/moo-extend/Date.Extend.js|jspwiki-war/src/main/scripts/moo-extend/Element.Extend.js|jspwiki-war/src/main/scripts/moo-extend/Element.Placeholder.js|jspwiki-war/src/main/scripts/moo-extend/Form.File.js|jspwiki-war/src/main/scripts/moo-extend/Form.MultipleFile.js|jspwiki-war/src/main/scripts/moo-extend/HighlightQuery.js|jspwiki-war/src/main/scripts/moo-extend/Request.File.js|jspwiki-war/src/main/scripts/moo-extend/String.Extend.js|jspwiki-war/src/main/scripts/moo-extend/Textarea.js|jspwiki-war/src/main/scripts/moo-extend/Tips.js|jspwiki-war/src/main/scripts/wiki-edit/Wiki.Edit.js|jspwiki-war/src/main/scripts/wiki/Category.js|jspwiki-war/src/main/scripts/wiki/Dynamic-styles.js|jspwiki-war/src/main/scripts/wiki/Findpages.js|jspwiki-war/src/main/scripts/wiki/Group.js|jspwiki-war/src/main/scripts/wiki/Prefs.js|jspwiki-war/src/main/scripts/wiki/Recents.js|jspwiki-war/src/main/scripts/wiki/Search.js|jspwiki-war/src/main/scripts/wiki/Wiki.js|jspwiki-war/src/main/styles/haddock/Accordion.less|jspwiki-war/src/main/styles/haddock/Calendar.less|jspwiki-war/src/main/styles/haddock/Category.less|jspwiki-war/src/main/styles/haddock/Collapsible.less|jspwiki-war/src/main/styles/haddock/Columns.less|jspwiki-war/src/main/styles/haddock/CommentBox.less|jspwiki-war/src/main/styles/haddock/GraphBar.less|jspwiki-war/src/main/styles/haddock/ImagePlugin.less|jspwiki-war/src/main/styles/haddock/IndexPlugin.less|jspwiki-war/src/main/styles/haddock/RecentChangesPlugin.less|jspwiki-war/src/main/styles/haddock/TOCPlugin.less|jspwiki-war/src/main/styles/haddock/TableX.Filter.less|jspwiki-war/src/main/styles/haddock/TableX.Sort.less|jspwiki-war/src/main/styles/haddock/Tabs.less|jspwiki-war/src/main/styles/haddock/Template.Attach.less|jspwiki-war/src/main/styles/haddock/Template.Content.less|jspwiki-war/src/main/styles/haddock/Template.Diff.less|jspwiki-war/src/main/styles/haddock/Template.Edit.less|jspwiki-war/src/main/styles/haddock/Template.Nav.less|jspwiki-war/src/main/styles/haddock/Template.Preview.less|jspwiki-war/src/main/styles/haddock/Template.Search.less|jspwiki-war/src/main/styles/haddock/Template.SearchBox.less|jspwiki-war/src/main/styles/haddock/Template.Sidebar.less|jspwiki-war/src/main/styles/haddock/Template.View.less|jspwiki-war/src/main/styles/haddock/Tips.less|jspwiki-war/src/main/styles/haddock/Viewer.Carousel.less|jspwiki-war/src/main/styles/haddock/Viewer.Slimbox.less|jspwiki-war/src/main/styles/haddock/Viewer.less|jspwiki-war/src/main/styles/haddock/WeblogPlugin.less|jspwiki-war/src/main/styles/haddock/Wiki.Layouts.less|jspwiki-war/src/main/styles/haddock/bootstrap/alerts.less|jspwiki-war/src/main/styles/haddock/bootstrap/badges.less|jspwiki-war/src/main/styles/haddock/bootstrap/bootstrap.less|jspwiki-war/src/main/styles/haddock/bootstrap/breadcrumbs.less|jspwiki-war/src/main/styles/haddock/bootstrap/button-groups.less|jspwiki-war/src/main/styles/haddock/bootstrap/buttons.less|jspwiki-war/src/main/styles/haddock/bootstrap/carousel.less|jspwiki-war/src/main/styles/haddock/bootstrap/close.less|jspwiki-war/src/main/styles/haddock/bootstrap/code.less|jspwiki-war/src/main/styles/haddock/bootstrap/component-animations.less|jspwiki-war/src/main/styles/haddock/bootstrap/dropdowns.less|jspwiki-war/src/main/styles/haddock/bootstrap/forms.less|jspwiki-war/src/main/styles/haddock/bootstrap/glyphicons.less|jspwiki-war/src/main/styles/haddock/bootstrap/grid.less|jspwiki-war/src/main/styles/haddock/bootstrap/input-groups.less|jspwiki-war/src/main/styles/haddock/bootstrap/jumbotron.less|jspwiki-war/src/main/styles/haddock/bootstrap/labels.less|jspwiki-war/src/main/styles/haddock/bootstrap/list-group.less|jspwiki-war/src/main/styles/haddock/bootstrap/mixins.less|jspwiki-war/src/main/styles/haddock/bootstrap/modals.less|jspwiki-war/src/main/styles/haddock/bootstrap/navbar.less|jspwiki-war/src/main/styles/haddock/bootstrap/navs.less|jspwiki-war/src/main/styles/haddock/bootstrap/normalize.less|jspwiki-war/src/main/styles/haddock/bootstrap/pager.less|jspwiki-war/src/main/styles/haddock/bootstrap/pagination.less|jspwiki-war/src/main/styles/haddock/bootstrap/panels.less|jspwiki-war/src/main/styles/haddock/bootstrap/popovers.less|jspwiki-war/src/main/styles/haddock/bootstrap/print.less|jspwiki-war/src/main/styles/haddock/bootstrap/progress-bars.less|jspwiki-war/src/main/styles/haddock/bootstrap/responsive-utilities.less|jspwiki-war/src/main/styles/haddock/bootstrap/scaffolding.less|jspwiki-war/src/main/styles/haddock/bootstrap/tables.less|jspwiki-war/src/main/styles/haddock/bootstrap/theme.less|jspwiki-war/src/main/styles/haddock/bootstrap/tooltip.less|jspwiki-war/src/main/styles/haddock/bootstrap/type.less|jspwiki-war/src/main/styles/haddock/bootstrap/utilities.less|jspwiki-war/src/main/styles/haddock/bootstrap/variables.less|jspwiki-war/src/main/styles/haddock/forms.less|jspwiki-war/src/main/styles/haddock/grid.less|jspwiki-war/src/main/styles/haddock/jspwiki.less|jspwiki-war/src/main/styles/haddock/pagination.less|jspwiki-war/src/main/styles/haddock/prettify.less|jspwiki-war/src/main/styles/haddock/print.less|jspwiki-war/src/main/styles/haddock/tables.less|jspwiki-war/src/main/styles/haddock/type.less|jspwiki-war/src/main/styles/haddock/variables.less|jspwiki-war/src/main/webapp/Install.jsp|jspwiki-war/src/main/webapp/admin/Admin.jsp|jspwiki-war/src/main/webapp/admin/SecurityConfig.jsp|jspwiki-war/src/main/webapp/templates/haddock/AttachmentTab.jsp|jspwiki-war/src/main/webapp/templates/haddock/CommentContent.jsp|jspwiki-war/src/main/webapp/templates/haddock/ConflictContent.jsp|jspwiki-war/src/main/webapp/templates/haddock/DiffTab.jsp|jspwiki-war/src/main/webapp/templates/haddock/EditContent.jsp|jspwiki-war/src/main/webapp/templates/haddock/EditGroupContent.jsp|jspwiki-war/src/main/webapp/templates/haddock/EditTemplate.jsp|jspwiki-war/src/main/webapp/templates/haddock/FindContent.jsp|jspwiki-war/src/main/webapp/templates/haddock/Footer.jsp|jspwiki-war/src/main/webapp/templates/haddock/GroupContent.jsp|jspwiki-war/src/main/webapp/templates/haddock/GroupTab.jsp|jspwiki-war/src/main/webapp/templates/haddock/Header.jsp|jspwiki-war/src/main/webapp/templates/haddock/InfoContent.jsp|jspwiki-war/src/main/webapp/templates/haddock/LoginContent.jsp|jspwiki-war/src/main/webapp/templates/haddock/Nav.jsp|jspwiki-war/src/main/webapp/templates/haddock/NewGroupContent.jsp|jspwiki-war/src/main/webapp/templates/haddock/PageContent.jsp|jspwiki-war/src/main/webapp/templates/haddock/PageInfo.jsp|jspwiki-war/src/main/webapp/templates/haddock/PageTab.jsp|jspwiki-war/src/main/webapp/templates/haddock/PreferencesContent.jsp|jspwiki-war/src/main/webapp/templates/haddock/PreferencesTab.jsp|jspwiki-war/src/main/webapp/templates/haddock/PreviewContent.jsp|jspwiki-war/src/main/webapp/templates/haddock/ProfileTab.jsp|jspwiki-war/src/main/webapp/templates/haddock/SearchBox.jsp|jspwiki-war/src/main/webapp/templates/haddock/Sidebar.jsp|jspwiki-war/src/main/webapp/templates/haddock/UploadTemplate.jsp|jspwiki-war/src/main/webapp/templates/haddock/UserBox.jsp|jspwiki-war/src/main/webapp/templates/haddock/ViewTemplate.jsp|jspwiki-war/src/main/webapp/templates/haddock/WorkflowContent.jsp|jspwiki-war/src/main/webapp/templates/haddock/admin/AdminTemplate.jsp|jspwiki-war/src/main/webapp/templates/haddock/admin/UserManagement.jsp|jspwiki-war/src/main/webapp/templates/haddock/admin/admin.css|jspwiki-war/src/main/webapp/templates/haddock/commonheader.jsp|jspwiki-war/src/main/webapp/templates/haddock/editors/plain.jsp|jspwiki-war/src/main/webapp/templates/haddock/editors/preview.jsp|jspwiki-war/src/main/webapp/templates/haddock/images/attach-strip.png|jspwiki-war/src/main/webapp/templates/haddock/images/form-select-arrow.png|jspwiki-war/src/main/webapp/templates/haddock/images/icon-filter.gif|jspwiki-war/src/main/webapp/templates/haddock/images/icon-search.png|jspwiki-war/src/main/webapp/templates/haddock/images/jspwiki-strip.gif|jspwiki-war/src/main/webapp/templates/reader/ViewTemplate.jsp|pom.xml|,8,9,16,2008-12-22 19:03:20 +0000,2014-02-14 17:24:32 +0000,3908a706d81e8aa4924f927b19854f9d43c7b0c0,jspwiki
JSPWIKI-585,2010-04-23 11:58:58 +0000,ChangeLog|etc/jspwiki.properties.tmpl|src/WebContent/scripts/jspwiki-common.js|src/WebContent/templates/default/jspwiki.css|src/java/org/apache/wiki/Release.java|,9,10,10,2009-08-05 11:45:01 +0000,2009-08-19 06:49:45 +0000,a0ecccad4da8459b53f49f4443ad838d7489d152,jspwiki
JSPWIKI-222,2008-04-09 19:10:05 +0000,ChangeLog|build.xml|,4,5,5,2008-03-30 10:07:08 +0000,2008-04-09 19:14:31 +0000,d82b305066dc7d398489ead39d344b1a90c33fa6,jspwiki
JSPWIKI-102,2008-01-26 16:58:58 +0000,src/com/ecyrd/jspwiki/util/MailUtil.java|,2,2,3,2007-12-12 21:43:32 +0000,2008-01-26 16:59:29 +0000,7ff0e70af9815f8e8b14b0f3bdf7949f0d5d0675,jspwiki
JSPWIKI-466,2009-01-05 20:26:02 +0000,ChangeLog|src/com/ecyrd/jspwiki/Release.java|tests/com/ecyrd/jspwiki/providers/FileSystemProviderTest.java|,8,9,9,2009-01-05 20:21:36 +0000,2009-01-05 20:25:38 +0000,9a0f68bee945005ab58470dfa3f6c6d8c52d994b,jspwiki
JSPWIKI-345,2008-11-10 03:06:16 +0000,.classpath|.settings/org.eclipse.core.resources.prefs|ChangeLog|LICENSE|build.xml|doc/Translating.txt|lib/freshcookies-security-0.54.jar|lib/freshcookies-security-0.60.jar|src/com/ecyrd/jspwiki/Release.java|tests/TranslationsCheck.java|tests/com/ecyrd/jspwiki/auth/AuthorizationManagerTest.java|tests/etc/jspwiki-testUserPolicy.policy|,5,6,8,2008-08-16 16:14:37 +0000,2008-11-08 17:57:08 +0000,d66c6d84be2fdfbd1e4b6258a03f6804e6d316b4,jspwiki
JSPWIKI-225,2008-05-17 08:12:26 +0000,etc/i18n/CoreResources.properties|etc/i18n/CoreResources_nl.properties|,4,5,5,2008-04-02 11:57:55 +0000,2008-04-04 22:41:24 +0000,6cd0a45b433b7179b14dbff1f56a5f561a5785ac,jspwiki
JSPWIKI-699,2012-01-29 19:33:27 +0000,ChangeLog|src/WebContent/WEB-INF/jspwiki.tld|src/WebContent/templates/default/Message.jsp|src/java/org/apache/wiki/Release.java|src/java/org/apache/wiki/action/AdminActionBean.java|src/java/org/apache/wiki/action/MessageActionBean.java|,11,12,12,2011-08-01 20:10:51 +0000,2011-08-07 17:21:58 +0000,14137ebd473feef6cb1c414a580661d823ed66d8,jspwiki
JSPWIKI-219,2008-04-09 18:22:47 +0000,ChangeLog|build.xml|,3,4,5,2008-03-22 12:47:15 +0000,2008-04-09 18:26:08 +0000,34ddbb54a1ea5a10b9c7d16139ece6ebd83604d6,jspwiki
JSPWIKI-1033,2016-10-01 18:00:31 +0000,ChangeLog|jspwiki-war/src/main/java/org/apache/wiki/Release.java|jspwiki-war/src/main/java/org/apache/wiki/ajax/WikiAjaxDispatcherServlet.java|,17,18,18,2016-09-30 19:51:26 +0000,2016-12-02 21:06:16 +0100,1ba57b3ea51e51ad3540395cc7d45f7d0e4ce3e3,jspwiki
JSPWIKI-1037,2016-12-13 20:56:18 +0000,ChangeLog|jspwiki-war/src/main/java/org/apache/wiki/Release.java|jspwiki-war/src/main/styles/haddock/default/Category.less|jspwiki-war/src/main/styles/haddock/default/Template.View.less|,17,18,18,2016-12-08 17:41:15 +0000,2016-12-13 21:53:24 +0100,4e7810ca81e2c9ee2b420895c902a9a9e21c6b40,jspwiki
JSPWIKI-1039,2018-03-30 20:25:18 +0000,jspwiki-war/src/main/java/org/apache/wiki/auth/acl/DefaultAclManager.java|,17,18,19,2016-12-16 16:19:34 +0000,2018-03-30 22:20:05 +0200,28489c5c43a8cfa74fc4aa1ac669daa9b67d37b5,jspwiki
