Bug ID,Bug Resolution Date by Jira,Classes Touched by Last Fix,Earliest AV,Version of Ticket Creation,Version of Fix,Ticket Creation Date,Fix Date (of most recent commit),Hash (of most recent commit),Git Directory
MARMOTTA-197,2013-07-16 15:55:47 +0000,libraries/ldpath/ldpath-core/src/main/java/org/apache/marmotta/ldpath/model/selectors/GroupedSelector.java|libraries/ldpath/ldpath-core/src/main/javacc/at/newmedialab/ldpath/parser/rdfpath.jj|,2,2,3,2013-04-12 11:57:31 +0000,2013-05-07 16:07:56 +0200,7df9f1d36285767a8d987f509414cd7881e478aa,marmotta
MARMOTTA-514,2014-11-11 14:40:18 +0000,platform/marmotta-ldp/src/main/java/org/apache/marmotta/platform/ldp/services/LdpServiceImpl.java|,5,7,7,2014-07-21 13:37:17 +0000,2014-09-25 18:11:37 +0200,8e0160f8dffcae7bb344712edaa5c0a4cbb9db1f,marmotta
MARMOTTA-636,2016-05-02 07:09:50 +0000,README.md|launchers/marmotta-webapp/README.md|,7,8,8,2016-04-29 11:26:01 +0000,2016-05-02 09:09:07 +0200,1d2048394fcce7a41ef060ff05a6445c824819b8,marmotta
MARMOTTA-631,2016-03-03 10:37:06 +0000,platform/marmotta-core/src/main/java/org/apache/marmotta/platform/core/services/triplestore/ContextServiceImpl.java|platform/marmotta-core/src/test/java/org/apache/marmotta/platform/core/test/triplestore/ContextServiceTest.java|,7,8,8,2016-03-03 08:44:48 +0000,2016-03-03 11:36:04 +0100,503cbc8daae89641b8f5d60c04274e1dcde012ec,marmotta
MARMOTTA-634,2016-04-19 07:56:41 +0000,platform/backends/marmotta-backend-kiwi/src/main/resources/web/admin/configuration.html|platform/backends/marmotta-backend-kiwi/src/main/resources/web/admin/console.html|platform/backends/marmotta-backend-kiwi/src/main/resources/web/admin/database.html|,7,8,8,2016-04-14 15:52:36 +0000,2016-04-19 09:55:48 +0200,ff559ea4f1ff1b2217d2796c263d2e33e2bb4bd0,marmotta
MARMOTTA-513,2014-07-11 13:04:14 +0000,parent/pom.xml|,6,7,7,2014-07-08 05:04:51 +0000,2014-07-11 15:00:45 +0200,d5241ed9f6f88598f0973d0bfda75c6add2fca9b,marmotta
MARMOTTA-188,2013-04-05 16:33:41 +0000,platform/marmotta-sparql/src/main/java/org/apache/marmotta/platform/sparql/services/sparql/SparqlWritersHelper.java|platform/marmotta-sparql/src/main/java/org/apache/marmotta/platform/sparql/webservices/SparqlWebService.java|,1,2,2,2013-04-03 13:12:55 +0000,2013-04-05 17:48:12 +0200,f52a0dc22daed38456c4864b8fef7fefa8ac37b7,marmotta
MARMOTTA-625,2016-02-15 14:07:38 +0000,libraries/kiwi/kiwi-reasoner/src/main/javacc/org/apache/marmotta/kiwi/reasoner/parser/KWRLProgramParser.jj|libraries/kiwi/kiwi-reasoner/src/test/java/org/apache/marmotta/kiwi/reasoner/test/parser/KWRLRuleParserTest.java|libraries/kiwi/kiwi-reasoner/src/test/java/org/apache/marmotta/kiwi/reasoner/test/persistence/KWRLProgramPersistenceTest.java|,7,8,8,2016-01-22 02:01:41 +0000,2016-02-15 15:05:53 +0100,528b341299e7f4db79e820839f979c070cd40dc1,marmotta
MARMOTTA-502,2014-05-19 13:56:19 +0000,libraries/ldclient/ldclient-provider-youtube/src/main/java/org/apache/marmotta/ldclient/provider/youtube/YoutubePlaylistProvider.java|libraries/ldclient/ldclient-provider-youtube/src/test/resources/org/apache/marmotta/ldclient/test/youtube/youtube-playlist.sparql|,5,6,6,2014-05-19 13:27:40 +0000,2014-05-19 15:51:24 +0200,ab80f7400a7198c43758e05ee2a84fc668a2ca7e,marmotta
MARMOTTA-628,2016-02-12 12:27:15 +0000,libraries/kiwi/kiwi-sparql/src/test/java/org/apache/marmotta/kiwi/sparql/test/KiWiSparqlTest.java|,7,8,8,2016-02-11 13:38:30 +0000,2016-02-12 13:23:57 +0100,0b07a02b04ea5a84a73e834f8aa671bf3fbf9e1f,marmotta
MARMOTTA-191,2013-07-11 11:05:24 +0000,platform/marmotta-sparql/src/main/java/org/apache/marmotta/platform/sparql/services/sparqlio/rdf/SPARQLGraphResultWriter.java|,1,2,3,2013-04-08 11:53:10 +0000,2013-07-11 13:04:46 +0200,deb2d4f30d006d0dfb2a8a32dea0ba9f1bbcb5bb,marmotta
MARMOTTA-651,2017-05-10 07:18:32 +0000,libraries/kiwi/kiwi-sparql/src/test/java/org/apache/marmotta/kiwi/sparql/test/KiWiSparqlTest.java|libraries/kiwi/kiwi-sparql/src/test/resources/org/apache/marmotta/kiwi/sparql/test/MARMOTTA-651_1.sparql|,7,8,8,2016-07-02 05:29:56 +0000,2016-09-01 10:13:57 +0200,3ce0fdcb4e34609e19c909c09d9d717598dd620b,marmotta
MARMOTTA-410,2014-01-07 17:29:26 +0000,libraries/kiwi/kiwi-triplestore/src/main/java/org/apache/marmotta/kiwi/generator/SnowflakeIDGenerator.java|,3,4,4,2014-01-07 11:13:52 +0000,2014-01-07 18:29:19 +0100,31b83be3adc1c1de4a0abb091e6de325a508f265,marmotta
MARMOTTA-412,2014-03-17 09:04:29 +0000,parent/pom.xml|,3,4,5,2014-01-07 14:19:52 +0000,2014-03-17 10:03:32 +0100,18db94512d672324c62f91363d8650adfd0022c3,marmotta
MARMOTTA-656,2016-09-21 10:04:32 +0000,platform/marmotta-sparql/src/main/java/org/apache/marmotta/platform/sparql/webservices/SparqlWebService.java|,7,8,8,2016-09-21 09:58:35 +0000,2016-09-21 12:03:42 +0200,a1cd1e24ad605750d7182ccaee8b181ee1a4c409,marmotta
MARMOTTA-640,2016-06-20 10:49:32 +0000,libraries/kiwi/kiwi-sparql/src/main/java/org/apache/marmotta/kiwi/sparql/builder/SQLBuilder.java|libraries/kiwi/kiwi-sparql/src/main/java/org/apache/marmotta/kiwi/sparql/builder/collect/PatternCollector.java|libraries/kiwi/kiwi-sparql/src/main/java/org/apache/marmotta/kiwi/sparql/builder/model/SQLUnion.java|libraries/kiwi/kiwi-sparql/src/main/java/org/apache/marmotta/kiwi/sparql/optimizer/DistinctLimitOptimizer.java|libraries/kiwi/kiwi-sparql/src/main/java/org/apache/marmotta/kiwi/sparql/sail/KiWiSparqlSailConnection.java|libraries/kiwi/kiwi-sparql/src/test/java/org/apache/marmotta/kiwi/sparql/test/KiWiSparqlTest.java|libraries/kiwi/kiwi-sparql/src/test/resources/org/apache/marmotta/kiwi/sparql/test/MARMOTTA-640_1.sparql|libraries/kiwi/kiwi-sparql/src/test/resources/org/apache/marmotta/kiwi/sparql/test/MARMOTTA-640_2.sparql|,7,8,8,2016-06-03 13:37:57 +0000,2016-06-20 12:47:53 +0200,db3a593fa0763214a8ee53727f68d78d0b62c5a6,marmotta
MARMOTTA-525,2014-11-12 09:35:01 +0000,platform/marmotta-ldp/src/main/java/org/apache/marmotta/platform/ldp/webservices/LdpWebService.java|,6,7,7,2014-08-31 21:33:09 +0000,2014-09-05 10:22:47 +0200,f995f4bb3526c21c1f2297e65ca1ec6cc17ffd25,marmotta
MARMOTTA-526,2014-09-04 13:13:31 +0000,platform/marmotta-core/src/main/java/org/apache/marmotta/platform/core/services/config/ConfigurationServiceImpl.java|platform/marmotta-core/src/main/java/org/apache/marmotta/platform/core/services/content/ContentServiceImpl.java|platform/marmotta-core/src/main/resources/config-defaults.properties|,6,7,7,2014-09-04 10:57:26 +0000,2014-09-04 15:09:11 +0200,3960741c269a4d9e5f247cf0b5c5cda0ff624aed,marmotta
MARMOTTA-405,2014-01-08 09:17:19 +0000,libraries/ldclient/ldclient-core/src/main/java/org/apache/marmotta/ldclient/services/ldclient/LDClient.java|libraries/ldclient/ldclient-provider-facebook/src/main/java/org/apache/marmotta/ldclient/endpoint/FacebookGraphEndpoint.java|libraries/ldclient/ldclient-provider-facebook/src/test/java/org/apache/marmotta/ldclient/test/facebook/FacebookProviderTest.java|libraries/ldclient/ldclient-provider-facebook/src/test/resources/org/apache/marmotta/ldclient/test/facebook/movie.sparql|libraries/ldclient/ldclient-provider-rdf/src/main/java/org/apache/marmotta/ldclient/endpoint/rdf/LinkedDataEndpoint.java|libraries/ldclient/ldclient-provider-rdf/src/test/java/org/apache/marmotta/ldclient/test/rdf/TestLinkedDataProvider.java|,3,4,4,2013-12-13 11:18:09 +0000,2013-12-13 15:02:59 +0100,3bd9c85f18831d4d570b5f29deeabf0674f26420,marmotta
MARMOTTA-406,2016-05-02 10:28:11 +0000,client/marmotta-client-java/src/main/java/org/apache/marmotta/client/util/HTTPUtil.java|,3,4,7,2013-12-13 14:04:57 +0000,2014-11-01 11:37:11 +0100,b027ad098f79c0e06453767b8169d65ff96cee5a,marmotta
MARMOTTA-407,2013-12-16 08:13:37 +0000,platform/marmotta-user/src/main/resources/web/me.html|,3,4,4,2013-12-16 07:46:56 +0000,2013-12-16 08:52:54 +0100,17834813c04463242a548d4813973c3b7be1d1f9,marmotta
MARMOTTA-401,2014-01-07 14:40:04 +0000,commons/sesame-tripletable/src/main/java/org/apache/marmotta/commons/sesame/tripletable/IntArray.java|,3,4,4,2013-12-10 16:26:57 +0000,2013-12-13 17:20:00 +0100,7c1f7d7667dc4fca8a751ece877333d3c23eaded,marmotta
MARMOTTA-529,2014-09-11 07:05:29 +0000,libraries/kiwi/kiwi-caching-infinispan/pom.xml|,6,7,7,2014-09-11 07:00:47 +0000,2014-09-11 09:02:40 +0200,89fd42486633648963d67c6534929bd938ac8650,marmotta
MARMOTTA-275,2013-07-22 10:49:02 +0000,extras/webjars/codemirror/pom.xml|,2,3,3,2013-07-22 07:21:06 +0000,2013-07-22 12:26:07 +0200,3af07e3d166d8d75d5a0bd19c15b69178a3c5901,marmotta
MARMOTTA-155,2013-09-14 04:46:49 +0000,libraries/kiwi/kiwi-triplestore/src/test/java/org/apache/marmotta/kiwi/test/sesame/KiWiLocaleTest.java|,2,2,3,2013-03-15 10:45:45 +0000,2013-09-12 17:06:24 +1000,a2de373bd4f4c937cae38a59747cce1951b3b10b,marmotta
MARMOTTA-398,2013-12-10 14:54:31 +0000,platform/marmotta-ldpath/src/main/resources/web/admin/ldpath.html|,3,4,4,2013-12-03 09:21:26 +0000,2013-12-09 11:39:35 +0100,37da69fd1cc3d3208e09233462bed7781abd7d87,marmotta
MARMOTTA-277,2013-07-28 14:22:11 +0000,platform/marmotta-core/src/main/java/org/apache/marmotta/platform/core/services/task/TaskManagerServiceImpl.java|,2,3,3,2013-07-25 14:31:25 +0000,2013-07-25 18:26:32 +0200,81cfb376dfe737731e90dd8f2d6f3090be29ccb4,marmotta
MARMOTTA-278,2013-07-29 14:04:07 +0000,libraries/kiwi/kiwi-triplestore/src/main/java/org/apache/marmotta/kiwi/persistence/KiWiGarbageCollector.java|libraries/kiwi/kiwi-triplestore/src/main/resources/org/apache/marmotta/kiwi/persistence/h2/statements.properties|libraries/kiwi/kiwi-triplestore/src/main/resources/org/apache/marmotta/kiwi/persistence/mysql/statements.properties|libraries/kiwi/kiwi-triplestore/src/main/resources/org/apache/marmotta/kiwi/persistence/pgsql/statements.properties|,2,3,3,2013-07-28 14:19:26 +0000,2013-07-29 16:03:47 +0200,e7f512ec88fda11fa3fd413aa871e66891143b92,marmotta
MARMOTTA-150,2013-09-03 13:49:58 +0000,platform/marmotta-core/src/main/java/org/apache/marmotta/platform/core/rio/RDFHtmlWriterImpl.java|platform/marmotta-core/src/main/java/org/apache/marmotta/platform/core/webservices/resource/MetaWebService.java|platform/marmotta-core/src/main/resources/templates/rdfhtml.ftl|,2,2,3,2013-03-13 16:19:34 +0000,2013-09-03 15:48:53 +0200,819c97b71742ac93b7fb18cf5e59a917bdbe3edf,marmotta
MARMOTTA-151,2013-03-14 13:51:22 +0000,KEYS|launchers/marmotta-installer/src/main/resources/installer/standalone.xml|parent/pom.xml|platform/marmotta-core/src/main/java/org/apache/marmotta/platform/core/services/logging/LoggingServiceImpl.java|,1,2,2,2013-03-14 10:54:06 +0000,2013-03-14 14:49:59 +0100,ad4f9cf1a703744c544d4c3a18363b9d4b6600a0,marmotta
MARMOTTA-395,2014-03-26 09:59:14 +0000,build/archetypes/marmotta-archetype-webapp/pom.xml|build/archetypes/marmotta-archetype-webapp/src/main/resources/archetype-resources/pom.xml|build/archetypes/marmotta-archetype-webapp/src/test/resources/projects/basic/goal.txt|,3,4,5,2013-11-29 14:34:42 +0000,2014-03-26 17:29:12 +0100,68280b1cc93817038ddab3ddaef3f1dd3ec8a76f,marmotta
MARMOTTA-274,2013-07-17 13:37:52 +0000,libraries/kiwi/kiwi-sparql/src/main/java/org/apache/marmotta/kiwi/sparql/persistence/KiWiSparqlConnection.java|libraries/kiwi/kiwi-triplestore/src/main/java/org/apache/marmotta/kiwi/config/KiWiConfiguration.java|libraries/kiwi/kiwi-triplestore/src/main/java/org/apache/marmotta/kiwi/persistence/KiWiConnection.java|libraries/kiwi/kiwi-triplestore/src/main/java/org/apache/marmotta/kiwi/persistence/KiWiDialect.java|libraries/kiwi/kiwi-triplestore/src/main/java/org/apache/marmotta/kiwi/persistence/pgsql/PostgreSQLDialect.java|,2,3,3,2013-07-17 13:30:28 +0000,2013-07-17 15:31:00 +0200,dd5db497e7fb873c2ed5d0c9ac227252425bc300,marmotta
MARMOTTA-153,2013-03-18 11:21:03 +0000,platform/marmotta-core/src/main/resources/templates/404.ftl|platform/marmotta-core/src/main/resources/templates/admin.ftl|platform/marmotta-core/src/main/resources/web/public/style/404.css|platform/marmotta-core/src/main/resources/web/public/style/rdfhtml.css|platform/marmotta-core/src/main/resources/web/public/style/scheme/dark.css|platform/marmotta-core/src/main/resources/web/public/style/style.css|,1,2,2,2013-03-15 10:17:21 +0000,2013-03-18 12:07:48 +0100,ebdb970195468bfe8e99eeecb2cc04583679bc36,marmotta
MARMOTTA-66,2013-08-28 13:39:16 +0000,commons/marmotta-commons/src/main/java/org/apache/marmotta/commons/sesame/repository/ResourceUtils.java|,1,1,3,2013-02-11 13:47:24 +0000,2013-08-28 15:31:36 +0200,f7ac43c602e294afb3ebd1dbede5e01c04433098,marmotta
MARMOTTA-144,2013-03-13 13:22:01 +0000,NOTICE.txt|,1,2,2,2013-03-12 16:03:27 +0000,2013-03-13 14:27:46 +0100,6d9373a53604b18a0219fa4c985f43ea9d2b3e92,marmotta
MARMOTTA-382,2014-01-08 08:44:13 +0000,platform/marmotta-sparql/src/main/java/org/apache/marmotta/platform/sparql/webservices/SparqlWebService.java|,3,4,4,2013-11-25 14:17:53 +0000,2013-11-28 17:17:23 +0100,74c2c7df4085805c6db292b3893811b83be0c04b,marmotta
MARMOTTA-141,2013-03-12 13:32:48 +0000,platform/marmotta-core/src/main/java/org/apache/marmotta/platform/core/startup/MarmottaStartupService.java|,1,2,2,2013-03-12 13:11:04 +0000,2013-03-12 14:29:11 +0100,8800c1063fb040bfe948695b323a1e739675321e,marmotta
MARMOTTA-270,2013-07-11 15:05:59 +0000,libraries/ldpath/ldpath-core/src/main/javacc/at/newmedialab/ldpath/parser/rdfpath.jj|libraries/ldpath/ldpath-core/src/test/java/org/apache/marmotta/ldpath/parser/ParserTest.java|libraries/ldpath/ldpath-core/src/test/resources/parse/namespaces.ldpath|,2,3,3,2013-07-09 18:08:56 +0000,2013-07-11 17:05:08 +0200,839c83096d43f05d882a575cb78f99d0e0d8d6d6,marmotta
MARMOTTA-297,2013-09-10 07:17:52 +0000,libraries/kiwi/kiwi-sparql/src/main/java/org/apache/marmotta/kiwi/sparql/sail/KiWiSparqlSailConnection.java|libraries/kiwi/kiwi-triplestore/src/main/java/org/apache/marmotta/kiwi/model/rdf/KiWiTriple.java|libraries/kiwi/kiwi-triplestore/src/main/java/org/apache/marmotta/kiwi/persistence/KiWiConnection.java|libraries/kiwi/kiwi-triplestore/src/main/java/org/apache/marmotta/kiwi/persistence/KiWiPersistence.java|libraries/kiwi/kiwi-triplestore/src/main/java/org/apache/marmotta/kiwi/sail/KiWiSailConnection.java|libraries/kiwi/kiwi-triplestore/src/main/resources/org/apache/marmotta/kiwi/persistence/h2/create_base_tables.sql|libraries/kiwi/kiwi-triplestore/src/main/resources/org/apache/marmotta/kiwi/persistence/mysql/create_base_tables.sql|libraries/kiwi/kiwi-triplestore/src/test/java/org/apache/marmotta/kiwi/test/MySQLConcurrencyTest.java|libraries/kiwi/kiwi-triplestore/src/test/java/org/apache/marmotta/kiwi/test/sesame/KiWiSailConcurrencyTest.java|libraries/kiwi/kiwi-triplestore/src/test/java/org/apache/marmotta/kiwi/test/sesame/KiWiStoreTest.java|libraries/kiwi/kiwi-triplestore/src/test/java/org/apache/marmotta/kiwi/test/sesame/repository/KiWiRepositoryConnectionTest.java|libraries/kiwi/kiwi-triplestore/src/test/java/org/apache/marmotta/kiwi/test/sesame/repository/KiWiRepositoryTest.java|libraries/kiwi/kiwi-tripletable/src/main/java/org/apache/marmotta/kiwi/model/caching/TripleTable.java|,2,3,3,2013-08-30 09:49:50 +0000,2013-09-02 17:57:03 +0200,11aae1b5ae23aca6dfab392ed2d94fa7f8957e4b,marmotta
MARMOTTA-298,2013-09-03 13:49:46 +0000,platform/marmotta-sparql/src/main/java/org/apache/marmotta/platform/sparql/services/sparqlio/sparqlhtml/SPARQLResultsHTMLWriter.java|,2,3,3,2013-09-03 11:49:21 +0000,2013-09-03 13:55:28 +0200,6baff8795d820ea6ba6940551259306be613e87c,marmotta
MARMOTTA-179,2013-03-28 15:45:03 +0000,platform/marmotta-sparql/src/main/resources/web/admin/snorql/NOTICE|platform/marmotta-sparql/src/main/resources/web/admin/snorql/namespaces.js|platform/marmotta-sparql/src/main/resources/web/admin/snorql/snorql.html|platform/marmotta-sparql/src/main/resources/web/admin/snorql/snorql.js|platform/marmotta-sparql/src/main/resources/web/admin/snorql/sparql.js|platform/marmotta-sparql/src/main/resources/web/admin/snorql/style.css|,1,2,2,2013-03-28 15:04:49 +0000,2013-03-29 11:01:44 +0100,3f2588964c1bb068c09e4b5b7873dac8f1097c40,marmotta
MARMOTTA-294,2013-10-25 08:14:25 +0000,commons/marmotta-commons/src/main/java/org/apache/marmotta/commons/nio/watch/AbstractTreeWatcher.java|commons/marmotta-commons/src/main/java/org/apache/marmotta/commons/nio/watch/SimpleTreeWatcher.java|platform/marmotta-core/src/main/java/org/apache/marmotta/platform/core/api/importer/ImportWatchService.java|platform/marmotta-core/src/main/java/org/apache/marmotta/platform/core/services/importer/ImportWatchServiceImpl.java|,3,3,4,2013-08-29 15:29:42 +0000,2013-10-17 17:22:20 +0200,3d388d38da2bccd19673bd9200e449bcaed9c2d6,marmotta
MARMOTTA-295,2013-10-25 08:14:51 +0000,commons/marmotta-commons/src/main/java/org/apache/marmotta/commons/nio/watch/AbstractTreeWatcher.java|commons/marmotta-commons/src/main/java/org/apache/marmotta/commons/nio/watch/SimpleTreeWatcher.java|platform/marmotta-core/src/main/java/org/apache/marmotta/platform/core/api/importer/ImportWatchService.java|platform/marmotta-core/src/main/java/org/apache/marmotta/platform/core/services/importer/ImportWatchServiceImpl.java|,3,3,4,2013-08-29 15:30:41 +0000,2013-10-17 17:22:20 +0200,3d388d38da2bccd19673bd9200e449bcaed9c2d6,marmotta
MARMOTTA-174,2013-03-25 15:42:25 +0000,platform/marmotta-security/src/main/resources/web/admin/profiles.html|,1,2,2,2013-03-25 15:18:49 +0000,2013-03-25 16:41:14 +0100,356ef9c5114f9e582ee2546e88cc1ba3368de2ef,marmotta
MARMOTTA-614,2015-05-27 11:11:47 +0000,parent/pom.xml|platform/marmotta-sparql/src/main/resources/web/admin/squebi.html|,7,8,8,2015-05-26 19:58:03 +0000,2015-05-27 13:10:02 +0200,d0810b40dfeeb3b52c1fd7dfe7eaab3e22dcefdb,marmotta
MARMOTTA-617,2015-10-09 13:19:21 +0000,libraries/kiwi/kiwi-sparql/src/test/java/org/apache/marmotta/kiwi/sparql/test/KiWiSparqlTest.java|libraries/kiwi/kiwi-sparql/src/test/resources/org/apache/marmotta/kiwi/sparql/test/MARMOTTA-617.sparql|libraries/kiwi/kiwi-sparql/src/test/resources/org/apache/marmotta/kiwi/sparql/test/MARMOTTA-617.ttl|,7,8,8,2015-09-17 13:24:23 +0000,2015-10-09 14:48:47 +0200,732f45650a02f193f75398284b86045da06a3c68,marmotta
MARMOTTA-288,2013-08-23 12:15:25 +0000,platform/marmotta-sparql/src/main/resources/web/admin/snorql.html|,2,3,3,2013-08-23 12:10:15 +0000,2013-08-23 14:14:26 +0200,068ffc5faa9b1f46d040726ae5c3dd7052a202f2,marmotta
MARMOTTA-168,2014-01-08 16:08:33 +0000,platform/marmotta-versioning-kiwi/src/main/java/org/apache/marmotta/platform/versioning/exception/MementoException.java|platform/marmotta-versioning-kiwi/src/main/java/org/apache/marmotta/platform/versioning/io/HtmlVersionSerializer.java|platform/marmotta-versioning-kiwi/src/main/java/org/apache/marmotta/platform/versioning/io/LinkVersionSerializer.java|platform/marmotta-versioning-kiwi/src/main/java/org/apache/marmotta/platform/versioning/webservices/MementoWebService.java|platform/marmotta-versioning-kiwi/src/main/java/org/apache/marmotta/platform/versioning/webservices/VersioningWebService.java|platform/marmotta-versioning-kiwi/src/main/resources/templates/memento_timemap.ftl|,2,2,4,2013-03-21 13:42:14 +0000,2014-01-08 17:06:21 +0100,2af1d8ac4b7a4e2c0b62d0e889cd0d176ed0c0eb,marmotta
MARMOTTA-282,2013-08-23 10:11:54 +0000,commons/marmotta-commons/src/main/java/org/apache/marmotta/commons/util/DateUtils.java|commons/marmotta-commons/src/test/java/org/apache/marmotta/commons/util/DateUtilsTest.java|,2,3,3,2013-08-02 08:13:28 +0000,2013-08-23 12:05:29 +0200,b605f15d1bc4e7ea0ada0eb248a40be9e9d2c1e0,marmotta
MARMOTTA-608,2015-04-08 17:06:09 +0000,libraries/kiwi/kiwi-sparql/src/main/java/org/apache/marmotta/kiwi/sparql/builder/SQLBuilder.java|,7,8,8,2015-04-08 16:59:02 +0000,2015-04-08 19:05:03 +0200,8ac1d06c62fde2a71456be4a3ad401fe5432890a,marmotta
MARMOTTA-231,2013-09-11 12:41:39 +0000,platform/marmotta-core/src/main/coffeescript/web/public/js/widgets/configurator/configurator.coffee|platform/marmotta-core/src/main/java/org/apache/marmotta/platform/core/webservices/config/ConfigurationWebService.java|,2,3,3,2013-05-03 08:48:20 +0000,2013-09-11 14:38:58 +0200,6d60b0476f5523ed0d002bd2a65a9acb2a10ff5d,marmotta
MARMOTTA-232,2013-09-10 09:57:58 +0000,libraries/kiwi/kiwi-reasoner/src/main/java/org/apache/marmotta/kiwi/reasoner/model/query/QueryResult.java|,2,3,3,2013-05-03 09:24:39 +0000,2013-09-09 18:16:09 +0200,69cc8f3a9835f1ba02af162fd393ace7048ba97b,marmotta
MARMOTTA-596,2015-02-17 10:32:27 +0000,build/archetypes/marmotta-archetype-webapp/src/main/resources/archetype-resources/src/main/webapp/WEB-INF/web.xml|launchers/marmotta-webapp/src/main/webapp/WEB-INF/web.xml|,7,8,8,2015-02-17 09:37:00 +0000,2015-02-17 11:24:16 +0100,055e9ece05ef76a68aefab49dfacc50938454b28,marmotta
MARMOTTA-591,2015-02-10 08:31:41 +0000,pom.xml|,7,8,8,2015-02-09 14:08:22 +0000,2015-02-10 09:29:40 +0100,7a655117ae26a92500c98b48a64c7085d99b2005,marmotta
MARMOTTA-472,2014-03-19 17:22:02 +0000,launchers/marmotta-webapp/pom.xml|,3,5,5,2014-03-19 15:52:12 +0000,2014-03-19 19:18:01 +0100,7689d3841fd67d66d893115a2dfb8002f6732c7c,marmotta
MARMOTTA-118,2013-03-01 12:34:04 +0000,libraries/ldclient/ldclient-provider-rdf/src/test/java/org/apache/marmotta/ldclient/test/rdf/TestLinkedDataProvider.java|,1,2,2,2013-02-26 16:01:04 +0000,2013-03-01 13:32:26 +0100,42408e98d9183f0a713710cc0774a7ce68d6d819,marmotta
MARMOTTA-598,2015-05-08 11:20:13 +0000,platform/marmotta-ldp/src/main/java/org/apache/marmotta/platform/ldp/webservices/LdpWebService.java|,7,8,8,2015-03-02 10:28:03 +0000,2015-05-08 13:12:14 +0200,c271df95f5867bedf8260b369f4b26adca053806,marmotta
MARMOTTA-235,2013-05-07 08:36:41 +0000,commons/sesame-tools-facading/src/main/java/org/apache/marmotta/commons/sesame/facading/impl/FacadingImpl.java|commons/sesame-tools-facading/src/main/java/org/apache/marmotta/commons/sesame/facading/impl/FacadingInvocationHandler.java|commons/sesame-tools-facading/src/main/java/org/apache/marmotta/commons/sesame/facading/util/FacadeUtils.java|commons/sesame-tools-facading/src/test/resources/logback.xml|,2,3,3,2013-05-06 15:04:45 +0000,2013-05-07 10:30:29 +0200,79265a7f8dd2a0659ec3bc92367141f0c753bfdc,marmotta
MARMOTTA-236,2013-09-10 13:03:14 +0000,commons/sesame-tools-facading/src/test/java/org/apache/marmotta/commons/sesame/facading/concurrent/ConcurrentFacadingTest.java|,2,3,3,2013-05-06 15:10:37 +0000,2013-05-07 10:24:48 +0200,e532b8aa890ef5e19ab2d65272add13723585ea4,marmotta
MARMOTTA-358,2013-12-04 13:48:23 +0000,platform/marmotta-core/src/main/coffeescript/web/public/js/widgets/configurator/configurator.coffee|,3,4,4,2013-11-12 11:50:12 +0000,2013-12-04 14:39:23 +0100,a71ac36692dd37bbed3f78b9c608f72b9890eeed,marmotta
MARMOTTA-221,2013-07-16 15:49:51 +0000,libraries/ldpath/ldpath-core/src/main/java/org/apache/marmotta/ldpath/model/tests/PathEqualityTest.java|,2,3,3,2013-04-27 08:46:37 +0000,2013-05-07 16:13:00 +0200,73d88b78953d592f3b47dce00f84d060949c3c39,marmotta
MARMOTTA-100,2013-03-13 11:56:27 +0000,commons/sesame-tools-rio-rss/src/ext/java/org/rometools/feed/module/activitystreams/package.html|commons/sesame-tools-rio-rss/src/ext/java/org/rometools/feed/module/atomthread/package.html|commons/sesame-tools-rio-rss/src/ext/java/org/rometools/feed/module/base/Event.java|commons/sesame-tools-rio-rss/src/ext/java/org/rometools/feed/module/base/Housing.java|commons/sesame-tools-rio-rss/src/ext/java/org/rometools/feed/module/feedburner/package.html|commons/sesame-tools-rio-rss/src/ext/resources/org/rometools/feed/module/base/io/tags.properties|commons/sesame-tools-rio-rss/src/ext/resources/rome.properties|libraries/ldpath/ldpath-backend-linkeddata/README.txt|libraries/ldpath/ldpath-backend-linkeddata/pom.xml|libraries/ldpath/ldpath-backend-linkeddata/src/main/java/org/apache/marmotta/ldpath/backend/linkeddata/AbstractLDBackend.java|libraries/ldpath/ldpath-backend-linkeddata/src/main/java/org/apache/marmotta/ldpath/backend/linkeddata/LDMemoryBackend.java|libraries/ldpath/ldpath-backend-linkeddata/src/main/java/org/apache/marmotta/ldpath/backend/linkeddata/LDPersistentBackend.java|libraries/ldpath/ldpath-backend-linkeddata/src/main/java/org/apache/marmotta/ldpath/backend/linkeddata/LDQuery.java|libraries/ldpath/ldpath-backend-linkeddata/src/main/java/org/apache/marmotta/ldpath/backend/linkeddata/legacy/ldclient/api/LDCacheProvider.java|libraries/ldpath/ldpath-backend-linkeddata/src/main/java/org/apache/marmotta/ldpath/backend/linkeddata/legacy/ldclient/exception/LDClientException.java|libraries/ldpath/ldpath-backend-linkeddata/src/main/java/org/apache/marmotta/ldpath/backend/linkeddata/legacy/ldclient/model/CacheEntry.java|libraries/ldpath/ldpath-backend-linkeddata/src/main/java/org/apache/marmotta/ldpath/backend/linkeddata/legacy/ldclient/model/ClientResponse.java|libraries/ldpath/ldpath-backend-linkeddata/src/main/java/org/apache/marmotta/ldpath/backend/linkeddata/legacy/ldclient/model/Endpoint.java|libraries/ldpath/ldpath-backend-linkeddata/src/main/java/org/apache/marmotta/ldpath/backend/linkeddata/legacy/ldclient/package-info.java|libraries/ldpath/ldpath-backend-linkeddata/src/main/java/org/apache/marmotta/ldpath/backend/linkeddata/legacy/ldclient/service/LDCache.java|libraries/ldpath/ldpath-backend-linkeddata/src/main/java/org/apache/marmotta/ldpath/backend/linkeddata/legacy/ldclient/service/LDClient.java|libraries/ldpath/ldpath-backend-linkeddata/src/main/java/org/apache/marmotta/ldpath/backend/linkeddata/legacy/ldclient/service/LDEndpoints.java|libraries/ldpath/ldpath-backend-linkeddata/src/main/resources/endpoints.properties|libraries/ldpath/ldpath-backend-linkeddata/src/main/resources/ldclient.properties|libraries/ldpath/ldpath-template-linkeddata/pom.xml|libraries/ldpath/ldpath-template-linkeddata/src/main/java/org/apache/marmotta/ldpath/template/LDTemplate.java|parent/pom.xml|,1,2,2,2013-02-21 09:16:12 +0000,2013-03-13 12:56:10 +0100,5cb144f5d6c14ebebb54f6a0ea6b6db168fc0ed3,marmotta
MARMOTTA-581,2014-12-17 13:49:19 +0000,libraries/ldpath/ldpath-core/src/main/java/org/apache/marmotta/ldpath/model/fields/FieldMapping.java|libraries/ldpath/ldpath-core/src/main/java/org/apache/marmotta/ldpath/model/programs/Program.java|libraries/ldpath/ldpath-core/src/main/javacc/org/apache/marmotta/ldpath/parser/ldpath.jj|libraries/ldpath/ldpath-core/src/test/java/org/apache/marmotta/ldpath/parser/ProgramTest.java|,7,8,8,2014-12-16 08:52:22 +0000,2014-12-17 14:48:21 +0100,22bee5c9ebf834920f765c3e6d6e6bee4a0b57a6,marmotta
MARMOTTA-589,2016-05-02 13:30:17 +0000,NOTICE.txt|,7,8,8,2015-02-09 13:16:47 +0000,2016-05-02 15:29:29 +0200,16f7c9b730e587ab98c46ddb9e3e0ff2191da72a,marmotta
MARMOTTA-348,2013-10-31 11:41:10 +0000,parent/pom.xml|,3,4,4,2013-10-28 16:19:33 +0000,2013-10-29 10:35:48 +0100,438ada4b61ed7f5509db6e475938e523439f8288,marmotta
MARMOTTA-227,2013-04-30 15:14:03 +0000,platform/marmotta-sparql/src/main/resources/web/admin/snorql/snorql.js|,2,3,3,2013-04-30 09:47:27 +0000,2013-04-30 17:12:25 +0200,ac1b54bd71afc5273f2ef9a4ec16adbea2f9dce7,marmotta
MARMOTTA-93,2013-03-13 15:01:08 +0000,platform/marmotta-core/src/main/java/org/apache/marmotta/platform/core/webservices/resource/ContentWebService.java|,1,2,2,2013-02-18 16:42:30 +0000,2013-03-13 15:57:18 +0100,2f2a9d1d74cfc0a5e2d1c7ed4793544fbe6bc466,marmotta
MARMOTTA-253,2013-09-09 06:46:08 +0000,platform/marmotta-core/src/main/resources/web/admin/contexts.html|,2,3,3,2013-06-03 08:28:11 +0000,2013-09-09 08:44:38 +0200,36067d74561f188e00a372b23ab490031d1ad3da,marmotta
MARMOTTA-254,2013-06-05 08:00:38 +0000,libraries/kiwi/kiwi-triplestore/src/main/java/org/apache/marmotta/kiwi/persistence/KiWiConnection.java|libraries/kiwi/kiwi-triplestore/src/main/java/org/apache/marmotta/kiwi/sail/KiWiSailConnection.java|libraries/kiwi/kiwi-triplestore/src/test/java/org/apache/marmotta/kiwi/test/RepositoryTest.java|,2,3,3,2013-06-04 14:43:16 +0000,2013-06-05 09:59:44 +0200,5a5659a1307abda3355534daaa4de23089bdedb9,marmotta
MARMOTTA-134,2013-03-12 15:03:34 +0000,build/archetypes/marmotta-archetype-module/pom.xml|build/archetypes/marmotta-archetype-module/src/main/resources/archetype-resources/pom.xml|build/archetypes/marmotta-archetype-webapp/pom.xml|build/archetypes/marmotta-archetype-webapp/src/main/resources/archetype-resources/pom.xml|build/archetypes/pom.xml|build/dependency-resource-supplement/pom.xml|build/plugins/buildinfo-maven-plugin/pom.xml|build/plugins/marmotta-maven-plugin/pom.xml|build/plugins/pom.xml|build/plugins/refpack-maven-plugin/pom.xml|build/plugins/repocheck-maven-plugin/pom.xml|build/pom.xml|client/marmotta-client-java/pom.xml|client/marmotta-client-js-sample-webapp/pom.xml|client/marmotta-client-js/pom.xml|client/marmotta-client-php/pom.xml|client/pom.xml|commons/marmotta-commons/pom.xml|commons/pom.xml|commons/sesame-filter/pom.xml|commons/sesame-tools-facading/pom.xml|commons/sesame-tools-rio-api/pom.xml|commons/sesame-tools-rio-ical/pom.xml|commons/sesame-tools-rio-jsonld/pom.xml|commons/sesame-tools-rio-rdfjson/pom.xml|commons/sesame-tools-rio-rss/pom.xml|commons/sesame-tools-rio-vcard/pom.xml|extras/pom.xml|launchers/marmotta-installer/pom.xml|launchers/marmotta-splash/pom.xml|launchers/marmotta-webapp/pom.xml|launchers/pom.xml|libraries/kiwi/kiwi-contextaware/pom.xml|libraries/kiwi/kiwi-reasoner/pom.xml|libraries/kiwi/kiwi-transactions/pom.xml|libraries/kiwi/kiwi-triplestore/pom.xml|libraries/kiwi/kiwi-tripletable/pom.xml|libraries/kiwi/kiwi-versioning/pom.xml|libraries/kiwi/pom.xml|libraries/ldcache/ldcache-api/pom.xml|libraries/ldcache/ldcache-backend-ehcache/pom.xml|libraries/ldcache/ldcache-backend-file/pom.xml|libraries/ldcache/ldcache-backend-kiwi/pom.xml|libraries/ldcache/ldcache-backend-mapdb/pom.xml|libraries/ldcache/ldcache-core/pom.xml|libraries/ldcache/ldcache-sail-generic/pom.xml|libraries/ldcache/ldcache-sail-kiwi/pom.xml|libraries/ldcache/pom.xml|libraries/ldclient/ldclient-api/pom.xml|libraries/ldclient/ldclient-core/pom.xml|libraries/ldclient/ldclient-provider-facebook/pom.xml|libraries/ldclient/ldclient-provider-html/pom.xml|libraries/ldclient/ldclient-provider-ldap/pom.xml|libraries/ldclient/ldclient-provider-mediawiki/pom.xml|libraries/ldclient/ldclient-provider-phpbb/pom.xml|libraries/ldclient/ldclient-provider-rdf/pom.xml|libraries/ldclient/ldclient-provider-rdfa/pom.xml|libraries/ldclient/ldclient-provider-vimeo/pom.xml|libraries/ldclient/ldclient-provider-xml/pom.xml|libraries/ldclient/ldclient-provider-youtube/pom.xml|libraries/ldclient/pom.xml|libraries/ldpath/ldpath-api/pom.xml|libraries/ldpath/ldpath-backend-file/pom.xml|libraries/ldpath/ldpath-backend-jena/pom.xml|libraries/ldpath/ldpath-backend-linkeddata/pom.xml|libraries/ldpath/ldpath-backend-sesame/pom.xml|libraries/ldpath/ldpath-core/pom.xml|libraries/ldpath/ldpath-functions-collections/pom.xml|libraries/ldpath/ldpath-functions-date/pom.xml|libraries/ldpath/ldpath-functions-html/pom.xml|libraries/ldpath/ldpath-functions-math/pom.xml|libraries/ldpath/ldpath-functions-text/pom.xml|libraries/ldpath/ldpath-functions-xml/pom.xml|libraries/ldpath/ldpath-template-linkeddata/pom.xml|libraries/ldpath/ldpath-template/pom.xml|libraries/ldpath/pom.xml|libraries/pom.xml|platform/marmotta-core/pom.xml|platform/marmotta-ldcache/pom.xml|platform/marmotta-ldpath/pom.xml|platform/marmotta-reasoner/pom.xml|platform/marmotta-security/pom.xml|platform/marmotta-sparql/pom.xml|platform/marmotta-user/pom.xml|platform/marmotta-versioning/pom.xml|platform/pom.xml|pom.xml|,1,2,2,2013-03-09 18:49:33 +0000,2013-03-12 16:02:09 +0100,05141481bf69dfc72782d492dd5bf5bccc974be8,marmotta
MARMOTTA-498,2014-05-15 13:16:34 +0000,libraries/kiwi/kiwi-triplestore/src/main/java/org/apache/marmotta/kiwi/persistence/pgsql/PostgreSQLDialect.java|,5,6,6,2014-05-15 12:36:22 +0000,2014-05-19 14:45:27 +0200,9198e978cc3f5f6c2432083a7d050e81134a4cf3,marmotta
MARMOTTA-499,2014-09-20 17:57:39 +0000,platform/marmotta-core/src/main/java/org/apache/marmotta/platform/core/services/modules/MarmottaResourceServiceImpl.java|platform/marmotta-core/src/test/java/org/apache/marmotta/platform/core/test/modules/MarmottaResourceServiceTest.java|,5,6,7,2014-05-15 17:59:09 +0000,2014-09-20 19:52:40 +0200,ff5645799bafd9e8fab9d744de3c925daf236b47,marmotta
MARMOTTA-257,2014-01-07 17:21:36 +0000,platform/marmotta-core/src/main/java/org/apache/marmotta/platform/core/services/config/ConfigurationServiceImpl.java|,2,3,4,2013-06-13 14:17:47 +0000,2014-01-08 09:34:32 +0100,a779faa9d83c94d625e68779348519d2851495b4,marmotta
MARMOTTA-379,2014-01-08 11:04:26 +0000,platform/marmotta-core/src/main/java/org/apache/marmotta/platform/core/services/templating/TemplatingServiceImpl.java|,3,4,4,2013-11-25 14:16:09 +0000,2014-01-08 12:02:32 +0100,bc88f463f2e73fee10c0b4c18a69f0b1ba6c718d,marmotta
MARMOTTA-139,2013-03-12 13:06:39 +0000,platform/marmotta-core/src/main/java/org/apache/marmotta/platform/core/services/config/ConfigurationServiceImpl.java|,1,2,2,2013-03-12 07:50:46 +0000,2013-03-12 14:06:05 +0100,06aa84e793b4a1cfa8d082ca1723d4309fcb6725,marmotta
MARMOTTA-242,2013-08-28 12:13:14 +0000,libraries/ldpath/ldpath-template/src/main/java/org/apache/marmotta/ldpath/template/engine/LDPathDirective.java|libraries/ldpath/ldpath-template/src/main/java/org/apache/marmotta/ldpath/template/engine/NamespaceDirective.java|libraries/ldpath/ldpath-template/src/main/java/org/apache/marmotta/ldpath/template/engine/TemplateEngine.java|libraries/ldpath/ldpath-template/src/main/java/org/apache/marmotta/ldpath/template/model/freemarker/TemplateNodeModel.java|libraries/ldpath/ldpath-template/src/main/java/org/apache/marmotta/ldpath/template/model/freemarker/TemplateWrapperModel.java|libraries/ldpath/ldpath-template/src/main/java/org/apache/marmotta/ldpath/template/model/transformers/TemplateLongTransformer.java|,2,3,3,2013-05-16 18:39:24 +0000,2013-08-28 14:09:47 +0200,0eed02773c8de1dda60a3c075a4d20cf102e763a,marmotta
MARMOTTA-485,2014-06-02 09:38:45 +0000,pom.xml|,5,6,7,2014-04-10 07:36:00 +0000,2014-06-02 10:25:27 +0200,4e4aa9a090e70893ac6b163bc2796ff6ea9185c7,marmotta
MARMOTTA-360,2013-11-28 11:26:15 +0000,platform/marmotta-core/src/main/resources/templates/admin.ftl|platform/marmotta-core/src/main/resources/web/public/style/blue/style.css|,3,4,4,2013-11-12 12:10:49 +0000,2013-11-28 12:23:42 +0100,51418bcb6a7d2cdd48b50f9836d70559b61e13ff,marmotta
MARMOTTA-240,2013-07-16 15:52:23 +0000,libraries/ldclient/ldclient-provider-mediawiki/src/main/java/org/apache/marmotta/ldclient/provider/mediawiki/MediawikiProvider.java|,2,3,3,2013-05-13 10:10:54 +0000,2013-05-13 14:32:26 +0200,58c3b5cd587f4d44d41b626124fdf3fc82f7b909,marmotta
MARMOTTA-489,2014-11-05 18:25:48 +0000,libraries/kiwi/kiwi-triplestore/src/test/java/org/apache/marmotta/kiwi/test/junit/KiWiDatabaseRunner.java|,5,6,7,2014-04-15 06:31:56 +0000,2014-06-02 09:29:35 +0200,9730c3c6abb90e9f9a8a6e6914236e3d7dfbd561,marmotta
MARMOTTA-247,2013-09-04 08:23:35 +0000,platform/marmotta-core/src/main/java/org/apache/marmotta/platform/core/webservices/resource/MetaWebService.java|platform/marmotta-core/src/main/java/org/apache/marmotta/platform/core/webservices/resource/ResourceWebService.java|,2,3,3,2013-05-27 07:56:34 +0000,2013-09-04 10:17:03 +0200,733020216dd1c71fdca1c75ff7abc429f2bdb388,marmotta
MARMOTTA-248,2013-12-06 08:06:37 +0000,platform/marmotta-core/src/main/java/org/apache/marmotta/platform/core/webservices/prefix/PrefixWebService.java|,3,3,4,2013-05-28 10:34:08 +0000,2013-12-06 09:03:18 +0100,fe53dfb82077acc6045cab96b7e8e3af61d6ddf4,marmotta
MARMOTTA-551,2014-10-14 14:26:45 +0000,platform/marmotta-core/src/main/resources/web/public/img/icon/marmotta.ico|,6,7,7,2014-10-14 14:17:52 +0000,2014-10-15 09:14:55 +0200,1420a56d60b4d5b8f583563539875393134b2924,marmotta
MARMOTTA-553,2014-10-16 12:17:50 +0000,platform/marmotta-core/src/main/java/org/apache/marmotta/platform/core/webservices/resource/MetaWebService.java|platform/marmotta-core/src/main/java/org/apache/marmotta/platform/core/webservices/resource/ResourceWebServiceHelper.java|,6,7,7,2014-10-16 11:27:34 +0000,2014-10-16 14:17:01 +0200,bac15e8caedaf07550457df337ee00e55ff15d4a,marmotta
MARMOTTA-558,2014-10-31 08:57:21 +0000,platform/marmotta-ldp/src/main/java/org/apache/marmotta/platform/ldp/util/AbstractResourceUriGenerator.java|platform/marmotta-ldp/src/main/java/org/apache/marmotta/platform/ldp/util/RandomUriGenerator.java|platform/marmotta-ldp/src/main/java/org/apache/marmotta/platform/ldp/util/SlugUriGenerator.java|platform/marmotta-ldp/src/main/java/org/apache/marmotta/platform/ldp/util/UuidUriGenerator.java|platform/marmotta-ldp/src/main/java/org/apache/marmotta/platform/ldp/webservices/LdpWebService.java|,6,7,7,2014-10-30 16:19:08 +0000,2014-10-31 09:56:38 +0100,bf7ee37ebd6d85fdea746199fd4cd1dda1961f77,marmotta
MARMOTTA-434,2014-02-04 15:01:33 +0000,commons/marmotta-commons/pom.xml|commons/marmotta-commons/src/main/java/org/apache/marmotta/commons/vocabulary/LDP.java|,3,5,5,2014-02-03 16:31:39 +0000,2014-02-18 11:50:09 +0100,aad87eff7cbae54a9cc7e736e404e5f5420aa699,marmotta
MARMOTTA-314,2013-10-25 10:45:28 +0000,libraries/ldpath/ldpath-core/src/main/java/org/apache/marmotta/ldpath/model/programs/Program.java|,3,3,4,2013-09-25 08:23:45 +0000,2013-10-25 15:52:05 +0200,fc701b8cee75b4d7675aa203c0feaa5fd4d21f54,marmotta
MARMOTTA-668,2018-02-16 21:35:42 +0000,build/plugins/pom.xml|build/plugins/refpack-maven-plugin/pom.xml|build/plugins/refpack-maven-plugin/src/main/java/org/apache/marmotta/maven/plugins/refpack/RefPackMojo.java|build/plugins/repocheck-maven-plugin/pom.xml|,7,8,8,2017-06-16 14:07:17 +0000,2018-02-16 18:49:06 +0100,2079e4ecb4b2ef4c49900a3f53ed54444c93d8c9,marmotta
MARMOTTA-669,2017-07-23 13:29:10 +0000,libraries/ostrich/backend/CMakeLists.txt|libraries/ostrich/backend/persistence/CMakeLists.txt|libraries/ostrich/backend/persistence/base_persistence.h|libraries/ostrich/backend/persistence/leveldb_persistence.cc|libraries/ostrich/backend/persistence/leveldb_persistence.h|libraries/ostrich/backend/persistence/rocksdb_persistence.cc|libraries/ostrich/backend/persistence/rocksdb_persistence.h|libraries/ostrich/backend/persistence/rocksdb_server.cc|,7,8,8,2017-07-20 08:16:31 +0000,2017-07-23 15:27:21 +0200,b7f3989e361df80f38c83a697e50b9a1f381d381,marmotta
MARMOTTA-666,2017-06-07 10:00:40 +0000,platform/marmotta-core/src/main/java/org/apache/marmotta/platform/core/api/prefix/PrefixProvider.java|platform/marmotta-core/src/main/java/org/apache/marmotta/platform/core/services/prefix/PrefixCC.java|platform/marmotta-core/src/test/java/org/apache/marmotta/platform/core/test/prefix/PrefixCCTest.java|,7,8,8,2017-06-07 08:12:48 +0000,2017-06-07 11:59:40 +0200,56981f5db0b2123fcf3a1d33c456db6e616e37ab,marmotta
MARMOTTA-545,2014-09-25 07:53:52 +0000,platform/marmotta-core/src/main/java/org/apache/marmotta/platform/core/webservices/triplestore/ContextWebService.java|platform/marmotta-ldp/src/main/java/org/apache/marmotta/platform/ldp/services/LdpBinaryStoreServiceImpl.java|platform/marmotta-ldp/src/test/java/org/apache/marmotta/platform/ldp/services/LdpBinaryStoreServiceImplTest.java|,6,7,7,2014-09-23 10:30:31 +0000,2014-09-24 17:39:18 +0200,d58451153f1a42d9e755156abc3e3ae7f3bc10da,marmotta
MARMOTTA-667,2017-06-16 13:36:18 +0000,platform/backends/marmotta-backend-titan/pom.xml|,7,8,8,2017-06-15 08:20:03 +0000,2017-06-16 15:33:22 +0200,6e4955b7dd6bc5d1bbf7407d1225d430fa185103,marmotta
MARMOTTA-572,2014-11-26 13:58:06 +0000,build/archetypes/marmotta-archetype-webapp/src/main/resources/archetype-resources/src/main/webapp/META-INF/jetty-web.xml|launchers/marmotta-webapp/src/main/webapp/META-INF/jetty-web.xml|,6,7,7,2014-11-17 14:50:25 +0000,2014-11-26 12:51:31 +0100,e199430aad6649845eb32aae4318edb8a09ebdda,marmotta
MARMOTTA-339,2013-10-04 18:24:45 +0000,libraries/ldpath/ldpath-backend-linkeddata/pom.xml|,3,4,6,2013-10-04 07:02:24 +0000,2014-04-09 09:34:19 +0200,76ea6b5501c4b40b206d720aa8267819a2b46265,marmotta
MARMOTTA-213,2013-09-20 12:06:34 +0000,NOTICE.txt|commons/sesame-tools-rio-rss/src/main/resources/META-INF/NOTICE|launchers/marmotta-installer/src/main/resources/installer/NOTICE.txt|launchers/marmotta-splash/src/ext/resources/META-INF/NOTICE|launchers/marmotta-splash/src/main/resources/META-INF/NOTICE|launchers/marmotta-webapp/src/main/webapp/META-INF/NOTICE|libraries/ldpath/ldpath-backend-linkeddata/src/main/doc/NOTICE.txt|platform/marmotta-core/src/main/resources/META-INF/NOTICE|platform/marmotta-ldpath/src/main/resources/META-INF/NOTICE|platform/marmotta-sparql/src/main/resources/META-INF/NOTICE|,2,2,3,2013-04-24 09:52:00 +0000,2013-09-20 14:00:33 +0200,b5c3a61486af6b2ec341050e88a573d034ce04b0,marmotta
MARMOTTA-578,2014-12-09 20:30:10 +0000,libraries/kiwi/kiwi-sparql/src/main/java/org/apache/marmotta/kiwi/sparql/builder/SQLBuilder.java|libraries/kiwi/kiwi-sparql/src/test/java/org/apache/marmotta/kiwi/sparql/test/KiWiSparqlTest.java|libraries/kiwi/kiwi-sparql/src/test/resources/org/apache/marmotta/kiwi/sparql/test/MARMOTTA-578.sparql|,7,8,8,2014-12-09 08:49:53 +0000,2014-12-11 11:32:29 +0100,9f53b80ebccb9bedc258b5ea1e51bb7facacaba3,marmotta
MARMOTTA-579,2016-06-24 08:17:16 +0000,build/archetypes/marmotta-archetype-webapp/src/main/resources/archetype-resources/src/test/resources/test-config.properties|launchers/marmotta-webapp/src/test/resources/test-config.properties|platform/backends/marmotta-backend-kiwi/src/main/resources/config-defaults.properties|platform/marmotta-core/src/main/resources/config-defaults.properties|,7,8,8,2014-12-12 11:23:07 +0000,2014-12-15 11:36:15 +0100,147d5a2c07583bda9f03df387d3a7e9473ff60b5,marmotta
MARMOTTA-441,2014-03-17 14:44:50 +0000,libraries/kiwi/kiwi-triplestore/src/main/java/org/apache/marmotta/kiwi/persistence/KiWiPersistence.java|,3,5,5,2014-02-18 11:19:29 +0000,2014-03-17 15:44:45 +0100,1d1e2922d40ec0dfa6cc6a7bab96ba8d9190a3fb,marmotta
MARMOTTA-563,2014-11-06 18:29:19 +0000,commons/marmotta-commons/src/main/java/org/apache/marmotta/commons/sesame/repository/ResourceUtils.java|platform/marmotta-ldpath/src/main/java/org/apache/marmotta/platform/ldpath/webservices/LDPathWebService.java|,6,7,7,2014-11-06 16:26:30 +0000,2014-11-06 19:04:10 +0100,713669d1beef10ba71fccc5822c7260dfd4124eb,marmotta
MARMOTTA-564,2014-11-10 19:01:20 +0000,commons/marmotta-commons/pom.xml|commons/marmotta-commons/src/main/java/org/apache/marmotta/commons/sesame/model/LiteralCommons.java|commons/marmotta-commons/src/main/java/org/apache/marmotta/commons/util/DateUtils.java|commons/marmotta-commons/src/test/java/org/apache/marmotta/commons/sesame/model/LiteralCommonsTest.java|libraries/kiwi/kiwi-loader/src/main/java/org/apache/marmotta/kiwi/loader/generic/KiWiHandler.java|libraries/kiwi/kiwi-loader/src/main/java/org/apache/marmotta/kiwi/loader/mysql/MySQLLoadUtil.java|libraries/kiwi/kiwi-loader/src/main/java/org/apache/marmotta/kiwi/loader/pgsql/PGCopyUtil.java|libraries/kiwi/kiwi-loader/src/test/java/org/apache/marmotta/kiwi/loader/PGCopyUtilTest.java|libraries/kiwi/kiwi-sparql/src/main/java/org/apache/marmotta/kiwi/sparql/builder/SQLBuilder.java|libraries/kiwi/kiwi-sparql/src/main/java/org/apache/marmotta/kiwi/sparql/builder/ValueType.java|libraries/kiwi/kiwi-sparql/src/main/java/org/apache/marmotta/kiwi/sparql/builder/eval/ValueExpressionEvaluator.java|libraries/kiwi/kiwi-sparql/src/main/java/org/apache/marmotta/kiwi/sparql/function/datetime/NDay.java|libraries/kiwi/kiwi-sparql/src/main/java/org/apache/marmotta/kiwi/sparql/function/datetime/NHours.java|libraries/kiwi/kiwi-sparql/src/main/java/org/apache/marmotta/kiwi/sparql/function/datetime/NMinutes.java|libraries/kiwi/kiwi-sparql/src/main/java/org/apache/marmotta/kiwi/sparql/function/datetime/NMonth.java|libraries/kiwi/kiwi-sparql/src/main/java/org/apache/marmotta/kiwi/sparql/function/datetime/NSeconds.java|libraries/kiwi/kiwi-sparql/src/main/java/org/apache/marmotta/kiwi/sparql/function/datetime/NYear.java|libraries/kiwi/kiwi-triplestore/pom.xml|libraries/kiwi/kiwi-triplestore/src/main/java/org/apache/marmotta/kiwi/io/KiWiIO.java|libraries/kiwi/kiwi-triplestore/src/main/java/org/apache/marmotta/kiwi/model/rdf/KiWiDateLiteral.java|libraries/kiwi/kiwi-triplestore/src/main/java/org/apache/marmotta/kiwi/model/rdf/KiWiDoubleLiteral.java|libraries/kiwi/kiwi-triplestore/src/main/java/org/apache/marmotta/kiwi/persistence/KiWiConnection.java|libraries/kiwi/kiwi-triplestore/src/main/java/org/apache/marmotta/kiwi/persistence/KiWiDialect.java|libraries/kiwi/kiwi-triplestore/src/main/java/org/apache/marmotta/kiwi/persistence/h2/H2Dialect.java|libraries/kiwi/kiwi-triplestore/src/main/java/org/apache/marmotta/kiwi/persistence/mysql/MySQLDialect.java|libraries/kiwi/kiwi-triplestore/src/main/java/org/apache/marmotta/kiwi/persistence/pgsql/PostgreSQLDialect.java|libraries/kiwi/kiwi-triplestore/src/main/java/org/apache/marmotta/kiwi/sail/KiWiValueFactory.java|libraries/kiwi/kiwi-triplestore/src/main/resources/org/apache/marmotta/kiwi/persistence/h2/create_base_tables.sql|libraries/kiwi/kiwi-triplestore/src/main/resources/org/apache/marmotta/kiwi/persistence/h2/statements.properties|libraries/kiwi/kiwi-triplestore/src/main/resources/org/apache/marmotta/kiwi/persistence/h2/upgrade_base_003_004.sql|libraries/kiwi/kiwi-triplestore/src/main/resources/org/apache/marmotta/kiwi/persistence/mysql/create_base_tables.sql|libraries/kiwi/kiwi-triplestore/src/main/resources/org/apache/marmotta/kiwi/persistence/mysql/statements.properties|libraries/kiwi/kiwi-triplestore/src/main/resources/org/apache/marmotta/kiwi/persistence/mysql/upgrade_base_003_004.sql|libraries/kiwi/kiwi-triplestore/src/main/resources/org/apache/marmotta/kiwi/persistence/pgsql/create_base_tables.sql|libraries/kiwi/kiwi-triplestore/src/main/resources/org/apache/marmotta/kiwi/persistence/pgsql/statements.properties|libraries/kiwi/kiwi-triplestore/src/main/resources/org/apache/marmotta/kiwi/persistence/pgsql/upgrade_base_003_004.sql|libraries/kiwi/kiwi-triplestore/src/test/java/org/apache/marmotta/kiwi/test/DialectTest.java|libraries/kiwi/kiwi-triplestore/src/test/java/org/apache/marmotta/kiwi/test/PersistenceTest.java|libraries/kiwi/kiwi-triplestore/src/test/java/org/apache/marmotta/kiwi/test/TestValueFactory.java|parent/pom.xml|,6,7,7,2014-11-10 10:35:17 +0000,2014-11-10 18:39:34 +0100,7a824559431331e008abd42421418f7bbe032d30,marmotta
MARMOTTA-322,2013-09-26 15:06:30 +0000,commons/marmotta-commons/src/main/java/org/apache/marmotta/commons/http/MarmottaHttpUtils.java|commons/marmotta-commons/src/test/java/org/apache/marmotta/commons/http/ContentTypeMatchingTest.java|commons/marmotta-commons/src/test/java/org/apache/marmotta/commons/http/MarmottaHttpUtilsTest.java|libraries/ldclient/ldclient-api/src/main/java/org/apache/marmotta/ldclient/api/endpoint/Endpoint.java|libraries/ldclient/ldclient-core/src/main/java/org/apache/marmotta/ldclient/services/provider/AbstractHttpProvider.java|platform/marmotta-core/src/main/java/org/apache/marmotta/platform/core/webservices/io/ExportWebService.java|platform/marmotta-core/src/main/java/org/apache/marmotta/platform/core/webservices/resource/ResourceWebService.java|platform/marmotta-core/src/main/java/org/apache/marmotta/platform/core/webservices/triplestore/ContextWebService.java|platform/marmotta-ldcache/src/main/java/org/apache/marmotta/platform/ldcache/services/endpoint/LinkedDataEndpointServiceImpl.java|platform/marmotta-sparql/src/main/java/org/apache/marmotta/platform/sparql/webservices/SparqlWebService.java|platform/marmotta-sparql/src/test/java/org/apache/marmotta/platform/sparql/webservices/SparqlWebServiceTest.java|platform/marmotta-versioning/src/main/java/org/apache/marmotta/platform/versioning/services/VersionSerializerServiceImpl.java|platform/marmotta-versioning/src/main/java/org/apache/marmotta/platform/versioning/webservices/MementoWebService.java|,2,3,3,2013-09-25 16:53:11 +0000,2013-09-26 17:05:38 +0200,7122c51502d9358c49806e3ee516ea22cc2679c5,marmotta
MARMOTTA-201,2013-07-11 14:36:48 +0000,launchers/marmotta-webapp/src/main/resources/ehcache-marmotta.xml|launchers/marmotta-webapp/src/test/resources/ehcache.xml|platform/marmotta-core/src/main/java/org/apache/marmotta/platform/core/services/cache/CachingServiceImpl.java|platform/marmotta-core/src/test/resources/ehcache-db.xml|platform/marmotta-core/src/test/resources/ehcache-marmotta.xml|,2,2,3,2013-04-13 08:53:38 +0000,2013-07-11 16:24:56 +0200,8a59038f03a648a65a268bd493c289a8b7ad4559,marmotta
MARMOTTA-560,2014-11-05 15:54:25 +0000,libraries/kiwi/kiwi-loader/pom.xml|loader/marmotta-loader-core/pom.xml|,6,7,7,2014-10-31 12:00:19 +0000,2014-11-05 16:40:22 +0100,85b93523d99b451c7dd618f13a3769410ab78ee7,marmotta
MARMOTTA-569,2014-11-26 13:37:21 +0000,platform/marmotta-ldp/src/main/java/org/apache/marmotta/platform/ldp/util/LdpUtils.java|platform/marmotta-ldp/src/main/java/org/apache/marmotta/platform/ldp/webservices/LdpWebService.java|,6,7,7,2014-11-12 15:23:03 +0000,2014-11-12 16:16:30 +0100,4f53948572b9f28b8e6f6f56f7ce02d5f6a3273d,marmotta
MARMOTTA-566,2014-11-11 14:31:04 +0000,build/archetypes/marmotta-archetype-webapp/src/main/resources/archetype-resources/src/main/webapp/WEB-INF/web.xml|launchers/marmotta-webapp/src/main/webapp/WEB-INF/web.xml|,6,7,7,2014-11-11 08:59:19 +0000,2014-11-11 15:13:22 +0100,baf458a821cafa3b65daba393a3f4dd6aa8de405,marmotta
