Bug ID,Bug Resolution Date by Jira,Classes Touched by Last Fix,Earliest AV,Version of Ticket Creation,Version of Fix,Ticket Creation Date,Fix Date (of most recent commit),Hash (of most recent commit),Git Directory
TS-246,2010-03-15 15:31:27 +0000,proxy/mgmt2/cli2/ConfigCmd.cc|proxy/mgmt2/cli2/ShowCmd.cc|,1,2,2,2010-03-13 21:00:55 +0000,2010-03-15 15:31:04 +0000,2776bfa0984179d9b272189884f304f6e2cfa861,trafficserver
TS-272,2010-04-17 04:41:11 +0000,proxy/Main.cc|proxy/signals.cc|proxy/signals.h|,1,2,2,2010-03-24 02:16:15 +0000,2010-03-24 02:56:48 +0000,c4252fba8073c5983bfbe862a0b0b53360b9a50a,trafficserver
TS-336,2010-08-23 15:35:22 +0000,configure.ac|proxy/config/records.config.in|proxy/mgmt2/LocalManager.cc|proxy/mgmt2/cop/Makefile.am|proxy/mgmt2/cop/TrafficCop.cc|rc/trafficserver.in|,2,3,3,2010-05-05 20:56:38 +0000,2010-05-10 01:11:57 +0000,d3a4d4c128929140dc24e59c84965ec8fbba1ef0,trafficserver
TS-379,2010-05-27 16:26:11 +0000,iocore/hostdb/HostDB.cc|,3,4,4,2010-05-27 14:20:52 +0000,2010-05-27 15:50:48 +0000,4e382c097cd6b0f0719a81c2dc70bd753c4260d9,trafficserver
TS-385,2010-06-03 16:32:59 +0000,proxy/logging/LogStandalone.cc|proxy/logstats.cc|proxy/sac.cc|,4,4,5,2010-06-03 15:09:54 +0000,2010-06-11 14:52:41 +0000,7e6ba98b7f5b22ad48dcb0a078e6e7c25ad7e9ef,trafficserver
TS-386,2010-07-02 14:21:46 +0000,configure.ac|iocore/dns/DNS.cc|,3,4,5,2010-06-03 18:26:19 +0000,2010-07-02 14:19:35 +0000,96c5cb3741f3f81f2308c0c9a46a8d75c3a0fa61,trafficserver
TS-399,2010-07-08 16:15:57 +0000,build/common.m4|,4,5,5,2010-07-07 16:06:20 +0000,2010-07-08 15:50:32 +0000,b29f31637d237a6a5417be29959df58fe03a66a7,trafficserver
TS-419,2010-08-23 02:36:51 +0000,proxy/InkAPI.cc|,2,5,5,2010-08-20 14:18:52 +0000,2010-08-23 02:35:30 +0000,96ae853d7d7cde7791264701b0077715023f5150,trafficserver
TS-405,2010-09-02 15:34:47 +0000,CHANGES|iocore/net/SSLConfig.cc|,4,5,6,2010-07-27 11:33:13 +0000,2010-09-02 04:16:15 +0000,483f6cc98f16dbce2b7aded39919f05d5d23bab0,trafficserver
TS-413,2010-09-07 22:37:29 +0000,iocore/cache/CachePart.cc|iocore/cache/CacheRead.cc|iocore/cache/CacheWrite.cc|,5,5,6,2010-08-11 20:25:50 +0000,2010-09-03 20:35:39 +0000,fc55e662bac9e3c032f4b23e098a088650d23fd8,trafficserver
TS-55,2010-09-09 00:52:46 +0000,CHANGES|proxy/mgmt2/RecordsConfig.cc|,1,1,6,2009-12-02 18:35:17 +0000,2010-09-09 00:49:32 +0000,0b60544dec9823a1b36e457e39958684dc06e89b,trafficserver
TS-395,2010-09-10 18:25:23 +0000,proxy/InkAPI.cc|proxy/api/ts/ts.h|proxy/http2/HttpTransact.cc|proxy/http2/HttpTransact.h|,1,5,6,2010-06-25 17:31:52 +0000,2010-09-10 18:23:52 +0000,7d2bc2b67862974db02b7ae354ec69ce6bde949b,trafficserver
TS-431,2010-12-20 17:33:18 +0000,iocore/cache/CacheWrite.cc|,5,6,6,2010-09-01 09:19:10 +0000,2010-09-15 16:08:42 +0000,fe6f5fc38c1fedb4d0e84e4b7178927b0e8847ab,trafficserver
TS-327,2010-09-15 22:11:12 +0000,proxy/mgmt2/LocalManager.cc|,1,2,6,2010-04-28 20:05:50 +0000,2010-09-15 22:08:38 +0000,a21dc27cc589cdcac2c2a02356d5d772442aa36d,trafficserver
TS-452,2010-09-28 16:35:33 +0000,build/common.m4|build/crypto.m4|build/dbd.m4|build/lzma.m4|build/network.m4|build/pcre.m4|build/xml.m4|build/zlib.m4|configure.ac|example/add-header/Makefile.am|example/append-transform/Makefile.am|example/basic-auth/Makefile.am|example/blacklist-0/Makefile.am|example/blacklist-1/Makefile.am|example/bnull-transform/Makefile.am|example/cache_plugin/Makefile.am|example/cache_scan/Makefile.am|example/file-1/Makefile.am|example/file_system_cache/Makefile.am|example/gzip-transform/Makefile.am|example/hello/Makefile.am|example/null-transform/Makefile.am|example/output-header/Makefile.am|example/prefetch/Makefile.am|example/protocol/Makefile.am|example/query_remap/Makefile.am|example/redirect-1/Makefile.am|example/remap/Makefile.am|example/replace-header/Makefile.am|example/response-header-1/Makefile.am|example/server-transform/Makefile.am|example/session-1/Makefile.am|example/thread-1/Makefile.am|example/thread-pool/Makefile.am|iocore/cache/RamCacheCLFUS.cc|iocore/eventsystem/I_EThread.h|iocore/eventsystem/I_SocketManager.h|iocore/eventsystem/P_UnixSocketManager.h|iocore/eventsystem/UnixEThread.cc|iocore/hostdb/HostDB.cc|iocore/net/I_NetVConnection.h|iocore/net/P_UnixNet.h|iocore/net/P_UnixPollDescriptor.h|iocore/net/UnixConnection.cc|iocore/net/UnixNet.cc|iocore/net/UnixNetAccept.cc|iocore/net/UnixNetVConnection.cc|iocore/net/UnixUDPNet.cc|libinktomi++/Diags.h|libinktomi++/SimpleDBM.h|libinktomi++/ink_config.h.in|libinktomi++/ink_hrtime.cc|libinktomi++/ink_hrtime.h|libinktomi++/ink_memory.cc|libinktomi++/ink_platform.h|libinktomi++/ink_stack_trace.cc|libinktomi++/ink_string.cc|libinktomi++/ink_string.h|proxy/CoreUtils.h|proxy/InkAPI.cc|proxy/Main.cc|proxy/StatAPITypes.cc|proxy/StatAPITypes.h|proxy/api/ts/InkAPIPrivateIOCore.h|proxy/http2/HttpSM.cc|proxy/http2/HttpSM.h|proxy/logcat.cc|proxy/logstats.cc|proxy/mgmt2/LocalManager.cc|proxy/mgmt2/LocalManager.h|proxy/mgmt2/Main.cc|proxy/mgmt2/RecordsConfig.cc|proxy/mgmt2/Rollback.cc|proxy/mgmt2/utils/WebMgmtUtils.cc|proxy/signals.cc|,6,6,7,2010-09-22 19:36:18 +0000,2010-09-28 16:32:32 +0000,151e7a074db827a48195a124192a186d7776e5c3,trafficserver
TS-480,2010-10-12 14:50:02 +0000,iocore/net/P_UnixNetVConnection.h|proxy/http2/HttpSM.cc|,5,7,7,2010-10-09 16:45:13 +0000,2010-10-12 14:49:14 +0000,2d4b8a1d4c70a0275bf6eb262c654eeb07d67b0a,trafficserver
TS-490,2010-10-14 21:54:03 +0000,proxy/http2/HttpTransact.cc|proxy/http2/HttpTransact.h|,6,7,7,2010-10-14 19:30:37 +0000,2010-10-15 02:05:25 +0000,7233805d964c9381f6b3ad5e8a6630761793709f,trafficserver
TS-493,2010-10-22 02:52:57 +0000,proxy/ControlMatcher.cc|,6,7,7,2010-10-20 22:01:22 +0000,2010-10-22 02:51:49 +0000,c36d4e30df92889b5788e0dfe4971cf56aba2a58,trafficserver
TS-495,2010-10-22 02:59:07 +0000,proxy/http2/HttpSM.cc|,6,7,7,2010-10-22 02:57:55 +0000,2010-10-22 02:58:06 +0000,187763308c4512eafe4c08955bf7865eca9a8bdb,trafficserver
TS-494,2010-11-02 17:16:43 +0000,iocore/net/SSLNet.cc|,6,7,7,2010-10-21 16:34:31 +0000,2010-10-27 23:28:18 +0000,22d952d18e2373f3be925f1372ec83c0a2b62e81,trafficserver
TS-501,2010-11-02 17:01:01 +0000,proxy/InkAPI.cc|proxy/http2/HttpConfig.h|proxy/http2/HttpConnectionCount.cc|proxy/http2/HttpSM.cc|proxy/http2/HttpServerSession.cc|proxy/http2/HttpTransact.cc|,2,7,7,2010-10-29 19:34:37 +0000,2010-10-29 21:26:55 +0000,d7e3ae41928acc4e31ae47828c61238650ee1608,trafficserver
TS-14,2010-11-02 17:10:11 +0000,proxy/api/ts/ts_private_frozen.h|,1,1,7,2009-11-05 01:58:19 +0000,2010-10-29 22:53:39 +0000,3ce1e76d1941bb2329d370d8d72368486d279a1d,trafficserver
TS-507,2010-11-08 22:26:20 +0000,proxy/InkAPI.cc|,6,7,7,2010-11-03 22:26:56 +0000,2010-11-08 22:20:21 +0000,e60708998dcdff64a9b3112f157f1472c504c5ba,trafficserver
TS-519,2010-11-08 23:57:55 +0000,CHANGES|proxy/mgmt2/web2/WebOverview.cc|proxy/mgmt2/web2/WebOverview.h|,6,7,7,2010-11-08 23:45:56 +0000,2010-11-08 23:46:39 +0000,ceb6e0434e71d616426c865a13ca1c13590eda28,trafficserver
TS-525,2010-11-10 22:29:01 +0000,tsxs.in|,6,7,7,2010-11-10 22:22:54 +0000,2010-11-10 22:22:20 +0000,e9b68cf4ecb791dffda973aade9f84db68544ac7,trafficserver
TS-535,2010-11-15 20:57:45 +0000,proxy/http2/HttpTransact.cc|,6,8,8,2010-11-15 07:32:48 +0000,2010-11-15 20:49:50 +0000,3208aee2b95e2d310b914c4354acb84f45d0aafa,trafficserver
TS-529,2010-11-19 17:45:22 +0000,proxy/InkAPI.cc|proxy/InkAPITest.cc|proxy/api/ts/ts.h.in|proxy/http2/HttpDebugNames.cc|proxy/http2/HttpSM.cc|proxy/http2/HttpTransact.cc|proxy/http2/HttpTransact.h|,6,7,8,2010-11-11 22:40:58 +0000,2010-11-16 17:48:27 +0000,e8b7d3450efc4f2ed318be10b6fe85fced538b56,trafficserver
TS-458,2010-11-17 15:26:10 +0000,proxy/api/ts/ts.h.in|,3,6,8,2010-09-24 14:00:26 +0000,2010-11-17 15:43:39 +0000,05c486f26e2ad94be85d2b6a451a3cfa7456b437,trafficserver
TS-540,2010-11-17 21:41:09 +0000,iocore/eventsystem/P_IOBuffer.h|iocore/net/SSLNetVConnection.cc|,7,8,8,2010-11-17 03:30:06 +0000,2010-11-17 21:13:33 +0000,ca7f143df82de9fd6681433335ea3fb0f75161e3,trafficserver
TS-435,2010-11-18 15:14:29 +0000,iocore/dns/DNS.cc|iocore/dns/DNSConnection.cc|iocore/dns/P_DNSConnection.h|iocore/dns/P_DNSProcessor.h|iocore/dns/SplitDNS.cc|iocore/net/P_UnixNet.h|iocore/net/UnixNet.cc|libinktomi++/ink_res_init.cc|proxy/Main.cc|,5,6,8,2010-09-08 15:22:15 +0000,2010-11-18 15:12:31 +0000,86702ad8cac9928635121d1e3a7775cdc2cbec19,trafficserver
TS-578,2010-12-03 03:04:28 +0000,proxy/http2/HttpConfig.cc|,7,8,8,2010-12-03 03:03:18 +0000,2010-12-03 03:02:37 +0000,4283926338372c164d7c3d159df28ce5c2764391,trafficserver
TS-171,2010-12-05 04:26:09 +0000,proxy/InkAPITest.cc|proxy/InkAPITestTool.cc|,1,1,8,2010-02-11 23:09:09 +0000,2010-12-05 04:25:34 +0000,b916dd6e474b7ef727981be41d508f10536425f2,trafficserver
TS-580,2010-12-09 03:20:44 +0000,iocore/dns/DNS.cc|,7,8,8,2010-12-03 07:12:55 +0000,2010-12-08 23:13:59 +0000,18a18b5854ad63495eb4e8a73e0108512f2898d0,trafficserver
TS-515,2010-12-15 00:02:55 +0000,configure.ac|,6,7,8,2010-11-08 12:01:33 +0000,2010-12-15 00:02:39 +0000,d9d2c1bfb13f392c1572b05086e1291859cd4121,trafficserver
TS-603,2010-12-22 19:46:22 +0000,CHANGES|REVIEWERS|lib/ts/Regex.cc|lib/ts/Regex.h|proxy/hdrs/HTTP.cc|proxy/hdrs/HdrTest.cc|proxy/hdrs/HdrToken.cc|proxy/hdrs/MIME.cc|proxy/hdrs/URL.cc|,7,8,8,2010-12-22 18:58:04 +0000,2010-12-22 19:41:23 +0000,1e3001cee47b5c9cfc11d6e633a1f360fd80c4c6,trafficserver
TS-604,2010-12-22 19:46:35 +0000,CHANGES|REVIEWERS|lib/ts/Regex.cc|lib/ts/Regex.h|proxy/hdrs/HTTP.cc|proxy/hdrs/HdrTest.cc|proxy/hdrs/HdrToken.cc|proxy/hdrs/MIME.cc|proxy/hdrs/URL.cc|,7,8,8,2010-12-22 19:00:34 +0000,2010-12-22 19:41:23 +0000,1e3001cee47b5c9cfc11d6e633a1f360fd80c4c6,trafficserver
TS-583,2011-01-11 20:07:15 +0000,build/common.m4|,7,8,8,2010-12-06 18:09:52 +0000,2011-01-11 20:59:35 +0000,914c0975b39ca42d46c442f98a05106df517df46,trafficserver
TS-643,2011-01-25 00:39:34 +0000,iocore/cache/Cache.cc|iocore/cache/P_CacheInternal.h|proxy/http/HttpSM.cc|,8,9,9,2011-01-15 16:19:34 +0000,2011-01-25 00:39:18 +0000,26eba4a2c1552431131f07bd53ddc19b3d032cde,trafficserver
TS-635,2011-01-28 16:41:16 +0000,tsxs.in|,8,9,9,2011-01-12 02:20:04 +0000,2011-01-25 03:45:58 +0000,8a31a3957799887812a001c5e39eadf5e312774a,trafficserver
TS-663,2011-02-06 03:27:34 +0000,lib/wccp/WccpEndPoint.cc|lib/wccp/WccpLocal.h|lib/wccp/WccpMsg.cc|,8,9,9,2011-02-06 02:51:51 +0000,2011-02-10 23:21:58 +0000,7e57465a799c1715f3cc375a373e0b6426627d01,trafficserver
TS-644,2011-02-11 20:58:15 +0000,iocore/cache/CachePages.cc|,8,9,9,2011-01-16 07:43:34 +0000,2011-02-11 20:57:10 +0000,4dfdc43dac913639f9ef5532db766d6f184d6796,trafficserver
TS-675,2011-03-03 03:34:00 +0000,proxy/http/remap/UrlRewrite.cc|,8,9,10,2011-02-23 01:23:32 +0000,2011-03-03 04:20:24 +0000,8aee31d2dc67310441163b23da30e2899691a323,trafficserver
TS-691,2011-03-08 21:07:09 +0000,proxy/logging/LogFilter.cc|,9,10,10,2011-03-05 02:34:36 +0000,2011-03-08 21:06:50 +0000,82f82afbfd9c1af8574fe62c25b333cff4af9623,trafficserver
TS-696,2011-03-08 21:38:16 +0000,lib/ts/Makefile.am|,9,10,10,2011-03-08 21:01:54 +0000,2011-03-08 21:38:12 +0000,9c7b28e8f25d100e4aa0209fb30993ad343e8598,trafficserver
TS-708,2011-03-15 20:06:05 +0000,lib/tsconfig/Makefile.am|lib/wccp/Makefile.am|mgmt/Makefile.am|,9,10,10,2011-03-15 20:01:01 +0000,2011-03-15 21:38:36 +0000,e047677e890091046134ce8a108c500406b1a13c,trafficserver
TS-713,2011-03-22 23:30:20 +0000,iocore/cache/CacheRead.cc|,9,10,10,2011-03-18 18:57:08 +0000,2011-03-18 18:59:44 +0000,f6b1b98595fa181fcd9da703d29eb16ef5018430,trafficserver
TS-704,2011-03-19 14:37:51 +0000,proxy/Makefile.am|,9,10,10,2011-03-10 14:16:14 +0000,2011-03-19 14:37:29 +0000,45f1017cde744160e08b76edb0529e1717844aec,trafficserver
TS-715,2011-03-22 00:01:50 +0000,contrib/perl/AdminClient/Makefile.PL|contrib/perl/AdminClient/lib/Apache/TS/AdminClient.pm|,10,11,11,2011-03-21 06:23:37 +0000,2011-03-22 00:01:38 +0000,af0d5ef3603ef383d4898fe714e4b411310cadab,trafficserver
TS-633,2011-03-22 02:15:26 +0000,proxy/http/remap/UrlRewrite.cc|,3,8,11,2011-01-10 20:57:04 +0000,2011-03-22 01:51:12 +0000,e467b208065a7ae092d85ccefe3a0c3b357e4c2f,trafficserver
TS-714,2011-03-27 01:26:49 +0000,mgmt/api/NetworkUtilsDefs.h|mgmt/api/NetworkUtilsLocal.cc|,8,11,11,2011-03-21 06:12:19 +0000,2011-03-27 01:26:20 +0000,a86d37515714f59bf0c5495a3ec3f792f69eaa09,trafficserver
TS-721,2011-04-19 17:16:16 +0000,mgmt/Main.cc|mgmt/RecordsConfig.cc|mgmt/api/remote/APITestCliRemote.cc|mgmt/web2/WebOverview.cc|proxy/config/stats.config.xml.default|,10,11,11,2011-03-28 11:31:52 +0000,2011-04-01 03:28:49 +0000,ecf7fbeb3c2044ce45a6ae063c48e26fb93b7d76,trafficserver
TS-629,2011-04-06 01:31:20 +0000,iocore/cluster/ClusterHandlerBase.cc|iocore/cluster/ClusterProcessor.cc|lib/ts/ParseRules.h|mgmt/cluster/ClusterCom.cc|mgmt/preparse/IPRange.cc|,8,8,11,2011-01-10 14:41:13 +0000,2011-04-03 23:05:41 +0000,63c5e6af962feaa5afd9d6a263f2d3df9f75d6a5,trafficserver
TS-741,2011-04-18 18:42:05 +0000,mgmt/cluster/ClusterCom.cc|,10,11,11,2011-04-15 22:19:29 +0000,2011-04-18 18:41:05 +0000,ded04ebd0b6b7c445c1761a6d0f5304d563d9592,trafficserver
TS-716,2011-05-02 22:38:09 +0000,iocore/net/UnixNet.cc|iocore/net/UnixNetAccept.cc|iocore/net/UnixNetVConnection.cc|lib/ts/ink_queue.cc|,10,11,11,2011-03-22 06:33:27 +0000,2011-04-20 14:42:25 +0000,86c904513a8b53591159a4ef15d98db22f71c9cd,trafficserver
TS-702,2011-04-27 19:35:39 +0000,proxy/hdrs/MIME.cc|,5,10,11,2011-03-10 10:14:49 +0000,2011-04-25 14:56:26 +0000,4b589d93f68ce58503073453d6fe722a75bad78d,trafficserver
TS-751,2011-04-26 10:04:38 +0000,proxy/http/HttpTransact.cc|,7,11,11,2011-04-25 17:14:17 +0000,2011-04-26 10:04:37 +0000,51429a00119cf6db8c01281c2fad90cc39bf5eed,trafficserver
TS-749,2011-04-26 10:13:33 +0000,proxy/http/HttpSM.cc|,7,11,11,2011-04-25 15:15:49 +0000,2011-04-26 10:13:21 +0000,dcc8b943d2eca0b7fc460e8264196eca6eb6765e,trafficserver
TS-752,2011-04-29 22:51:16 +0000,iocore/cache/CacheVol.cc|iocore/cache/P_CacheInternal.h|iocore/cache/P_CacheVol.h|,7,11,11,2011-04-25 17:47:16 +0000,2011-04-29 22:50:37 +0000,becffba2a214e8b22e5e34ca486770a637c9379a,trafficserver
TS-750,2011-05-02 16:14:08 +0000,CHANGES|,7,11,11,2011-04-25 17:06:57 +0000,2011-05-02 16:20:46 +0000,d7004371c57f16bb1f648230b4afaa0ce5061e77,trafficserver
TS-759,2011-05-05 18:34:02 +0000,proxy/config/Makefile.am|,11,12,12,2011-05-05 17:30:43 +0000,2011-05-05 18:33:58 +0000,a129cce4368364b65fdcdd37db2301a47d7e1521,trafficserver
TS-761,2011-05-06 20:36:09 +0000,proxy/http/remap/UrlRewrite.cc|,11,12,12,2011-05-06 20:21:53 +0000,2011-05-06 20:32:39 +0000,ed6931c3d45b28ee40f4a89abf5d108a0f1d6d17,trafficserver
TS-762,2011-05-06 21:23:48 +0000,proxy/Transform.cc|,7,12,12,2011-05-06 20:34:30 +0000,2011-05-06 21:23:28 +0000,19578eb64cde96fa1698168c3049a5afdaffa719,trafficserver
TS-770,2011-05-10 21:57:41 +0000,CHANGES|proxy/http/HttpConfig.cc|,9,12,12,2011-05-10 18:32:32 +0000,2011-05-10 21:55:09 +0000,5952341622d8c2d8bcea6f9b8b6ac0abc51c8b9b,trafficserver
TS-773,2011-05-20 23:35:25 +0000,iocore/aio/AIO.cc|iocore/aio/I_AIO.h|iocore/cache/Cache.cc|iocore/cache/CacheDir.cc|iocore/cache/CacheDisk.cc|iocore/cache/CacheVol.cc|iocore/cache/P_CacheDir.h|iocore/cache/P_CacheVol.h|,11,12,12,2011-05-10 23:40:45 +0000,2011-05-15 20:50:15 +0000,4560e8f15df05e42196b85c7549a415b38e3781f,trafficserver
TS-778,2011-05-19 19:13:15 +0000,lib/ts/Map.h|lib/ts/Vec.cc|lib/ts/Vec.h|,11,12,12,2011-05-14 19:24:09 +0000,2011-05-19 19:13:27 +0000,ae5b733776dfc50dc70c615e560f6194b99df444,trafficserver
TS-788,2011-05-20 00:16:58 +0000,proxy/InkAPI.cc|proxy/api/ts/ts.h.in|,11,12,12,2011-05-17 16:32:31 +0000,2011-05-20 00:15:24 +0000,8218cde7a07ba5783bf7712448f848f29ee6bc50,trafficserver
TS-769,2011-05-20 00:47:22 +0000,proxy/http/HttpTransactHeaders.cc|,11,12,12,2011-05-10 18:29:12 +0000,2011-05-20 00:45:25 +0000,f0cfb5d5b19ea2e6b347c2535e43c82c4f6418c0,trafficserver
TS-793,2011-05-26 14:24:02 +0000,iocore/net/UnixNetAccept.cc|lib/ts/ink_queue.cc|,5,12,12,2011-05-20 08:38:46 +0000,2011-05-26 14:23:45 +0000,3d39730b635ecf306b5a23e9913c0b769fb2764e,trafficserver
TS-798,2011-06-01 21:57:36 +0000,proxy/http/remap/UrlRewrite.cc|,10,12,13,2011-05-24 04:07:29 +0000,2011-05-31 21:12:12 +0000,9b806e2d87fe19aaf9ed85ff784ec8799753e163,trafficserver
TS-818,2011-06-09 17:48:31 +0000,CHANGES|iocore/net/Socks.cc|,11,13,13,2011-06-03 15:14:39 +0000,2011-06-03 15:49:00 +0000,0787ccf65b771aca905469ab6e49f25706f35934,trafficserver
TS-825,2011-06-09 17:49:00 +0000,CHANGES|,7,13,13,2011-06-07 15:06:25 +0000,2011-06-09 02:55:47 +0000,e6ed8748db906625e5a09dad0af5e66e01dfee4a,trafficserver
TS-828,2011-07-15 13:57:56 +0000,CHANGES|,7,13,13,2011-06-07 15:35:30 +0000,2011-06-09 02:56:01 +0000,d7fd98415885103c0af2affc27887cb12815b8ef,trafficserver
TS-842,2011-07-15 19:46:53 +0000,CHANGES|Makefile.am|example/app-template/Makefile.am|proxy/Makefile.am|,13,14,14,2011-06-17 17:17:50 +0000,2011-06-17 17:43:35 +0000,7ed27c3f25c1cd5a42d5378f86dae168dea213e5,trafficserver
TS-840,2011-06-18 01:39:52 +0000,.gitignore|CHANGES|lib/ts/test_Vec.cc|,13,14,14,2011-06-14 21:10:25 +0000,2011-06-18 01:39:44 +0000,f980ba2383701e203f4ee91b931fa31202fff887,trafficserver
TS-826,2011-07-15 13:59:05 +0000,CHANGES|,7,13,14,2011-06-07 15:10:02 +0000,2011-06-20 20:54:18 +0000,7e9826283c43ed154ee9fd702f3b543ef57222fa,trafficserver
TS-845,2011-07-18 03:10:13 +0000,CHANGES|build/network.m4|configure.ac|lib/ts/ink_config.h.in|mgmt/Main.cc|mgmt/RecordsConfig.cc|proxy/config/records.config.default.in|,13,14,14,2011-06-20 07:39:38 +0000,2011-06-21 07:44:29 +0000,519a06b1faeab5b431c47acb0e4934df0b3b5534,trafficserver
TS-850,2011-07-31 18:19:07 +0000,proxy/Update.cc|,13,14,14,2011-06-21 23:05:51 +0000,2011-06-21 23:28:00 +0000,30e3e3c733530b3cfab88b61b7e1a48d8677f62f,trafficserver
TS-847,2011-06-21 10:51:21 +0000,iocore/net/I_NetProcessor.h|,13,14,14,2011-06-20 22:45:23 +0000,2011-06-24 20:29:50 +0000,f0b529efc6e9649f51f55fe6428f844f9666d36b,trafficserver
TS-868,2011-07-15 19:44:14 +0000,CHANGES|mgmt/Makefile.am|,13,14,14,2011-07-03 23:07:16 +0000,2011-07-03 23:32:32 +0000,c8cb95328f95ae5892f1f0b587e251907f3edd4c,trafficserver
TS-860,2011-07-15 19:39:37 +0000,CHANGES|,7,14,14,2011-06-30 15:12:19 +0000,2011-07-05 15:54:52 +0000,90ca9d84f91540f90d7a1f8fa5c4c80dd6930240,trafficserver
TS-853,2011-07-13 20:23:32 +0000,CHANGES|example/protocol/TxnSM.c|example/protocol/TxnSM.h|example/redirect-1/redirect-1.c|example/server-transform/server-transform.c|,13,14,14,2011-06-23 22:57:30 +0000,2011-07-13 20:23:23 +0000,2f034a542acf21e1776c96cc760afb742facb1c9,trafficserver
TS-875,2011-07-15 19:35:40 +0000,CHANGES|,13,14,14,2011-07-13 17:57:05 +0000,2011-07-13 20:38:11 +0000,e539f83986ae99b683d378a96d682a22093f382d,trafficserver
TS-882,2011-09-30 16:34:07 +0000,lib/ts/ink_sys_control.cc|,13,14,14,2011-07-16 14:49:51 +0000,2011-07-18 23:45:51 +0000,78ded1eabf36abf4414095039d6b3725fd106b3f,trafficserver
TS-816,2011-07-21 01:36:02 +0000,CHANGES|iocore/net/I_Net.h|mgmt/LocalManager.cc|proxy/Main.cc|proxy/Main.h|proxy/http/HttpProxyServerMain.cc|,12,13,15,2011-06-01 18:50:11 +0000,2011-07-20 22:23:10 +0000,ddbd34a19631d673137db58f6f1dbb3e49856a43,trafficserver
TS-883,2011-09-26 16:19:25 +0000,proxy/logstats.cc|,13,14,15,2011-07-16 14:52:28 +0000,2011-07-31 02:27:57 +0000,dc4d352db8477cd92dcca7f96ec6b8ee3ddb5227,trafficserver
TS-885,2011-07-31 03:56:12 +0000,rc/trafficserver.in|,14,15,15,2011-07-19 19:33:22 +0000,2011-07-31 03:56:02 +0000,28b6e8f66dd3cce468d780bb8bb912321606d5cc,trafficserver
TS-859,2011-09-26 16:25:01 +0000,CHANGES|,13,14,15,2011-06-30 10:29:33 +0000,2011-08-03 16:59:31 +0000,4c0588a933e8fbebc268b71ae475bedaf92b579f,trafficserver
TS-901,2011-09-30 16:31:50 +0000,CHANGES|,14,15,15,2011-08-03 16:39:53 +0000,2011-08-03 17:43:10 +0000,d77d7eaf103ad6763fb35b75050cffcf9020dc47,trafficserver
TS-906,2011-11-28 13:40:41 +0000,CHANGES|,2,15,15,2011-08-06 20:42:33 +0000,2011-08-07 18:24:06 +0000,3953ddf97c0dbd950ace729d8482a6ce0b3bd041,trafficserver
TS-849,2011-08-08 09:40:32 +0000,CHANGES|mgmt/RecordsConfig.cc|mgmt/cli/TrafficLine.cc|,14,14,15,2011-06-21 08:35:58 +0000,2011-08-08 09:30:10 +0000,87fcbd758e89381b2500064b109ea75befef1f4a,trafficserver
TS-914,2011-08-12 01:53:41 +0000,CHANGES|iocore/net/UnixNet.cc|,14,15,15,2011-08-11 12:22:49 +0000,2011-08-12 01:51:40 +0000,bc2e00918a459b06672ab5d96f7527255741594d,trafficserver
TS-916,2011-09-30 16:33:05 +0000,CHANGES|,10,15,15,2011-08-12 21:43:34 +0000,2011-08-16 15:13:49 +0000,1dd05fda25eecb810d057d9a2bbd371a013a76ae,trafficserver
TS-900,2011-08-18 01:54:22 +0000,proxy/InkAPI.cc|,14,15,15,2011-08-03 15:55:34 +0000,2011-08-18 01:54:11 +0000,b4979b2a92d247a650a87892eac7c22a011f323f,trafficserver
TS-880,2012-02-29 19:56:27 +0000,CHANGES|,7,14,15,2011-07-14 21:14:20 +0000,2011-08-18 16:59:36 +0000,6d7a70a7c1b87f00e4823bab6f7d115c44518c1e,trafficserver
TS-927,2011-09-26 16:23:11 +0000,lib/tsconfig/TsConfigGrammar.y|,14,15,15,2011-08-20 17:22:15 +0000,2011-08-20 19:24:03 +0000,d9979763a67d6ceb309315aa4fbc7c38979908db,trafficserver
TS-888,2011-09-26 16:24:00 +0000,CHANGES|,14,15,15,2011-07-26 12:58:23 +0000,2011-08-21 21:12:10 +0000,68b7ea49eacaf5f5e4fd522fd01f5f486995147b,trafficserver
TS-896,2011-09-09 07:03:36 +0000,proxy/UglyLogStubs.cc|proxy/logging/Makefile.am|,14,15,16,2011-07-29 16:05:28 +0000,2011-08-26 09:12:32 +0000,71c7c79bb2e0b6ed57efc33ab3566a6a93209721,trafficserver
TS-936,2011-08-28 22:12:35 +0000,CHANGES|lib/ts/ink_cap.cc|lib/ts/ink_cap.h|proxy/Main.cc|,15,16,16,2011-08-28 15:47:56 +0000,2011-08-28 15:53:10 +0000,b0536ce7b8f4c6dc40c5b21ad09d721234d5150c,trafficserver
TS-941,2011-09-02 22:11:10 +0000,CHANGES|,15,16,16,2011-09-01 21:44:03 +0000,2011-09-02 22:14:32 +0000,38c0897daf31948326dc8007c0383a66a3efc74c,trafficserver
TS-929,2011-09-02 22:30:52 +0000,proxy/Initialize.cc|,14,15,16,2011-08-21 12:46:44 +0000,2011-09-02 22:30:46 +0000,d99de4a964eeb30b06828ce18ff1570f613c1b4b,trafficserver
TS-950,2011-09-16 16:47:51 +0000,proxy/hdrs/HTTP.cc|proxy/hdrs/HdrTest.cc|,13,16,16,2011-09-13 03:00:36 +0000,2011-09-16 16:47:31 +0000,ceb3c540e27505c6c468855d8fb7e48aa9b2e61b,trafficserver
TS-962,2011-10-10 16:04:43 +0000,CHANGES|,14,16,16,2011-09-19 18:21:26 +0000,2011-09-21 22:51:36 +0000,edbd82a1e9706c4f2b6e26cfe6e486e654171b13,trafficserver
TS-967,2011-10-04 21:36:32 +0000,configure.ac|,14,16,16,2011-09-23 19:41:28 +0000,2011-09-26 15:43:33 +0000,a137c6f1f8aa53bdf7debc52c2870c305d38ec62,trafficserver
TS-945,2011-10-06 19:40:33 +0000,CHANGES|proxy/http/HttpTransact.cc|,15,16,16,2011-09-06 20:36:22 +0000,2011-10-06 19:39:50 +0000,891f524acb6a424590f1f22b8c2b8d1fa4ef677d,trafficserver
TS-932,2011-10-10 04:05:07 +0000,CHANGES|proxy/logging/LogCollationClientSM.cc|,15,15,16,2011-08-24 14:28:56 +0000,2011-10-10 03:47:59 +0000,eb98c00b7efd32a8e5e7fa24cded077cd0477e98,trafficserver
TS-830,2011-10-10 15:44:05 +0000,CHANGES|mgmt/api/remote/NetworkUtilsRemote.cc|mgmt/cli/TrafficLine.cc|,12,13,16,2011-06-07 20:59:15 +0000,2011-10-10 17:50:43 +0000,2c67dc6b2ff530eadb802e7191a880f1657fa142,trafficserver
TS-824,2011-10-10 22:31:25 +0000,CHANGES|proxy/http/HttpTransact.cc|,7,13,16,2011-06-07 15:01:46 +0000,2011-10-10 22:31:15 +0000,47439ce74c66132752d73d4316408eedf2e79f5a,trafficserver
TS-938,2011-10-11 02:53:34 +0000,CHANGES|configure.ac|iocore/utils/Machine.cc|lib/ts/ink_config.h.in|proxy/http/HttpTransactHeaders.cc|,15,16,16,2011-08-30 22:30:29 +0000,2011-10-11 01:03:16 +0000,bec6c2d1d50c48ec913fa8a2393583708f0d8e60,trafficserver
TS-963,2011-10-13 20:00:18 +0000,CHANGES|lib/ts/IpMap.cc|lib/ts/IpMap.h|lib/ts/IpMapTest.cc|lib/ts/Makefile.am|proxy/IPAllow.cc|proxy/config/ip_allow.config.default|,15,16,16,2011-09-20 20:45:42 +0000,2011-10-13 19:45:59 +0000,4f8a3abf394ee331e2cddfdb2258bcee647f230f,trafficserver
TS-973,2011-10-17 15:13:23 +0000,contrib/perl/AdminClient/lib/Apache/TS/AdminClient.pm|mgmt/RecordsConfig.cc|proxy/config/records.config.default.in|proxy/http/HttpConfig.cc|proxy/http/HttpConfig.h|proxy/http/HttpTransact.cc|proxy/http/HttpTransactHeaders.cc|proxy/http/HttpTransactHeaders.h|,14,16,16,2011-10-03 21:19:13 +0000,2011-10-17 15:06:51 +0000,7839c5bb86be9e06d64045572ecfe4057f20de31,trafficserver
TS-928,2011-10-18 15:19:17 +0000,lib/tsconfig/BisonHeaderToC++.sed|lib/tsconfig/Makefile.am|lib/wccp/WccpEndPoint.cc|lib/wccp/WccpStatic.cc|,14,15,16,2011-08-21 09:59:31 +0000,2011-10-18 15:19:09 +0000,60ab663b9c4f5cb50b8af4e44cac704afd1f1159,trafficserver
TS-991,2011-10-20 18:20:06 +0000,CHANGES|lib/wccp/WccpEndPoint.cc|,15,16,16,2011-10-20 15:49:29 +0000,2011-10-20 18:19:01 +0000,c4c516c63325ed70c155f7d83aae8413fd9a0ac5,trafficserver
TS-1010,2011-11-02 14:25:31 +0000,lib/wccp/WccpEndPoint.cc|lib/wccp/WccpMsg.cc|,15,16,16,2011-11-02 13:45:54 +0000,2011-11-02 13:46:54 +0000,5e1a26e5298b1783285ac020aebdf6fd248711a5,trafficserver
TS-984,2011-11-02 21:28:05 +0000,proxy/Main.cc|proxy/http/HttpProxyServerMain.cc|,15,16,16,2011-10-16 15:10:08 +0000,2011-11-02 21:27:18 +0000,a6a4fbbb1d787439aa555b6c4d4289e60d1bcb2a,trafficserver
TS-1004,2012-05-25 23:10:02 +0000,CHANGES|proxy/http/HttpSM.cc|proxy/http/HttpTransact.cc|,14,16,16,2011-10-26 11:38:49 +0000,2011-11-03 14:25:16 +0000,c5d697d6a775ad7b8b1ce6cf19661a31895f3515,trafficserver
TS-982,2011-11-03 15:35:37 +0000,CHANGES|proxy/PluginVC.cc|proxy/PluginVC.h|,14,16,16,2011-10-14 23:28:52 +0000,2011-11-03 15:34:20 +0000,3e96db5f39877ca9363cc4c421ea5d1678e693d1,trafficserver
TS-1008,2012-01-09 01:31:43 +0000,CHANGES|proxy/InkAPI.cc|proxy/api/ts/ts.h.in|,14,16,16,2011-11-01 11:43:44 +0000,2011-11-04 10:55:04 +0000,6f9986b51338d2954e67d8a78a4217fbb560e7e5,trafficserver
TS-944,2011-11-28 13:42:26 +0000,iocore/net/SSLConfig.cc|,14,16,16,2011-09-06 11:05:03 +0000,2011-11-10 23:44:24 +0000,6d7e7d43113c9556fad89300740320ea04eb7b03,trafficserver
TS-1021,2011-11-20 01:52:15 +0000,CHANGES|proxy/logcat.cc|proxy/logging/LogAccessHttp.cc|proxy/logging/LogBuffer.h|proxy/logging/LogFile.cc|proxy/logstats.cc|,15,16,17,2011-11-14 23:02:24 +0000,2011-11-20 01:18:17 +0000,18121bf316d9026e3f9820534fe1d97349b31bee,trafficserver
TS-1022,2011-11-20 01:53:01 +0000,CHANGES|proxy/logcat.cc|proxy/logging/LogAccessHttp.cc|proxy/logging/LogBuffer.h|proxy/logging/LogFile.cc|proxy/logstats.cc|,15,16,17,2011-11-14 23:05:07 +0000,2011-11-20 01:18:17 +0000,18121bf316d9026e3f9820534fe1d97349b31bee,trafficserver
TS-1030,2011-12-04 22:14:23 +0000,CHANGES|proxy/hdrs/HdrToken.cc|proxy/hdrs/MIME.cc|,14,17,17,2011-11-24 00:53:35 +0000,2011-12-01 22:51:35 +0000,ef86ac50c3c7fc028562dfa12262be60e4a577ea,trafficserver
TS-1047,2011-12-12 16:44:19 +0000,CHANGES|example/protocol/TxnSM.c|iocore/cluster/ClusterVConnection.cc|proxy/InkAPITest.cc|proxy/Main.cc|proxy/http/HttpTransact.cc|,16,18,18,2011-12-11 00:33:32 +0000,2011-12-12 10:49:06 +0000,7bff0dcdea46940867d432f35fecba187e66afac,trafficserver
TS-949,2012-05-07 20:22:02 +0000,iocore/cache/Cache.cc|iocore/cache/P_CacheVol.h|,15,16,18,2011-09-09 17:00:21 +0000,2011-12-14 19:10:14 +0000,b2109cdaf55234621d6c3b2fcb4f15774f0939ab,trafficserver
TS-1055,2011-12-19 04:11:54 +0000,CHANGES|,16,18,18,2011-12-18 15:30:06 +0000,2011-12-19 04:01:47 +0000,371abaee5b38149d2b9409fbb18ce51448dff9bc,trafficserver
TS-1065,2012-02-26 04:01:34 +0000,CHANGES|,16,18,18,2011-12-26 19:27:22 +0000,2011-12-30 02:20:05 +0000,9c43c784891fbd8be619ec3b0520160d3473f005,trafficserver
TS-245,2010-04-27 23:41:32 +0000,CHANGES|lib/ts/ink_string++.cc|lib/ts/ink_string.cc|lib/ts/ink_string.h|proxy/InkAPI.cc|proxy/InkAPITest.cc|proxy/api/ts/ts.h.in|proxy/hdrs/URL.cc|proxy/hdrs/URL.h|proxy/logging/LogUtils.cc|proxy/logging/LogUtils.h|,1,1,18,2010-03-12 23:29:09 +0000,2011-12-30 17:47:14 +0000,5350b8dbc4d1cd58d833c52a8e5433121f9b7939,trafficserver
TS-1014,2011-12-30 22:11:58 +0000,CHANGES|proxy/http/HttpSM.cc|,15,16,18,2011-11-05 14:03:14 +0000,2011-12-30 22:11:43 +0000,bca33e851b374de8ce3d25b90278c14e79a95d9a,trafficserver
TS-1057,2012-01-06 05:13:15 +0000,lib/ts/ink_base64.cc|lib/ts/ink_base64.h|proxy/InkAPI.cc|proxy/api/ts/ts.h.in|,16,18,18,2011-12-19 07:48:50 +0000,2012-01-06 05:06:56 +0000,6a225782326c8388c239adf07002df7901cd35bf,trafficserver
TS-1071,2012-01-06 05:16:50 +0000,CHANGES|proxy/FetchSM.cc|,14,18,18,2012-01-04 23:19:25 +0000,2012-01-06 05:16:41 +0000,caf3d305a54c75e109b2428e862ac39f0c4005ca,trafficserver
TS-1032,2012-01-07 00:30:50 +0000,CHANGES|proxy/http/HttpSM.cc|,16,17,18,2011-11-24 09:16:43 +0000,2012-01-07 00:30:38 +0000,e0ae4a713139f5ebfb8810a265e7b1fa96cbd5c2,trafficserver
TS-1074,2012-02-11 01:07:59 +0000,CHANGES|proxy/PluginVC.cc|,14,18,18,2012-01-06 22:44:15 +0000,2012-01-07 00:53:45 +0000,7c1a0a3f5ab1c330384332177522eda08c6710f8,trafficserver
TS-1038,2012-02-02 22:40:48 +0000,proxy/InkAPI.cc|,14,18,18,2011-12-07 21:48:24 +0000,2012-01-10 20:43:51 +0000,a072ab4462f0900c2340f888ab71381c38b13525,trafficserver
TS-996,2012-01-18 18:46:38 +0000,CHANGES|proxy/hdrs/HTTP.cc|proxy/hdrs/HTTP.h|,15,16,18,2011-10-21 16:48:07 +0000,2012-01-18 18:31:17 +0000,0a2034ea63c5fe8b3ea2cfd88c2d7d598bdce38f,trafficserver
TS-1073,2012-01-25 16:21:22 +0000,CHANGES|proxy/http/HttpSM.cc|proxy/http/HttpTransact.cc|,17,18,18,2012-01-06 12:28:51 +0000,2012-01-25 16:20:27 +0000,b49b67a41ff17e429bf0e408268ad7a8f0c77491,trafficserver
TS-1091,2012-01-25 16:33:19 +0000,CHANGES|build/common.m4|,17,18,18,2012-01-23 16:54:13 +0000,2012-01-25 16:33:03 +0000,f879e0ad481a783154b365eef370cb278bf2a6ab,trafficserver
TS-1035,2012-01-29 01:03:22 +0000,CHANGES|configure.ac|iocore/eventsystem/I_EventProcessor.h|iocore/eventsystem/UnixEventProcessor.cc|lib/ts/ink_config.h.in|mgmt/BaseManager.h|mgmt/LocalManager.cc|proxy/Main.cc|,14,17,18,2011-11-29 21:53:15 +0000,2012-01-28 17:01:35 -0800,066cf33d76ab2f14cf033854d706696e5bb8513b,trafficserver
TS-1094,2012-02-02 01:52:28 +0000,CHANGES|,15,18,18,2012-01-27 23:16:30 +0000,2012-02-01 20:00:17 -0600,bf6f7e0baf746d517670eee28515f330307401f9,trafficserver
TS-1110,2012-02-15 17:58:29 +0000,CHANGES|,19,20,20,2012-02-15 00:40:04 +0000,2012-02-15 09:54:13 -0800,a4db15bdc9fbd4d8abec6048be5b93f869df6eef,trafficserver
TS-1117,2012-02-22 22:26:56 +0000,CHANGES|configure.ac|iocore/cluster/ClusterCache.cc|iocore/cluster/ClusterHandler.cc|iocore/cluster/ClusterHandlerBase.cc|iocore/cluster/P_ClusterInline.h|iocore/eventsystem/I_IOBuffer.h|iocore/eventsystem/I_Lock.h|iocore/eventsystem/I_ProxyAllocator.h|iocore/hostdb/I_HostDBProcessor.h|lib/ts/ink_config.h.in|proxy/hdrs/HdrHeap.cc|proxy/logging/LogAccess.cc|,18,20,20,2012-02-22 18:01:04 +0000,2012-02-22 14:25:11 -0800,cd6eb8f62272aad10bd3ac49bd4c6a20d36b566f,trafficserver
TS-937,2012-02-22 22:27:21 +0000,CHANGES|configure.ac|iocore/cluster/ClusterCache.cc|iocore/cluster/ClusterHandler.cc|iocore/cluster/ClusterHandlerBase.cc|iocore/cluster/P_ClusterInline.h|iocore/eventsystem/I_IOBuffer.h|iocore/eventsystem/I_Lock.h|iocore/eventsystem/I_ProxyAllocator.h|iocore/hostdb/I_HostDBProcessor.h|lib/ts/ink_config.h.in|proxy/hdrs/HdrHeap.cc|proxy/logging/LogAccess.cc|,12,16,20,2011-08-29 21:38:04 +0000,2012-02-22 14:25:11 -0800,cd6eb8f62272aad10bd3ac49bd4c6a20d36b566f,trafficserver
TS-1109,2012-05-07 18:24:23 +0000,CHANGES|lib/ts/ink_stack_trace.cc|,18,20,20,2012-02-13 09:19:11 +0000,2012-02-29 01:31:05 +0800,ad6c4ab97ff150727660f66aa64b0fb57fd3d3f7,trafficserver
TS-1102,2012-02-24 23:51:15 +0000,plugins/header_filter/README|plugins/header_filter/example.conf|plugins/header_filter/header_filter.cc|plugins/header_filter/lulu.h|plugins/header_filter/rules.cc|plugins/header_filter/rules.h|,17,18,20,2012-02-02 09:07:15 +0000,2012-03-01 09:15:48 -0700,fdebccc1d58a7c8ec30e54302963bfe4cdd89340,trafficserver
TS-1126,2012-03-07 04:07:43 +0000,lib/ts/ink_inet.h|,18,20,20,2012-03-01 23:42:35 +0000,2012-03-01 17:33:24 -0700,457f85b71de4776da461eae9ce8226a5b157321d,trafficserver
TS-976,2012-03-07 14:14:17 +0000,configure.ac|,13,16,20,2011-10-05 12:11:55 +0000,2012-03-08 10:11:00 +0000,fd372c9cd2b678b5d86933fdddf38180ea356713,trafficserver
TS-1138,2012-03-14 23:25:28 +0000,CHANGES|lib/ts/IpMap.cc|lib/ts/IpMapTest.cc|,18,20,20,2012-03-14 20:16:26 +0000,2012-03-14 18:22:32 -0500,64f2131c1ab57936e88a79f579820bf49a61219e,trafficserver
TS-1143,2012-03-21 00:50:04 +0000,.gitignore|CHANGES|STATUS|configure.ac|cop/Makefile.am|doc/man/traffic_shell.1|iocore/aio/Makefile.am|iocore/cache/CacheWrite.cc|iocore/cache/Makefile.am|iocore/cluster/Makefile.am|iocore/dns/Makefile.am|iocore/eventsystem/Makefile.am|iocore/hostdb/Makefile.am|iocore/net/Makefile.am|iocore/net/UnixNetVConnection.cc|iocore/utils/Makefile.am|lib/records/Makefile.am|lib/ts/Makefile.am|lib/ts/ink_inet.h|lib/ts/test_Map.cc|mgmt/Makefile.am|mgmt/api/Makefile.am|mgmt/api/remote/Makefile.am|mgmt/cli/Makefile.am|mgmt/cluster/Makefile.am|mgmt/preparse/Makefile.am|mgmt/stats/Makefile.am|mgmt/tools/Makefile.am|mgmt/utils/Makefile.am|mgmt/web2/Makefile.am|plugins/conf_remap/Makefile.am|proxy/Makefile.am|proxy/UglyLogStubs.cc|proxy/congest/Makefile.am|proxy/hdrs/HdrHeap.cc|proxy/hdrs/HdrHeap.h|proxy/hdrs/Makefile.am|proxy/http/Makefile.am|proxy/http/remap/Makefile.am|proxy/logging/Makefile.am|proxy/stats/Makefile.am|rc/trafficserver.service.in|,18,20,20,2012-03-17 02:47:22 +0000,2012-03-20 17:10:35 -0500,f059a8a73f1dbc09dca047e848fa86580068595d,trafficserver
TS-1165,2012-03-23 18:38:21 +0000,proxy/IPAllow.cc|proxy/IPAllow.h|proxy/http/HttpAccept.cc|proxy/http/HttpTransact.cc|,20,21,21,2012-03-23 18:34:03 +0000,2012-03-23 13:39:50 -0500,225f26fa3d7cdcb54197245dd4728f7f0e75171d,trafficserver
TS-827,2012-03-23 22:41:34 +0000,proxy/hdrs/MIME.cc|,7,13,21,2011-06-07 15:28:01 +0000,2012-03-23 16:40:34 -0600,793f3cfc0ccd01a4dae551af3aa3aa1a5ea77856,trafficserver
TS-1166,2012-03-28 15:58:28 +0000,proxy/Stuffer.cc|proxy/Stuffer.h|,20,21,21,2012-03-27 02:17:39 +0000,2012-03-28 10:44:03 -0500,db6e185899852457680752709fbf68ca58dbb251,trafficserver
TS-1167,2012-03-28 16:10:46 +0000,CHANGES|proxy/ParentSelection.cc|,20,21,21,2012-03-27 02:23:43 +0000,2012-03-28 11:09:08 -0500,441413b3a3ffc623365894ee7f9f9bc0e3119a5b,trafficserver
TS-1168,2012-03-28 17:08:00 +0000,CHANGES|proxy/http/remap/UrlRewrite.cc|,20,21,21,2012-03-27 02:26:04 +0000,2012-03-28 12:03:13 -0500,ebd4601e03863e6cb30b6f020d592651e10bd642,trafficserver
TS-981,2012-03-30 01:35:37 +0000,CHANGES|Makefile.am|README|README.libev|ci/rat-excludes.txt|configure.ac|example/app-template/Makefile.am|iocore/net/P_Net.h|iocore/net/P_UnixNet.h|iocore/net/P_UnixPollDescriptor.h|iocore/net/UnixNet.cc|iocore/net/UnixUDPNet.cc|lib/ts/ink_config.h.in|proxy/CoreUtils.h|proxy/Makefile.am|,13,16,21,2011-10-13 07:02:36 +0000,2012-03-29 19:34:06 -0600,dfdb6780dbb0771e230a079780066b6ba8edbc1d,trafficserver
TS-1173,2012-03-30 17:24:33 +0000,CHANGES|proxy/config/remap.config.default|,20,21,21,2012-03-30 16:36:15 +0000,2012-03-30 11:23:48 -0600,0f19fb8fec9efee2e3add2eda15be5c956ee285b,trafficserver
TS-1121,2012-04-06 06:54:49 +0000,CHANGES|lib/ts/Diags.h|,19,20,21,2012-02-24 23:41:57 +0000,2012-04-06 00:19:41 -0600,0db892e25817c67c5994c527862e1eaa341be307,trafficserver
TS-1164,2012-05-30 07:43:24 +0000,CHANGES|iocore/cache/Cache.cc|,13,21,21,2012-03-23 17:35:34 +0000,2012-04-10 23:40:42 +0800,1df0305b798a725dbbc1b44a1522936a425de8eb,trafficserver
TS-1211,2012-04-20 23:20:29 +0000,mgmt/LocalManager.cc|,20,21,21,2012-04-18 22:54:05 +0000,2012-04-18 16:13:32 -0700,d3bc98bca9c13595409ad58b9be38ad74be52211,trafficserver
TS-1212,2012-04-24 19:20:43 +0000,CHANGES|iocore/cache/Cache.cc|iocore/cache/P_CacheInternal.h|,19,21,21,2012-04-20 03:16:37 +0000,2012-04-24 14:45:39 +0800,9ae8bfaf17709f4629cb1a376590e7b829e3f12c,trafficserver
TS-1205,2012-04-25 14:50:01 +0000,CHANGES|lib/records/RecUtils.cc|,20,21,21,2012-04-16 04:09:26 +0000,2012-04-25 22:45:52 +0800,d1b18044c473dd0c8d1964084d7ca66968fc0551,trafficserver
TS-1216,2012-04-25 23:51:02 +0000,CHANGES|proxy/Main.cc|,20,21,21,2012-04-22 16:32:20 +0000,2012-04-25 23:19:38 +0800,4a4c89388a6cde968087e81e51af6bc1410ecd87,trafficserver
TS-1186,2012-04-26 17:23:28 +0000,CHANGES|contrib/perl/AdminClient/lib/Apache/TS/AdminClient.pm|,20,21,21,2012-04-04 16:41:02 +0000,2012-04-26 10:19:54 -0700,bc527135f53ba48d2a0c22e4f581c8da3f8486d1,trafficserver
TS-1209,2012-04-27 15:28:12 +0000,CHANGES|proxy/http/HttpSM.cc|,20,21,21,2012-04-18 14:23:35 +0000,2012-04-27 09:23:42 -0600,04311e0c6e9b256ea8129b5a3cd5ccfbd786c381,trafficserver
TS-1213,2012-04-27 06:15:30 +0000,CHANGES|proxy/http/HttpSM.cc|proxy/http/HttpTransact.cc|,20,21,21,2012-04-20 05:43:04 +0000,2012-04-27 13:58:49 +0800,2072690b3dacb206ad1c5480caf25c8365d633d0,trafficserver
TS-1220,2012-04-25 14:53:42 +0000,proxy/http/HttpConfig.h|,20,21,21,2012-04-24 07:21:50 +0000,2012-04-27 21:39:22 +0800,1da4e9519abece9fe1eb6bb2dab69866e937581c,trafficserver
TS-1208,2012-04-27 18:56:16 +0000,CHANGES|,20,21,21,2012-04-18 07:06:27 +0000,2012-04-28 02:47:56 +0800,09d85f6cdf127dbba1368b0483c5dbf571f8110b,trafficserver
TS-1241,2012-05-02 22:11:32 +0000,CHANGES|,17,21,21,2012-05-02 16:50:40 +0000,2012-05-02 17:24:25 -0600,7562932210695c09960c250382a56ea4bbc41103,trafficserver
TS-1239,2012-05-03 22:32:00 +0000,proxy/InkAPI.cc|proxy/http/HttpSM.cc|proxy/http/HttpTransact.h|,20,21,21,2012-05-01 22:23:49 +0000,2012-05-03 15:14:31 -0500,904de854a1aad100d2445962c30ccb18d071eaa1,trafficserver
TS-1251,2012-05-07 17:32:11 +0000,mgmt/cli/cliAppInit.cc|,20,21,21,2012-05-07 17:27:45 +0000,2012-05-07 12:07:30 -0700,9b72286ed648fc331cb70822b14c9baf65d9be2f,trafficserver
TS-1245,2012-05-08 06:40:46 +0000,mgmt/RecordsConfig.cc|,20,21,21,2012-05-04 05:42:25 +0000,2012-05-07 17:58:59 +0800,d94bcaca22b7ff4b804e79fb4d303a946f6ba119,trafficserver
TS-1181,2012-05-08 20:01:22 +0000,CHANGES|,20,21,21,2012-04-02 01:31:13 +0000,2012-05-08 14:04:20 -0600,9980f4929b0de61d1627c12f69fd15a822135d37,trafficserver
TS-1236,2012-05-09 11:42:14 +0000,mgmt/LocalManager.cc|,20,21,21,2012-04-30 23:55:04 +0000,2012-05-09 00:06:04 -0400,a79a638d85cda049339636ab241f77a67232d8f5,trafficserver
TS-1075,2012-05-11 19:30:37 +0000,CHANGES|cop/TrafficCop.cc|mgmt/RecordsConfig.cc|proxy/http/HttpConfig.cc|proxy/http/HttpConfig.h|proxy/http/HttpSM.cc|,14,18,21,2012-01-07 11:52:33 +0000,2012-05-11 14:14:40 -0500,9f831282f05cb12bc3332522bfd46c47a4e97c52,trafficserver
TS-1238,2012-05-16 04:06:34 +0000,iocore/cache/Cache.cc|iocore/cache/P_CacheInternal.h|iocore/cache/RamCacheCLFUS.cc|iocore/cache/RamCacheLRU.cc|iocore/cache/Store.cc|proxy/config/records.config.default.in|,20,21,21,2012-05-01 16:23:04 +0000,2012-05-15 20:32:01 -0700,453f1720a63c02b2a4edc63c2639d5a3f9f3bb0a,trafficserver
TS-934,2012-05-20 03:41:22 +0000,iocore/net/I_NetVConnection.h|iocore/net/NetVConnection.cc|iocore/net/UnixNetVConnection.cc|proxy/http/HttpServerSession.cc|proxy/http/HttpServerSession.h|,15,16,21,2011-08-26 15:53:27 +0000,2012-05-15 21:11:04 -0700,72ef2def62ed66b2827a2959ab7e893544b07376,trafficserver
TS-1272,2012-05-25 04:42:30 +0000,CHANGES|proxy/http/HttpSM.cc|,20,21,21,2012-05-25 04:33:46 +0000,2012-05-24 21:38:05 -0700,0ca83ac63539ca0e6d5be9df431027c389044d64,trafficserver
TS-1274,2012-05-25 23:50:40 +0000,CHANGES|,20,21,21,2012-05-25 23:11:13 +0000,2012-05-25 16:49:23 -0700,8ab91547bb5c7bc74c419f8592094d8c39cca94b,trafficserver
TS-1303,2012-06-18 22:24:22 +0000,CHANGES|lib/records/RecHttp.cc|,22,23,23,2012-06-15 17:32:29 +0000,2012-06-18 17:22:16 -0500,85d04a0e58a97fc160865323f88f91f1ca948c75,trafficserver
TS-1310,2012-07-03 13:38:18 +0000,CHANGES|iocore/cache/Cache.cc|,20,24,24,2012-06-20 06:16:28 +0000,2012-06-20 18:41:42 +0800,425a9ee8df3dbfa1554eccaaf601c933ad18c201,trafficserver
TS-1087,2012-07-06 04:37:01 +0000,CHANGES|proxy/InkAPI.cc|,15,18,24,2012-01-23 15:41:57 +0000,2012-07-05 21:33:56 -0700,19bcca20c1ad4933e458cdd546bd60bd4c89394b,trafficserver
TS-1332,2012-07-08 23:30:09 +0000,CHANGES|iocore/net/SSLCertLookup.cc|lib/ts/Trie.h|,23,24,24,2012-07-03 22:55:32 +0000,2012-07-08 16:11:57 -0700,b512fef66fd3f2118517eb5ac6b3a879cfa2caaa,trafficserver
TS-1338,2012-07-10 01:25:44 +0000,CHANGES|iocore/net/SSLNextProtocolAccept.cc|,23,24,24,2012-07-09 20:25:44 +0000,2012-07-09 18:21:01 -0700,4ab21b9f7b933f0cd58173158ffaf6dbbaf64e51,trafficserver
TS-1314,2012-07-10 15:55:37 +0000,lib/ts/test_Vec.cc|,23,24,24,2012-06-22 14:24:56 +0000,2012-07-10 09:36:11 -0700,2568c6f868a79cf5f25d4f5bb2d29ed43491efe6,trafficserver
TS-1343,2012-07-11 00:22:13 +0000,lib/records/RecCore.cc|,21,24,24,2012-07-10 21:51:31 +0000,2012-07-10 18:50:14 -0700,b7ba116ef86960ffd3ceb76c8893899175a6041f,trafficserver
TS-1319,2012-07-13 03:44:35 +0000,iocore/cache/Cache.cc|iocore/cache/P_CacheHosting.h|,23,24,24,2012-06-25 04:09:11 +0000,2012-07-12 20:43:56 -0700,7c6b590b35ce483c8ae94640c50a6a3fb0d0e690,trafficserver
TS-1235,2013-06-04 16:51:40 +0000,proxy/IPAllow.cc|proxy/http/HttpAccept.cc|,20,21,24,2012-04-30 21:32:05 +0000,2012-07-13 11:07:06 -0500,0467d1009bbe472e5f48b9075c9ffda24166d048,trafficserver
TS-1363,2012-07-19 02:56:36 +0000,CHANGES|iocore/net/SSLNetProcessor.cc|,23,24,24,2012-07-18 03:11:45 +0000,2012-07-18 19:51:07 -0700,4ed023427a90c0d2bfa9c0c9dab26304f9aaf9fb,trafficserver
TS-895,2012-07-18 20:16:20 +0000,configure.ac|lib/tsconfig/Makefile.am|,14,15,24,2011-07-28 09:46:44 +0000,2012-07-18 20:53:55 -0500,682c4e3938b8aee288facdcfd0750571edcb20b0,trafficserver
TS-1315,2012-07-23 13:03:10 +0000,CHANGES|proxy/InkAPITest.cc|proxy/hdrs/URL.cc|,23,24,24,2012-06-22 20:16:35 +0000,2012-07-23 08:01:29 -0500,6e93cff1bd8fc1b7cba4c92b8e31ca2d9c5734d2,trafficserver
TS-1380,2012-07-24 05:25:32 +0000,iocore/net/SSLCertLookup.cc|,23,24,24,2012-07-24 05:18:55 +0000,2012-07-24 18:05:53 -0700,3071419e9692d71f62723742be652952802f9669,trafficserver
TS-1392,2012-08-07 03:44:54 +0000,CHANGES|iocore/net/SSLCertLookup.cc|iocore/net/SSLNetVConnection.cc|,23,24,24,2012-08-06 06:50:59 +0000,2012-08-06 20:42:43 -0700,9c3bebd88eecf6aee1ce346b67460b8e1787752d,trafficserver
TS-1407,2012-08-14 22:15:11 +0000,proxy/IPAllow.cc|,23,24,24,2012-08-14 21:27:11 +0000,2012-08-14 14:38:58 -0700,55b0009176790706a4ca501db31c9fb7fcc435aa,trafficserver
TS-1412,2012-08-20 10:12:51 +0000,mgmt/api/CoreAPI.cc|,23,24,24,2012-08-19 23:15:16 +0000,2012-08-20 12:11:07 +0200,938279e447b8740e20d2b00e885cd90499959b13,trafficserver
TS-1415,2013-03-25 16:26:14 +0000,CHANGES|proxy/http/HttpTransact.cc|,23,24,24,2012-08-22 06:21:40 +0000,2012-08-24 10:33:57 +0800,6c6f876fc1e63bb73f61fd75e91c99ba9a623148,trafficserver
TS-1249,2012-08-28 03:37:08 +0000,CHANGES|,20,21,24,2012-05-06 08:19:31 +0000,2012-08-28 10:22:01 +0200,53c74a12e4b53661c91009ce405cface090238ab,trafficserver
TS-1425,2012-08-29 19:55:00 +0000,CHANGES|proxy/http/HttpSM.cc|,23,24,24,2012-08-28 17:32:54 +0000,2012-08-28 14:44:35 -0500,7c2a60873aab331ccd6bc02b5c93105aeb0c4ca3,trafficserver
TS-1426,2012-08-29 19:55:41 +0000,CHANGES|proxy/InkAPI.cc|,23,24,24,2012-08-28 17:35:26 +0000,2012-08-28 14:46:09 -0500,5cf77b2d09a5ada35e41f5ad3a9e25b892254f2f,trafficserver
TS-1416,2012-09-07 00:05:32 +0000,proxy/http/HttpTransact.cc|,23,24,25,2012-08-23 16:15:32 +0000,2012-09-06 19:32:52 -0400,02024e48890ca0d4615931113f1061ad529484c0,trafficserver
TS-975,2012-09-09 07:44:13 +0000,example/server-transform/server-transform.c|,13,16,25,2011-10-05 12:09:06 +0000,2012-09-09 09:42:23 +0200,96e62eddfe4cb769d60c7f9c4071fcd81dd21f5c,trafficserver
TS-1339,2012-12-03 17:53:56 +0000,iocore/cache/CacheWrite.cc|,23,24,25,2012-07-10 02:15:12 +0000,2012-09-09 15:09:36 -0500,e2bfe1a872fe94f566a5fc3a89aa3dcb98195c08,trafficserver
TS-1454,2012-09-10 10:29:41 +0000,CHANGES|iocore/cluster/ClusterCache.cc|,23,25,25,2012-09-10 03:36:51 +0000,2012-09-10 18:21:41 +0800,28e4d02687333e236c0a3586e0437f6c85a32621,trafficserver
TS-1466,2012-09-15 11:40:29 +0000,iocore/net/SSLConfig.cc|mgmt/RecordsConfig.cc|proxy/config/records.config.default.in|,23,25,25,2012-09-13 18:47:18 +0000,2012-09-14 10:47:15 -0700,05da7a90ab16f7bc4c6a3e5c7f4880ef80e9b316,trafficserver
TS-1457,2012-09-16 15:14:14 +0000,CHANGES|mgmt/RecordsConfig.cc|proxy/InkAPI.cc|proxy/api/ts/ts.h.in|proxy/http/HttpConfig.cc|proxy/http/HttpConfig.h|proxy/http/HttpProxyServerMain.cc|proxy/http/HttpSM.cc|proxy/http/HttpTunnel.cc|proxy/http/HttpTunnel.h|,23,25,25,2012-09-10 15:09:53 +0000,2012-09-16 08:23:50 -0500,a2d46114a918cf72a38d66ea66dea96dbb9b6920,trafficserver
TS-1473,2012-09-16 15:31:12 +0000,CHANGES|plugins/header_filter/lulu.h|,23,25,25,2012-09-15 11:39:23 +0000,2012-09-16 09:15:24 -0600,a7baf7c8f1bb9206e17b9ac925e21e5beab08f56,trafficserver
TS-1484,2012-10-08 05:17:44 +0000,CHANGES|iocore/net/P_SSLCertLookup.h|iocore/net/SSLCertLookup.cc|iocore/net/SSLNetVConnection.cc|,23,25,25,2012-09-19 10:47:40 +0000,2012-09-20 17:13:51 -0700,d6d07d8c43c084d5683b45c1efe9ed2bf9ef8635,trafficserver
TS-1436,2012-09-04 18:06:41 +0000,config.layout|,23,24,25,2012-09-04 17:46:30 +0000,2012-09-21 20:48:43 -0700,be7e974c2143c069e30843f9e699fdbe9d8a8966,trafficserver
TS-1488,2012-09-26 06:40:15 +0000,CHANGES|iocore/eventsystem/UnixEThread.cc|,23,25,25,2012-09-21 09:37:36 +0000,2012-09-26 13:51:16 +0800,6fb81ae94a218dd54b99ddcdb40b1883efe247fd,trafficserver
TS-1299,2012-06-18 09:38:23 +0000,CHANGES|,22,23,25,2012-06-12 09:21:19 +0000,2012-10-10 00:55:59 +0800,2e66686e1d4f089b4be1e82c74dde1e007f33120,trafficserver
TS-1518,2012-10-11 03:41:36 +0000,CHANGES|build/ax_boost_base.m4|configure.ac|plugins/experimental/header_rewrite/Makefile.am|,24,25,25,2012-10-11 03:37:09 +0000,2012-10-10 20:38:50 -0700,db03b3911c5886d68775fbaa5a15707d23df33d8,trafficserver
TS-1516,2012-10-12 04:55:45 +0000,CHANGES|proxy/http/HttpSM.cc|,23,25,25,2012-10-10 13:58:53 +0000,2012-10-11 21:50:44 -0700,dba0879a59323009ac07f5be836741ee050ffa71,trafficserver
TS-1526,2012-10-16 16:37:36 +0000,CHANGES|iocore/net/SSLCertLookup.cc|iocore/net/SSLNetVConnection.cc|,23,25,25,2012-10-14 04:23:48 +0000,2012-10-13 21:44:21 -0700,a9874cb413dccf2157ac9ce0ea0d6d3b7584a32f,trafficserver
TS-1539,2012-10-17 21:29:45 +0000,CHANGES|README|,24,25,25,2012-10-17 20:45:50 +0000,2012-10-17 14:28:22 -0700,2eaf1761f514c9da959828c271d9652d3cd4e2ca,trafficserver
TS-1535,2014-11-05 02:18:27 +0000,CHANGES|proxy/FetchSM.cc|,24,25,25,2012-10-17 06:12:44 +0000,2012-10-17 14:44:25 +0800,b5bd1cdc3fdcdb8cc1c624181ce987b4038f429f,trafficserver
TS-1512,2012-10-20 14:20:32 +0000,CHANGES|iocore/cluster/ClusterCache.cc|,23,25,25,2012-10-08 18:37:08 +0000,2012-10-20 21:54:21 +0800,b28311666a5206bb90c51d0554ac2f77cb66142f,trafficserver
TS-1223,2012-10-22 15:12:27 +0000,CHANGES|proxy/Show.h|,20,21,25,2012-04-25 09:35:07 +0000,2012-10-23 15:40:32 +0800,e827aab3ca5d1f081d68275f8de28ae8072a06df,trafficserver
TS-1550,2012-10-25 04:48:20 +0000,CHANGES|iocore/net/P_Net.h|iocore/net/P_SSLCertLookup.h|iocore/net/P_SSLConfig.h|iocore/net/P_SSLNetProcessor.h|iocore/net/SSLCertLookup.cc|iocore/net/SSLConfig.cc|iocore/net/SSLNetProcessor.cc|iocore/net/SSLNetVConnection.cc|proxy/http/HttpProxyServerMain.cc|,13,25,25,2012-10-25 04:27:19 +0000,2012-10-24 21:44:14 -0700,a3530977846cfd18cfdc5d5d4c3343112b07839d,trafficserver
TS-1382,2013-03-18 16:24:17 +0000,CHANGES|tools/jtest/jtest.cc|,24,24,25,2012-07-26 08:53:11 +0000,2012-10-27 16:09:44 +0800,423add3f06e6a60205f36ad022f67876718cec99,trafficserver
TS-1494,2012-11-01 04:47:13 +0000,CHANGES|iocore/net/SSLCertLookup.cc|,23,25,25,2012-09-24 08:44:33 +0000,2012-10-31 21:46:33 -0700,8ef0291bc5891bd925822d43993cfa2eed22ae3b,trafficserver
TS-1564,2012-11-17 06:46:04 +0000,CHANGES|proxy/logging/LogObject.h|,23,25,25,2012-11-07 16:35:21 +0000,2012-11-09 00:48:43 +0800,6dadea4cea3da45e432dc52c7f9dadbf891b510a,trafficserver
TS-1572,2012-11-16 05:42:59 +0000,CHANGES|proxy/http/HttpTransact.cc|,24,25,25,2012-11-15 21:46:36 +0000,2012-11-15 21:36:43 -0800,54b82f288959913aa965b5a1472df2c1323b6aad,trafficserver
TS-1551,2012-11-17 06:25:10 +0000,mgmt/Makefile.am|mgmt/ProxyConfig.cc|mgmt/ProxyConfig.h|proxy/Makefile.am|,23,25,25,2012-10-27 14:28:17 +0000,2012-11-16 22:22:51 -0800,82144fbe108da4113ae0b460acb25a8c9a59b123,trafficserver
TS-1582,2012-11-21 14:49:56 +0000,plugins/experimental/lua/lutil.h|,24,25,25,2012-11-21 10:16:01 +0000,2012-11-22 09:18:46 +0100,501d43514a52ef3457396f025469662136b72898,trafficserver
TS-1583,2013-03-26 01:32:16 +0000,proxy/logstats.cc|,24,25,25,2012-11-21 10:21:37 +0000,2012-11-23 21:37:46 -0800,81f9f4187d284c7a55341106aa16bb7648d741e4,trafficserver
TS-1562,2012-11-24 10:04:01 +0000,mgmt/cluster/ClusterCom.cc|,23,25,25,2012-11-06 07:29:24 +0000,2012-11-24 17:54:54 +0800,5e55f601e3ac5ff581d371ccd588f4ddafa967b2,trafficserver
TS-1594,2012-11-28 03:10:01 +0000,CHANGES|iocore/cache/Cache.cc|iocore/eventsystem/I_Continuation.h|iocore/eventsystem/I_Lock.h|proxy/ICP.h|proxy/MuxVC.cc|proxy/ParentSelection.cc|proxy/Prefetch.h|proxy/congest/Congestion.h|proxy/congest/CongestionTest.cc|proxy/congest/MT_hashtable.h|proxy/http/HttpClientSession.cc|,24,25,25,2012-11-26 00:13:53 +0000,2012-11-25 16:14:44 -0800,4704d3a5a9584e9c98e657a4dde1f0d3c973bf10,trafficserver
TS-1580,2012-12-02 20:42:07 +0000,CHANGES|iocore/net/UnixNetVConnection.cc|,23,25,25,2012-11-20 10:57:09 +0000,2012-12-02 12:50:32 -0600,db0cfd44222e5e280db5b832496691ec7722e28e,trafficserver
TS-1422,2012-12-10 17:09:58 +0000,CHANGES|iocore/dns/DNS.cc|iocore/dns/I_DNSProcessor.h|iocore/dns/P_DNSProcessor.h|iocore/hostdb/HostDB.cc|iocore/hostdb/I_HostDBProcessor.h|iocore/hostdb/P_HostDB.h|iocore/hostdb/P_HostDBProcessor.h|iocore/hostdb/P_MultiCache.h|lib/records/I_RecHttp.h|lib/records/RecHttp.cc|lib/ts/INK_MD5.h|lib/ts/ink_inet.h|lib/ts/ink_res_init.cc|lib/ts/ink_res_mkquery.cc|lib/ts/ink_resolver.h|mgmt/Main.cc|mgmt/RecordsConfig.cc|proxy/http/HttpAccept.cc|proxy/http/HttpAccept.h|proxy/http/HttpClientSession.cc|proxy/http/HttpClientSession.h|proxy/http/HttpProxyServerMain.cc|proxy/http/HttpSM.cc|proxy/http/HttpTransact.cc|proxy/http/HttpTransact.h|proxy/logging/LogCollationClientSM.cc|,23,24,25,2012-08-28 15:31:35 +0000,2012-12-10 11:02:42 -0600,043815e7a7a67b79a2ca6fdc3f6d6751e5150411,trafficserver
TS-1246,2012-12-25 03:30:55 +0000,CHANGES|rc/trafficserver.in|,20,21,25,2012-05-04 08:59:39 +0000,2012-12-24 19:27:12 -0800,aac493996e62ef018bd13887d75e249541dfa7be,trafficserver
TS-1574,2013-03-01 01:06:27 +0000,CHANGES|iocore/cache/Cache.cc|proxy/Transform.cc|proxy/Transform.h|proxy/TransformInternal.h|proxy/http/HttpSM.cc|proxy/http/HttpTransact.cc|proxy/http/HttpTransact.h|proxy/http/HttpTunnel.cc|,24,25,25,2012-11-17 06:49:58 +0000,2013-01-15 10:27:28 +0800,1199e991424d8495a80075718d8ec95a64f3a712,trafficserver
TS-1577,2013-07-02 20:04:51 +0000,CHANGES|iocore/cache/Cache.cc|proxy/Transform.cc|proxy/Transform.h|proxy/TransformInternal.h|proxy/http/HttpSM.cc|proxy/http/HttpTransact.cc|proxy/http/HttpTransact.h|proxy/http/HttpTunnel.cc|,24,25,25,2012-11-19 06:53:54 +0000,2013-01-15 10:27:28 +0800,1199e991424d8495a80075718d8ec95a64f3a712,trafficserver
TS-1538,2013-01-16 03:19:05 +0000,CHANGES|iocore/net/P_SSLNextProtocolAccept.h|iocore/net/SSLNextProtocolAccept.cc|proxy/http/HttpAccept.h|,23,25,25,2012-10-17 19:19:00 +0000,2013-01-15 19:13:05 -0800,ccc4b37b91f25c2e985f195b77369ce20e2e8e81,trafficserver
TS-1649,2013-01-30 18:58:28 +0000,CHANGES|iocore/net/UnixConnection.cc|,24,25,26,2013-01-12 00:12:17 +0000,2013-01-30 10:57:44 -0800,8a97bc895080fd608752caa391be6276c0b4b2b4,trafficserver
TS-1650,2013-01-30 19:11:50 +0000,iocore/net/P_Net.h|,24,25,26,2013-01-12 00:15:12 +0000,2013-01-30 20:31:38 -0800,529d1bd2760502392678df1d552a0d2949da5ab3,trafficserver
TS-1707,2013-06-24 21:15:03 +0000,CHANGES|,25,26,26,2013-02-12 10:08:52 +0000,2013-02-12 19:18:30 +0100,d7722944041f7f7cbf7fa554a0ca5aabb448049a,trafficserver
TS-1155,2013-02-25 22:34:54 +0000,CHANGES|proxy/http/HttpTransact.cc|,17,20,26,2012-03-19 19:57:03 +0000,2013-02-25 14:32:37 -0800,93e14b254b5a2a834f708cff71fa8dd7223791d3,trafficserver
TS-1557,2013-02-26 01:02:36 +0000,CHANGES|proxy/http/HttpSM.cc|,23,25,26,2012-10-31 20:12:15 +0000,2013-02-25 16:47:37 -0800,44aae027eb3a6879b8f8add1f79fed7170aae5ce,trafficserver
TS-1320,2013-02-26 00:03:18 +0000,CHANGES|,20,24,26,2012-06-26 13:38:36 +0000,2013-02-25 16:58:18 -0700,47913b8e106b984e4a2f10784b20479635570f73,trafficserver
TS-1300,2013-03-01 01:09:14 +0000,proxy/api/ts/ts.h.in|,17,23,26,2012-06-13 01:52:42 +0000,2013-02-28 18:08:29 -0700,8219283d5fad43435a9bb20aab6adf6da2bcca27,trafficserver
TS-1058,2013-03-05 18:46:58 +0000,CHANGES|proxy/InkAPI.cc|proxy/api/ts/experimental.h|,16,18,26,2011-12-20 06:14:52 +0000,2013-03-05 10:40:59 -0800,8facd16fdcb2ec5c5efd66bb8d4c9c2ba24d1231,trafficserver
TS-1714,2013-03-06 20:31:39 +0000,CHANGES|,23,26,26,2013-02-20 17:22:32 +0000,2013-03-06 11:04:20 -0700,0b652646f6644fca05e273a3ec52fc6f5fd951d8,trafficserver
TS-1745,2013-03-14 02:31:33 +0000,CHANGES|iocore/eventsystem/I_VConnection.h|mgmt/FileManager.cc|,23,26,26,2013-03-11 02:16:38 +0000,2013-03-13 14:12:29 -0700,cbfba1aebcff7b0b3e0e7d394c41f515db8911da,trafficserver
TS-1627,2013-03-20 11:11:57 +0000,CHANGES|proxy/http/HttpSM.cc|proxy/http/HttpTransact.cc|,24,25,27,2012-12-16 13:06:59 +0000,2013-03-20 12:44:09 +0200,3c51b612f65ab8e65d913ac168decb8c162b1431,trafficserver
TS-1734,2013-03-21 19:23:14 +0000,CHANGES|,24,26,27,2013-02-28 17:05:13 +0000,2013-03-21 12:22:10 -0700,1a2ebccb112987acf450a5d678b6185c5d98257f,trafficserver
TS-1566,2013-03-22 17:31:57 +0000,CHANGES|lib/records/RecCore.cc|,23,25,27,2012-11-08 20:40:42 +0000,2013-03-22 10:29:06 -0700,da19639e0b0338b78b69e11e0fd4e3a0c5220b6b,trafficserver
TS-1169,2013-03-31 00:45:26 +0000,CHANGES|proxy/http/HttpSM.cc|,20,21,27,2012-03-27 17:58:15 +0000,2013-03-30 18:41:41 -0600,8a4f5837fb354ce49e1073805f07dd0f0a6e9970,trafficserver
TS-1184,2013-04-17 21:50:47 +0000,CHANGES|cop/TrafficCop.cc|lib/records/RecUtils.cc|proxy/Main.cc|,20,21,27,2012-04-03 17:48:09 +0000,2013-04-17 15:44:43 -0600,bb275c0462a5967b03b9a76f2d5d0aa5a85e51bf,trafficserver
TS-1770,2013-05-03 21:51:59 +0000,CHANGES|proxy/http/remap/UrlMappingPathIndex.h|,25,27,28,2013-03-22 21:42:45 +0000,2013-05-03 15:51:07 -0600,16099e8541abc266cca0220fefb85fb904cdf48b,trafficserver
TS-1444,2013-05-07 15:50:51 +0000,CHANGES|iocore/cache/CachePages.cc|proxy/hdrs/HTTP.cc|proxy/hdrs/HTTP.h|,24,25,28,2012-09-07 13:37:23 +0000,2013-05-07 10:49:55 -0500,6f6b243322d396123038e11b0b2f938ec5259304,trafficserver
TS-1474,2012-09-24 14:20:16 +0000,lib/ts/ink_args.h|,23,25,28,2012-09-15 11:40:50 +0000,2013-06-06 09:23:38 -0700,701db598a0cb11a711a1dc9eb29cc6c97005537a,trafficserver
TS-1496,2013-06-12 18:59:08 +0000,CHANGES|iocore/eventsystem/I_IOBuffer.h|iocore/eventsystem/P_IOBuffer.h|mgmt/RecordsConfig.cc|proxy/InkAPI.cc|proxy/InkAPITest.cc|proxy/Transform.cc|proxy/Transform.h|proxy/TransformInternal.h|proxy/api/ts/ts.h.in|proxy/http/HttpConfig.cc|proxy/http/HttpConfig.h|proxy/http/HttpDebugNames.cc|proxy/http/HttpSM.cc|proxy/http/HttpSM.h|proxy/http/HttpTunnel.cc|proxy/http/HttpTunnel.h|,23,25,29,2012-09-24 12:07:26 +0000,2013-06-12 13:55:49 -0500,e768cb61c335d8edafdc2cf17b4553cb490e49e4,trafficserver
TS-1958,2013-07-03 22:38:18 +0000,CHANGES|,25,29,29,2013-06-17 18:07:50 +0000,2013-07-03 15:23:06 -0700,7f24a8c4916c5ac629d084743c8d736cbd4dba3d,trafficserver
TS-1990,2013-07-09 16:56:43 +0000,CHANGES|iocore/cluster/ClusterCache.cc|,28,29,29,2013-07-01 09:19:55 +0000,2013-07-09 10:52:38 -0600,7f202436a54f529199d769350525eba151043233,trafficserver
TS-1957,2013-07-09 08:51:03 +0000,CHANGES|,25,29,29,2013-06-14 15:41:30 +0000,2013-07-09 16:49:01 +0800,6ad901c98a1221aa4765cb85691629e199099fb9,trafficserver
TS-1151,2013-07-10 13:02:06 +0000,CHANGES|cop/TrafficCop.cc|,20,20,29,2012-03-19 03:54:04 +0000,2013-07-10 15:06:44 +0800,5d89a9c033f57c8e3c22e0afda02fb168441e4cb,trafficserver
TS-954,2013-07-19 20:02:43 +0000,iocore/cache/Cache.cc|,15,16,29,2011-09-15 08:16:10 +0000,2013-07-19 15:24:16 -0500,b556188fbcea220a179a0761defdaaf6554b4833,trafficserver
TS-489,2011-02-09 17:10:40 +0000,doc/admin/configuration-files/records.config.en.rst|,2,7,29,2010-10-14 08:07:30 +0000,2013-07-22 08:28:28 -0700,b16a3ac1fa3cbb56caee6d0f27c7c8b3405d92dc,trafficserver
TS-1487,2013-07-18 22:46:04 +0000,proxy/Main.cc|,23,25,29,2012-09-20 19:18:30 +0000,2013-07-26 16:49:44 -0500,6a70e5abf4de28636414896f97312c645625fdae,trafficserver
TS-1330,2013-08-02 04:35:52 +0000,proxy/logging/LogBuffer.h|proxy/logging/LogObject.cc|,23,24,30,2012-07-03 00:21:50 +0000,2013-08-02 11:36:42 +0800,3e05261c675b15a76f178e1d3e579c6941f42d20,trafficserver
TS-2091,2013-08-04 01:55:04 +0000,lib/records/RecCore.cc|,28,30,30,2013-08-02 20:54:49 +0000,2013-08-03 19:34:33 -0600,c6d0fe0e6109fda7f8c8b3791b1b0083fdd09e7b,trafficserver
TS-1501,2013-08-31 03:47:26 +0000,iocore/net/P_UnixNetVConnection.h|,23,25,30,2012-09-25 07:52:20 +0000,2013-08-05 14:06:51 +0800,f653a34c8166f4f387e1a5b486a58b88da73a85c,trafficserver
TS-2096,2013-08-11 03:40:42 +0000,CHANGES|iocore/net/SSLUtils.cc|lib/ts/Diags.cc|lib/ts/Diags.h|,28,30,30,2013-08-05 17:06:07 +0000,2013-08-10 20:31:10 -0700,aeea92c2344dbb9efc091d528dc2dc3baa74a393,trafficserver
TS-1469,2012-09-14 21:16:14 +0000,CHANGES|plugins/experimental/lua/state.cc|,21,25,31,2012-09-14 20:50:05 +0000,2013-08-26 16:55:04 -0700,45afcfac1089910570f69060cc6b2b35d9d19ad0,trafficserver
TS-2161,2013-08-27 22:53:34 +0000,CHANGES|Makefile.am|STATUS|build/tcl.m4|build/xml.m4|ci/apache-rat-0.11-SNAPSHOT.jar|ci/coverity-model.cc|ci/jenkins/Makefile|ci/jenkins/jobs.yaml|ci/jenkins/records.config|ci/rat-regex.txt|configure.ac|doc/admin/event-logging-formats.en.rst|doc/admin/faqs.en.rst|doc/admin/getting-started.en.rst|doc/admin/traffic-server-error-messages.en.rst|doc/admin/transparent-proxy/bridge.en.rst|doc/admin/working-log-files.en.rst|doc/admin/working-log-files/log-formats.en.rst|doc/arch/cache/cache-api.en.rst|doc/arch/cache/cache-appendix.en.rst|doc/arch/cache/cache-glossary.en.rst|doc/arch/cache/cache.en.rst|doc/arch/cache/common.defs|doc/arch/cache/tier-storage.en.rst|doc/conf.py|doc/ext/traffic-server.py|doc/glossary.en.rst|doc/index.rst|doc/reference/api/TSHttpHookAdd.en.rst|doc/reference/api/TSHttpTxnMilestoneGet.en.rst|doc/reference/api/TSLifecycleHookAdd.en.rst|doc/reference/api/TSPluginInit.en.rst|doc/reference/api/TSTypes.en.rst|doc/reference/api/index.en.rst|doc/reference/configuration/logs_xml.config.en.rst|doc/reference/configuration/records.config.en.rst|iocore/cache/Notes|iocore/dns/P_DNSConnection.h|iocore/eventsystem/I_EventProcessor.h|iocore/eventsystem/P_UnixEventProcessor.h|iocore/eventsystem/UnixEventProcessor.cc|iocore/net/P_Connection.h|iocore/utils/Machine.cc|lib/perl/lib/Apache/TS/AdminClient.pm|lib/records/I_RecSignals.h|lib/records/RecProcess.cc|lib/ts/Allocator.h|lib/ts/EventNotify.cc|lib/ts/EventNotify.h|lib/ts/ink_inet.cc|lib/ts/ink_inet.h|mgmt/Alarms.cc|mgmt/Alarms.h|mgmt/BaseManager.h|mgmt/LocalManager.cc|mgmt/RecordsConfig.cc|mgmt/cli/ConfigCmd.cc|mgmt/cli/ConfigCmd.h|mgmt/cli/ShowCmd.cc|mgmt/cli/cli_detailed_command_list.txt|mgmt/stats/spec|plugins/experimental/Makefile.am|plugins/experimental/buffer_upload/Makefile.am|plugins/experimental/buffer_upload/buffer_upload.cc|plugins/experimental/lua/state.cc|plugins/experimental/rfc5861/rfc5861.c|proxy/InkAPI.cc|proxy/InkAPIInternal.h|proxy/Main.cc|proxy/Main.h|proxy/StatSystem.h|proxy/api/ts/experimental.h|proxy/api/ts/ts.h.in|proxy/config/records.config.default.in|proxy/example_alarm_bin.sh|proxy/http/HttpConfig.cc|proxy/http/HttpConfig.h|proxy/http/HttpDebugNames.cc|proxy/http/HttpSM.cc|proxy/http/HttpSM.h|proxy/http/HttpTransact.cc|proxy/http/HttpTransact.h|proxy/http/HttpUpdateSM.cc|proxy/logging/Log.cc|proxy/logging/Log.h|proxy/logging/LogAccess.cc|proxy/logging/LogCollationClientSM.cc|proxy/logging/LogCollationHostSM.cc|proxy/logging/LogConfig.cc|proxy/logging/LogConfig.h|proxy/logging/LogFile.cc|proxy/logging/LogObject.cc|proxy/logging/LogObject.h|proxy/msgs/TSMessages.mc|proxy/msgs/TSMsgs.rc|tools/jtest/jtest.cc|tools/lighttpd_mod_generator/Makefile|tools/lighttpd_mod_generator/conf/lighttpd_11.conf|tools/lighttpd_mod_generator/conf/lighttpd_13.conf|tools/lighttpd_mod_generator/conf/lighttpd_15.conf|tools/lighttpd_mod_generator/conf/lighttpd_17.conf|tools/lighttpd_mod_generator/conf/lighttpd_19.conf|tools/lighttpd_mod_generator/conf/lighttpd_20.conf|tools/lighttpd_mod_generator/conf/lighttpd_22.conf|tools/lighttpd_mod_generator/conf/lighttpd_24.conf|tools/lighttpd_mod_generator/conf/lighttpd_3.conf|tools/lighttpd_mod_generator/conf/lighttpd_5.conf|tools/lighttpd_mod_generator/conf/lighttpd_7.conf|tools/lighttpd_mod_generator/conf/lighttpd_9.conf|,31,31,32,2013-08-27 08:45:21 +0000,2013-08-30 09:19:42 -0700,a75ebb6372c7e64c415d6fb29d8d24038ee79525,trafficserver
TS-2173,2013-09-03 08:14:15 +0000,CHANGES|STATUS|ci/jenkins/jobs.yaml|configure.ac|doc/admin/event-logging-formats.en.rst|doc/admin/faqs.en.rst|doc/admin/http-proxy-caching.en.rst|doc/admin/traffic-server-error-messages.en.rst|doc/admin/working-log-files.en.rst|doc/admin/working-log-files/log-formats.en.rst|doc/glossary.en.rst|doc/reference/api/TSHttpOverridableConfig.en.rst|doc/reference/api/TSLifecycleHookAdd.en.rst|doc/reference/api/TSTypes.en.rst|doc/reference/api/index.en.rst|doc/reference/configuration/logs_xml.config.en.rst|doc/reference/configuration/records.config.en.rst|doc/sdk/getting-started.en.rst|doc/sdk/header-based-plugin-examples.en.rst|doc/sdk/how-to-create-trafficserver-plugins.en.rst|doc/sdk/http-transformation-plugin.en.rst|doc/sdk/index.en.rst|doc/sdk/new-protocol-plugins.en.rst|doc/sdk/preface.en.rst|mgmt/RecordsConfig.cc|mgmt/stats/StatType.cc|proxy/config/stats.config.xml.default|proxy/logging/Log.cc|proxy/logging/LogConfig.cc|proxy/logging/LogConfig.h|proxy/logging/LogFile.cc|proxy/logging/LogHost.cc|proxy/logging/LogObject.cc|tools/apichecker.pl|,31,32,32,2013-09-03 04:17:38 +0000,2013-09-03 20:26:52 -0600,9aad786e82fc13c17fce88959a4cfc80286212f1,trafficserver
TS-858,2013-09-04 19:00:17 +0000,doc/reference/configuration/storage.config.en.rst|,13,14,32,2011-06-29 08:38:24 +0000,2013-09-04 13:00:08 -0600,182405352dd62726e532135bad155df57e5d8014,trafficserver
TS-1086,2014-01-17 16:58:14 +0000,CHANGES|proxy/http/HttpTransact.cc|,14,18,32,2012-01-23 06:10:04 +0000,2013-09-09 16:38:35 +0100,e8672a8934f468a4bf3fd34b3d573c783a5398cf,trafficserver
TS-2275,2013-10-23 03:02:35 +0000,CHANGES|iocore/cache/Cache.cc|iocore/cache/CacheDir.cc|iocore/cache/CacheWrite.cc|iocore/cache/P_CacheDir.h|iocore/cache/P_CacheVol.h|,32,33,33,2013-10-17 05:49:40 +0000,2013-10-21 15:13:21 +0800,64b5a6fca3a58bdd6010ad8d9ad08456a4f21ad5,trafficserver
TS-2317,2013-11-04 21:15:17 +0000,CHANGES|proxy/PluginVC.cc|,32,33,33,2013-11-03 07:04:32 +0000,2013-11-04 13:13:33 -0800,ba3f6c85be13cbe741d1200e35115f64ecd4e3b8,trafficserver
TS-1955,2013-11-05 15:19:49 +0000,CHANGES|,25,29,33,2013-06-14 07:48:26 +0000,2013-11-05 08:18:39 -0700,f130971bb068de5b86fcafd5616e67acccfab90d,trafficserver
TS-2320,2013-11-05 21:19:49 +0000,proxy/http/HttpSM.cc|,29,33,33,2013-11-05 19:15:40 +0000,2013-11-05 13:35:08 -0800,5ad8eabdf87d465e13791c8451591cf0d986e760,trafficserver
TS-1468,2013-11-21 02:51:49 +0000,CHANGES|proxy/http/HttpTransactCache.cc|,23,25,33,2012-09-14 19:38:29 +0000,2013-11-20 18:49:00 -0800,46adeb3d0e4b8a927c24a479f2c1a91b28358c6e,trafficserver
TS-2355,2013-12-16 23:12:52 +0000,CHANGES|,31,33,33,2013-11-15 22:39:22 +0000,2013-12-16 14:59:17 -0800,84f92083cd3aa46f4095eb00463dbace1cc2708c,trafficserver
TS-2363,2013-12-22 09:57:26 +0000,CHANGES|proxy/logging/Log.h|proxy/logging/LogFile.h|proxy/logging/LogHost.cc|proxy/logging/LogHost.h|proxy/logging/LogObject.cc|proxy/logging/LogObject.h|,33,33,34,2013-11-18 07:07:15 +0000,2013-12-22 18:01:39 +0800,9410b755e99322fa81ed24212b0c7902cb153e47,trafficserver
TS-2452,2014-01-28 21:37:22 +0000,CHANGES|proxy/logging/LogObject.cc|,33,34,34,2013-12-25 09:46:00 +0000,2013-12-25 22:49:25 +0800,fb60e203baffad9aa18c9dec5dc335034052b842,trafficserver
TS-2248,2013-12-28 21:04:52 +0000,CHANGES|,31,32,34,2013-09-24 12:17:20 +0000,2013-12-28 14:04:21 -0700,510c46aebf217c9016655ba370db0618ac2e968d,trafficserver
TS-1648,2014-01-16 23:41:15 +0000,iocore/cache/CacheDir.cc|lib/atscppapi/src/Headers.cc|,23,25,34,2013-01-11 15:15:14 +0000,2014-01-16 17:34:27 -0800,9ad143897aa4fa914705bc9e8fceaf056a8dbb37,trafficserver
TS-1606,2014-01-26 16:38:36 +0000,CHANGES|proxy/logging/Log.cc|proxy/logging/Log.h|,23,25,34,2012-11-30 19:00:49 +0000,2014-01-26 18:13:01 +0200,6215bf9e9dc3bf21f9507ce6856891e8168331c2,trafficserver
TS-2494,2014-02-27 01:06:08 +0000,CHANGES|proxy/http/HttpTransact.cc|,29,34,34,2014-01-14 09:29:44 +0000,2014-02-26 15:17:28 +0800,6d4005f8ba15956b1d322d5ecd7c88ed050fb871,trafficserver
TS-2778,2014-05-28 22:02:41 +0000,CHANGES|,35,36,36,2014-05-02 17:46:29 +0000,2014-05-02 12:21:07 -0700,270d0a0f6340797305fe9e02f29b57fae2b54415,trafficserver
TS-898,2014-11-19 17:26:10 +0000,CHANGES|plugins/experimental/esi/lib/Variables.cc|plugins/experimental/esi/lib/Variables.h|,13,15,36,2011-07-31 03:27:20 +0000,2014-05-02 13:15:04 -0700,07a10818623ab5660bf79aa33a203ef211ad46fa,trafficserver
TS-2253,2014-05-20 22:11:27 +0000,CHANGES|,31,32,36,2013-09-25 05:43:36 +0000,2014-05-20 15:10:44 -0700,ed421b87d58f8c81e7fa97ffaee68ef564078aa2,trafficserver
TS-1411,2014-05-20 23:27:55 +0000,CHANGES|,23,24,36,2012-08-17 19:24:52 +0000,2014-05-20 16:27:18 -0700,a77a5e4a8b28dc0f4dcae6c7620f6f13a7d93763,trafficserver
TS-2822,2014-05-28 22:01:18 +0000,proxy/logstats.cc|,35,36,36,2014-05-20 18:06:11 +0000,2014-05-21 11:52:57 -0700,088d5fe08c85d60aa782de6c110d08f643ad2071,trafficserver
TS-2837,2014-05-28 22:12:58 +0000,CHANGES|proxy/hdrs/URL.cc|,32,36,36,2014-05-23 12:54:09 +0000,2014-05-28 15:11:48 -0700,f4e9fd61953de3647351aa0ccb2775091cdbf701,trafficserver
TS-2792,2014-05-30 16:54:32 +0000,CHANGES|proxy/http/remap/UrlRewrite.cc|,32,36,36,2014-05-09 16:40:51 +0000,2014-05-30 10:54:12 -0600,e8b88aff8a5cc2c23161e2cf1e33d3ee4ddc401e,trafficserver
TS-2580,2014-05-30 19:45:55 +0000,iocore/net/SSLNetVConnection.cc|,34,34,36,2014-02-20 21:50:43 +0000,2014-05-30 13:13:10 -0700,b776404f101b50a98c3e77b414dd9075434b40f2,trafficserver
TS-2766,2014-06-03 19:09:40 +0000,proxy/hdrs/URL.cc|,35,36,36,2014-04-30 17:47:29 +0000,2014-06-10 17:27:06 -0700,43be06849b560b62ae16d1c3f450c860ac1bbe0d,trafficserver
TS-2889,2014-06-19 17:50:28 +0000,CHANGES|,36,36,37,2014-06-16 20:24:40 +0000,2014-06-18 16:53:36 -0700,aae3067e226db1d5ccccf41bce35eff2cf46fc40,trafficserver
TS-2892,2014-06-19 01:36:34 +0000,CHANGES|,36,37,37,2014-06-19 01:34:41 +0000,2014-06-18 18:35:31 -0700,2c9a15cecfbd16144305de7042fd11454aaf6ddc,trafficserver
TS-2906,2014-07-01 21:07:51 +0000,CHANGES|,36,37,37,2014-07-01 20:18:46 +0000,2014-07-01 13:40:29 -0700,46d7cc7b9a99024f79e0b785eeff4b7d9a608302,trafficserver
TS-2934,2014-07-11 16:38:01 +0000,CHANGES|proxy/http/HttpSM.cc|,34,37,37,2014-07-10 22:35:57 +0000,2014-07-11 09:32:17 -0700,470732ffcfd250e8094f211dcccea8b03b7a5b13,trafficserver
TS-2930,2014-07-14 23:20:58 +0000,CHANGES|plugins/experimental/ts_lua/ts_lua_client_request.c|,36,37,37,2014-07-09 16:18:15 +0000,2014-07-13 00:57:23 -0700,ad8534ec3647e0a0732ef13314a4c81c6b12871f,trafficserver
TS-2915,2014-07-18 19:14:01 +0000,CHANGES|proxy/http/HttpSM.cc|,36,37,37,2014-07-04 08:23:09 +0000,2014-07-18 12:13:15 -0700,71b370c298dcd50c41e5bf95ceb99c82153195e1,trafficserver
TS-1427,2012-08-29 19:56:18 +0000,lib/atscppapi/examples/boom/boom.cc|,23,24,37,2012-08-28 17:41:47 +0000,2014-07-22 11:12:00 -0700,2b5a16426bfa425aeeba6266927538633d5935c3,trafficserver
TS-2970,2014-08-21 17:06:00 +0000,CHANGES|,36,38,38,2014-07-30 12:45:19 +0000,2014-08-22 09:13:47 -0700,3f5a75ae87c38126a64264876a26841f5b0fca32,trafficserver
TS-3020,2014-08-27 21:01:35 +0000,CHANGES|,29,38,38,2014-08-18 08:57:41 +0000,2014-08-27 15:00:37 -0600,cd0715a381b3db804272fe358c684b581bf000d1,trafficserver
TS-3049,2014-09-03 16:53:59 +0000,CHANGES|,37,38,38,2014-08-28 00:07:00 +0000,2014-09-03 16:24:44 +0000,c0662e5e6e4964a81e8f7d78ecc0a93bba2c81d5,trafficserver
TS-3081,2014-09-24 14:18:54 +0000,CHANGES|,37,39,40,2014-09-17 17:23:45 +0000,2014-09-19 15:52:25 +0000,5e2ccfd3dd6117ea498af538e2077afc99868f85,trafficserver
TS-3085,2014-11-20 19:42:18 +0000,iocore/net/P_SSLUtils.h|iocore/net/SSLNetVConnection.cc|iocore/net/SSLUtils.cc|,37,40,40,2014-09-18 17:31:28 +0000,2014-09-24 17:01:29 +0000,2280dc3e35acab0e7f9beda9c38ce0982eee66a4,trafficserver
TS-3112,2014-11-20 19:49:21 +0000,proxy/FetchSM.cc|,37,40,40,2014-10-03 13:25:17 +0000,2014-10-03 16:46:22 +0000,0be38616636a0b18c2afa1cd1b14d96fa17275f0,trafficserver
TS-3121,2014-11-20 19:52:32 +0000,proxy/FetchSM.cc|,37,40,40,2014-10-08 16:05:14 +0000,2014-10-10 21:53:34 +0000,119353c404e473e6ae295f36a741d9a65e4c65b1,trafficserver
TS-3129,2014-10-15 02:45:32 +0000,proxy/http/HttpTransact.cc|,37,40,40,2014-10-11 01:28:00 +0000,2014-10-14 19:11:16 -0700,23fab54950a96c0af105ec0af9266f7065003577,trafficserver
TS-3120,2014-10-29 23:30:55 +0000,proxy/http/remap/UrlRewrite.cc|,36,40,40,2014-10-08 09:56:02 +0000,2014-10-29 16:30:15 -0700,fb7a2b2e0d6cd2eb8dd551a2c7be68196dc81279,trafficserver
TS-3199,2014-11-20 20:10:28 +0000,proxy/FetchSM.cc|,40,41,41,2014-11-14 22:48:15 +0000,2014-11-15 00:44:43 +0000,70227c26cba1696a42609dba79bc5e4f87926961,trafficserver
TS-3130,2014-11-25 01:03:05 +0000,proxy/logging/LogObject.cc|,37,40,41,2014-10-13 15:27:39 +0000,2014-11-25 00:58:37 +0000,54ade19da2c3387a7a19885a8bef8d3ff1ede6f0,trafficserver
TS-1125,2014-05-21 23:23:12 +0000,doc/reference/configuration/records.config.en.rst|,17,20,41,2012-03-01 17:07:47 +0000,2014-12-09 15:19:33 -0800,665b442dad51d89cc9f42f5394f3099d75519ec2,trafficserver
TS-1570,2014-12-08 21:49:08 +0000,lib/ts/ink_inet.cc|,24,25,41,2012-11-13 17:10:30 +0000,2014-12-09 21:17:55 -0800,156b7be9cb6a3d244efb58dd498b8c3ce5e1a4d9,trafficserver
TS-1475,2014-11-05 00:46:25 +0000,proxy/http/HttpTunnel.cc|proxy/http/HttpTunnel.h|,24,25,41,2012-09-15 16:18:35 +0000,2014-12-10 09:23:12 -0700,1f1e2ae1549ae4568d2e42774f24639d6cb3aadf,trafficserver
TS-3226,2014-12-16 18:50:01 +0000,iocore/net/SSLNetVConnection.cc|iocore/net/UnixNetVConnection.cc|,40,41,41,2014-12-05 18:50:29 +0000,2014-12-10 22:41:58 +0000,3c1aee78b46282f91e7f92369a2ff3231304117c,trafficserver
TS-3285,2015-01-10 05:23:58 +0000,proxy/http/HttpSM.cc|,37,42,42,2015-01-09 16:59:05 +0000,2015-01-09 21:23:35 +0000,1e4d897d913e85d1fda6bf376621b5c98c69d2d0,trafficserver
TS-1547,2015-01-26 19:06:24 +0000,CHANGES|,23,25,43,2012-10-23 01:20:14 +0000,2015-01-26 14:04:57 -0500,fa172b4fc9579a3b85311178262c591dea7f9a5f,trafficserver
TS-3326,2015-01-27 23:17:17 +0000,proxy/http/HttpTransact.cc|,42,43,43,2015-01-26 22:54:09 +0000,2015-01-27 12:19:29 -0700,37f0fd013a45d5f5e56535d307122f55aaaf0c81,trafficserver
TS-1435,2015-01-30 19:03:59 +0000,CHANGES|proxy/http/HttpSM.cc|,24,24,43,2012-09-04 10:46:27 +0000,2015-01-30 13:21:46 -0500,5826e48fa9ed10b2cafdc8e9d4252309bbb31c9d,trafficserver
TS-1264,2015-03-09 22:11:51 +0000,CHANGES|,20,21,43,2012-05-20 03:13:40 +0000,2015-02-01 13:30:13 -0700,2ceeb1198883617ba82acb5e8cbab30cae2c2a09,trafficserver
TS-3299,2015-02-24 05:23:53 +0000,iocore/net/UnixNetVConnection.cc|,42,43,44,2015-01-15 16:39:08 +0000,2015-02-04 16:34:08 +0000,bb79d6334e445aee4200f0d5f58953f42c107c6a,trafficserver
TS-3140,2015-03-24 21:30:20 +0000,CHANGES|cmd/traffic_ctl/server.cc|,37,40,44,2014-10-16 07:32:26 +0000,2015-02-25 15:46:50 -0800,b433720349d1817561e22cbc9deedbbb6adcfe19,trafficserver
TS-3176,2015-03-09 23:31:32 +0000,CHANGES|cmd/traffic_top/stats.h|cmd/traffic_top/traffic_top.cc|iocore/hostdb/HostDB.cc|,40,41,44,2014-11-06 03:56:55 +0000,2015-03-09 15:21:18 -0700,1678555d09c283768611a51bf7b3395a8d589de5,trafficserver
TS-3504,2015-04-07 20:13:48 +0000,CHANGES|iocore/cache/Cache.cc|,42,45,45,2015-04-07 20:06:44 +0000,2015-04-07 14:13:09 -0600,8d01176a9a6d065fadf88ee3d79151f48c72f015,trafficserver
TS-3370,2015-05-08 15:59:16 +0000,CHANGES|plugins/header_rewrite/header_rewrite.cc|,41,44,45,2015-02-06 08:29:21 +0000,2015-05-08 10:57:30 -0500,be0b7311dfd5f7645726d83ab967e0e0c527f4ef,trafficserver
TS-3628,2015-06-05 21:30:24 +0000,CHANGES|,45,46,46,2015-05-21 05:54:05 +0000,2015-05-21 14:31:48 +0800,9725e10f8fa50a5af87554fc3d0396c97ea6411e,trafficserver
TS-3642,2015-08-27 15:57:16 +0000,proxy/http/HttpConfig.cc|,45,46,46,2015-05-27 18:01:17 +0000,2015-05-27 18:47:11 +0000,a00c51bd7bdfa0b18c1f0acd14ae750c64c43657,trafficserver
TS-3661,2015-06-03 23:54:31 +0000,CHANGES|,44,46,46,2015-06-03 18:02:04 +0000,2015-06-03 23:53:16 +0000,2d8113098a44d764378e8e0a5d8a5c03f9f2788d,trafficserver
TS-3058,2015-06-17 21:52:57 +0000,proxy/PluginVC.cc|,37,39,46,2014-09-04 00:00:56 +0000,2015-06-18 09:45:09 -0600,95d73fb2c820138343503b3b4b3e2e2f1f460ac2,trafficserver
TS-3487,2015-06-26 15:50:36 +0000,proxy/http/HttpSM.cc|,44,45,46,2015-04-03 09:26:14 +0000,2015-06-25 13:33:11 -0700,737e8cdfbc2126d0f08b0a9bb3546d7ee86707a5,trafficserver
TS-3486,2015-06-29 21:40:29 +0000,proxy/http/HttpSessionManager.cc|proxy/http/HttpSessionManager.h|,42,45,46,2015-04-03 08:39:13 +0000,2015-06-29 16:18:14 -0600,1a160e13e4931fbaa522339c99abfad1ce9d638c,trafficserver
TS-3720,2015-07-30 19:51:46 +0000,proxy/http/HttpSM.cc|,45,46,46,2015-06-25 23:22:24 +0000,2015-07-01 13:24:24 -0700,6e33c64c18f93efc6921e0573f87da03251164ed,trafficserver
TS-3710,2015-10-07 19:44:28 +0000,iocore/net/SSLNextProtocolAccept.cc|,45,46,47,2015-06-20 16:44:17 +0000,2015-07-06 09:10:58 -0500,5defa51cd3ddcce05b0be4aa3f7b9d5a6f87a111,trafficserver
TS-3714,2015-07-29 00:16:53 +0000,iocore/net/SSLNetVConnection.cc|,45,46,47,2015-06-23 01:04:38 +0000,2015-07-08 03:05:48 +0000,17ca6e33c36544c85699ca964da5e03a6880a38f,trafficserver
TS-3725,2015-07-08 02:20:12 +0000,iocore/hostdb/P_HostDBProcessor.h|,45,46,47,2015-06-30 02:07:07 +0000,2015-07-08 13:10:19 -0500,7e97ec874bf2297782f8f6c6de8bafe470df26e0,trafficserver
TS-1419,2015-07-11 19:55:42 +0000,iocore/hostdb/HostDB.cc|iocore/hostdb/I_HostDB.h|iocore/hostdb/I_HostDBProcessor.h|proxy/http/HttpSM.cc|proxy/http/HttpTransact.cc|proxy/http/HttpTransact.h|,23,24,47,2012-08-25 00:15:26 +0000,2015-07-11 13:31:01 -0500,109ba54268c704c2ffc834efafbe7cdee683d10c,trafficserver
TS-3667,2015-07-22 14:41:53 +0000,iocore/net/SSLNetVConnection.cc|,42,46,47,2015-06-04 20:57:40 +0000,2015-07-22 15:21:55 -0500,ed48c9053c80372413b631be7946b7d30728e9e3,trafficserver
TS-3794,2015-07-30 15:30:30 +0000,proxy/spdy/SpdyClientSession.cc|,45,47,47,2015-07-23 16:56:27 +0000,2015-07-23 21:51:09 +0000,b51a2b977017d0d94e751d7e2c543d71a457c159,trafficserver
TS-3632,2015-05-27 22:40:09 +0000,cmd/traffic_manager/Makefile.am|,45,46,47,2015-05-22 15:20:21 +0000,2015-07-30 20:45:04 -0600,35f11dd5aab06364547d423e26b3d5bc31c4b1e1,trafficserver
TS-3806,2015-07-31 02:56:13 +0000,cmd/traffic_manager/Makefile.am|,46,47,47,2015-07-30 23:38:09 +0000,2015-07-30 20:45:04 -0600,35f11dd5aab06364547d423e26b3d5bc31c4b1e1,trafficserver
TS-1007,2016-04-16 16:23:37 +0000,iocore/net/UnixNet.cc|proxy/http/HttpClientSession.cc|proxy/http/HttpSM.cc|proxy/spdy/SpdyClientSession.cc|proxy/spdy/SpdyClientSession.h|,14,16,47,2011-11-01 11:34:13 +0000,2015-07-31 08:03:53 -0600,1d1eaa6988f31a46e5fea89ea49294f9486bfb14,trafficserver
TS-3799,2015-08-05 15:34:46 +0000,proxy/http2/Http2ConnectionState.cc|,45,47,47,2015-07-25 16:17:54 +0000,2015-08-05 09:30:36 -0600,7d63eae284d3bbc705d897639957b618fa5ce1b4,trafficserver
TS-3797,2015-08-24 15:53:23 +0000,iocore/net/Connection.cc|iocore/net/P_Connection.h|iocore/net/P_SSLNetVConnection.h|iocore/net/P_UnixNetVConnection.h|iocore/net/SSLNetVConnection.cc|iocore/net/UnixNetAccept.cc|iocore/net/UnixNetVConnection.cc|proxy/http/HttpServerSession.cc|proxy/http/HttpServerSession.h|proxy/http/HttpSessionManager.cc|proxy/http/HttpTransact.cc|,45,47,47,2015-07-24 01:06:13 +0000,2015-08-21 14:45:12 -0500,c181e7eea93592fa496247118f72e8323846fd5a,trafficserver
TS-3890,2015-09-08 15:57:32 +0000,proxy/http2/test_Huffmancode.cc|,45,47,47,2015-09-03 19:18:02 +0000,2015-09-03 13:28:40 -0600,328620e4b6ee201882bcd1056965ddb2ae891b15,trafficserver
TS-3895,2015-09-04 22:50:10 +0000,iocore/net/SSLNetVConnection.cc|,45,47,47,2015-09-04 22:09:22 +0000,2015-09-04 15:13:52 -0700,9279ddb1f4958a2decfb3f97620f0d0ff32592fb,trafficserver
TS-3896,2015-09-05 23:54:16 +0000,iocore/net/SSLNetVConnection.cc|,46,47,47,2015-09-05 23:43:34 +0000,2015-09-05 18:46:26 -0500,6a00f6f6686dbc47d268706adae9985b8ca2657f,trafficserver
TS-3878,2015-09-08 17:30:57 +0000,proxy/ICP.cc|,43,47,47,2015-09-01 02:16:32 +0000,2015-09-08 11:23:35 -0600,43ce9e450092febf938f9e26e4555d070d1153c5,trafficserver
TS-3912,2015-09-16 16:19:16 +0000,proxy/http/HttpTransactCache.cc|,47,48,49,2015-09-14 20:51:41 +0000,2015-09-21 08:42:22 -0600,470309e35bd4f6cf91f1ab51c13755800a728c56,trafficserver
TS-3953,2015-09-29 18:10:18 +0000,iocore/net/UnixNet.cc|,48,49,49,2015-09-29 16:45:30 +0000,2015-09-29 09:58:16 -0700,35f3731492e0bf686ae503deebb3291742116706,trafficserver
TS-3932,2015-11-16 22:30:26 +0000,iocore/net/UnixConnection.cc|,48,49,49,2015-09-22 18:26:20 +0000,2015-11-16 14:27:35 -0800,cb35e6ca143dd8618e0b73877853a32b3f6e4474,trafficserver
TS-3944,2015-12-17 23:02:46 +0000,doc/developer-guide/api/functions/TSHttpTxnServerAddrSet.en.rst|doc/developer-guide/plugins/hooks-and-transactions/http-transactions.en.rst|,48,49,49,2015-09-25 06:37:08 +0000,2015-12-17 17:01:40 -0600,64957d4e84ced2605b657f9dad2dea0e311b571f,trafficserver
TS-4009,2015-12-28 19:35:28 +0000,plugins/experimental/stale_while_revalidate/stale_while_revalidate.c|,48,49,49,2015-11-10 15:46:03 +0000,2015-12-28 11:32:29 -0800,e52f0606b65d6f0a7b430256d06123cc5f7145b6,trafficserver
TS-3841,2016-01-12 01:38:05 +0000,proxy/logging/LogAccessHttp.cc|,45,47,49,2015-08-14 08:49:10 +0000,2016-01-11 17:35:50 -0800,9399a76410de027092b20e0a287f315fca20257d,trafficserver
TS-4125,2016-01-12 17:31:21 +0000,iocore/net/UnixNet.cc|,48,49,49,2016-01-12 12:31:01 +0000,2016-01-12 09:22:26 -0800,c26952d95104067d45704d6c81eb3bc038fd2282,trafficserver
TS-4104,2016-01-27 21:28:34 +0000,iocore/net/SSLUtils.cc|,48,49,49,2015-12-30 07:02:34 +0000,2016-01-27 13:25:18 -0800,ed6cfbad1db168036d9444974b5433c9c44c4642,trafficserver
TS-3645,2016-01-27 22:19:53 +0000,mgmt/api/CoreAPIRemote.cc|,45,46,49,2015-05-28 20:26:54 +0000,2016-01-27 14:13:01 -0800,f8ce9e97f610b97bac76412176d1e673fa415541,trafficserver
TS-4166,2016-02-01 19:21:14 +0000,cmd/traffic_top/stats.h|,49,50,50,2016-01-29 20:04:43 +0000,2016-02-01 11:19:00 -0800,37bab96c6f14e3e0d3181a02ace1d15a3ffaf518,trafficserver
TS-4170,2016-02-02 02:40:35 +0000,proxy/http2/Http2ConnectionState.cc|,49,50,50,2016-02-02 00:00:49 +0000,2016-02-01 17:18:18 -0800,64b9e67b67f6cbede56498d279cb328d009b8065,trafficserver
TS-4160,2016-02-16 18:51:02 +0000,lib/atscppapi/src/Transaction.cc|lib/atscppapi/src/include/atscppapi/Transaction.h|lib/atscppapi/src/include/utils_internal.h|lib/atscppapi/src/utils_internal.cc|,49,50,50,2016-01-28 21:38:04 +0000,2016-02-01 18:15:17 +0000,e6a142762e926632301309233270bbb1ac6ba07a,trafficserver
TS-4177,2016-02-10 01:11:19 +0000,proxy/logging/LogFieldAliasMap.h|,49,50,50,2016-02-05 20:15:04 +0000,2016-02-05 13:35:40 -0800,e2720029e955d799c943d75aeb6e209d3bab43f4,trafficserver
TS-4188,2016-02-09 18:28:31 +0000,proxy/http2/Http2ConnectionState.h|,50,51,51,2016-02-09 16:25:39 +0000,2016-02-09 10:10:35 -0800,8c38c6c42dd420b3cf54288fbbe25e98211218a9,trafficserver
TS-4178,2016-02-12 02:57:14 +0000,iocore/dns/I_SplitDNSProcessor.h|iocore/dns/SplitDNS.cc|,49,50,51,2016-02-05 21:51:16 +0000,2016-02-11 18:50:41 -0800,bf4c990052bcca88ae01e2906d219b0b570e3f5d,trafficserver
TS-4181,2016-02-12 02:57:04 +0000,iocore/aio/AIO.cc|,49,50,51,2016-02-06 00:03:13 +0000,2016-02-11 18:51:19 -0800,a4125c8371ad1feaf2f4f91d65ef9551621a6aaf,trafficserver
TS-4196,2016-02-12 04:20:31 +0000,proxy/Main.cc|,50,51,51,2016-02-12 03:51:03 +0000,2016-02-11 20:07:36 -0800,78acb3ab129449bc578dc1fc692083af1bdaa0ed,trafficserver
TS-4066,2016-08-17 16:10:36 +0000,lib/ts/test_X509HostnameValidator.cc|,48,49,51,2015-12-09 18:57:33 +0000,2016-02-12 15:03:45 -0800,ce5f3941ecbc56673fa1deaa5a90c0c2c2468e22,trafficserver
TS-4056,2016-03-19 00:20:26 +0000,iocore/net/P_NetAccept.h|iocore/net/UnixNetAccept.cc|,49,49,51,2015-12-07 15:00:55 +0000,2016-03-18 19:18:18 -0500,fbb5c07162bc6d3a8b44bc2a0d30b6cbeb2153bc,trafficserver
TS-3909,2016-04-18 14:56:29 +0000,iocore/net/I_NetVConnection.h|iocore/net/P_UnixNetVConnection.h|iocore/net/SSLNextProtocolAccept.cc|,48,48,51,2015-09-14 16:41:47 +0000,2016-04-16 11:16:34 -0500,040336e99add1cae3380fca0962b5d44aefb54cb,trafficserver
TS-3959,2016-06-06 21:58:17 +0000,ci/tsqa/tests/test_connect_attempts.py|proxy/http/HttpTransact.cc|,48,49,51,2015-10-06 23:17:58 +0000,2016-05-24 15:14:52 -0700,716fb2d7fcdb044c409b7d994d1035c99d552ee4,trafficserver
TS-4535,2016-06-14 19:22:35 +0000,iocore/hostdb/HostDB.cc|,47,51,51,2016-06-13 23:40:18 +0000,2016-06-14 12:22:30 -0700,96d5fb521d573230e541261167388158ae3a3346,trafficserver
TS-4534,2016-06-14 22:07:38 +0000,iocore/hostdb/HostDB.cc|,50,51,51,2016-06-13 23:36:14 +0000,2016-06-14 12:24:16 -0700,005ef6128cbdd915023221ef32f81d2dfa787d4f,trafficserver
TS-4691,2016-08-17 14:11:10 +0000,proxy/http/HttpTransact.cc|,51,51,52,2016-07-21 14:30:01 +0000,2016-08-17 08:10:48 -0600,b5efbd46e836febefadc31a000d6f2eff1c23f97,trafficserver
TS-3826,2016-08-24 02:30:24 +0000,proxy/http/HttpSM.cc|,34,47,52,2015-08-06 04:06:55 +0000,2016-08-23 19:24:50 -0700,b9b10f84cb243860654e00668d3af57a7ffa87ce,trafficserver
TS-4217,2016-08-24 02:22:20 +0000,proxy/http2/Http2ConnectionState.cc|proxy/http2/Http2Stream.cc|,47,51,52,2016-02-20 12:31:09 +0000,2016-08-24 11:20:29 +0900,9655babb3316e393a39f4558802720c70b4082e1,trafficserver
TS-4475,2016-11-22 21:42:08 +0000,doc/admin-guide/files/records.config.en.rst|mgmt/RecordsConfig.cc|proxy/logging/LogCollationClientSM.cc|proxy/logging/LogCollationHostSM.cc|,50,51,52,2016-05-24 00:22:55 +0000,2016-09-10 07:36:13 -0500,f5e0157a6112b1429fce2f817487bd40767a49c1,trafficserver
TS-4732,2016-09-13 00:33:42 +0000,iocore/net/UnixNetVConnection.cc|proxy/http2/Http2ClientSession.h|,51,52,52,2016-08-10 22:44:36 +0000,2016-09-12 16:40:35 -0700,30bac3cdde849bfa91712b280f64e875a8a84b82,trafficserver
TS-4838,2016-09-13 03:15:57 +0000,proxy/http/HttpSM.cc|,51,52,52,2016-09-09 14:57:34 +0000,2016-09-12 20:12:50 -0700,57e69231cf7e9014a3085b2b216fd2797a3d637c,trafficserver
TS-4468,2016-09-13 18:52:32 +0000,proxy/http/HttpSessionManager.cc|proxy/http/HttpSessionManager.h|,50,51,52,2016-05-22 23:16:42 +0000,2016-09-13 13:14:34 -0500,e8db2199bff76d628bb3be6668b6cf019454c24f,trafficserver
TS-4735,2016-09-15 20:08:09 +0000,mgmt/ProcessManager.cc|mgmt/ProcessManager.h|,51,52,52,2016-08-11 00:28:25 +0000,2016-09-15 13:07:24 -0700,eb154093828bb52c2cf7f995cc94ed309d90aa31,trafficserver
TS-4892,2016-09-27 17:37:27 +0000,proxy/ProxyClientSession.cc|proxy/ProxyClientSession.h|proxy/ProxyClientTransaction.cc|proxy/ProxyClientTransaction.h|proxy/http/Http1ClientSession.cc|proxy/http/Http1ClientTransaction.cc|proxy/http/HttpSM.cc|proxy/http2/Http2ConnectionState.cc|,51,52,52,2016-09-24 16:04:41 +0000,2016-09-27 09:49:37 -0500,2bbb4ed729e00cf40e07b9ca7868f06217b037da,trafficserver
TS-4947,2016-10-19 00:22:36 +0000,lib/bindings/bindings.cc|lib/bindings/bindings.h|lib/bindings/lua.h|proxy/logging/LogBindings.cc|proxy/logging/LogHost.cc|,52,52,53,2016-10-11 09:36:53 +0000,2016-10-18 16:51:54 -0700,9a131307fcb8335537c5f560e027a490e69d2903,trafficserver
TS-4974,2016-10-20 22:35:05 +0000,proxy/http/HttpSM.cc|,52,52,53,2016-10-14 19:34:10 +0000,2016-10-20 17:34:11 -0500,57403de20699c32868aa27bb64b7ceb2c50c2999,trafficserver
TS-4993,2016-10-27 09:51:14 +0000,plugins/header_rewrite/header_rewrite_test.cc|plugins/header_rewrite/parser.cc|,52,53,53,2016-10-20 23:19:34 +0000,2016-10-26 16:17:02 -0700,c2dd8840e3fb96e95ba0b693ed5ef9d73f688fa7,trafficserver
TS-5050,2016-12-01 20:54:11 +0000,plugins/background_fetch/configs.cc|,51,53,53,2016-11-11 17:59:01 +0000,2016-11-16 07:39:55 -0700,4689d9cf9080747c0a1f983a39dfd392d0e63c7f,trafficserver
TS-552,2010-11-22 19:36:09 +0000,configure.ac|,8,8,53,2010-11-22 18:01:04 +0000,2017-02-02 10:34:33 -0700,84ac6ea8abf862a9c1ce5f6648746fb92d2132e6,trafficserver
TS-1127,2012-04-21 01:27:53 +0000,doc/developer-guide/api/functions/TSAcceptor.en.rst|doc/developer-guide/api/functions/TSProtoSet.en.rst|doc/developer-guide/api/functions/TSTypes.en.rst|example/Makefile.am|example/replace-protoset/replace-protoset.cc|iocore/net/I_SessionAccept.h|iocore/net/P_NetAccept.h|iocore/net/P_SSLNetVConnection.h|iocore/net/P_SSLNextProtocolAccept.h|iocore/net/P_SSLNextProtocolSet.h|iocore/net/P_UnixNetVConnection.h|iocore/net/SSLNetVConnection.cc|iocore/net/SSLNextProtocolAccept.cc|iocore/net/SSLNextProtocolSet.cc|iocore/net/UnixNetAccept.cc|iocore/net/UnixNetProcessor.cc|iocore/net/UnixNetVConnection.cc|lib/ts/apidefs.h.in|proxy/InkAPI.cc|proxy/api/ts/ts.h|proxy/http/HttpProxyServerMain.cc|,18,20,53,2012-03-05 11:14:43 +0000,2017-03-28 08:13:44 -0500,6c17449436426e1c1732189d2b09ee6f50283168,trafficserver
TS-1195,2012-05-28 14:39:28 +0000,doc/developer-guide/plugins/hooks-and-transactions/index.en.rst|iocore/net/SSLClientUtils.cc|iocore/net/SSLNetVConnection.cc|lib/ts/apidefs.h.in|proxy/InkAPIInternal.h|proxy/InkAPITest.cc|proxy/http/HttpDebugNames.cc|,20,21,53,2012-04-09 20:18:35 +0000,2017-06-29 11:38:38 -0500,00cf3d3b555a8d277831a9b49e1c293541a08724,trafficserver
