Bug ID,Bug Resolution Date by Jira,Classes Touched by Last Fix,Earliest AV,Version of Ticket Creation,Version of Fix,Ticket Creation Date,Fix Date (of most recent commit),Hash (of most recent commit),Git Directory
SM-2026,2011-02-18 07:12:42 +0000,core/servicemix-core/src/main/java/org/apache/servicemix/jbi/framework/ComponentRegistry.java|,15,25,26,2010-12-09 15:36:50 +0000,2011-02-18 07:12:16 +0000,0c4296aa0cf25161c1929f313bad8a677488088e,servicemix3
SM-2025,2011-02-18 09:19:33 +0000,core/servicemix-core/src/main/java/org/apache/servicemix/jbi/framework/ComponentRegistry.java|core/servicemix-core/src/main/java/org/apache/servicemix/jbi/framework/ServiceUnitLifeCycle.java|,15,25,26,2010-12-09 15:16:45 +0000,2011-02-18 09:19:23 +0000,28beeb8315533234c22bd7eea595ca173f33e228,servicemix3
SM-1178,2008-09-12 07:51:13 +0000,core/servicemix-core/src/main/java/org/apache/servicemix/jbi/messaging/NormalizedMessageImpl.java|,13,14,15,2007-12-18 12:34:30 +0000,2008-09-12 07:45:45 +0000,33e573c6d0e3d883a743c5daac732a46015c804a,servicemix3
SM-1170,2008-01-17 00:54:07 +0000,platforms/geronimo/deployer/pom.xml|platforms/geronimo/pom.xml|platforms/geronimo/servicemix/pom.xml|,13,14,14,2007-12-13 07:02:19 +0000,2008-01-16 21:33:15 +0000,55588795c634b27dc2ff5375b012499e14718fbc,servicemix3
SM-1186,2008-02-26 19:17:57 +0000,core/servicemix-core/src/main/java/org/apache/servicemix/jbi/messaging/NormalizedMessageImpl.java|core/servicemix-core/src/test/java/org/apache/servicemix/jbi/messaging/NormalizedMessageImplTest.java|,13,14,14,2007-12-27 23:57:41 +0000,2008-02-26 16:48:45 +0000,48c8ecd22fb869912db5502c0b19139e24cae75c,servicemix3
SM-2037,2011-02-17 16:05:33 +0000,distributions/apache-servicemix/src/main/release/bin/servicemix|,21,25,26,2011-01-18 06:36:29 +0000,2011-02-17 16:05:22 +0000,825873267d6c81941c7c124aed5e1e90cee691d5,servicemix3
SM-1197,2008-01-31 19:38:41 +0000,archetypes/servicemix-archetypes-itests/src/test/java/org/apache/servicemix/tooling/AbstractArchetypeTest.java|,13,14,14,2008-01-18 05:31:57 +0000,2008-01-31 19:29:24 +0000,de634618be7efdc456f3bb3ac998e7fa0b79586b,servicemix3
SM-2056,2011-02-17 14:50:18 +0000,distributions/apache-servicemix/src/main/assembly/unix-bin.xml|distributions/apache-servicemix/src/main/assembly/windows-bin.xml|pom.xml|,21,26,26,2011-02-17 08:07:03 +0000,2011-02-17 14:49:51 +0000,b532d2a7ebce3c5185300a409175985643254bb1,servicemix3
SM-1132,2007-11-19 10:21:13 +0000,core/servicemix-core/src/main/java/org/apache/servicemix/jbi/nmr/flow/jms/JMSFlow.java|,12,13,13,2007-11-09 13:19:23 +0000,2007-11-19 10:05:14 +0000,68503e9ef3b848d8d1789ac002fece1cfdaa6428,servicemix3
SM-1149,2007-11-26 04:15:11 +0000,deployables/serviceengines/servicemix-cxf-se/src/test/java/org/apache/servicemix/cxfse/CxfSeClientProxyTest.java|deployables/serviceengines/servicemix-cxf-se/src/test/resources/org/apache/servicemix/cxfse/proxytarget/xbean.xml|,12,13,13,2007-11-26 02:57:47 +0000,2007-11-26 03:56:28 +0000,f7c87df8f9d3fe3f4da6952f0f9c172a5541bffd,servicemix3
SM-1143,2007-11-20 13:25:33 +0000,distributions/apache-servicemix/pom.xml|,12,13,13,2007-11-20 13:23:44 +0000,2007-11-25 13:33:41 +0000,8993ffc1f6a618f5743c3813a70767a167508e04,servicemix3
SM-1145,2007-11-22 21:48:31 +0000,distributions/apache-servicemix/pom.xml|distributions/apache-servicemix/src/main/assembly/bin.xml|samples/camel/pom.xml|samples/camel/src/main/assembly/src.xml|samples/pom.xml|,12,13,13,2007-11-20 21:53:46 +0000,2007-11-23 10:01:06 +0000,82c2be6dab131acee8530d0dab5886b424db2371,servicemix3
SM-1151,2007-11-26 08:37:45 +0000,deployables/serviceengines/servicemix-lwcontainer/src/test/java/org/apache/servicemix/lwcontainer/LwContainerComponentTest.java|,12,13,13,2007-11-26 08:36:07 +0000,2007-11-26 08:37:15 +0000,87f6026286c468694c23380033987631ce3e4d31,servicemix3
SM-1161,2008-03-07 15:28:26 +0000,tooling/jbi-maven-plugin/src/main/java/org/apache/servicemix/maven/plugin/jbi/AbstractJbiMojo.java|,12,14,14,2007-12-03 21:57:53 +0000,2008-03-07 15:22:47 +0000,b36b3f0038585a89a611473370e36c02192cf11c,servicemix3
SM-178,2006-01-17 17:12:48 +0000,servicemix-components/src/main/java/org/apache/servicemix/components/jms/JmsMarshaler.java|servicemix-components/src/main/java/org/apache/servicemix/components/quartz/DefaultQuartzMarshaler.java|servicemix-components/src/test/java/org/apache/servicemix/components/jms/JmsBindingClusterTest.java|servicemix-components/src/test/java/org/apache/servicemix/components/quartz/QuartzComponentClusterTest.java|servicemix-components/src/test/resources/org/apache/servicemix/components/jms/example-cluster.xml|servicemix-components/src/test/resources/org/apache/servicemix/components/quartz/example-cluster.xml|,2,3,4,2005-11-11 15:04:17 +0000,2006-01-17 17:06:40 +0000,2e53af1b4b7426ed087677f5f8a4633aad19218e,servicemix3
SM-174,2006-02-01 17:13:41 +0000,servicemix-core/src/main/java/org/apache/servicemix/jbi/nmr/flow/cluster/ClusterFlow.java|servicemix-core/src/main/java/org/apache/servicemix/jbi/nmr/flow/jca/JCAFlow.java|servicemix-core/src/main/java/org/apache/servicemix/jbi/nmr/flow/jms/JMSFlow.java|servicemix-core/src/test/java/org/apache/servicemix/jbi/messaging/AbstractPersistenceTest.java|servicemix-core/src/test/java/org/apache/servicemix/jbi/nmr/flow/cluster/ClusterFlowTest.java|servicemix-core/src/test/java/org/apache/servicemix/jbi/nmr/flow/jms/MultipleJMSFlowTest.java|servicemix-core/src/test/java/org/apache/servicemix/jbi/nmr/flow/jms/SimpleClusterSendSyncTest.java|servicemix-core/src/test/resources/org/apache/servicemix/jbi/nmr/flow/jms/client.xml|,2,3,4,2005-11-11 01:07:31 +0000,2006-02-01 15:09:06 +0000,b8b2e54303dd8284b2752ce5521c9f168105cfac,servicemix3
SM-398,2006-04-17 00:28:33 +0000,servicemix-components/src/main/java/org/apache/servicemix/components/jms/JmsMarshaler.java|servicemix-components/src/main/java/org/apache/servicemix/components/jms/JmsSenderComponent.java|,3,5,5,2006-04-13 13:07:21 +0000,2006-04-16 17:27:33 +0000,1f5a7db586284155b97eaf4465a72394a6322095,servicemix3
SM-393,2008-12-08 22:55:33 +0000,servicemix-assembly/src/main/release/bin/servicemix.bat|,4,4,5,2006-04-10 09:45:57 +0000,2006-04-13 16:42:41 +0000,560182ce62b487612759493fba501541fd472ee5,servicemix3
SM-137,2006-01-24 10:43:39 +0000,servicemix-core/src/main/java/org/apache/servicemix/jbi/container/JBIContainer.java|servicemix-core/src/main/java/org/apache/servicemix/jbi/framework/AutoDeploymentService.java|servicemix-core/src/main/java/org/apache/servicemix/jbi/framework/ComponentMBeanImpl.java|servicemix-core/src/main/java/org/apache/servicemix/jbi/framework/DeploymentService.java|servicemix-core/src/main/java/org/apache/servicemix/jbi/framework/InstallerMBeanImpl.java|servicemix-core/src/main/java/org/apache/servicemix/jbi/framework/LocalComponentConnector.java|servicemix-core/src/main/java/org/apache/servicemix/jbi/framework/Registry.java|servicemix-core/src/main/java/org/apache/servicemix/jbi/framework/ServiceAssemblyLifeCycle.java|servicemix-core/src/main/java/org/apache/servicemix/jbi/framework/ServiceAssemblyRegistry.java|servicemix-core/src/test/java/org/apache/servicemix/jbi/installation/AbstractManagementTest.java|servicemix-core/src/test/java/org/apache/servicemix/jbi/installation/BootstrapDelegate.java|servicemix-core/src/test/java/org/apache/servicemix/jbi/installation/ComponentDelegate.java|servicemix-core/src/test/java/org/apache/servicemix/jbi/installation/DeploymentTest.java|servicemix-core/src/test/java/org/apache/servicemix/jbi/installation/HotDeployTest.java|servicemix-core/src/test/java/org/apache/servicemix/jbi/installation/InstallationTest.java|servicemix-core/src/test/resources/org/apache/servicemix/jbi/installation/sa1-jbi.xml|,1,1,4,2005-10-31 09:04:23 +0000,2006-01-24 10:39:21 +0000,2124038c50de80f92bfc9f75c2bbb5c8995dc0dd,servicemix3
SM-597,2006-09-25 08:48:44 +0000,servicemix-components/src/main/java/org/apache/servicemix/components/drools/dsl/JaxenConditionFactory.java|,5,7,7,2006-09-25 08:44:06 +0000,2006-09-25 08:51:53 +0000,6b97f355de2b5847e62294500af407e7d2e7cf77,servicemix3
SM-598,2006-09-26 11:13:03 +0000,core/servicemix-core/src/main/java/org/apache/servicemix/expression/ExpressionEditor.java|core/servicemix-core/src/test/java/org/apache/servicemix/expression/ExpressionEditorTest.java|core/servicemix-core/src/test/java/org/apache/servicemix/expression/ExpressionTestSupport.java|core/servicemix-core/src/test/resources/org/apache/servicemix/expression/expression-editor.xml|deployables/bindingcomponents/servicemix-http/src/test/java/org/apache/servicemix/http/BasicAuthCredentialsTest.java|deployables/bindingcomponents/servicemix-http/src/test/java/org/apache/servicemix/http/BasicAuthTestSupport.java|deployables/bindingcomponents/servicemix-http/src/test/resources/org/apache/servicemix/http/basic-auth.xml|,6,7,9,2006-09-25 14:22:08 +0000,2007-05-28 18:50:05 +0000,764e062b0a7a90c9a259c4dc7310922735647637,servicemix3
SM-593,2006-09-25 08:13:45 +0000,samples/servicemix-web/pom.xml|,6,7,7,2006-09-22 13:54:28 +0000,2006-09-25 08:16:32 +0000,e52592d33e5bbd88cd3d8f27a4f29a67dc12250c,servicemix3
SM-592,2006-09-25 07:52:25 +0000,servicemix-beanflow/src/main/java/org/apache/servicemix/beanflow/DefaultState.java|,6,7,7,2006-09-21 14:50:04 +0000,2006-09-25 07:54:36 +0000,01220d67e0c84ef0ec755999d2a812625d9af3ff,servicemix3
SM-589,2006-09-20 20:26:57 +0000,servicemix-core/src/main/java/org/apache/servicemix/jbi/jaxp/SourceTransformer.java|,6,7,7,2006-09-20 20:06:17 +0000,2006-09-20 20:29:44 +0000,d53fd0dcb3b3b8f21f1718fe0999b915c17137a5,servicemix3
SM-1854,2009-05-22 13:18:12 +0000,core/servicemix-core/src/main/java/org/apache/servicemix/jbi/framework/ServiceAssemblyLifeCycle.java|,15,17,17,2009-05-06 20:33:00 +0000,2009-05-22 13:17:33 +0000,a38fde9e8008f428c3aae8aa9b66f818f0bd9de1,servicemix3
SM-1853,2009-04-30 17:19:10 +0000,core/servicemix-core/src/main/java/org/apache/servicemix/xbean/ClassLoaderXmlPreprocessor.java|,15,17,17,2009-04-30 16:57:40 +0000,2009-04-30 17:18:04 +0000,190e6d02cebf03bd4c58c1c12541dc11ee190985,servicemix3
SM-220,2007-03-27 07:20:03 +0000,core/servicemix-core/src/main/java/org/apache/servicemix/jbi/container/JBIContainer.java|core/servicemix-core/src/main/java/org/apache/servicemix/jbi/messaging/ExchangePacket.java|core/servicemix-core/src/main/java/org/apache/servicemix/jbi/messaging/MessageExchangeImpl.java|,3,4,9,2005-11-28 04:29:11 +0000,2007-03-27 07:16:43 +0000,f7371be47930a8b31936f220938750d8c7c59cb6,servicemix3
SM-697,2006-10-15 19:33:29 +0000,servicemix-components/src/main/java/org/apache/servicemix/components/xslt/XsltComponent.java|,6,7,7,2006-10-10 06:37:45 +0000,2006-10-10 15:15:01 +0000,1fd1bdad7340f9ad8fec713e14c74c8456897f14,servicemix3
SM-692,2006-10-10 14:18:03 +0000,servicemix-common/src/main/java/org/apache/servicemix/common/ServiceUnit.java|,6,7,7,2006-10-07 17:34:34 +0000,2006-10-10 14:09:20 +0000,115b318cea2cf90fe329f14be6e83a7df2ef0384,servicemix3
SM-691,2006-10-07 16:34:14 +0000,samples/bridge/client.html|samples/ws-sec/client-basic.html|samples/ws-sec/client-ws-sec.html|samples/wsdl-first/client.html|,6,7,7,2006-10-07 14:00:09 +0000,2006-10-07 16:33:51 +0000,91bc5116d1a000c38b5dde4c30d32f24bcd4afd8,servicemix3
SM-678,2006-10-05 15:17:05 +0000,servicemix-jsr181/src/main/java/org/apache/servicemix/jsr181/Jsr181Endpoint.java|,6,7,7,2006-10-05 13:01:48 +0000,2006-10-05 13:14:51 +0000,5b0fd4f3abf897cb00fd533c1a8fad3a9a2550b1,servicemix3
SM-674,2006-10-04 20:19:39 +0000,tooling/jbi-maven-plugin/src/main/scripts/jbi.mojos.xml|,6,7,7,2006-10-04 18:08:25 +0000,2006-10-04 20:18:02 +0000,889e22531089fdb3fbf3aa4844f2ddc3150943ad,servicemix3
SM-676,2006-10-05 12:06:31 +0000,apache-servicemix/src/main/release/examples/ws-notification/instance1/servicemix1.xml|apache-servicemix/src/main/release/examples/ws-notification/instance2/servicemix2.xml|apache-servicemix/src/main/release/examples/ws-notification/instance3/servicemix3.xml|,6,7,7,2006-10-05 09:07:52 +0000,2006-10-05 12:05:20 +0000,d03f54793cb714eeb8c4c70b41805a7bd3086d02,servicemix3
SM-677,2006-10-31 14:36:54 +0000,servicemix-components/src/main/java/org/apache/servicemix/components/net/SocketClientPoolSupport.java|,6,7,7,2006-10-05 10:03:53 +0000,2006-10-31 14:28:00 +0000,716c413a3fe8b9a189eb2180b91ccb1858821aa7,servicemix3
SM-668,2006-10-04 11:43:45 +0000,servicemix-core/src/main/java/org/apache/servicemix/jbi/nmr/flow/jca/JCAFlow.java|servicemix-core/src/test/java/org/apache/servicemix/jbi/nmr/flow/jca/JcaFlowWithTxLogTest.java|,6,7,7,2006-10-04 11:38:00 +0000,2006-10-04 11:41:09 +0000,dfffd223cf261528e6f97b3c449c1a10ae88f958,servicemix3
SM-669,2006-10-04 11:56:54 +0000,servicemix-core/src/main/java/org/apache/servicemix/jbi/container/EnvironmentContext.java|,6,7,7,2006-10-04 11:54:40 +0000,2006-10-04 11:55:27 +0000,afec8cf3c2fc839bcd1bf0e4a8621c3854648886,servicemix3
SM-898,2007-03-27 08:38:21 +0000,common/servicemix-soap2/src/test/resources/log4j-tests.properties|common/servicemix-soap2/src/test/resources/log4j.properties|common/servicemix-soap2/src/test/resources/org/apache/servicemix/soap/Person.wsdl2|,8,9,9,2007-03-27 08:05:04 +0000,2007-03-27 08:37:26 +0000,7280b59407c41953b8049fc291d56eecbbd1db35,servicemix3
SM-414,2006-04-28 15:14:24 +0000,servicemix-core/src/main/java/org/apache/servicemix/jbi/jaxp/SourceTransformer.java|servicemix-core/src/test/java/org/apache/servicemix/jbi/jaxp/SourceTransformerTest.java|,4,5,5,2006-04-27 23:10:17 +0000,2006-04-28 08:12:59 +0000,1e573482c013b41b522400df41950fa27387e014,servicemix3
SM-410,2006-12-13 14:33:27 +0000,core/servicemix-core/src/main/java/org/apache/servicemix/jbi/framework/AutoDeploymentService.java|,4,5,8,2006-04-26 20:08:33 +0000,2006-12-13 14:31:44 +0000,604b4479762709187698ec236f9582b56e17a4e7,servicemix3
SM-1823,2010-12-19 15:16:25 +0000,core/servicemix-core/src/main/java/org/apache/servicemix/jbi/security/auth/impl/JAASAuthenticationService.java|,14,16,25,2009-03-04 12:58:07 +0000,2010-12-02 07:50:50 +0000,a22d6c5279d875ce2fc7159999e8db778a171e2e,servicemix3
SM-1821,2009-03-06 15:09:14 +0000,core/servicemix-core/src/main/java/org/apache/servicemix/Main.java|core/servicemix-core/src/main/java/org/apache/servicemix/jbi/container/SpringJBIContainer.java|core/servicemix-core/src/main/java/org/apache/servicemix/jbi/nmr/flow/jca/JCAFlow.java|,15,16,16,2009-03-03 18:13:16 +0000,2009-03-06 15:06:36 +0000,79407457a40aaa85d490bf0ebaf5d68c6cce8be8,servicemix3
SM-1824,2009-04-01 12:44:32 +0000,core/servicemix-core/src/main/java/org/apache/servicemix/jbi/framework/AutoDeploymentService.java|core/servicemix-core/src/main/java/org/apache/servicemix/jbi/framework/InstallationService.java|,15,16,17,2009-03-09 12:13:30 +0000,2009-04-01 08:55:52 +0000,2337619e5d560af3384d2fc29b04a2918415de38,servicemix3
SM-891,2007-05-02 13:59:02 +0000,tooling/jbi-maven-plugin/src/main/java/org/apache/servicemix/maven/plugin/jbi/GenerateComponentMojo.java|,8,9,9,2007-03-21 15:16:26 +0000,2007-05-02 13:58:16 +0000,bf37112aec5e1f991e055cde2ee0b3212d06d47d,servicemix3
SM-892,2007-03-22 14:15:09 +0000,deployables/serviceengines/servicemix-bean/src/main/java/org/apache/servicemix/bean/BeanEndpoint.java|deployables/serviceengines/servicemix-bean/src/main/java/org/apache/servicemix/bean/support/Request.java|deployables/serviceengines/servicemix-bean/src/test/java/org/apache/servicemix/bean/ListenerBeanEndpointTest.java|deployables/serviceengines/servicemix-bean/src/test/java/org/apache/servicemix/bean/SpringComponentTest.java|deployables/serviceengines/servicemix-bean/src/test/java/org/apache/servicemix/bean/beans/ListenerBean.java|,8,9,9,2007-03-21 23:20:56 +0000,2007-06-27 08:34:09 +0000,0c7aaf2a5cec8006a9f212e38da4251e005e0c90,servicemix3
SM-893,2007-03-22 13:45:47 +0000,core/servicemix-core/src/main/java/org/apache/servicemix/jbi/nmr/flow/jms/AbstractJMSFlow.java|core/servicemix-core/src/main/java/org/apache/servicemix/jbi/nmr/flow/jms/JMSFlow.java|core/servicemix-core/src/main/java/org/apache/servicemix/jbi/nmr/flow/jms/JMSFlowTibco.java|,8,9,9,2007-03-22 08:31:18 +0000,2007-03-22 13:45:09 +0000,5469178d4b71868faaebc1765d836643a867be75,servicemix3
SM-1831,2011-07-08 16:24:55 +0000,common/servicemix-components/src/main/java/org/apache/servicemix/components/xfire/XMarshaler.java|,15,17,27,2009-03-26 08:59:16 +0000,2011-07-08 16:23:26 +0000,eb978db0f46908a6d8375088ab5a1b32a6b05465,servicemix3
SM-878,2007-03-12 15:37:08 +0000,distributions/apache-servicemix/pom.xml|pom.xml|,8,9,9,2007-03-12 14:13:29 +0000,2007-03-12 15:34:20 +0000,4f7b30c3a65452b244190baa718198607d03f077,servicemix3
SM-879,2007-03-13 09:39:19 +0000,deployables/serviceengines/servicemix-eip/src/main/java/org/apache/servicemix/eip/patterns/XPathSplitter.java|,8,9,9,2007-03-13 08:39:34 +0000,2007-03-13 09:38:40 +0000,14bdec33ed64b9cb78040846474ef37e6fe2e8d8,servicemix3
SM-874,2007-03-09 14:27:19 +0000,deployables/bindingcomponents/servicemix-http/src/test/java/org/apache/servicemix/http/HttpSoapTest.java|,8,9,9,2007-03-08 14:39:05 +0000,2007-03-09 14:24:52 +0000,cb8c282911c47351b0ec2e40ffbdcda837c1a3b2,servicemix3
SM-866,2007-03-06 14:27:43 +0000,distributions/apache-servicemix/src/main/release/examples/wsn-http-binding/servicemix.xml|,8,9,9,2007-03-05 20:40:26 +0000,2007-03-06 14:19:31 +0000,f4a394af2b2574cf44d8d26c2561fb582aa5a5db,servicemix3
SM-861,2007-03-02 08:14:59 +0000,common/servicemix-common/src/main/java/org/apache/servicemix/common/AsyncBaseLifeCycle.java|common/servicemix-common/src/main/java/org/apache/servicemix/common/EndpointDeliveryChannel.java|common/servicemix-common/src/main/java/org/apache/servicemix/common/ServiceMixComponent.java|,8,9,9,2007-03-02 08:05:53 +0000,2007-03-02 08:07:43 +0000,5f075bf3d1a55238659352e8736d828ea87b2a4f,servicemix3
SM-862,2007-03-02 09:32:31 +0000,deployables/serviceengines/servicemix-jsr181/src/main/java/org/apache/servicemix/jsr181/xfire/ServiceFactoryHelper.java|,8,9,9,2007-03-02 09:29:06 +0000,2007-03-02 09:29:52 +0000,ce4dad098d49f6eafcdba4ec34aa5c146adea8fd,servicemix3
SM-863,2007-03-02 10:14:14 +0000,core/servicemix-services/src/main/java/org/apache/servicemix/id/IdGenerator.java|,8,9,9,2007-03-02 10:07:03 +0000,2007-03-02 10:07:24 +0000,a8c018043db1832de33aa02db8b58192998291ac,servicemix3
SM-621,2006-10-02 20:56:45 +0000,apache-servicemix/src/main/release/bin/servicemix|,6,7,7,2006-10-02 20:55:29 +0000,2006-10-02 20:56:36 +0000,8fbcaf65ec8d37269c1301b346e04a09d8c39a6f,servicemix3
SM-622,2006-10-03 13:30:14 +0000,servicemix-core/src/main/java/org/apache/servicemix/jbi/nmr/flow/jca/JCAFlow.java|servicemix-core/src/test/java/org/apache/servicemix/jbi/nmr/flow/jca/JcaFlowWithTxLogTest.java|,6,7,7,2006-10-03 08:32:11 +0000,2006-10-03 11:58:40 +0000,60fcbfebf209598b479e903e23ffde89a7a22809,servicemix3
SM-860,2007-03-02 09:20:00 +0000,core/servicemix-core/src/main/java/org/apache/servicemix/jbi/servicedesc/EndpointReferenceBuilder.java|core/servicemix-core/src/main/java/org/apache/servicemix/jbi/util/DOMUtil.java|,8,9,9,2007-03-01 23:38:56 +0000,2007-03-02 09:12:08 +0000,4bee2b7ff237c31c3d498ece27d8b6c5ada3c587,servicemix3
SM-1214,2008-01-31 18:53:57 +0000,web/servicemix-web-console/src/main/webapp/WEB-INF/sitemesh-decorator.tld|web/servicemix-web-console/src/main/webapp/WEB-INF/sitemesh-page.tld|,13,14,14,2008-01-31 17:18:45 +0000,2008-01-31 18:51:44 +0000,c75f506f8a222bf994115008e93308075d28ea2d,servicemix3
SM-854,2007-07-26 14:05:06 +0000,core/servicemix-core/src/main/java/org/apache/servicemix/jbi/logging/LogService.java|core/servicemix-core/src/main/java/org/apache/servicemix/jbi/logging/LogTask.java|,8,9,9,2007-02-21 22:11:48 +0000,2007-02-21 22:18:02 +0000,2326e093a550786783dfd3020f2c15cc39f37f06,servicemix3
SM-850,2007-02-16 19:58:07 +0000,distributions/apache-servicemix/src/main/release/bin/servicemix|,8,9,9,2007-02-16 19:25:43 +0000,2007-02-16 19:43:55 +0000,4bc53103dfb3c5702efb057606ff3ad20d5a1645,servicemix3
SM-853,2007-02-20 16:55:15 +0000,core/servicemix-core/src/main/java/org/apache/servicemix/jbi/view/DotViewFlowListener.java|,8,9,9,2007-02-20 10:32:08 +0000,2007-02-20 11:01:25 +0000,609d55bb47f54163ae93ada67345a60529bd5a9c,servicemix3
SM-858,2007-03-02 13:56:14 +0000,deployables/serviceengines/servicemix-jsr181/src/main/java/org/apache/servicemix/jsr181/Jsr181Endpoint.java|,8,9,9,2007-02-26 23:18:49 +0000,2007-03-02 13:54:59 +0000,ba8b59b213c835185b65e8924d6d32e57e674732,servicemix3
SM-1224,2008-05-06 14:31:08 +0000,archetypes/servicemix-archetype-catalog/pom.xml|,13,14,14,2008-02-13 16:53:23 +0000,2008-03-04 21:02:01 +0000,b14c408fd6a54d13051d9d0d78ba07bcb383468c,servicemix3
SM-843,2007-02-14 17:17:49 +0000,samples/loan-broker/loan-broker-jms-su/src/main/resources/xbean.xml|,8,9,9,2007-02-14 17:10:49 +0000,2007-02-14 17:12:14 +0000,5253d0fb8b293a3153faabd6df00142be1219f31,servicemix3
SM-845,2007-03-12 15:53:25 +0000,deployables/serviceengines/servicemix-quartz/pom.xml|,8,9,9,2007-02-15 11:14:25 +0000,2007-03-12 15:52:59 +0000,9ee7c7c983f722442e1e79c670de3544d36b32f6,servicemix3
SM-603,2006-09-29 08:34:30 +0000,servicemix-jms/src/main/java/org/apache/servicemix/jms/AbstractJmsProcessor.java|servicemix-jms/src/main/java/org/apache/servicemix/jms/jca/JcaProviderProcessor.java|servicemix-jms/src/test/java/org/apache/servicemix/jms/JmsStandardTest.java|servicemix-jms/src/test/resources/jndi.properties|,6,7,7,2006-09-27 15:50:16 +0000,2006-09-29 08:37:33 +0000,1a09eeb7d16a7bfbd60905cc604f1853047e8b41,servicemix3
SM-846,2007-02-16 19:36:27 +0000,core/servicemix-services/src/main/java/org/apache/servicemix/id/IdGenerator.java|,6,9,9,2007-02-16 09:36:00 +0000,2007-02-16 19:32:33 +0000,77cd07b96a0a7a69386162730ed78998780c47a8,servicemix3
SM-604,2006-10-19 12:12:45 +0000,servicemix-http/src/main/java/org/apache/servicemix/http/HttpComponent.java|servicemix-http/src/main/java/org/apache/servicemix/http/HttpEndpoint.java|servicemix-http/src/main/java/org/apache/servicemix/http/processors/ConsumerProcessor.java|,6,7,7,2006-09-27 16:44:36 +0000,2006-10-19 12:12:08 +0000,55b85cc03a7c27ccc5485ee16670a341f9820da4,servicemix3
SM-840,2007-02-15 07:16:58 +0000,deployables/serviceengines/servicemix-wsn2005/src/main/java/org/apache/servicemix/wsn/AbstractCreatePullPoint.java|deployables/serviceengines/servicemix-wsn2005/src/main/java/org/apache/servicemix/wsn/AbstractNotificationBroker.java|deployables/serviceengines/servicemix-wsn2005/src/main/java/org/apache/servicemix/wsn/component/WSNLifeCycle.java|deployables/serviceengines/servicemix-wsn2005/src/main/java/org/apache/servicemix/wsn/jms/JmsCreatePullPoint.java|deployables/serviceengines/servicemix-wsn2005/src/main/java/org/apache/servicemix/wsn/jms/JmsNotificationBroker.java|,8,9,9,2007-02-13 16:02:30 +0000,2007-02-15 07:11:31 +0000,7dafd5a9a9c0da0a3a057e5d077fab781e402db2,servicemix3
SM-841,2007-05-02 13:35:10 +0000,common/servicemix-soap/src/main/java/org/apache/servicemix/soap/marshalers/SoapMarshaler.java|common/servicemix-soap/src/main/java/org/apache/servicemix/soap/marshalers/SoapReader.java|common/servicemix-soap/src/main/java/org/apache/servicemix/soap/marshalers/SoapWriter.java|common/servicemix-soap/src/test/java/org/apache/servicemix/soap/marshalers/FaultTest.java|common/servicemix-soap/src/test/resources/org/apache/servicemix/soap/marshalers/fault-1.1-multiple-detail-elements.xml|,7,9,9,2007-02-13 17:27:07 +0000,2007-05-02 13:34:50 +0000,8531e58b41828c7337e6b9b14059844d61c1bab2,servicemix3
SM-842,2007-02-14 16:38:29 +0000,deployables/bindingcomponents/servicemix-http/src/main/java/org/apache/servicemix/http/jetty/JettyContextManager.java|,8,9,9,2007-02-14 14:43:41 +0000,2007-02-14 16:32:57 +0000,7cbe69ff957b4ff62e8545417d903389de8d5742,servicemix3
SM-847,2007-02-16 19:26:17 +0000,distributions/apache-servicemix/pom.xml|pom.xml|,8,9,9,2007-02-16 09:46:14 +0000,2007-02-16 19:09:13 +0000,4810d55fe48bf7b67a1f1b281db8fb9d2c831169,servicemix3
SM-849,2007-02-16 15:38:05 +0000,web/servicemix-web-console/src/main/webapp/error.jsp|,8,9,9,2007-02-16 15:31:48 +0000,2007-02-16 15:32:44 +0000,af7f4d96e9ce18372e36779ff701fa958eb167d2,servicemix3
SM-607,2008-02-06 06:28:28 +0000,core/servicemix-core/src/main/java/org/apache/servicemix/jbi/framework/AutoDeploymentService.java|core/servicemix-core/src/test/java/org/apache/servicemix/jbi/installation/HotDeployTest.java|,6,7,14,2006-09-28 14:58:12 +0000,2008-02-06 06:24:32 +0000,d258efe6cabb2ec4a7315863a24d6d13ab1eb6b0,servicemix3
SM-608,2006-10-02 13:01:09 +0000,samples/basic/pom.xml|samples/bridge/pom.xml|samples/loan-broker/pom.xml|samples/servicemix-web/pom.xml|samples/ws-sec/pom.xml|samples/wsdl-first/pom.xml|,6,7,7,2006-09-29 00:31:11 +0000,2006-10-02 12:58:32 +0000,a1e61102b60805248dd0d7a823b7e9737cac6367,servicemix3
SM-832,2007-02-13 10:30:22 +0000,common/servicemix-soap/src/main/java/org/apache/servicemix/soap/marshalers/SoapWriter.java|,6,9,9,2007-02-05 15:39:38 +0000,2007-02-05 15:46:44 +0000,bc2a7ea759da0e66d9226fab9349b44117ac9a9a,servicemix3
SM-835,2007-02-14 19:44:09 +0000,archetypes/servicemix-jms-provider-service-unit/src/main/resources/archetype-resources/src/main/resources/xbean.xml|archetypes/servicemix-jsr181-annotated-service-unit/src/main/resources/archetype-resources/src/main/resources/xbean.xml|archetypes/servicemix-jsr181-wsdl-first-service-unit/src/main/resources/archetype-resources/src/main/resources/xbean.xml|archetypes/servicemix-lwcontainer-service-unit/src/main/resources/archetype-resources/src/main/resources/servicemix.xml|,8,9,9,2007-02-08 13:40:48 +0000,2007-02-14 19:39:46 +0000,29601afce95fa8df0b997ba8838f7f4b394953c6,servicemix3
SM-839,2007-02-15 10:38:27 +0000,deployables/serviceengines/servicemix-jsr181/pom.xml|,8,9,9,2007-02-12 07:22:47 +0000,2007-02-15 10:33:54 +0000,bfce072c4f9ce5e437d60248dd4604185f1ee6e4,servicemix3
SM-1006,2007-07-18 06:40:45 +0000,deployables/bindingcomponents/servicemix-file/src/main/java/org/apache/servicemix/file/FileSenderEndpoint.java|,9,10,10,2007-07-18 05:40:27 +0000,2007-07-18 06:38:28 +0000,38e6afa580cd01597ee8a4f298d8ffc5871cdbf4,servicemix3
SM-1240,2008-02-20 15:20:33 +0000,tooling/jbi-maven-plugin/src/main/java/org/apache/servicemix/maven/plugin/jbi/ServiceMixEmbeddedMojo.java|,13,14,14,2008-02-20 14:51:02 +0000,2008-02-20 15:03:42 +0000,146b809829b544a4f82b6e83c1aaae7cce0f642a,servicemix3
SM-1004,2007-07-16 11:56:14 +0000,deployables/bindingcomponents/servicemix-file/src/main/java/org/apache/servicemix/file/FilePollerEndpoint.java|,9,10,10,2007-07-16 07:46:23 +0000,2007-07-16 10:54:56 +0000,84b81c49f205810bc5ab73332c0ecedb6213c66d,servicemix3
SM-829,2007-02-14 17:41:25 +0000,tooling/jbi-maven-plugin/src/main/java/org/apache/servicemix/maven/plugin/jbi/JbiComponentDescriptorWriter.java|tooling/jbi-maven-plugin/src/main/java/org/apache/servicemix/maven/plugin/jbi/JbiServiceAssemblyDescriptorWriter.java|tooling/jbi-maven-plugin/src/main/java/org/apache/servicemix/maven/plugin/jbi/JbiServiceUnitDescriptorWriter.java|tooling/jbi-maven-plugin/src/main/java/org/apache/servicemix/maven/plugin/jbi/JbiSharedLibraryDescriptorWriter.java|tooling/jbi-maven-plugin/src/test/java/org/apache/servicemix/maven/plugin/jbi/JbiServiceUnitDescriptorWriterTest.java|,6,9,9,2007-02-01 12:42:30 +0000,2007-02-14 17:35:54 +0000,cd2266a84888b635e8d378271b9002b7236b7057,servicemix3
SM-828,2007-02-15 09:56:04 +0000,core/servicemix-core/src/main/java/org/apache/servicemix/components/util/OutBinding.java|,6,9,9,2007-01-29 15:41:05 +0000,2007-02-15 09:52:58 +0000,47eb57802b8b33d8b8b32dc98fa0e934bb83f988,servicemix3
SM-811,2008-08-06 10:50:15 +0000,deployables/serviceengines/servicemix-jsr181/src/main/java/org/apache/servicemix/jsr181/xfire/JbiChannel.java|,6,8,8,2007-01-10 16:12:47 +0000,2007-01-12 17:04:06 +0000,a3e9ac0424528c935afa93df45fd982f8aea2101,servicemix3
SM-1425,2008-07-07 16:15:36 +0000,pom.xml|,13,14,14,2008-06-26 06:17:28 +0000,2008-07-07 16:14:10 +0000,d0f3da0f1bb216fb450a1ada986f101ac5872c2d,servicemix3
SM-1420,2008-07-07 16:27:16 +0000,distributions/apache-servicemix/src/sandbox/basic/build.xml|distributions/apache-servicemix/src/sandbox/bpel-bpe/build.xml|distributions/apache-servicemix/src/sandbox/http-binding/build.xml|distributions/apache-servicemix/src/sandbox/jms-binding/build.xml|distributions/apache-servicemix/src/sandbox/quartz-binding/build.xml|samples/loan-broker/build.xml|,13,14,14,2008-06-24 17:33:33 +0000,2008-07-07 16:18:17 +0000,e4c37e1fdb08950aa2f8831492a8e33a0610a396,servicemix3
SM-1206,2011-04-19 18:35:03 +0000,distributions/apache-servicemix/src/main/release/conf/component.properties|,13,14,26,2008-01-24 05:49:51 +0000,2011-04-28 19:52:47 +0000,61ede9d0b521fe597e6495e590d18cbae35c7db7,servicemix3
SM-1685,2008-11-12 14:55:50 +0000,core/servicemix-core/src/main/java/org/apache/servicemix/components/util/ComponentAdaptorMEListener.java|core/servicemix-core/src/main/java/org/apache/servicemix/jbi/container/JBIContainer.java|core/servicemix-core/src/main/java/org/apache/servicemix/jbi/messaging/DeliveryChannelImpl.java|,15,16,16,2008-11-12 14:26:09 +0000,2008-11-12 14:55:11 +0000,a4594768385ce1024d94ae9584bff898fc1bb7e6,servicemix3
SM-1201,2008-01-31 07:14:09 +0000,common/servicemix-soap2/src/test/java/org/apache/servicemix/soap/HelloWorldSoapTest.java|common/servicemix-soap2/src/test/java/org/apache/servicemix/soap/PersonHttpTest.java|common/servicemix-soap2/src/test/java/org/apache/servicemix/soap/interceptors/jbi/JbiInInterceptorTest.java|core/servicemix-core/src/main/java/org/apache/servicemix/tck/mock/MockExchangeFactory.java|core/servicemix-core/src/main/java/org/apache/servicemix/tck/mock/MockMessageExchange.java|core/servicemix-core/src/main/java/org/apache/servicemix/tck/mock/MockNormalizedMessage.java|,13,14,14,2008-01-21 22:32:12 +0000,2008-01-31 07:12:25 +0000,6a9065ddee46e29219a7506069bc6b24d5ab8123,servicemix3
SM-2142,2012-01-04 18:02:22 +0000,core/servicemix-core/src/main/java/org/apache/servicemix/jbi/framework/AutoDeploymentService.java|core/servicemix-core/src/main/java/org/apache/servicemix/jbi/framework/EndpointRegistry.java|core/servicemix-core/src/main/java/org/apache/servicemix/jbi/framework/Registry.java|,29,31,31,2012-01-04 18:00:11 +0000,2012-01-04 18:02:28 +0000,61dc504228447fef270a656ecd6ae91603eeab92,servicemix3
SM-1295,2008-03-28 14:43:53 +0000,core/servicemix-core/src/main/java/org/apache/servicemix/components/util/BinaryFileMarshaler.java|,13,14,14,2008-03-27 18:32:59 +0000,2008-03-28 14:37:39 +0000,03ede392ee6ce8d3024101cc967e4a064dbdd573,servicemix3
SM-1050,2007-09-06 12:46:39 +0000,deployables/bindingcomponents/servicemix-http/src/main/java/org/apache/servicemix/http/endpoints/HttpConsumerEndpoint.java|,9,10,10,2007-09-06 12:44:51 +0000,2007-09-06 12:48:56 +0000,38ed1a0952b60e252019fcc3aa82f5600ba6c28d,servicemix3
SM-1061,2007-09-26 12:02:28 +0000,common/servicemix-components/src/main/java/org/apache/servicemix/components/rss/FeedWriter.java|,8,11,12,2007-09-20 16:28:10 +0000,2007-09-26 12:02:04 +0000,45163a33a26b6eaa16337831182d40f8bdacf5f5,servicemix3
SM-2161,2012-07-27 05:44:24 +0000,core/servicemix-core/src/main/java/org/apache/servicemix/jbi/management/ManagementContext.java|core/servicemix-core/src/test/java/org/apache/servicemix/jbi/management/WebSphereManagementContextTest.java|,31,32,32,2012-07-27 05:04:07 +0000,2012-07-27 05:42:50 +0000,21e85b75cbb9417bf90ff7fc479a043bef1b6c47,servicemix3
SM-1012,2007-07-30 15:13:54 +0000,common/servicemix-components/src/main/java/org/apache/servicemix/components/file/FilePoller.java|deployables/bindingcomponents/servicemix-file/src/main/java/org/apache/servicemix/file/FilePollerEndpoint.java|,9,10,10,2007-07-28 16:59:12 +0000,2007-07-30 15:03:51 +0000,9a3ae5e7997201359493288ca9f1d96528a6072a,servicemix3
SM-1011,2007-09-27 14:11:16 +0000,common/servicemix-common/src/main/java/org/apache/servicemix/common/tools/wsdl/SchemaCollection.java|common/servicemix-common/src/test/java/org/apache/servicemix/common/tools/wsdl/WSDLFlattenerTest.java|common/servicemix-common/src/test/resources/includes/nested-a1.xsd|common/servicemix-common/src/test/resources/includes/nested-b1.xsd|common/servicemix-common/src/test/resources/includes/nested-b2.xsd|common/servicemix-common/src/test/resources/includes/nested-b3.xsd|common/servicemix-common/src/test/resources/includes/nested-c1.xsd|common/servicemix-common/src/test/resources/includes/service.wsdl|,9,10,12,2007-07-26 19:41:17 +0000,2007-09-27 14:04:51 +0000,db02566ead60809ff933770c81ee86eff70d333e,servicemix3
SM-1016,2007-08-08 12:37:56 +0000,core/servicemix-core/src/main/java/org/apache/servicemix/jbi/container/EnvironmentContext.java|,8,10,10,2007-08-03 15:04:06 +0000,2007-08-08 12:36:12 +0000,cec1afd523820e84b1b91efecd75cc48d6f3e2c7,servicemix3
SM-1014,2007-08-03 06:14:25 +0000,common/servicemix-soap/src/main/java/org/apache/servicemix/soap/SoapEndpoint.java|,9,10,10,2007-08-03 05:55:31 +0000,2007-08-03 05:57:35 +0000,c5511b536c0be2fa79b7a32507e346796172a8d0,servicemix3
SM-2119,2011-08-22 12:25:58 +0000,distributions/apache-servicemix/src/main/release/conf/activemq.xml|,21,27,27,2011-08-22 05:28:28 +0000,2011-08-22 12:22:40 +0000,152eea181bcf567540965f3225dbe19a1c155ca6,servicemix3
SM-2117,2011-09-02 06:44:05 +0000,core/servicemix-core/src/main/java/org/apache/servicemix/jbi/framework/AdminCommandsService.java|core/servicemix-core/src/main/java/org/apache/servicemix/jbi/framework/InstallationService.java|,21,27,28,2011-08-15 11:29:23 +0000,2011-09-02 06:43:45 +0000,e5e9482cf5c0176432557bdd217d1b8d5860068a,servicemix3
SM-1023,2007-08-08 12:29:41 +0000,deployables/bindingcomponents/servicemix-jms/src/main/java/org/apache/servicemix/jms/AbstractJmsProcessor.java|deployables/bindingcomponents/servicemix-jms/src/main/java/org/apache/servicemix/jms/jca/JcaConsumerProcessor.java|deployables/bindingcomponents/servicemix-jms/src/main/java/org/apache/servicemix/jms/multiplexing/MultiplexingConsumerProcessor.java|deployables/bindingcomponents/servicemix-jms/src/main/java/org/apache/servicemix/jms/standard/StandardConsumerProcessor.java|deployables/serviceengines/servicemix-jsr181/src/main/java/org/apache/servicemix/jsr181/EndpointDeliveryChannel.java|deployables/serviceengines/servicemix-jsr181/src/main/java/org/apache/servicemix/jsr181/Jsr181ExchangeProcessor.java|,9,10,10,2007-08-08 12:01:14 +0000,2007-08-08 12:23:51 +0000,550faf185f4b66a76e14a028d237e195db5423ec,servicemix3
SM-1021,2007-09-26 12:00:14 +0000,common/servicemix-soap/src/main/java/org/apache/servicemix/soap/handlers/addressing/AddressingHandler.java|common/servicemix-soap/src/test/java/org/apache/servicemix/soap/handlers/addressing/AddressingHandlerTest.java|,8,10,12,2007-08-07 16:03:14 +0000,2007-09-26 11:57:37 +0000,bb9a00bf0bb51c6d8ed30c8c3db9fc5f03a4ae85,servicemix3
SM-1262,2008-03-05 15:41:56 +0000,core/servicemix-core/src/main/java/org/apache/servicemix/jbi/container/DeploySupport.java|,12,14,14,2008-03-05 12:32:59 +0000,2008-03-05 15:42:05 +0000,ba975e1649ad3cde07081780f76f3fe058ad66c1,servicemix3
SM-1020,2007-08-08 13:42:47 +0000,archetypes/servicemix-saxon-xquery-service-unit/src/main/resources/archetype-resources/src/main/resources/query.xq|,9,10,10,2007-08-07 14:08:07 +0000,2007-08-08 13:37:33 +0000,6b6dd55155c4c1b32affe50e5f192f32e81c01ee,servicemix3
SM-1026,2007-08-09 12:31:07 +0000,core/servicemix-core/src/main/java/org/apache/servicemix/components/util/TransformComponentSupport.java|,9,10,10,2007-08-09 11:54:55 +0000,2007-08-09 12:28:36 +0000,a590ea1621ffa8dd09eca12d3a56c016ca66c946,servicemix3
SM-1267,2008-03-07 16:45:59 +0000,tooling/jbi-maven-plugin/src/main/java/org/apache/servicemix/maven/plugin/jbi/JbiComponentDescriptorWriter.java|,13,14,14,2008-03-07 10:17:50 +0000,2008-03-07 16:35:52 +0000,7ff1c5146405ee1c944090e3e4f4c47440fc2c54,servicemix3
SM-1024,2007-08-09 05:18:43 +0000,archetypes/servicemix-jms-consumer-service-unit/src/main/resources/archetype-resources/src/main/resources/xbean.xml|archetypes/servicemix-jms-provider-service-unit/src/main/resources/archetype-resources/src/main/resources/xbean.xml|,9,10,10,2007-08-09 05:11:36 +0000,2007-08-09 05:14:02 +0000,b4be8e4ea146b558b6e36704145dd56cb1098925,servicemix3
SM-2129,2011-10-20 11:36:19 +0000,core/servicemix-core/src/main/java/org/apache/servicemix/jbi/framework/DeploymentService.java|,21,29,29,2011-10-20 07:17:08 +0000,2011-10-20 11:34:09 +0000,6ed6f766b34ee1fa03591baea69cae54fe1127f8,servicemix3
SM-1276,2008-03-21 05:42:42 +0000,core/servicemix-core/src/main/java/org/apache/servicemix/jbi/messaging/MessageExchangeSupport.java|deployables/bindingcomponents/servicemix-cxf-bc/src/main/java/org/apache/servicemix/cxfbc/interceptors/JbiConstants.java|deployables/pom.xml|deployables/serviceengines/pom.xml|platforms/geronimo/deployer-service/pom.xml|,12,14,14,2008-03-17 18:16:05 +0000,2008-03-21 05:37:23 +0000,a1eb7ded035d31ffda803574c99ff352d7c146e4,servicemix3
SM-1275,2008-03-21 05:42:13 +0000,core/servicemix-core/src/main/java/org/apache/servicemix/jbi/messaging/MessageExchangeSupport.java|deployables/bindingcomponents/servicemix-cxf-bc/src/main/java/org/apache/servicemix/cxfbc/interceptors/JbiConstants.java|deployables/pom.xml|deployables/serviceengines/pom.xml|platforms/geronimo/deployer-service/pom.xml|,12,14,14,2008-03-17 18:12:00 +0000,2008-03-21 05:37:23 +0000,a1eb7ded035d31ffda803574c99ff352d7c146e4,servicemix3
SM-1038,2007-08-22 15:12:03 +0000,deployables/bindingcomponents/servicemix-http/src/main/java/org/apache/servicemix/http/endpoints/DefaultHttpProviderMarshaler.java|,9,10,10,2007-08-22 07:55:10 +0000,2007-08-22 15:09:59 +0000,8864e208b081121dc31654670e458df666b9e90a,servicemix3
SM-1278,2008-03-18 18:33:11 +0000,deployables/bindingcomponents/servicemix-jms/src/main/java/org/apache/servicemix/jms/endpoints/JmsConsumerEndpoint.java|,12,14,14,2008-03-18 18:26:02 +0000,2008-03-18 18:29:12 +0000,74bf75d851a56d0340c6b49a3d005a9b18a2ccdd,servicemix3
SM-1285,2008-07-28 12:29:10 +0000,deployables/bindingcomponents/servicemix-jms/src/main/java/org/apache/servicemix/jms/multiplexing/MultiplexingConsumerProcessor.java|,13,14,14,2008-03-25 12:53:10 +0000,2008-03-26 09:26:11 +0000,612db6ceb935d99f1a45c5114533ae3af18f4002,servicemix3
SM-1043,2007-09-04 20:11:56 +0000,deployables/bindingcomponents/servicemix-ftp/src/main/java/org/apache/servicemix/ftp/FtpPollerEndpoint.java|,9,10,10,2007-08-27 14:21:45 +0000,2007-09-04 20:09:42 +0000,8e4519ceef3405aa257fb530b1b51125c0881108,servicemix3
SM-1042,2007-08-27 14:19:02 +0000,core/servicemix-core/src/main/java/org/apache/servicemix/jbi/management/BaseStandardMBean.java|,9,10,10,2007-08-27 14:08:03 +0000,2007-08-27 14:17:49 +0000,2f48c33fcb8f708699f25b9a2358bc289f5145da,servicemix3
SM-2137,2011-12-12 22:21:09 +0000,distributions/apache-servicemix-web/src/main/webapp/WEB-INF/web.xml|,21,29,29,2011-12-06 11:47:54 +0000,2011-12-12 22:19:02 +0000,c49072edb707e5150ea5a52dbc543b29d33e7f83,servicemix3
SM-1283,2008-03-21 05:42:42 +0000,core/servicemix-core/src/main/java/org/apache/servicemix/jbi/messaging/MessageExchangeSupport.java|deployables/bindingcomponents/servicemix-cxf-bc/src/main/java/org/apache/servicemix/cxfbc/interceptors/JbiConstants.java|deployables/pom.xml|deployables/serviceengines/pom.xml|platforms/geronimo/deployer-service/pom.xml|,13,14,14,2008-03-20 13:38:21 +0000,2008-03-21 05:37:23 +0000,a1eb7ded035d31ffda803574c99ff352d7c146e4,servicemix3
SM-1915,2009-11-16 09:28:06 +0000,core/servicemix-core/src/main/java/org/apache/servicemix/jbi/jmx/ConnectorServerFactoryBean.java|,15,19,19,2009-11-15 21:54:53 +0000,2009-12-15 15:51:03 +0000,a7e00dd856ad3eac3ab4e73135a036e6112998fb,servicemix3
SM-1926,2010-02-25 03:25:47 +0000,core/servicemix-core/src/main/java/org/apache/servicemix/jbi/monitoring/StatisticsService.java|,18,21,21,2010-01-20 16:43:21 +0000,2010-02-25 03:23:17 +0000,56153fa3ea1b21883c06a99ecc931b646660a8b0,servicemix3
SM-1925,2010-01-12 20:43:27 +0000,core/servicemix-core/src/test/java/org/apache/servicemix/jbi/security/SpringSecuredRemoteBrokerTest.java|core/servicemix-core/src/test/resources/org/apache/servicemix/jbi/security/secure2.xml|,15,20,20,2010-01-11 20:51:03 +0000,2010-01-12 20:41:42 +0000,606f4bce0b118e0c7d4c74fcb9a3b98b85354703,servicemix3
SM-1924,2010-01-07 07:53:05 +0000,pom.xml|,18,20,20,2010-01-07 07:06:49 +0000,2010-01-07 07:50:23 +0000,70d9f78c00c66ed54b63651242589f5cce8c8ca1,servicemix3
SM-271,2006-02-03 19:40:49 +0000,servicemix-core/src/main/java/org/apache/servicemix/jbi/servicedesc/InternalEndpoint.java|servicemix-core/src/test/java/org/apache/servicemix/jbi/framework/ComponentPacketTest.java|,3,4,4,2006-01-24 15:59:53 +0000,2006-02-03 17:36:18 +0000,97f7d7e70a241692653eb8ed8b43edce3a3f5d16,servicemix3
SM-266,2006-01-18 21:32:20 +0000,servicemix-core/src/main/java/org/apache/servicemix/jbi/util/FileUtil.java|servicemix-core/src/test/java/org/apache/servicemix/jbi/util/FileUtilTest.java|,3,4,4,2006-01-18 16:12:46 +0000,2006-01-18 21:26:15 +0000,846aa6e653025842d4c0f0d0373f445ac729ba73,servicemix3
SM-499,2006-07-26 21:44:58 +0000,servicemix-common/src/main/java/org/apache/servicemix/common/wsdl1/JbiEndpointSerializer.java|servicemix-common/src/main/java/org/apache/servicemix/common/wsdl1/JbiExtension.java|servicemix-components/src/main/java/org/apache/servicemix/components/http/HttpInvoker.java|servicemix-components/src/main/java/org/apache/servicemix/components/http/HttpsInvoker.java|servicemix-http/src/main/java/org/apache/servicemix/http/HttpEndpoint.java|servicemix-http/src/main/java/org/apache/servicemix/http/processors/ConsumerProcessor.java|servicemix-http/src/main/java/org/apache/servicemix/http/processors/ProviderProcessor.java|servicemix-http/src/main/java/org/apache/servicemix/http/tools/PortTypeDecorator.java|servicemix-http/src/test/java/org/apache/servicemix/http/HttpConsumerTest.java|servicemix-http/src/test/java/org/apache/servicemix/http/HttpManagedTest.java|servicemix-http/src/test/java/org/apache/servicemix/http/HttpSoapTest.java|servicemix-http/src/test/java/org/apache/servicemix/http/security/HttpSecurityTest.java|servicemix-soap/src/main/java/org/apache/servicemix/soap/SoapEndpoint.java|,4,6,6,2006-07-25 15:29:22 +0000,2006-07-26 21:20:14 +0000,a7be1ae5483f8e371d18ebb9df359f55e50af232,servicemix3
SM-494,2006-09-26 13:04:18 +0000,servicemix-core/src/main/java/org/apache/servicemix/jbi/container/JBIContainer.java|,4,6,7,2006-07-24 10:04:32 +0000,2006-09-26 13:07:14 +0000,e407bd5d7938749a1be141ee8cef62f0375ba02e,servicemix3
SM-490,2006-07-24 07:44:13 +0000,servicemix-core/src/main/java/org/apache/servicemix/JbiConstants.java|,4,6,6,2006-07-19 19:31:12 +0000,2006-07-24 07:45:09 +0000,09fa2e898f132d7838c8d25b13f38606f43f8cae,servicemix3
SM-482,2006-09-21 07:07:44 +0000,LICENSE|pom.xml|servicemix-bpe/pom.xml|servicemix-bpe/src/main/jbi/META-INF/LICENSE|,5,6,7,2006-07-04 08:40:59 +0000,2006-09-21 07:10:14 +0000,e516c48cb1ae0a0c3bfebebcdfdbe63b61a01ed8,servicemix3
SM-477,2006-07-24 10:29:10 +0000,servicemix-http/src/main/java/org/apache/servicemix/http/processors/ConsumerProcessor.java|servicemix-http/src/test/java/org/apache/servicemix/http/HttpManagedTest.java|,5,5,6,2006-06-30 17:45:48 +0000,2006-07-24 10:30:19 +0000,711353a635a29f6fa5e04de36090e18b2714cd5d,servicemix3
SM-340,2006-03-07 01:32:04 +0000,servicemix-core/src/main/java/org/apache/servicemix/jbi/loaders/InstallationClassLoader.java|,3,4,4,2006-03-06 16:37:52 +0000,2006-03-06 23:29:03 +0000,7d0b319f73f0096bfafc00b2a5d343788d370acf,servicemix3
SM-584,2006-12-29 10:52:54 +0000,deployables/bindingcomponents/servicemix-http/src/main/jbi/META-INF/jboss-web.xml|,6,7,8,2006-09-19 13:43:52 +0000,2006-12-29 10:51:07 +0000,befd8f958484acb1b08e0a19aad73d21e0accfe4,servicemix3
SM-342,2006-03-07 18:49:51 +0000,servicemix-core/src/main/java/org/apache/servicemix/jbi/loaders/InstallationClassLoader.java|servicemix-core/src/main/java/org/apache/servicemix/jbi/loaders/ParentFirstClassLoader.java|servicemix-core/src/main/java/org/apache/servicemix/jbi/loaders/SelfFirstClassLoader.java|,3,4,4,2006-03-07 18:35:28 +0000,2006-03-07 16:46:44 +0000,c06ee25a1abbe59362da2721bdfff74b07d55484,servicemix3
SM-1972,2010-08-20 13:12:29 +0000,.gitignore|distributions/apache-servicemix/pom.xml|distributions/apache-servicemix/src/main/assembly/unix-bin.xml|distributions/apache-servicemix/src/main/assembly/windows-bin.xml|pom.xml|samples/bridge/bridge-sa-itest/pom.xml|,21,22,22,2010-08-20 09:18:56 +0000,2010-08-20 13:09:08 +0000,a17c496b9f087d35b3b4f8909de27e5155110c05,servicemix3
SM-337,2006-03-07 01:23:39 +0000,servicemix-components/src/test/resources/org/apache/servicemix/components/email/example.xml|servicemix-core/src/main/java/org/apache/servicemix/jbi/audit/AbstractAuditor.java|servicemix-core/src/main/java/org/apache/servicemix/jbi/audit/jdbc/JdbcAuditor.java|servicemix-core/src/main/java/org/apache/servicemix/jbi/audit/lucene/LuceneAuditor.java|servicemix-core/src/main/java/org/apache/servicemix/jbi/container/JBIContainer.java|servicemix-core/src/main/java/org/apache/servicemix/jbi/container/SubscriptionSpec.java|servicemix-core/src/main/java/org/apache/servicemix/jbi/event/ComponentAdapter.java|servicemix-core/src/main/java/org/apache/servicemix/jbi/event/ComponentEvent.java|servicemix-core/src/main/java/org/apache/servicemix/jbi/event/ComponentListener.java|servicemix-core/src/main/java/org/apache/servicemix/jbi/event/EndpointAdapter.java|servicemix-core/src/main/java/org/apache/servicemix/jbi/event/EndpointEvent.java|servicemix-core/src/main/java/org/apache/servicemix/jbi/event/EndpointListener.java|servicemix-core/src/main/java/org/apache/servicemix/jbi/event/ExchangeEvent.java|servicemix-core/src/main/java/org/apache/servicemix/jbi/event/ExchangeListener.java|servicemix-core/src/main/java/org/apache/servicemix/jbi/event/ServiceAssemblyAdapter.java|servicemix-core/src/main/java/org/apache/servicemix/jbi/event/ServiceAssemblyEvent.java|servicemix-core/src/main/java/org/apache/servicemix/jbi/event/ServiceAssemblyListener.java|servicemix-core/src/main/java/org/apache/servicemix/jbi/event/ServiceUnitAdapter.java|servicemix-core/src/main/java/org/apache/servicemix/jbi/event/ServiceUnitEvent.java|servicemix-core/src/main/java/org/apache/servicemix/jbi/event/ServiceUnitListener.java|servicemix-core/src/main/java/org/apache/servicemix/jbi/framework/ComponentConnector.java|servicemix-core/src/main/java/org/apache/servicemix/jbi/framework/ComponentContextImpl.java|servicemix-core/src/main/java/org/apache/servicemix/jbi/framework/ComponentMBeanImpl.java|servicemix-core/src/main/java/org/apache/servicemix/jbi/framework/ComponentPacket.java|servicemix-core/src/main/java/org/apache/servicemix/jbi/framework/ComponentPacketEvent.java|servicemix-core/src/main/java/org/apache/servicemix/jbi/framework/ComponentRegistry.java|servicemix-core/src/main/java/org/apache/servicemix/jbi/framework/DeploymentService.java|servicemix-core/src/main/java/org/apache/servicemix/jbi/framework/Endpoint.java|servicemix-core/src/main/java/org/apache/servicemix/jbi/framework/EndpointRegistry.java|servicemix-core/src/main/java/org/apache/servicemix/jbi/framework/LocalComponentConnector.java|servicemix-core/src/main/java/org/apache/servicemix/jbi/framework/Registry.java|servicemix-core/src/main/java/org/apache/servicemix/jbi/framework/ServiceAssemblyLifeCycle.java|servicemix-core/src/main/java/org/apache/servicemix/jbi/framework/ServiceAssemblyRegistry.java|servicemix-core/src/main/java/org/apache/servicemix/jbi/framework/ServiceUnitLifeCycle.java|servicemix-core/src/main/java/org/apache/servicemix/jbi/messaging/DeliveryChannelImpl.java|servicemix-core/src/main/java/org/apache/servicemix/jbi/nmr/Broker.java|servicemix-core/src/main/java/org/apache/servicemix/jbi/nmr/flow/AbstractFlow.java|servicemix-core/src/main/java/org/apache/servicemix/jbi/nmr/flow/jca/JCAFlow.java|servicemix-core/src/main/java/org/apache/servicemix/jbi/nmr/flow/jms/JMSFlow.java|servicemix-core/src/main/java/org/apache/servicemix/jbi/nmr/flow/seda/SedaFlow.java|servicemix-core/src/main/java/org/apache/servicemix/jbi/servicedesc/AbstractServiceEndpoint.java|servicemix-core/src/main/java/org/apache/servicemix/jbi/servicedesc/InternalEndpoint.java|servicemix-core/src/main/java/org/apache/servicemix/jbi/servicedesc/LinkedEndpoint.java|servicemix-core/src/test/components/logger-component-1.0-exploded.jar/META-INF/jbi.xml|servicemix-core/src/test/java/org/apache/servicemix/jbi/framework/ComponentPacketTest.java|servicemix-core/src/test/java/org/apache/servicemix/jbi/installation/DeploymentTest.java|servicemix-core/src/test/java/org/apache/servicemix/jbi/management/ManagementAttributesTest.java|servicemix-core/src/test/java/org/apache/servicemix/jbi/management/ManagementContextTest.java|servicemix-core/src/test/java/org/apache/servicemix/jbi/nmr/ConnectionsTest.java|servicemix-core/src/test/java/org/apache/servicemix/jbi/nmr/flow/jms/JMSFlowTest.java|servicemix-core/src/test/java/org/apache/servicemix/jbi/nmr/flow/jms/MultipleJMSFlowTest.java|servicemix-core/src/test/java/org/apache/servicemix/jbi/servicedesc/InternalEndpointTest.java|,3,4,4,2006-03-01 14:05:52 +0000,2006-03-06 23:19:33 +0000,b9185d55292d0ae72c631125e06b3a96d2870728,servicemix3
SM-576,2006-09-26 11:36:45 +0000,servicemix-core/src/main/java/org/apache/servicemix/jbi/config/spring/XBeanProcessor.java|,6,7,7,2006-09-12 11:47:19 +0000,2006-09-26 11:39:29 +0000,3c72a4815ca3079471a19f2f43d3e9ab6f3b4434,servicemix3
SM-1504,2008-08-08 08:22:24 +0000,pom.xml|,14,15,15,2008-08-07 13:13:01 +0000,2008-08-08 08:18:54 +0000,075f5a0972e4ebffb43774ad1791210d90b81045,servicemix3
SM-1749,2009-03-02 20:42:23 +0000,core/servicemix-core/src/main/java/org/apache/servicemix/jbi/framework/ComponentContextImpl.java|,15,16,16,2008-12-23 17:00:24 +0000,2009-03-02 20:42:44 +0000,8a9788a63a75c18c8fa332d4b42ececf4cd124f8,servicemix3
SM-571,2006-09-11 12:55:00 +0000,servicemix-core/src/main/java/org/apache/servicemix/jbi/messaging/DeliveryChannelImpl.java|,6,7,7,2006-09-11 11:25:27 +0000,2006-09-11 12:56:05 +0000,bbf5ced3b4bbdbe3297b429e2f480e4821f8ed9e,servicemix3
SM-572,2006-09-11 12:54:27 +0000,servicemix-wsn2005/src/main/java/org/apache/servicemix/wsn/AbstractNotificationBroker.java|,5,7,7,2006-09-11 12:43:42 +0000,2006-09-11 12:56:48 +0000,3ac824032f51f007b24b2e8f12431c52fdca9045,servicemix3
SM-331,2007-03-12 15:32:29 +0000,common/servicemix-components/src/main/java/org/apache/servicemix/components/jabber/JabberComponentSupport.java|,3,4,9,2006-02-24 18:27:17 +0000,2007-03-12 15:25:49 +0000,c0ead4835baf77f94f76e9b380459c9350c86d2b,servicemix3
SM-570,2006-09-25 11:11:32 +0000,servicemix-components/src/main/java/org/apache/servicemix/components/http/HttpBindingSupport.java|,5,7,7,2006-09-08 22:14:24 +0000,2006-09-25 11:14:45 +0000,92609ee15821c919671fa0bff5d561706723560a,servicemix3
SM-566,2006-09-07 11:49:40 +0000,servicemix-components/src/main/java/org/apache/servicemix/components/jms/JmsInUsingJCABinding.java|servicemix-components/src/main/java/org/apache/servicemix/components/jms/JmsReceiverComponent.java|servicemix-components/src/main/java/org/apache/servicemix/components/jms/JmsServiceComponent.java|,5,6,6,2006-09-07 02:31:43 +0000,2006-09-07 11:51:33 +0000,76d9b8f750c3e0f01a4bdbb12fbf510dee22c21a,servicemix3
SM-1757,2009-01-11 19:22:46 +0000,common/servicemix-components/src/test/java/org/apache/servicemix/components/groovy/ServiceMixClientTest.java|core/servicemix-core/src/main/java/org/apache/servicemix/components/util/TransformComponentSupport.java|core/servicemix-core/src/test/java/org/apache/servicemix/jbi/framework/RegistryTest.java|,15,16,16,2009-01-07 04:57:06 +0000,2009-01-11 19:20:40 +0000,8a6de3fb27109f502f13c62794397f57e8c912ec,servicemix3
SM-560,2006-08-28 16:17:51 +0000,servicemix-core/src/main/java/org/apache/servicemix/jbi/servicedesc/EndpointReferenceBuilder.java|servicemix-core/src/test/java/org/apache/servicemix/jbi/servicedesc/EndpointReferenceBuilderTest.java|,5,6,6,2006-08-28 15:57:25 +0000,2006-08-28 16:18:06 +0000,5754d998d78a378188329c6529b452217c9d840b,servicemix3
SM-1995,2011-09-22 02:44:22 +0000,pom.xml|,21,23,28,2010-09-21 16:43:58 +0000,2011-09-22 02:22:53 +0000,af25877f4c10f4c3ace254cd74b225f89d2d29d9,servicemix3
SM-553,2006-08-23 21:09:11 +0000,servicemix-core/src/main/java/org/apache/servicemix/jbi/messaging/MessageExchangeImpl.java|,5,6,6,2006-08-23 18:29:18 +0000,2006-08-23 19:26:29 +0000,b7a662bf1d15beff76239919abf068df60b1e72a,servicemix3
SM-554,2006-08-23 19:34:26 +0000,servicemix-common/src/main/java/org/apache/servicemix/common/AbstractDeployer.java|,5,6,6,2006-08-23 19:31:54 +0000,2006-08-23 19:34:54 +0000,903dd75fca0fc57df74b8cdab334e60df9c79437,servicemix3
SM-798,2007-01-11 09:21:37 +0000,platforms/geronimo/pom.xml|platforms/geronimo/servicemix/pom.xml|,7,8,8,2007-01-01 09:47:10 +0000,2007-01-11 09:20:01 +0000,295b7cca39b368dc78be811a6de188405ad174da,servicemix3
SM-1766,2009-01-15 02:00:35 +0000,samples/servicemix-web/src/main/java/org/apache/servicemix/web/http/HttpManagedServlet.java|samples/servicemix-web/src/webapp/WEB-INF/web.xml|,15,16,16,2009-01-14 16:38:00 +0000,2009-01-15 01:58:20 +0000,75820c791c7cf9e21f23fed6bf9c3ce96063f514,servicemix3
SM-791,2006-12-22 09:57:41 +0000,tooling/jbi-maven-plugin/src/main/java/org/apache/servicemix/maven/plugin/jbi/AbstractJbiMojo.java|tooling/jbi-maven-plugin/src/main/java/org/apache/servicemix/maven/plugin/jbi/GraphArtifactCollector.java|tooling/jbi-maven-plugin/src/main/java/org/apache/servicemix/maven/plugin/jbi/JbiResolutionListener.java|,6,8,8,2006-12-20 14:04:52 +0000,2006-12-22 09:56:29 +0000,53d654dacc49b4fbcd7ae6d6a54b68235d713775,servicemix3
SM-793,2006-12-28 22:02:07 +0000,deployables/bindingcomponents/servicemix-jms/src/main/java/org/apache/servicemix/jms/standard/StandardProviderProcessor.java|,7,8,8,2006-12-22 14:00:39 +0000,2006-12-28 22:00:45 +0000,415d00efb33a7c24e49873d6d95a34e1ac07553e,servicemix3
SM-551,2006-08-23 14:57:57 +0000,servicemix-http/src/main/java/org/apache/servicemix/http/HttpEndpoint.java|servicemix-http/src/test/java/org/apache/servicemix/http/HttpWsdlTest.java|,5,6,6,2006-08-23 14:23:20 +0000,2006-08-23 15:00:06 +0000,dfdc8f8da4e23e3f4de77e01a44e6dd6dd2c76b1,servicemix3
SM-794,2006-12-27 12:13:53 +0000,deployables/serviceengines/servicemix-jsr181/src/main/java/org/apache/servicemix/jsr181/xfire/JbiChannel.java|deployables/serviceengines/servicemix-jsr181/src/main/java/org/apache/servicemix/jsr181/xfire/JbiProxy.java|deployables/serviceengines/servicemix-jsr181/src/main/java/org/apache/servicemix/jsr181/xfire/JbiProxyFactoryBean.java|,6,8,8,2006-12-27 11:03:58 +0000,2006-12-27 12:09:58 +0000,e76d329925da05975e2b8a052aa84f7680265b36,servicemix3
SM-1761,2009-01-12 10:51:03 +0000,core/servicemix-core/src/main/java/org/apache/servicemix/jbi/nmr/flow/jms/AbstractJMSFlow.java|,15,16,16,2009-01-12 09:18:51 +0000,2009-01-12 10:44:59 +0000,dd3a48987680f7545fcdbbcbe487bb37e464857c,servicemix3
SM-547,2006-08-17 17:12:21 +0000,servicemix-common/src/main/java/org/apache/servicemix/common/AbstractDeployer.java|servicemix-common/src/main/java/org/apache/servicemix/common/ManagementSupport.java|servicemix-common/src/main/java/org/apache/servicemix/common/xbean/AbstractXBeanDeployer.java|,5,6,6,2006-08-17 17:09:02 +0000,2006-08-17 17:14:03 +0000,870e2d43315b5f4a1c0673e4283be5eede2a67c3,servicemix3
SM-549,2006-08-20 19:02:13 +0000,servicemix-components/src/main/java/org/apache/servicemix/components/quartz/QuartzComponent.java|,5,6,6,2006-08-20 18:56:17 +0000,2006-08-20 19:03:26 +0000,af10328d30eaaf6013dcd0838230959f5a06949c,servicemix3
SM-542,2006-08-16 02:25:51 +0000,servicemix-bpe/src/main/java/org/apache/servicemix/bpe/BPEDeployer.java|servicemix-bpe/src/main/java/org/apache/servicemix/bpe/BPEServiceUnit.java|servicemix-bpe/src/main/java/org/apache/servicemix/bpe/BPESpringComponent.java|,5,6,6,2006-08-15 07:28:12 +0000,2006-08-16 02:28:10 +0000,d4fcda4f25928f4ee44a9b7c4dbaed0d3e21ed3f,servicemix3
SM-785,2006-12-19 14:01:24 +0000,core/servicemix-services/src/main/java/org/apache/servicemix/jdbc/adapter/DefaultJDBCAdapter.java|,6,8,8,2006-12-19 13:48:57 +0000,2006-12-19 14:00:17 +0000,aa871c7398a2939aa5209d9df371ca1ba313a8af,servicemix3
SM-1933,2010-02-19 03:43:05 +0000,samples/basic/pom.xml|samples/bridge-camel/pom.xml|samples/bridge/pom.xml|samples/camel/pom.xml|samples/cxf-wsdl-first/pom.xml|samples/database-bean/pom.xml|samples/loan-broker/pom.xml|samples/servicemix-web/pom.xml|samples/ws-sec/pom.xml|samples/wsdl-first/pom.xml|,18,21,21,2010-02-19 03:21:53 +0000,2010-02-19 03:37:42 +0000,b36fb63b3338c68ae9112da341e972adf04a9476,servicemix3
SM-1935,2010-04-03 07:41:26 +0000,distributions/apache-servicemix/pom.xml|distributions/apache-servicemix/src/main/assembly/unix-bin.xml|distributions/apache-servicemix/src/main/assembly/windows-bin.xml|pom.xml|,18,21,21,2010-02-24 09:58:43 +0000,2010-04-03 07:41:16 +0000,c813a1deff6098392050961bbd53740df980d5df,servicemix3
SM-781,2006-12-29 11:15:52 +0000,common/servicemix-components/src/main/java/org/apache/servicemix/components/script/ScriptComponent.java|common/servicemix-components/src/test/resources/org/apache/servicemix/components/groovy/groovy-chain.xml|common/servicemix-components/src/test/resources/org/apache/servicemix/components/groovy/script.groovy|,6,8,8,2006-12-18 13:05:41 +0000,2006-12-29 11:14:34 +0000,acf29d2339bf89bc3bdbc5baedf481db916aacd5,servicemix3
SM-783,2007-01-11 20:25:17 +0000,common/servicemix-components/pom.xml|common/servicemix-components/src/main/java/org/apache/servicemix/components/groovy/GroovyComponent.java|common/servicemix-components/src/main/java/org/apache/servicemix/components/script/ScriptComponent.java|,6,8,8,2006-12-18 23:20:22 +0000,2007-01-11 20:23:43 +0000,1659a59069573c859d8c03e7817107627226fc1c,servicemix3
SM-779,2006-12-22 08:01:08 +0000,pom.xml|,7,8,8,2006-12-15 08:57:46 +0000,2006-12-22 07:59:19 +0000,013aa4580799e210673afe6957cdebf8659a310c,servicemix3
SM-775,2006-12-13 16:33:35 +0000,deployables/serviceengines/servicemix-eip/src/main/java/org/apache/servicemix/eip/patterns/Pipeline.java|deployables/serviceengines/servicemix-eip/src/test/java/org/apache/servicemix/eip/PipelineTest.java|,6,8,8,2006-12-13 15:51:23 +0000,2006-12-19 11:10:02 +0000,aa9bd0fe84e4406315c2ef5ab1723f6e82ac497c,servicemix3
SM-1942,2010-03-26 14:18:59 +0000,distributions/apache-servicemix/pom.xml|distributions/apache-servicemix/src/main/assembly/unix-bin.xml|distributions/apache-servicemix/src/main/assembly/windows-bin.xml|,18,21,21,2010-03-23 08:43:20 +0000,2010-03-26 14:18:49 +0000,38868f7e18b501b1bcb24fe4a29573085f3427ea,servicemix3
SM-1941,2010-03-24 18:33:51 +0000,distributions/apache-servicemix/pom.xml|pom.xml|,18,21,21,2010-03-23 08:40:14 +0000,2010-03-24 12:15:47 +0000,ba886861e55d4356490ab34f58211db92684cf83,servicemix3
SM-771,2006-12-13 10:09:00 +0000,deployables/bindingcomponents/servicemix-http/src/main/java/org/apache/servicemix/http/HttpComponent.java|,7,8,8,2006-12-11 20:35:36 +0000,2006-12-13 10:07:57 +0000,5358e219e5d89221607a00864e2130ef363b9541,servicemix3
SM-1940,2010-03-26 12:28:13 +0000,distributions/apache-servicemix/pom.xml|,18,21,21,2010-03-23 08:39:15 +0000,2010-03-26 12:27:49 +0000,d89c858a6b85e931e573db30e0d4ce7dc9e3dc61,servicemix3
SM-766,2006-12-05 21:26:01 +0000,deployables/serviceengines/servicemix-jsr181/src/main/java/org/apache/servicemix/jsr181/Jsr181ExchangeProcessor.java|deployables/serviceengines/servicemix-jsr181/src/test/java/org/apache/servicemix/jsr181/Jsr181ComplexPojoTest.java|,7,8,8,2006-12-05 18:26:19 +0000,2006-12-05 21:24:46 +0000,e3e83da92a02bad35efe471bb3f2ba804a4d3ddc,servicemix3
SM-765,2006-12-02 09:36:59 +0000,deployables/bindingcomponents/servicemix-jms/src/main/java/org/apache/servicemix/jms/jca/JcaProviderProcessor.java|,6,8,8,2006-12-02 09:36:02 +0000,2006-12-02 09:36:06 +0000,014377d5593bf8f2440ef54189c3b3611c04d94c,servicemix3
SM-1939,2010-03-26 14:36:14 +0000,RELEASE-NOTES|,18,21,21,2010-03-23 08:36:21 +0000,2010-03-26 14:36:05 +0000,6b01034b1d6bfaf5775504bdd32a4fbb98f485e5,servicemix3
SM-1713,2008-12-10 18:59:09 +0000,pom.xml|,15,16,16,2008-12-01 22:58:06 +0000,2008-12-10 18:58:25 +0000,a3b976ed47ef1968ccae122f2f52fe4a828d6cb9,servicemix3
SM-1712,2008-12-08 09:53:50 +0000,core/servicemix-core/src/main/java/org/apache/servicemix/jbi/messaging/DeliveryChannelImpl.java|,15,16,16,2008-12-01 18:43:11 +0000,2008-12-08 09:50:31 +0000,1d8b0fc1bdacd10e3e0226f0c87d935e21c5cf00,servicemix3
SM-1958,2010-07-19 12:16:44 +0000,distributions/apache-servicemix/src/main/assembly/unix-bin.xml|distributions/apache-servicemix/src/main/assembly/windows-bin.xml|pom.xml|,21,22,22,2010-06-27 17:25:41 +0000,2010-07-19 12:16:00 +0000,e89825673054ede05e5ca6e05e0eb418e7a00a2f,servicemix3
SM-757,2006-12-02 09:34:53 +0000,deployables/serviceengines/servicemix-eip/src/main/java/org/apache/servicemix/eip/patterns/Pipeline.java|,7,8,8,2006-11-24 10:20:10 +0000,2006-12-02 09:33:54 +0000,d6d6c01c570a9657f52fe2824844b49612140f5d,servicemix3
SM-515,2006-08-10 18:55:49 +0000,servicemix-core/src/main/java/org/apache/servicemix/jbi/jaxp/StringSource.java|,5,6,6,2006-08-07 07:05:25 +0000,2006-08-10 18:56:45 +0000,414dd2bf9ac63846607e7b5ff07a43f2bdd1c485,servicemix3
SM-516,2006-08-07 07:19:31 +0000,servicemix-eip/src/main/java/org/apache/servicemix/eip/support/MessageUtil.java|,5,6,6,2006-08-07 07:06:25 +0000,2006-08-07 07:20:09 +0000,9cf1d885436a3d7d9adb59a073e4fe1d3fe1312a,servicemix3
SM-511,2006-08-07 09:51:03 +0000,pom.xml|,5,6,6,2006-08-04 15:07:05 +0000,2006-08-07 09:33:48 +0000,7cfb5afef08097e60091ab22df515c66e1bbae88,servicemix3
SM-754,2006-11-23 14:54:10 +0000,deployables/serviceengines/servicemix-jsr181/pom.xml|,6,8,8,2006-11-23 14:39:09 +0000,2006-11-23 15:54:47 +0000,f709566dc0246aa2ed219185e3822f4ed2e4bd35,servicemix3
SM-759,2006-11-28 13:56:24 +0000,deployables/serviceengines/servicemix-jsr181/src/main/java/org/apache/servicemix/jsr181/xfire/JbiChannel.java|,6,8,8,2006-11-28 13:50:39 +0000,2006-11-28 13:54:51 +0000,7dcf067b1762318691f4b9ae3a30cfd904b4e799,servicemix3
SM-502,2006-07-31 18:23:36 +0000,servicemix-jms/src/main/java/org/apache/servicemix/jms/multiplexing/MultiplexingProviderProcessor.java|servicemix-jms/src/main/java/org/apache/servicemix/jms/standard/StandardProviderProcessor.java|,4,6,6,2006-07-27 14:47:27 +0000,2006-07-31 18:25:00 +0000,09183ec6aeaf92fa6b9ea97da370ecbb0f3193d7,servicemix3
SM-503,2006-07-31 14:33:25 +0000,servicemix-http/src/main/java/org/apache/servicemix/http/processors/ConsumerProcessor.java|servicemix-http/src/main/java/org/apache/servicemix/http/processors/ProviderProcessor.java|servicemix-http/src/test/java/org/apache/servicemix/http/HttpSoapTest.java|,4,6,6,2006-07-28 08:26:07 +0000,2006-07-31 14:34:49 +0000,7d0b3fb902b683ffb7f735a18a6ddca707271007,servicemix3
SM-746,2006-11-13 18:56:17 +0000,deployables/bindingcomponents/servicemix-http/src/main/java/org/apache/servicemix/http/jetty/JettyContextManager.java|,4,7,7,2006-11-13 18:34:04 +0000,2006-11-13 18:50:18 +0000,ae4a8f2883ccb35c43fdc67a1c6f2346471ec297,servicemix3
SM-505,2006-07-28 23:54:57 +0000,servicemix-core/src/main/java/org/apache/servicemix/jbi/messaging/DeliveryChannelImpl.java|servicemix-core/src/test/java/org/apache/servicemix/jbi/messaging/DeliveryChannelImplTest.java|,5,6,6,2006-07-28 23:52:19 +0000,2006-07-28 23:56:09 +0000,04ba6d2d26202ced082e61d5674dfabd513c5b2d,servicemix3
SM-981,2007-09-27 14:29:13 +0000,deployables/bindingcomponents/servicemix-jms/src/main/java/org/apache/servicemix/jms/jca/JcaProviderProcessor.java|,8,9,12,2007-06-26 07:43:03 +0000,2007-09-27 14:23:19 +0000,21bbc5855f9c51851670aa5104d34cafa66f1639,servicemix3
SM-972,2007-06-26 12:29:58 +0000,common/servicemix-soap/src/main/java/org/apache/servicemix/soap/handlers/security/WSSecurityHandler.java|,8,9,9,2007-06-22 09:15:52 +0000,2007-06-25 11:33:15 +0000,2f3ef64a7920aa5a130854131c7abda886723f99,servicemix3
SM-732,2006-11-12 04:48:40 +0000,deployables/serviceengines/servicemix-jsr181/src/main/java/org/apache/servicemix/jsr181/xfire/JbiChannel.java|,6,7,7,2006-11-01 17:48:23 +0000,2006-11-12 04:45:17 +0000,2b97149feebff0c2ebd4b975ab98fa6b9ad0f58e,servicemix3
SM-738,2006-12-13 14:55:47 +0000,tooling/jbi-maven-plugin/src/main/java/org/apache/servicemix/maven/plugin/jbi/JbiServiceAssemblyDescriptorWriter.java|,6,7,8,2006-11-08 00:37:00 +0000,2006-12-13 14:47:31 +0000,fd489b798c3c8b192fa9a61a83f941824fde1cc9,servicemix3
SM-739,2006-12-13 10:01:50 +0000,deployables/serviceengines/servicemix-jsr181/src/test/java/org/apache/servicemix/jsr181/Jsr181ComplexTypeTest.java|deployables/serviceengines/servicemix-jsr181/src/test/java/test/complex/OrderService.java|deployables/serviceengines/servicemix-jsr181/src/test/java/test/complex/OrderServiceImpl.java|deployables/serviceengines/servicemix-jsr181/src/test/java/test/complex/model/Cart.java|deployables/serviceengines/servicemix-jsr181/src/test/java/test/complex/model/OrderConfirmation.java|deployables/serviceengines/servicemix-jsr181/src/test/java/test/complex/model/OrderItem.java|,6,7,8,2006-11-08 18:59:40 +0000,2006-12-13 09:59:29 +0000,59898fc3719f8758ddc353b5cca4951c636a1306,servicemix3
SM-722,2006-10-27 12:14:07 +0000,servicemix-core/src/main/java/org/apache/servicemix/jbi/jaxp/StaxSource.java|servicemix-core/src/test/java/org/apache/servicemix/jbi/jaxp/StaxSourceTest.java|,6,7,7,2006-10-26 14:53:39 +0000,2006-10-27 12:08:57 +0000,73acfcbad48910cdf3b02fad97e9472b804a620b,servicemix3
SM-723,2006-10-26 15:37:21 +0000,servicemix-core/src/main/java/org/apache/servicemix/client/ServiceMixClientFacade.java|,6,7,7,2006-10-26 15:19:01 +0000,2006-10-26 15:36:55 +0000,b801831f7fe3fc1bf51ca84df6d0f0afa1377b25,servicemix3
SM-721,2006-11-08 13:37:14 +0000,tooling/jbi-maven-plugin/src/main/java/org/apache/servicemix/maven/plugin/jbi/AbstractDescriptorWriter.java|,6,7,7,2006-10-24 17:29:18 +0000,2006-11-08 13:34:52 +0000,8e5a315eca16ac0c67e8e30a4229795b06ed3670,servicemix3
SM-727,2006-10-31 13:54:36 +0000,servicemix-common/src/main/java/org/apache/servicemix/common/tools/wsdl/WSDLFlattener.java|,6,7,7,2006-10-31 09:18:47 +0000,2006-10-31 15:34:14 +0000,b498df3d74b261ae0e15aa1f456c0b3fdf83f013,servicemix3
SM-1110,2007-10-20 09:48:26 +0000,deployables/serviceengines/servicemix-bean/src/main/java/org/apache/servicemix/bean/BeanEndpoint.java|deployables/serviceengines/servicemix-bean/src/test/java/org/apache/servicemix/bean/ConsumerListenerTest.java|deployables/serviceengines/servicemix-bean/src/test/java/org/apache/servicemix/bean/beans/ConsumerListener.java|,11,12,12,2007-10-18 18:33:52 +0000,2007-10-20 09:48:00 +0000,14894cdd4c464bee3c073501f5aedd065c242bca,servicemix3
SM-1357,2008-05-18 12:01:43 +0000,web/servicemix-web-console/src/main/webapp/WEB-INF/web.xml|,13,14,14,2008-05-18 11:55:04 +0000,2008-05-18 12:00:11 +0000,3ff63697cd8562ba0cbe18697dfeaff466257bc4,servicemix3
SM-959,2007-05-31 12:48:29 +0000,deployables/bindingcomponents/servicemix-http/src/main/java/org/apache/servicemix/http/jetty/JettyContextManager.java|,8,9,9,2007-05-29 17:26:49 +0000,2007-05-31 12:46:32 +0000,387b78af0bb8039f32991b06bde0bb1a982834df,servicemix3
SM-1122,2007-10-30 20:39:38 +0000,archetypes/servicemix-jsr181-wsdl-first-service-unit/src/main/resources/archetype-resources/pom.xml|,11,12,12,2007-10-30 20:36:31 +0000,2007-10-30 20:37:46 +0000,de91f9e4094f64e95653fa9f550b841776624ac5,servicemix3
SM-945,2007-10-08 09:12:06 +0000,deployables/bindingcomponents/servicemix-http/src/main/java/org/apache/servicemix/http/processors/ConsumerProcessor.java|,8,9,12,2007-05-03 14:02:55 +0000,2007-10-08 09:08:12 +0000,60f5f2e5f2b9f42054cfb78b9a3b95c279929fd4,servicemix3
SM-940,2007-04-27 12:15:27 +0000,deployables/serviceengines/servicemix-jsr181/src/main/java/org/apache/servicemix/jsr181/xfire/JbiChannel.java|deployables/serviceengines/servicemix-jsr181/src/test/java/org/apache/servicemix/jsr181/Jsr181SpringTest.java|deployables/serviceengines/servicemix-jsr181/src/test/java/test/Echo.java|deployables/serviceengines/servicemix-jsr181/src/test/java/test/EchoProxy.java|deployables/serviceengines/servicemix-jsr181/src/test/java/test/EchoService2.java|,8,9,9,2007-04-27 07:25:44 +0000,2007-04-27 07:32:04 +0000,c8bda3311e4d8903a3301851cf7f17b9d0ef508e,servicemix3
SM-941,2007-04-30 11:51:25 +0000,deployables/serviceengines/servicemix-bean/src/main/java/org/apache/servicemix/bean/BeanEndpoint.java|,8,9,9,2007-04-27 13:59:26 +0000,2007-04-27 14:17:29 +0000,c5ff112895ac26c3935161b7dcbb5c16a05478ef,servicemix3
SM-707,2006-10-17 07:20:59 +0000,servicemix-core/src/main/java/org/apache/servicemix/jbi/nmr/DefaultBroker.java|servicemix-core/src/main/java/org/apache/servicemix/jbi/nmr/SubscriptionManager.java|servicemix-core/src/main/java/org/apache/servicemix/jbi/nmr/flow/AbstractFlow.java|,6,7,7,2006-10-13 14:16:46 +0000,2006-10-17 07:20:04 +0000,313bf2659b9a8574bfedba333a02865c56b23a97,servicemix3
SM-930,2007-09-27 15:48:49 +0000,core/servicemix-core/src/main/java/org/apache/servicemix/jbi/framework/ComponentMBeanImpl.java|,8,9,12,2007-04-10 20:22:52 +0000,2007-09-27 15:48:25 +0000,b98e3908951723894ddc23e2eb6ff56f1556db3c,servicemix3
SM-937,2007-07-17 05:52:50 +0000,deployables/bindingcomponents/servicemix-ftp/src/main/java/org/apache/servicemix/ftp/FtpPollerEndpoint.java|,8,9,10,2007-04-16 15:43:18 +0000,2007-07-17 05:50:55 +0000,d55fec5ba40508d4fbf034ea84655e11b8c7d81c,servicemix3
SM-938,2007-05-02 08:24:42 +0000,core/servicemix-core/src/main/java/org/apache/servicemix/jbi/framework/AutoDeploymentService.java|,8,9,9,2007-04-20 09:02:14 +0000,2007-05-02 08:21:33 +0000,1a28cfc9f43a40297f56c57b0eeb873d2b955b73,servicemix3
SM-1303,2008-04-03 08:17:29 +0000,deployables/serviceengines/servicemix-cxf-se/src/main/java/org/apache/servicemix/cxfse/CxfSeEndpoint.java|,13,14,14,2008-04-03 08:01:28 +0000,2008-04-03 08:18:24 +0000,815060767f2e0e2b916b0af28e603b34fdea042b,servicemix3
SM-921,2007-04-06 13:18:52 +0000,deployables/bindingcomponents/servicemix-ftp/src/main/java/org/apache/servicemix/ftp/FTPClientPool.java|,8,9,9,2007-04-04 13:34:01 +0000,2007-04-06 13:18:11 +0000,aeac630056c8b2c22e053ed6b4aa0f871077169f,servicemix3
SM-923,2007-04-06 08:52:08 +0000,web/servicemix-web-console/src/main/java/org/apache/servicemix/web/model/Registry.java|,8,9,9,2007-04-06 08:45:18 +0000,2007-04-06 08:51:46 +0000,c924afdbe0a5947c50732919c692d2d10792a071,servicemix3
SM-928,2007-05-02 13:11:05 +0000,deployables/bindingcomponents/servicemix-http/src/main/java/org/apache/servicemix/http/processors/ProviderProcessor.java|,8,9,9,2007-04-10 10:30:47 +0000,2007-05-02 13:10:55 +0000,9229c041146b4fbe6bfdb2c5bdcbee37d6da2377,servicemix3
SM-1550,2008-09-04 11:56:21 +0000,core/servicemix-core/src/main/java/org/apache/servicemix/jbi/messaging/DeliveryChannelImpl.java|core/servicemix-core/src/test/java/org/apache/servicemix/jbi/messaging/ExchangeListenerTest.java|,14,15,15,2008-09-03 14:46:32 +0000,2008-09-04 11:56:07 +0000,a2877ccb3c32e4a6b57be963769ff09428ac2c12,servicemix3
SM-1791,2009-02-11 11:19:11 +0000,core/servicemix-core/src/main/java/org/apache/servicemix/jbi/framework/InstallerMBeanImpl.java|core/servicemix-core/src/test/java/org/apache/servicemix/jbi/installation/HotDeployTest.java|core/servicemix-core/src/test/java/org/apache/servicemix/jbi/installation/InstallationTest.java|,15,16,16,2009-02-06 14:45:39 +0000,2009-02-09 17:59:15 +0000,9ddad41ecf59600bb1d7e914b1bb4cb4ad6e2808,servicemix3
SM-911,2007-05-02 12:45:47 +0000,common/servicemix-components/pom.xml|common/servicemix-components/src/main/java/org/apache/servicemix/components/jdbc/JdbcComponent.java|common/servicemix-components/src/test/java/org/apache/servicemix/components/jdbc/JdbcComponentTest.java|common/servicemix-components/src/test/java/org/apache/servicemix/components/jdbc/JdbcComponentUniqueNamesTest.java|,8,9,9,2007-03-30 06:43:02 +0000,2007-05-02 12:44:44 +0000,28c2a84810e0083d4e024ec257cc9bbbb089b1d5,servicemix3
SM-914,2007-04-06 11:37:30 +0000,web/servicemix-web-console/src/main/java/org/apache/servicemix/web/view/Dot.java|web/servicemix-web-console/src/main/java/org/apache/servicemix/web/view/DotView.java|web/servicemix-web-console/src/main/webapp/view.jsp|,8,9,9,2007-03-31 01:02:58 +0000,2007-04-06 11:36:34 +0000,efae97a6e4b83c643253610139349a72445f3c95,servicemix3
SM-900,2007-03-28 22:40:39 +0000,common/servicemix-common/src/main/java/org/apache/servicemix/common/tools/wsdl/Schema.java|common/servicemix-common/src/main/java/org/apache/servicemix/common/tools/wsdl/SchemaCollection.java|,8,9,9,2007-03-28 22:38:38 +0000,2007-03-28 22:39:38 +0000,11209f7c0a007707e224dba82d2f3c30fff579cc,servicemix3
SM-902,2007-05-02 11:43:25 +0000,core/servicemix-core/src/main/java/org/apache/servicemix/expression/JAXPXPathExpression.java|core/servicemix-core/src/main/java/org/apache/servicemix/expression/JaxenXPathExpression.java|core/servicemix-core/src/main/java/org/apache/servicemix/jbi/util/MessageUtil.java|,8,9,9,2007-03-28 23:47:05 +0000,2007-05-02 11:43:06 +0000,06669cef10512f2c613a41235cabedeb5709718a,servicemix3
SM-904,2007-03-29 08:39:40 +0000,core/servicemix-core/src/main/java/org/apache/servicemix/jbi/jmx/ConnectorServerFactoryBean.java|,8,9,9,2007-03-29 08:25:19 +0000,2007-03-29 08:28:39 +0000,a732c8fd22dcb29621f3bee34ed512b226a38909,servicemix3
