Bug ID,Bug Fix Commit Hash,Date of Commit
BUILDR-417,009d8cb78341378417414064d397ca292c1acf56,2010-04-07T15:08:53+00:00
BUILDR-417,a4cf70a2fb419da18d188459939528fd0048bfdc,2010-04-07T15:08:53+00:00
BUILDR-419,3ec7df1de57a13b0682a9c3b4a3e1db423ddd9a8,2010-04-10T18:02:44+00:00
BUILDR-419,aec4f691dc6a20239198caf9381217e5468af94e,2010-04-10T18:02:44+00:00
BUILDR-418,9942fe09f6d36784092397daefe5d22f59f186f5,2010-05-21T05:29:35+00:00
BUILDR-418,4aebafb838c797260f23c39fd6cbf17fd00bef1f,2010-05-21T05:29:35+00:00
BUILDR-653,f0ccc5fa361b19cce4f840e475be96a153c6f3c9,2016-08-12T23:19:43-07:00
BUILDR-653,7f5b25e7f0f502362b8c6bb139b0b6c7869374df,2016-08-09T22:43:31-07:00
BUILDR-532,76e0b8e30c5adb2d704c8baf501c43bd864f1f6a,2010-10-12T16:41:44+00:00
BUILDR-532,fb6e3305a9381199f82139f6b082305b54f42cb2,2010-10-12T16:41:44+00:00
BUILDR-411,ebb6c8514e68694557e7f3ed11af9e44e5df6551,2010-04-01T03:02:09+00:00
BUILDR-411,80dfe8cd1a79ac551e17b2bde2b10e5814ab4182,2010-04-01T03:02:09+00:00
BUILDR-655,7ff7ba4127bc18edae82d16540b446cb10f537c9,2012-10-05T21:50:08+00:00
BUILDR-655,2eaa4943495a4c1a07eb19ceade0c8c750a71eb4,2012-10-05T21:50:08+00:00
BUILDR-534,d4c9593589577164803e00ad368ecf0f57a2c6af,2010-10-13T05:25:33+00:00
BUILDR-534,10f175b723edfa438711d831de96193f8128082d,2010-10-13T05:25:33+00:00
BUILDR-654,b315166310c425409bb79661c396c433f71da286,2012-09-23T00:40:28+00:00
BUILDR-654,5f98f4613b105b03d9205dff50ea3a6ccb67ff82,2012-09-23T00:40:28+00:00
BUILDR-412,b7969162294dc8c273f6b8e5dd6bfd60d7ce2f65,2010-04-10T18:19:32+00:00
BUILDR-412,34d54eb83c2792fcfcd6c86b3a2288fda0481c46,2010-04-10T18:19:32+00:00
BUILDR-535,cdbd0696fb7b8a9a66f3718f1ee7d94da0d6e8a7,2010-10-14T04:39:17+00:00
BUILDR-535,8bf177c3227cf088f8c5a3bdf84dd793da611499,2010-10-14T04:39:17+00:00
BUILDR-549,238585873338e48762501f4ed6955477a01c8aba,2010-11-22T23:28:17+00:00
BUILDR-549,7720cba2e45e1a780b83da65bb0f32ebfc0a6624,2010-11-22T23:28:17+00:00
BUILDR-548,eb2e97ec182c91e92ce5c609b5d34c510c7ec078,2011-07-19T07:15:09+00:00
BUILDR-548,1270a8ebeab8d18a680b9dc36dd89e96c28eeda3,2011-07-19T07:15:09+00:00
BUILDR-662,ac37e455d90dab09dfeae4bb87670afb47c682d8,2013-03-22T20:54:15+00:00
BUILDR-662,3817fd5ebe0e43352740a7f6d9c2360f6c893521,2013-03-22T20:54:15+00:00
BUILDR-664,090b0035674b2388d6419972ce861114a513078d,2014-06-17T09:55:42+10:00
BUILDR-664,40a927265d9d35811334cfcae6d7b76c9d73edbf,2013-04-15T23:20:52+00:00
BUILDR-664,e2d3eeb5ec41159b4b72729f332c48035a1f4cf9,2013-04-15T23:20:52+00:00
BUILDR-543,7a7fe5885c2de33bba657b02c5ec1fd7f3e8cdfd,2010-10-23T15:19:49+00:00
BUILDR-543,4af41ee1309170b60ec8615e31a1960abc32fca3,2010-10-23T15:19:49+00:00
BUILDR-301,df12848c97bc22c51d48176f76cec27b619e6055,2009-09-17T23:47:46+00:00
BUILDR-301,d4db753bf7c193d5ee5d44a131b450453268735a,2009-09-17T23:47:46+00:00
BUILDR-663,aaf12b3b24b27a529de61efa44717f894bbb7112,2013-04-14T02:34:40+00:00
BUILDR-663,26685bf02b73b8d999fc58c4c3d0d78a44774c0c,2013-04-14T02:34:40+00:00
BUILDR-542,16b43dda5641dc6f90a5408e545f9c85ba1eea04,2010-10-22T13:50:22+00:00
BUILDR-542,db0af8aa9d08dcb22b65a2916d24af323e32b5aa,2010-10-22T13:50:22+00:00
BUILDR-421,065bdd6332651ed4d9b0c1fa4d26d315b3796add,2010-04-10T17:31:16+00:00
BUILDR-421,6faaef45e2f0bea181b94d9a6c8d8495106d4ae9,2010-04-10T17:31:16+00:00
BUILDR-666,0099a708a33eb921d4131dc876b07793f8a65f4c,2013-04-28T23:38:04+00:00
BUILDR-666,eab29bbbbffbd69b36e463003fc14a702a5c6d75,2013-04-28T23:38:04+00:00
BUILDR-665,7c837db3dfb135610234fb5818a210a67ee5e6ac,2013-04-14T01:53:16+00:00
BUILDR-665,095e06ae4f38a38a1fae2344bc811d35a0e311ff,2013-04-14T01:53:16+00:00
BUILDR-423,88897d26ac9718c8aab6a02e85644bfed6325ec6,2010-04-11T22:39:12+00:00
BUILDR-423,5c330f8e30391b96ae0047dd4864758990745418,2010-04-11T22:39:12+00:00
BUILDR-668,0b11cee78b48374a9ff7b5a22ec30902eb6d80fd,2013-06-08T23:42:40+00:00
BUILDR-668,b9661ed42ae86091cf434bb3d286da0031f00c4d,2013-06-08T23:42:40+00:00
BUILDR-547,97e5cdfa36cb778621cd65ba8c962e54b369ab7f,2010-11-14T08:11:07+00:00
BUILDR-547,704c766507d0df49cef671329f8cd250a8542c6f,2010-11-14T08:11:07+00:00
BUILDR-304,b0d3b003f896954dee1693b22e28add88241bac8,2009-08-30T00:32:50+00:00
BUILDR-304,02f03bc4b21d20d58289e407698d7831921ae045,2009-08-30T00:32:50+00:00
BUILDR-304,ae6c5f3a00e1c5aababb501aa2273906130898cd,2009-08-30T00:32:47+00:00
BUILDR-304,1a2057b12261ca02bb36672dd0628f07302146d2,2009-08-30T00:32:47+00:00
BUILDR-660,b84ffe8dfc8b7889d21d2f47e47af2af3a4159b6,2013-02-04T19:14:39+00:00
BUILDR-660,e96a6d405d40786dc69d669c94518a02cf92a9af,2013-02-04T19:14:39+00:00
BUILDR-20,0cd19553aca6fd0dcdf68d5daada6ec59f5abebc,2008-01-16T02:20:25+00:00
BUILDR-24,b23bb00ffd60b23ca24789cd225b81b726d37960,2008-01-21T18:52:44+00:00
BUILDR-515,50b74da64c56e9865402f1e1f8f3c96f323fd4ff,2010-09-24T00:52:05+00:00
BUILDR-515,9adb298a96d8b45d7627a047aadb94368e55629c,2010-09-24T00:52:05+00:00
BUILDR-639,213c800cb5129dd1ef8b06acf953f583ac291600,2012-05-02T01:40:56+00:00
BUILDR-639,9c7ec6cc8d869724e9789741a4a37d9caca2cabc,2012-05-02T01:40:56+00:00
BUILDR-22,44838264be4ccf72976b327d03d3b67fec6d6cd9,2008-02-18T10:11:48+00:00
BUILDR-517,c083d0761cc40176275878ad3d5c54d1d24b85a4,2010-10-12T01:43:52+00:00
BUILDR-517,ff84001a82dc91c570d2539e55159a56b366100a,2010-10-12T01:43:52+00:00
BUILDR-517,0c375a56644870da828d3d1ef05ec9ae3a25e333,2010-10-12T01:11:54+00:00
BUILDR-517,33e9f9d885f509710e4c68246beeb0d4f05095e8,2010-10-12T01:11:54+00:00
BUILDR-26,bb7fa793c44ed48db9deac7e05c074efefcbe7b5,2008-02-06T01:17:39+00:00
BUILDR-199,96b18ee77f997c875f286f3b530e4d0fbdfb5309,2008-11-06T20:23:41+00:00
BUILDR-630,8a001facd5d9e80e0eab636269206c8a087f26e8,2012-03-11T17:54:11+00:00
BUILDR-630,52d91deada20058d4ff75fd4abdb123c1c352c78,2012-03-11T17:54:11+00:00
BUILDR-512,ed1c0689b5fb57edd8b040795d6668185a502fd5,2010-09-21T12:59:04+00:00
BUILDR-512,b6892c6e7c8a2098d6d6fd39fd3c63b779e000c4,2010-09-21T12:59:04+00:00
BUILDR-635,54ab242f1342d4fb3c9e4b093896a780cad7d2bf,2012-05-02T03:22:02+00:00
BUILDR-635,7ec50fe713a491e816783bcdc9ed0de92df09515,2012-05-02T03:22:02+00:00
BUILDR-513,38d57736d4613e7e7161518e9e5fc6a6c2a1284e,2010-09-21T13:21:09+00:00
BUILDR-513,8329fcd20f28cae195a17bcd58c0750a0553b4c7,2010-09-21T13:21:09+00:00
BUILDR-192,1b58694e05e72ec221ff4434af53ba1f118ce845,2008-10-30T00:39:17+00:00
BUILDR-194,d7a0c3bf7fe08e0d2e5d67a17ec230026816a5e3,2008-11-06T21:09:42+00:00
BUILDR-193,49661f2cf6780b181cad789e4bfbc7e311e0c1af,2008-10-30T01:35:52+00:00
BUILDR-198,df5825b4d888829b80a8e80e54c05954ae11c7ee,2008-11-06T20:34:22+00:00
BUILDR-527,cea691bf78a714b097851f9f00e9a41fe3ab9e11,2010-10-10T04:26:57+00:00
BUILDR-527,b33c99bdbd0518718deac3d3ae4f7be401110374,2010-10-10T04:26:57+00:00
BUILDR-529,b033644bbdf41e4b56bf54fd43cdee86c0577f44,2010-10-13T04:44:19+00:00
BUILDR-529,64b4657b4d4e3ef8f229c153fc69642504550d76,2010-10-13T04:44:19+00:00
BUILDR-10,87658d7bb27c424956cf872fd09e53f16d8492de,2007-12-22T20:48:20+00:00
BUILDR-16,ae028fc5024dfd2a9fb5ee6dd498e6e7d7d39867,2008-01-08T20:29:33+00:00
BUILDR-15,7839423d798e51d990178b82dbf53c99dffe912a,2008-01-08T00:47:44+00:00
BUILDR-640,840fc5d04bbd236234310e4ab48e19dbebea7b7b,2012-09-23T10:10:27+00:00
BUILDR-640,bf42ecfa84110926fa7a4a2eab68986913ac897a,2012-09-23T10:10:27+00:00
BUILDR-520,965a94e011a41cc0a29950e895d0b5f3c437b8ac,2010-09-29T00:58:46+00:00
BUILDR-520,bd731b7a1848af0609faa324babd07f711bc03b2,2010-09-29T00:58:46+00:00
BUILDR-646,b2da2617e13f081057c22247e6cb31a00cb67090,2012-07-19T01:08:36+00:00
BUILDR-646,7809902e21c8d0a810e93b55b72b03a8f6783819,2012-07-19T01:08:36+00:00
BUILDR-525,9042333749bcef6513b332876f94c2af9d8ee655,2010-10-10T15:41:00+00:00
BUILDR-525,b1968ffb36a976224062d35647778f2da1983a1b,2010-10-10T15:41:00+00:00
BUILDR-404,a318265f2b291064196db9e1801ab0af5353031e,2010-04-05T03:21:57+00:00
BUILDR-404,b0a941dadb14df375fa298ac9da52feb92bbd213,2010-04-05T03:21:57+00:00
BUILDR-403,892457a89f88276004aa556aa6dd1774fe7b6380,2010-09-17T22:30:04+00:00
BUILDR-403,a383f38478b9bca09b9dbf31a4433e45be096cf3,2010-09-17T22:30:04+00:00
BUILDR-615,5b57fb67d958bfcdcf1348e0a7ef0a45e45c066e,2011-11-28T06:25:58+00:00
BUILDR-615,a2674b9d3a92af4ab21d18561298d5c4a0e31816,2011-11-28T06:25:58+00:00
BUILDR-617,04e74a95388039300df9c903aad05155ed710fd5,2011-11-28T01:33:06+00:00
BUILDR-617,a63868c00fc47cdf3f0aff2cd8c73ce8e9923967,2011-11-28T01:33:06+00:00
BUILDR-618,db02ff7828806de8c45dd076b7867a2123707b35,2012-05-23T09:17:55+00:00
BUILDR-618,f2e5f70bc6559cffe7f051602a9de286e3643466,2012-05-23T09:17:55+00:00
BUILDR-611,ab4f08d8ca66935770ba4c24e667527e54bf820c,2011-09-14T13:24:01+00:00
BUILDR-611,7ad3bd823ebf07bff50560e251b92f111230869e,2011-09-14T13:24:01+00:00
BUILDR-291,f6cd9df4d072b9c378083d8917a4bd5bc87e3d0b,2009-07-02T17:50:30+00:00
BUILDR-291,269ed82796a7120762b997330f46a538a43467c6,2009-07-02T17:50:30+00:00
BUILDR-170,70f64d225a981767d37aee129abcde7f0397cccd,2008-11-06T21:26:29+00:00
BUILDR-290,c7b77432ff6f68471873700d31f8e21793f70026,2009-06-26T17:37:57+00:00
BUILDR-290,c32de13420e5f58455cb733af62e3f6395152ce0,2009-06-26T17:37:57+00:00
BUILDR-172,35265f19721f6d207ba92ad077f7d99bdb233f5c,2008-10-15T19:59:55+00:00
BUILDR-292,cb63930ad35f131199a9dfc1ee928a5e6c8b683f,2009-07-30T05:35:00+00:00
BUILDR-292,bba9ad0aa248f7bab9b4649a5959424f1bd6a282,2009-07-30T05:35:00+00:00
BUILDR-292,51abbe95b24a7664e5fe96837575cf14bc314783,2009-07-30T03:38:58+00:00
BUILDR-292,61c2d15b5198ab72da15791104840d38f60c7b72,2009-07-30T03:38:58+00:00
BUILDR-175,a8c8d3f6ce6fb7a315c7473aef0f36841db68f53,2008-11-06T21:10:33+00:00
BUILDR-175,6b579484136fdd09c214c37ba1b5538762c55772,2008-11-06T20:02:51+00:00
BUILDR-628,7a9c78ae6b1d952aa30e1a81106d60b5207a25e3,2012-03-11T19:09:20+00:00
BUILDR-628,1c8d8747dde7f9d512f674cfd03995db018fb142,2012-03-11T19:09:20+00:00
BUILDR-507,68c13700097a2dcb0f3dc4c19556c075657118ae,2010-09-17T17:28:15+00:00
BUILDR-507,1ca2dbc693f94e0b2c166b5db88df40d5ec18116,2010-09-17T17:28:15+00:00
BUILDR-627,02334a5d0ae4bdb7e11fa75efc19382cd7b8bd5d,2012-09-23T12:12:28+00:00
BUILDR-627,e8f572c6ca046d55b29ad193e742e420a3046344,2012-09-23T12:12:28+00:00
BUILDR-506,7944732d912603e80840610b2ac06d36f9f14ac3,2010-09-17T17:10:30+00:00
BUILDR-506,6c1cb0173212a39e164bf5eb79671d870fdee989,2010-09-17T17:10:30+00:00
BUILDR-629,8a001facd5d9e80e0eab636269206c8a087f26e8,2012-03-11T17:54:11+00:00
BUILDR-629,52d91deada20058d4ff75fd4abdb123c1c352c78,2012-03-11T17:54:11+00:00
BUILDR-508,a7a4c1f6f0c61aeb38ed195650d475af4a4e320b,2010-09-16T12:37:28+00:00
BUILDR-508,01fc213664aa3f19813e74b4b2144b447739e78c,2010-09-16T12:37:28+00:00
BUILDR-620,4fd3b06bcc4dd05599a2e6149b8d2af4790ba9ae,2016-08-14T00:07:03-07:00
BUILDR-622,4574e2be05e9383208a8fa8f82f9c391deae2da3,2012-10-07T00:24:34+00:00
BUILDR-622,390875c4b947bf47640246224dd969a443b2e5d5,2012-10-07T00:24:34+00:00
BUILDR-621,ea4103fb8e01cd29df7729fec75796fe3c792dc5,2016-05-19T23:55:03-07:00
BUILDR-624,c3e6740b6949ea9e980d3802a7234ed69b3e68fe,2012-05-02T04:40:17+00:00
BUILDR-624,8bde246a2febe18630d920edae245bedeff31bed,2012-05-02T04:40:17+00:00
BUILDR-503,09b62d275ee317a893fd56b6d2af5988b4adf457,2010-09-17T21:11:31+00:00
BUILDR-503,d442c606bd94e7ec27f248cfff37224702a5f557,2010-09-17T21:11:31+00:00
BUILDR-181,a21b05823607341748ff60fb21183aceca15563c,2009-09-30T22:58:35+00:00
BUILDR-181,f44c2e3dd8361099fcf097293b13daa8b40cbfcc,2009-09-30T22:58:35+00:00
BUILDR-183,93b71fe6df9faa2ca4bedcbba3ab059bd9c4cb4e,2010-02-28T16:49:17+00:00
BUILDR-183,99493f8c3abf067276b755175efd43f034e52fb4,2010-02-28T16:49:17+00:00
BUILDR-185,8472118b7dda2d16918eed93f56308a0ec8a54db,2009-03-12T23:36:52+00:00
BUILDR-398,4d544f77d53c5a64be167a002eaac044522c326e,2010-04-11T23:44:41+00:00
BUILDR-398,27d1cff09e966ddcad9f97f8b5e3d89e6f8d87a9,2010-04-11T23:44:41+00:00
BUILDR-398,5b715a5c5994ab543d7b56cbaf5d005458d8c23e,2010-03-14T22:49:41+00:00
BUILDR-398,3615d8dc994edcab3a278bb8119388c027e47aed,2010-03-14T22:49:41+00:00
BUILDR-158,b7f4122d8d36ef56d383de8978f137228b4ea047,2008-10-19T23:20:59+00:00
BUILDR-158,98eb1c5bb12d3eb01f26347b40413220731ef0ab,2008-10-06T16:15:43+00:00
BUILDR-399,02a1fd319a1e291cd4de8aa2c3e35efbb6d5694f,2010-03-15T22:28:19+00:00
BUILDR-399,b2d69d39d39677b47fccf39bce8d0bb7c6ca798e,2010-03-15T22:28:19+00:00
BUILDR-278,ec6dd7a73af54ab00577722bbdd4bba2c417bd6c,2009-08-25T15:47:54+00:00
BUILDR-278,bc29cdf8d2dce11e3abfc9109b3ec4bcdd146df1,2009-08-25T15:47:54+00:00
BUILDR-157,09482d1b9c96aa3f0f77fb7642c5326ee471d88a,2008-10-02T19:03:44+00:00
BUILDR-159,c0e4f4991546189e2c8bb792055d7437d43143fb,2008-10-19T14:09:44+00:00
BUILDR-392,552684b6672824d2601107a810f480b0a74f0af8,2010-03-05T05:25:33+00:00
BUILDR-392,0742fe9c9a7f21052d9119c4afc6695a67d87b06,2010-03-05T05:25:33+00:00
BUILDR-271,e77b550d6dfe7d3321cd554c90b7af54d2349007,2009-03-24T22:33:52+00:00
BUILDR-391,4776895b3417a9152bd90c6c15ba44b3d2da0e7c,2010-03-02T05:56:21+00:00
BUILDR-391,fc87228f2cf8a8fc00e7d5712c324053d6aa2342,2010-03-02T05:56:21+00:00
BUILDR-394,3e72227122207eff34ade3a8b00588e2653898c5,2013-10-01T23:39:53+00:00
BUILDR-394,8ed2b6617b049b06c39f6b5670cd9180e2d8757c,2013-10-01T23:39:53+00:00
BUILDR-272,a79c0963437091e4ad46b9be7f0cd393cd0c5d22,2009-03-26T02:26:58+00:00
BUILDR-395,126f0b52a455bac7a77afa8ac0e738b1fe6f1624,2010-03-05T05:27:26+00:00
BUILDR-395,f04ca68b2925e7dfc9f2183c387c63d1abb443e4,2010-03-05T05:27:26+00:00
BUILDR-606,51a78f358b2ceecf9272d8ebf58b1b7777da32ba,2012-09-23T11:29:38+00:00
BUILDR-606,5c5cae4762dc92e2cf2e2395d16f2118411ae4fc,2012-09-23T11:29:38+00:00
BUILDR-605,44e52a0bfeca648de10727171538cfcf32b518ec,2013-10-11T22:38:48+00:00
BUILDR-605,57585d3e161cdfc9a26ae051fa0de34d2f268703,2013-10-11T22:38:48+00:00
BUILDR-728,c06ee879e855165856e2688abf28098cba5264e2,2016-10-31T22:27:15-07:00
BUILDR-609,c673115cc3e32ab97d142e76dd1018b7e74e2213,2013-10-11T08:54:01+00:00
BUILDR-609,df182442dc1f3af21ffd5d924f761e225e9ac84c,2013-10-11T08:54:01+00:00
BUILDR-289,4566fed6cc0b56afdfd50b65fb0a75a35a0548f5,2009-09-18T19:09:01+00:00
BUILDR-289,91d9ff0c739f59f8d075fe7622f8e0f6b78c44bc,2009-09-18T19:09:01+00:00
BUILDR-723,0916a14b23ce2e79d20f2d31d7e70f67d4073761,2016-09-16T22:32:36-07:00
BUILDR-601,f3065d498f3d339e87b6a3c58adcf7ac62f20201,2011-07-27T11:48:18+00:00
BUILDR-601,cfde140b2152cdd8c38a11c6e039085f7f338b6b,2011-07-27T11:48:18+00:00
BUILDR-282,13e2f3fab8d0f69b48662ee3fd3abf9e00b999df,2009-07-30T21:14:42+00:00
BUILDR-282,b007224c26707f6a3b64a01f321f9adcdb0a6393,2009-07-30T21:14:42+00:00
BUILDR-281,09339068962795c70e8283575751ea854f188980,2010-02-28T16:57:34+00:00
BUILDR-281,ccddd98c28de73561193212c3e9ef6de90bfb581,2010-02-28T16:57:34+00:00
BUILDR-283,61a50281079388579749392e27163595be1077a3,2009-09-18T18:40:04+00:00
BUILDR-283,9808fc8bb4a3c030fcb5f4d186fe077bc9bf0c31,2009-09-18T18:40:04+00:00
BUILDR-286,29157daa3befaa25425bebc43a1160e48a1dcec9,2009-06-15T19:58:43+00:00
BUILDR-286,07b9b68f5bd84f6f94906daed470b17e64dc3e92,2009-06-15T19:58:43+00:00
BUILDR-285,24a0078deb5283debc78b75789edf8f6b07ece78,2010-08-24T05:05:16+00:00
BUILDR-285,c7191026103db375a849640eda689a96ebadb2c0,2010-08-24T05:05:16+00:00
BUILDR-285,f726a65f42f8ecd4afe36569f448506183fc1d0a,2009-06-09T22:08:46+00:00
BUILDR-285,adb70e7e46121456c9b00feb5a8c4230f6dccd65,2009-06-09T22:08:46+00:00
BUILDR-82,768be0454c3525a098c14aa6e55b4eaa1a4af251,2008-10-17T19:20:00+00:00
BUILDR-82,9eed109903ad2038fe6628fbf229c2bf23cafa13,2008-09-23T19:13:18+00:00
BUILDR-82,94c9a4f6784b809d84b59482b98535f33e25e319,2008-08-07T21:37:30+00:00
BUILDR-82,fba148de58efe512f2777df3b74d620616982122,2008-06-06T01:59:43+00:00
BUILDR-81,d0325505e0f87e7ec6f5cd9d8b1474b26e095dda,2008-07-01T00:59:29+00:00
BUILDR-80,685ae805252a1f2589dcac6aab2a2f27d724c7ba,2008-06-04T23:02:44+00:00
BUILDR-89,9ed0c2dd069d2522203dba9197e0a91e2fdc105e,2008-06-28T00:18:07+00:00
BUILDR-7,1516ccb88f15caeb618bc0bb4b03ae50914ddb4a,2008-01-16T09:42:29+00:00
BUILDR-255,7624239dbf4a6ff900b13590ac38e11f1b6c4f8d,2009-03-13T05:51:03+00:00
BUILDR-499,1f54bf32a4132f6688b9a6ba99c36af13f233b7e,2010-08-29T05:15:51+00:00
BUILDR-499,5e88ea85e4742f88aa53a97dd760e7b93435327b,2010-08-29T05:15:51+00:00
BUILDR-498,889773842c36628850c1d444eb3e493a5bb31231,2010-08-28T18:00:22+00:00
BUILDR-498,c694002c3be7423601c1eb00094e4a0267ab6c66,2010-08-28T18:00:22+00:00
BUILDR-256,ffd6e570c096c63f3661c3176123b81875da2fc0,2010-07-08T01:41:40+00:00
BUILDR-256,65abe0b3fb513ed48b6759e7193da3fc5912d206,2010-07-08T01:41:40+00:00
BUILDR-138,db0640361b4f3ed4fdf217d39a4adb67e2c2ebe8,2008-08-28T02:59:10+00:00
BUILDR-137,72dfa1a072972ef6335f31e1a3b22e00432fe0b5,2008-10-02T01:23:13+00:00
BUILDR-491,2837419fb225195f6b9fbadd6b0b724d74552ba6,2010-08-19T15:02:39+00:00
BUILDR-491,5e3e1acdd21de2379d27ab2e1a1d60ca4a745631,2010-08-19T15:02:39+00:00
BUILDR-251,0dbb8f1ff086846948578ea8171c86a484ff28bc,2011-05-20T14:55:44+00:00
BUILDR-251,fef0d1f531a493e429950a07f685315b06d16897,2011-05-20T14:55:44+00:00
BUILDR-374,b0343d657691605fa2f74728efef1fa8009153a9,2010-06-05T06:53:21+00:00
BUILDR-374,a3d61a41cbc6c4d6427d872316a9619793d0e875,2010-06-05T06:53:21+00:00
BUILDR-374,39eba200dd5bf4cf5d99a0a6b13b4031cc05d881,2010-02-24T06:02:51+00:00
BUILDR-374,802df9dabf3952109061c16cf856490d9c798fca,2010-02-24T06:02:51+00:00
BUILDR-374,6f547d3b517e77402f1a9dc1b53a79c8ab3176b0,2010-02-24T05:45:02+00:00
BUILDR-374,b65bdf7a14460d273c71fabd5f1758934460d708,2010-02-24T05:45:02+00:00
BUILDR-253,6069803290e71d6dc0c3ba6da5b9825f6cad58b9,2009-03-07T01:00:06+00:00
BUILDR-253,b8fed8b44a475c024a6fa4454b2fd91805a7b61a,2009-03-07T00:58:04+00:00
BUILDR-373,3ae058f38973930b0c411fa911059b1a0c133030,2010-03-02T06:05:00+00:00
BUILDR-373,3fd77a8264f69306d5805c2986c0e2bf12dcb83b,2010-03-02T06:05:00+00:00
BUILDR-73,a94170f491963b9b438f0c767fac97f17aa67170,2008-06-28T00:18:52+00:00
BUILDR-79,86a556026ed5f5cae56e696c4d8db74024fe342a,2008-06-02T21:29:46+00:00
BUILDR-702,5b7933a57bbc53ba80c90538c8681fabe7b82568,2014-08-28T17:12:59+02:00
BUILDR-705,e02fbf89d94b2052665ff9c4e6b4046286c2887a,2015-06-06T10:31:28+10:00
BUILDR-705,877e57b938b6bb820448c56f2ec81f0f830d40f0,2015-02-20T10:38:00+11:00
BUILDR-705,c1b21a85d35444c15448d76e7b5c63dc62d4b3c3,2015-02-14T07:32:12+11:00
BUILDR-77,785012b21cbcd940ff1bea14a9c4fcdf81742a9e,2008-06-04T23:03:42+00:00
BUILDR-77,1267d8feb3c007466d4abbc74b649c7056b59b79,2008-06-04T23:03:22+00:00
BUILDR-76,75fdd232eeda34e317a33d0a373f3a0d062ee5af,2008-06-04T23:03:09+00:00
BUILDR-706,6c660221c717fa9276cba3ea74cbe6c72a4cc055,2015-05-03T20:43:53+10:00
BUILDR-709,4e24616239d8c455f51e1b2058c3e83060731511,2015-11-27T09:18:02+11:00
BUILDR-267,225060c2a05acafec240b8224a063b4c420ba410,2010-02-28T22:13:22+00:00
BUILDR-267,8cf13116ec6fc24caa323d50ef1fa81486de7913,2010-02-28T22:13:22+00:00
BUILDR-269,0994e3a46f461cb4599e787f8742f27c23f6ff28,2009-03-25T19:08:56+00:00
BUILDR-269,19d4cc9afe3169baf554e98b8adc2836194a9596,2009-03-25T19:01:02+00:00
BUILDR-700,85e45f87e0e637cd9880c2386873c283152ac56b,2014-07-05T12:05:22+10:00
BUILDR-700,2aadee75352eb2ca913003e1ba725518ad11578e,2014-07-03T20:32:49+10:00
BUILDR-381,22fb7c3191dcc2a316e10d19f9d9a02e7bcd4852,2010-02-28T04:35:57+00:00
BUILDR-381,002d45af64a97475a877485f71fe2686fb807b76,2010-02-28T04:35:57+00:00
BUILDR-380,a45cd8d4f2e1e0b7c5f6d9c98dd86d836a2a9fe8,2010-02-27T23:10:36+00:00
BUILDR-380,1047de1e950fe2d55cb68e02a194cb8a939ebb00,2010-02-27T23:10:36+00:00
BUILDR-383,5f36f6116fe51213d1a5749d88667ec4451c5856,2010-02-27T22:16:12+00:00
BUILDR-383,79c972bc5f06b96905350f0765562ed778e4bf1b,2010-02-27T22:16:12+00:00
BUILDR-382,95810c00a6ec81488a7ce5a6e6bd81c7853eec56,2010-02-28T00:04:33+00:00
BUILDR-382,0e3dc3e5c974a1e0ceb4ac499dae7c0b6ef85e14,2010-02-28T00:04:33+00:00
BUILDR-261,5ab8ada06fa5e4ddbae7ea48cb24e40cc4330cd3,2009-02-22T17:13:38+00:00
BUILDR-143,ac3fa01f244a5f296863be4d9c0e34f011583e77,2010-08-24T05:16:00+00:00
BUILDR-143,b7e3fec9f331dae176992c3b9fabc3e456ea22db,2010-08-24T05:16:00+00:00
BUILDR-263,3f13febcc63fd72d531e1c3f20804917e652a112,2009-03-06T01:38:03+00:00
BUILDR-119,13df2658810a46dda0f52f5663cc4a5d60186b84,2008-08-05T01:34:50+00:00
BUILDR-596,e2e62ac804d0f77fde6f9f97835d362e82f367c6,2011-07-08T08:20:14+00:00
BUILDR-596,6b27e2a30a35943e19e4211e02d09aa51a1fc5bb,2011-07-08T08:20:14+00:00
BUILDR-475,0db1ca4393d245057501583fb619e57360454f7e,2010-07-17T06:57:23+00:00
BUILDR-475,e5eb6dbc6bbb3cf55a99a6f105397c41b21d280e,2010-07-17T06:57:23+00:00
BUILDR-233,469a296a55cd0a651ad9ad57ef2e032baf7bf666,2010-02-28T17:47:50+00:00
BUILDR-233,e4418d66263cc440c8426b6ef2a37c807d7fea53,2010-02-28T17:47:50+00:00
BUILDR-233,79cfd4860bea4e304621d79b6617803fdf775ff3,2010-02-28T17:44:46+00:00
BUILDR-233,4b6b4cd62f2e79b097f28bf103afc5c0b3004dca,2010-02-28T17:44:46+00:00
BUILDR-233,154d0f0b7331f8a70338bf9a5c04e16c40b59292,2010-02-28T17:32:30+00:00
BUILDR-233,a8314bdc67eddd5403b7177b9a8c10e989ece960,2010-02-28T17:32:30+00:00
BUILDR-477,266383b5098ecae47ea0dfe53736ce76dfba0797,2010-08-13T06:07:57+00:00
BUILDR-477,7600f7df6c7a8283eb20a502d3b17fc5246fec8f,2010-08-13T06:07:57+00:00
BUILDR-235,ce6a00f8954e668a7345c026953af5b4120687a2,2009-03-12T23:35:27+00:00
BUILDR-114,cc95b1951cadde1e58f96ce0af6b2f49c8e0caf1,2008-07-29T19:50:42+00:00
BUILDR-476,6eb4586d32a4e258868d627bc2c400cbcce522c3,2016-08-13T23:37:56-07:00
BUILDR-476,24724f998a6697ee3ef3ee59bebaf15da0bbb4b9,2016-08-13T23:23:01-07:00
BUILDR-113,b73b596bf90e734fbde0cadd517ef366f53db216,2008-07-29T19:24:20+00:00
BUILDR-358,d6092de5cd7d42f58e302bc5acf4a47379a7d8c8,2010-01-13T19:22:13+00:00
BUILDR-358,15511ce78a0783633b49eba5a1712d1919d7e631,2010-01-13T19:22:13+00:00
BUILDR-357,d9e857271880d169a05ab2eda190047e5ec140c7,2010-01-23T20:07:19+00:00
BUILDR-357,763b259faac71d3339bf253466e270e9ab925472,2010-01-23T20:07:19+00:00
BUILDR-239,86af14816ae703e672dceebde91d026073208312,2009-03-12T23:42:37+00:00
BUILDR-117,13c65bd722a3e83832ce64d96b2a28bb8bd3f6e1,2008-08-04T18:53:53+00:00
BUILDR-591,5ff5730ba9f60a4afd15497a49dc21c95474a41c,2011-06-22T10:02:30+00:00
BUILDR-591,06da94c5e502121b5bd426356d6ab163889fe23c,2011-06-22T10:02:30+00:00
BUILDR-110,da2fec68f36aceadeb36ead6a0ffc275c39194a5,2008-07-29T00:39:01+00:00
BUILDR-472,c4e4367c1f38fb9921f84639130688e531a1fbbc,2010-07-13T02:28:35+00:00
BUILDR-472,3a47a6327b25ffa4964eef786b1714cb9b2094ad,2010-07-13T02:28:35+00:00
BUILDR-230,25f90b205b9faf71c93aa541f9d35208dadbf92b,2009-03-13T03:00:45+00:00
BUILDR-91,10b116e32f65b0b3fd9bbb18d995096dbc0e073b,2008-07-02T19:29:32+00:00
BUILDR-91,666b21d8f0f1a0ce138c92c4bbe9abcccca8c0d0,2008-07-02T19:26:13+00:00
BUILDR-90,7043ac05cbca08309ee5feb688cb60ae28996069,2008-06-28T00:19:08+00:00
BUILDR-365,f97fd452277311094488669ee431f5396cc3fdba,2010-01-23T19:09:08+00:00
BUILDR-365,600e73715c44937f00035e7e15a68b5b12752763,2010-01-23T19:09:08+00:00
BUILDR-123,888c593b51a2bc7392e66db1a358d962a0397b80,2008-08-22T22:09:57+00:00
BUILDR-364,002253cf7e71eec43afaa9fff86a67a0f93e7647,2010-01-22T19:53:02+00:00
BUILDR-364,9d57c95dde1093886089d92211037b430a97eb9d,2010-01-22T19:53:02+00:00
BUILDR-122,cdeaf9ab1b8d6af7cbe7a6d153f43621a4ba1fbd,2008-08-22T21:03:26+00:00
BUILDR-488,1dac97b544df6b9ab53d8b8e136f4d12b7caf916,2010-08-04T05:46:33+00:00
BUILDR-488,e739c712f37c16acbcd93e5d030fe065c604bd9f,2010-08-04T05:46:33+00:00
BUILDR-366,1148c5c27cfa30aaa330edf9e26c88da2eae139a,2010-01-23T19:52:11+00:00
BUILDR-366,fcbf15797dc45422f8da92eed71c77f3e76ccf9f,2010-01-23T19:52:11+00:00
BUILDR-124,2cbdadd74b3d5cc3379544f731cafa8c6e43a1d6,2008-08-06T06:29:26+00:00
BUILDR-489,e2f18acdff4b1e13d077da0ff178c58fa1fe7f50,2016-08-14T23:59:08-07:00
BUILDR-247,11618e9956d0b957b69ceb23db0b98ef2f5d5135,2009-03-13T02:50:15+00:00
BUILDR-247,76585448701e73c9c75490b77b86f9b5f3ed04d3,2009-03-12T23:40:58+00:00
BUILDR-126,d05f5b79314b46eb25e4255e36c49b320277e5dd,2008-10-05T17:13:06+00:00
BUILDR-126,5cf7b9fdcb7a40ac327446984a4e3ab7e2358700,2008-08-11T19:02:06+00:00
BUILDR-129,cf806dd0158bd5a587ee6f61c246f141dec9d754,2008-09-01T19:18:57+00:00
BUILDR-129,f796487c186ed9e429132dba4e52c07e9d334d0e,2008-09-01T19:18:47+00:00
BUILDR-480,66bcf5ff9d66a8558a32cd59240d7f0ac397e637,2010-07-16T04:30:48+00:00
BUILDR-480,137bf528db34e001d7921fd084c08732a4bede99,2010-07-16T04:30:48+00:00
BUILDR-482,435eca2d85618768b2be67639ea3e775a9b816fe,2010-09-18T21:20:40+00:00
BUILDR-482,b317b1beaa925a627137976029d278138a79a3d9,2010-09-18T21:20:40+00:00
BUILDR-482,5c9bd9be6fea4258ee306b1cbfb5050948d75b25,2010-09-18T00:12:51+00:00
BUILDR-482,7ba3a6bb7560d0ec926321e11c4fa8bb0d5bb23e,2010-09-18T00:12:51+00:00
BUILDR-482,0474fd0c92a41a13e53707efeeca76078d2af2f5,2010-07-20T16:57:29+00:00
BUILDR-482,de556304719e3e427cea23b07445f76e01ea6258,2010-07-20T16:57:29+00:00
BUILDR-360,d5b329441d277c718aa0be9a0285cd3682c53bcc,2010-01-13T19:11:55+00:00
BUILDR-360,79a1b74c71217abf0b2371096588f246982287e4,2010-01-13T19:11:55+00:00
BUILDR-241,11618e9956d0b957b69ceb23db0b98ef2f5d5135,2009-03-13T02:50:15+00:00
BUILDR-241,2640796e4df1a938f683e682aa647c1c4364a82b,2009-03-12T23:47:00+00:00
BUILDR-41,51bcd7747b42106326c60a3128231a58fb0472ad,2008-02-26T20:57:48+00:00
BUILDR-41,af074a2df6f8efaf770a5789932c8650eb7b2508,2008-02-13T23:56:06+00:00
BUILDR-219,0042d7fe671d021efbc4c5436de7bb4fbb0de009,2009-03-13T02:51:28+00:00
BUILDR-218,176a5fd4abf8f5a44831f059fb9108068f1cbd31,2009-03-12T23:45:26+00:00
BUILDR-43,47640645841c3aeebc2aced2590977dd19775782,2008-02-07T19:58:53+00:00
BUILDR-695,2d716e04cf7fc8fb594d2d2396ed88db5f672a7b,2016-06-16T00:21:39-07:00
BUILDR-574,1360ce30839e0291ef8735c4151c7eee394334d2,2011-04-26T04:43:19+00:00
BUILDR-574,1d278da37683d244f17dc46bbf2eb3d058041b20,2011-04-26T04:43:19+00:00
BUILDR-574,57aa16517141e855a0215ff138cd553bb4929d82,2011-04-26T04:42:56+00:00
BUILDR-574,f889aaf2d856caa0051e9108856697ade4bd7da4,2011-04-26T04:42:56+00:00
BUILDR-694,72af938e8c23fde3e67ec6b3aa5805ad516512e4,2014-06-24T15:09:09+10:00
BUILDR-573,fb14ffa9ac1647106f8d677f0d763d310c00089c,2011-03-16T17:01:16+00:00
BUILDR-573,5e23c5a703b520de622490b972609a97e9bf8d67,2011-03-16T17:01:16+00:00
BUILDR-455,e9e1fffb8443c8fd6f7101fc1ca7afa51b82587a,2010-07-01T02:35:32+00:00
BUILDR-455,50610d2986b58432dfbbd8f6e002ac0c0b147468,2010-07-01T02:35:32+00:00
BUILDR-334,f4e947b25cdbc978bc17cac71caed2099a56af94,2009-10-29T13:07:42+00:00
BUILDR-334,d2e554897a2d77c7bf8038820afdb592bc44d34a,2009-10-29T13:07:42+00:00
BUILDR-454,2f14379226c3616f426819e5d58e18551ed2cf7f,2016-08-13T23:26:24-07:00
BUILDR-454,41522d4244cbcacdf7236566298f8c17e58322de,2016-08-13T23:24:31-07:00
BUILDR-454,a850d8c98bf32a5f8fe14e274155efdf822dcb45,2016-08-13T22:44:02-07:00
BUILDR-699,a4c95466b0fa814c36baf7609bd3d168c1b4712c,2014-06-24T18:53:24+10:00
BUILDR-578,ad5b6bbd619aabee5909f5be34bbd1ec566f7a8e,2011-03-25T16:37:46+00:00
BUILDR-578,20807f16d6a2082357bae9127047eaeed649d001,2011-03-25T16:37:46+00:00
BUILDR-457,b700217111fa293881bce30befb6d12a399c6c08,2010-06-15T20:37:58+00:00
BUILDR-457,59d749e90e00a4da8d1efef6cb83416993ebc63b,2010-06-15T20:37:58+00:00
BUILDR-336,7a27fcb6a020b6345b6c5ea257e6d47803b94715,2010-02-28T04:43:30+00:00
BUILDR-336,c55265bdf1fc870d28808cbc63ccaf16a43aa43b,2010-02-28T04:43:30+00:00
BUILDR-214,de3695adedb46978b109120ac1b0c42358a5ee49,2009-01-06T02:46:23+00:00
BUILDR-214,2fe3b63b5bb310154436fba7b05bca0c2706d90b,2008-12-10T01:50:11+00:00
BUILDR-459,0d47ef5e5603216576b901535655b8117007d308,2010-06-24T21:17:22+00:00
BUILDR-459,d6f197f60f03eddb7e32ffc50fdc591f6a6d595e,2010-06-24T21:17:22+00:00
BUILDR-216,d0a015a03d5a08cd5ec5244cf1aef8f37f4d1d21,2008-11-17T21:01:52+00:00
BUILDR-570,8cad121398690ab6b781888518cfc5e9beaa6dd4,2011-02-21T04:04:40+00:00
BUILDR-570,87e04e14f57d0343d8a4003c641057d94888228c,2011-02-21T04:04:40+00:00
BUILDR-330,357e31cc593c7e967fdd02c15b66c2faafb435a1,2009-11-13T21:30:48+00:00
BUILDR-330,e15108db58631c179f1d0d36d5807ce852e87161,2009-11-13T21:30:48+00:00
BUILDR-571,5b23d74e29735d01c5ce729d1408216e73615908,2011-03-08T09:35:17+00:00
BUILDR-571,64de15ae10bbe205ca8e03004523388f9e371432,2011-03-08T09:35:17+00:00
BUILDR-30,eeca9d002255745b5862b1c49442d55b15333390,2008-01-30T19:02:57+00:00
BUILDR-35,3a59b6b1664f7ae8b10ab62c588b86e4a0d13184,2008-02-02T01:01:22+00:00
BUILDR-33,7deba25da542011fe39720e41333fb5ba6aaed0d,2008-01-31T23:44:35+00:00
BUILDR-32,08cd7b17ca3f75c9496cfedbc685ec13c4abf1c9,2008-02-01T00:17:53+00:00
BUILDR-585,4f283ada8972a52254d7dc7ecd83b8e1695b2585,2011-05-27T17:59:19+00:00
BUILDR-585,dfe97e2dfc9471f4c4989487e4f72739570c5238,2011-05-27T17:59:19+00:00
BUILDR-343,5e960dc622aaaff75ed6f087ef5ea90670a1b65c,2010-02-28T01:59:41+00:00
BUILDR-343,b74c015608c7953bd71951c02a5c887566025dd2,2010-02-28T01:59:41+00:00
BUILDR-101,484a65975500bcfd368d5ee508775c3a67b7f684,2008-07-09T18:28:56+00:00
BUILDR-584,46f2960e1b3a67c27c4ecb3cc79f7cf9fca486bf,2011-06-17T19:04:40+00:00
BUILDR-584,938d0262371fe0b6177599e1fba4a8a8efef980b,2011-06-17T19:04:40+00:00
BUILDR-463,7ca4ed4ea551c28f85ad3417c547b798df428801,2010-07-02T05:30:54+00:00
BUILDR-463,5b1f0bd39d7b5f018bfdd16b0c9bd1de1da8e5e2,2010-07-02T05:30:54+00:00
BUILDR-342,ffd6e570c096c63f3661c3176123b81875da2fc0,2010-07-08T01:41:40+00:00
BUILDR-342,65abe0b3fb513ed48b6759e7193da3fc5912d206,2010-07-08T01:41:40+00:00
BUILDR-100,4204cbb31c931e0df51ca50c2a008ac8f7e01dd2,2008-07-09T20:04:46+00:00
BUILDR-587,9c3f1b973d911bba92d1d27bbaac1c02cfd9e8f2,2011-06-17T19:40:41+00:00
BUILDR-587,9bfc0aa11dfbe6db7e2bf3955ec4696bd2ee38db,2011-06-17T19:40:41+00:00
BUILDR-466,319a883ab1c70f7780ac9bdf0e82d8998d11476f,2010-07-13T22:39:34+00:00
BUILDR-466,e9e75dd6f35fbcd2ab56c725248f16997609199b,2010-07-13T22:39:34+00:00
BUILDR-466,c8e982a95618f8543680d949f9f140dc32f05fe8,2010-07-08T18:47:28+00:00
BUILDR-466,685fec0d8f0046ecd8ff968e318f5880a6666a80,2010-07-08T18:47:28+00:00
BUILDR-586,f03b94a2a5902d5253ce05e20730baa76e23e654,2011-06-07T23:32:05+00:00
BUILDR-586,3e8ad70cbfbcfc41a0fce3630990851c162955fb,2011-06-07T23:32:05+00:00
BUILDR-344,56eb5f736ff3244948918b551dc5b756fcbd855e,2009-11-17T21:39:09+00:00
BUILDR-344,a62eed50da427a7a74ae56b7a3a50e200074b1d9,2009-11-17T21:39:09+00:00
BUILDR-468,d44d4359b62c8b706048179d4b831fd795284801,2010-07-11T01:32:55+00:00
BUILDR-468,eba936fb9bab832222ee657cc4f14c885ea4c240,2010-07-11T01:32:55+00:00
BUILDR-468,aec1e001947f6d31365ef27838419639f8eb5545,2010-07-10T17:36:46+00:00
BUILDR-468,89bb65ac2d251849bf74c678fc7931200346d19b,2010-07-10T17:36:46+00:00
BUILDR-347,1bab69387d48cdf43bb972bae25eb39403406342,2009-11-18T23:06:49+00:00
BUILDR-347,a607145fd157b5e579ca1252e503302a3d7a32c5,2009-11-18T23:06:49+00:00
BUILDR-226,9fbc9eb162a27d61aafa1161b38bebce4e13aa62,2009-03-12T23:38:38+00:00
BUILDR-346,36ed44c7a4b770fee0118714c0c26aa1e6a273ed,2009-11-18T23:14:28+00:00
BUILDR-346,baa061f9a0f4827f840e97cc5c581b50a1afc173,2009-11-18T23:14:28+00:00
BUILDR-225,d1745f7b2587f67a51f44165178fb2f6ec375819,2010-07-08T01:54:49+00:00
BUILDR-225,35c65be041f9fd3bfcd663753b4789249fa2bc1a,2010-07-08T01:54:49+00:00
BUILDR-349,e1016944ad52c3b7a6679594de8871b1da8590f8,2009-11-20T19:04:53+00:00
BUILDR-349,8eb4a1049d1d93a74fb7f58ea484f1cf0e7cb2da,2009-11-20T19:04:53+00:00
BUILDR-469,890e656315ff9af22d2e96789422377be188a041,2010-07-15T17:27:45+00:00
BUILDR-469,7e32319a4b01542fd69ce9ef31bbd9ca5fdea2d9,2010-07-15T17:27:45+00:00
BUILDR-348,927078045c5f1c0cc89a3031207376b5e4372a39,2010-03-01T17:09:49+00:00
BUILDR-348,772b245d1e3ed15621026077bdc9bacb0135d337,2010-03-01T17:09:49+00:00
BUILDR-106,db3fd1baff23309de98336a4c4b227244e4dec83,2008-07-26T00:07:16+00:00
BUILDR-583,db6b8a79afd9c8268668f1b2c490baad523f71b6,2011-05-20T01:23:29+00:00
BUILDR-583,e49d0b40633608e4f85bbf8ffe1b3a2a022a6d92,2011-05-20T01:23:29+00:00
BUILDR-341,80820246176d1eedb6301b579e1e57eaf175c73a,2010-03-02T06:13:12+00:00
BUILDR-341,46d06ec5a7fea205b1b0ad199495cdfed12e891d,2010-03-02T06:13:12+00:00
BUILDR-461,573a8ad7bf56bb78a276bfb395a640e7f62550d4,2010-07-01T08:46:53+00:00
BUILDR-461,cccd3b3024d3105f109290a91a5f1c367681f523,2010-07-01T08:46:53+00:00
BUILDR-461,6a229987512398e31a09397af6e50e2c4c513882,2010-07-01T07:12:06+00:00
BUILDR-461,0fd308027351786fab1ecbbeda3607d1b646e6f2,2010-07-01T07:12:06+00:00
BUILDR-63,666043642f72751c19022c22f38723472cd2141c,2008-05-19T20:05:52+00:00
BUILDR-62,a1fd211793a56d43c5ed1d6cf4720633e077ada1,2008-04-22T07:12:05+00:00
BUILDR-439,c0eb268029e974176419345b5819ea921b015e40,2013-10-02T00:39:46+00:00
BUILDR-439,ed71dacb54ffa2ad248d1cc4d759bdac117b6794,2013-10-02T00:39:46+00:00
BUILDR-439,d28c36160c56a07a53391cb8591bdfc5ba92c4f9,2011-07-11T06:59:32+00:00
BUILDR-439,85dbaa6985822524b07e3019af9f2b18afdf690b,2011-07-11T06:59:32+00:00
BUILDR-439,f9ed0dd67a91cda06fa2a5847f53c66ab8db5ab9,2010-07-01T07:39:57+00:00
BUILDR-439,be4eb79e216a98b075a6191dbfc88324752e76d5,2010-07-01T07:39:57+00:00
BUILDR-68,297d04b73d33e764ca8340b07f093278e3576ce7,2008-05-13T04:21:11+00:00
BUILDR-67,78153b0d1175758466da11b0db690f468de5a854,2008-05-07T15:38:11+00:00
BUILDR-66,18a2ca6f897860a8ce65c0491875b6bbde80303c,2008-05-05T21:01:10+00:00
BUILDR-673,b82bcd28efbe34d2036166a1db3d44faf1920a07,2013-08-10T09:17:23+00:00
BUILDR-673,2b81e0287520edb3b8fb1b31c50e38e0830af65e,2013-08-10T09:17:23+00:00
BUILDR-672,c5996941ca2622fb89ffcb0e51742192d243de80,2013-08-10T06:06:45+00:00
BUILDR-672,d3fb22cee6dfca540d49816b5e2131e965c6fe40,2013-08-10T06:06:45+00:00
BUILDR-551,05d5629074335b8da2b1f9b668811bc10faf7743,2010-11-29T05:33:39+00:00
BUILDR-551,0886a14a8c99e4212fd7ea24eb86ae5b94cc1b5b,2010-11-29T05:33:39+00:00
BUILDR-674,e3fc2671b6818c184a8ecc95ad63e5437261bb08,2016-05-02T23:41:02-07:00
BUILDR-677,491e3ffe0494673565880d9c1866bafea2f68b98,2013-10-01T22:04:06+00:00
BUILDR-677,ad2f6c517d529b9558709384328484a39b10c0de,2013-10-01T22:04:06+00:00
BUILDR-676,ba9b6c430e2750701b43f768306e93ed0cc7f0cf,2013-09-27T23:12:06+00:00
BUILDR-676,b18591b75d51f926d1eb3eeb98673498b98b9f4e,2013-09-27T23:12:06+00:00
BUILDR-313,8e2090379ae47d6bdf07fdb51f40157eef9ad275,2009-09-16T17:46:36+00:00
BUILDR-313,ef72961085bb7f82a85c256bf843948e35acd8ff,2009-09-16T17:46:36+00:00
BUILDR-557,91a4bff295d37c0ed97203b755dfa701b06f4360,2010-12-06T22:46:27+00:00
BUILDR-557,f9a354d2e2cf4fa93f87f7dca01b69574972c67b,2010-12-06T22:46:27+00:00
BUILDR-436,219171ac0722f86c7586e98354c82def1287eed9,2010-07-16T07:19:49+00:00
BUILDR-436,3fde9875deb075b31bd38a06c1341205450c3203,2010-07-16T07:19:49+00:00
BUILDR-436,698cbb8976f0c44435ec4bf3182a3ec9f7048d4c,2010-07-09T06:10:12+00:00
BUILDR-436,6aefec16c5618c9d2fbe6b0d9be10698abd19aaa,2010-07-09T06:10:12+00:00
BUILDR-315,126992c17b37db9c18dbefb5c645b6787c7ad7b6,2009-09-14T22:22:18+00:00
BUILDR-315,9b8c19424042ded04ec5136a57c33a197aece2ac,2009-09-14T22:22:18+00:00
BUILDR-52,31d8ee61080ed17340477aa28922f5b5241f9497,2008-02-29T19:28:02+00:00
BUILDR-51,c1c2d09e36f43be37a3422bbb271a55b5088f60b,2008-02-29T19:29:18+00:00
BUILDR-208,65246552e16c57ea8eca1ecfa49b3ebb4b3baccd,2010-04-03T20:43:38+00:00
BUILDR-208,7e45a55a98263edb0039372632a42dfb3654f374,2010-04-03T20:43:38+00:00
BUILDR-208,51856aa2815bbb850107e7f414682b9bbea2368c,2010-03-16T16:15:44+00:00
BUILDR-208,1bd07190b99173436831de79d5cef8730d382de2,2010-03-16T16:15:44+00:00
BUILDR-57,53c079f0dc64903f5eb0908b6ca992c164fe10ed,2008-04-02T01:13:50+00:00
BUILDR-57,3d65b48f2d1ede639bca52d8463a9564435d06a8,2008-04-01T03:03:05+00:00
BUILDR-55,bf940571ae60488d41c24c79ebd1553a6b9ab35c,2008-03-26T05:23:15+00:00
BUILDR-55,f8af3e92af7b74414ee2a6d61507b2ea194dc753,2008-03-26T04:50:54+00:00
BUILDR-54,37ec8f5efb3acb57c834100400d1751432455840,2008-03-07T18:06:08+00:00
BUILDR-59,313e45d999ffc45121f9111947eca11d6079b31b,2008-04-07T03:36:38+00:00
BUILDR-563,06df968d8ef3cfcae79195108db7d5457fed7c10,2017-02-13T23:24:25-08:00
BUILDR-442,9110d786eeb85140c210c29dc02837dbb7c1e237,2010-05-21T05:25:25+00:00
BUILDR-442,3ac5a202a7aefa3fd7c257bdbfbcf590495c1e48,2010-05-21T05:25:25+00:00
BUILDR-562,5c643a311d181f06e6c09b33b98a5a24c546d6b7,2011-01-28T20:03:57+00:00
BUILDR-562,dde0eeb34ca4eeb08d2e9347c59f3b10a0e4c83b,2011-01-28T20:03:57+00:00
BUILDR-320,c0c415558b88dd3bfd5f6923e2ee2c88e9701b9c,2016-08-15T00:24:47-07:00
BUILDR-565,fa4750b70c40398bf528daa79ef0c1931405eff6,2016-05-19T23:21:04-07:00
BUILDR-323,861acd6f33b9a12dba6e70ec3354249c51fdc63a,2009-09-30T23:09:07+00:00
BUILDR-323,e1de36474cf7b1744e7161ad7002f3e87a4c1c7a,2009-09-30T23:09:07+00:00
BUILDR-443,71adf3e9ed603a13714bfde461b76e0a993abf3d,2010-05-24T22:16:50+00:00
BUILDR-443,d29ef2167eb60b4f9f2db8a510811dd172fbab48,2010-05-24T22:16:50+00:00
BUILDR-322,e0222de8a3f055103e15d6e91a48fcfc22df84fa,2009-09-28T17:36:52+00:00
BUILDR-322,e049b921c76f10911f645285399e024892c80458,2009-09-28T17:36:52+00:00
BUILDR-201,d584bddef782ea35101e999f6b742bc4058c5a51,2008-11-06T19:13:27+00:00
BUILDR-688,c292e7df8a56638b7d070cecc96c6469e7bf9d38,2014-08-25T12:10:14+02:00
BUILDR-688,feca29aaa8587782a933c83db8c44735911f52ef,2014-08-25T11:41:00+02:00
BUILDR-688,9a5eb0e95654724d93728a2a355e37688578133e,2014-08-25T11:37:06+02:00
BUILDR-324,c43828e58afa633973cf11ad185413237c53e6a4,2009-09-30T22:41:48+00:00
BUILDR-324,1898fa08c93a13321b8a3f037f995c881c3f8c6b,2009-09-30T22:41:48+00:00
BUILDR-203,7db48b8fd9a43db2dc6b6b53a502deb071988f6a,2010-07-08T02:39:18+00:00
BUILDR-203,e30da970bef3adb15f33340aa94fdbef3620571c,2010-07-08T02:39:18+00:00
BUILDR-569,796f093c735a3ba5f4d71780c365730fe686494c,2011-02-08T04:56:01+00:00
BUILDR-569,455db317d75f24e591648732b804b95ed5440b2e,2011-02-08T04:56:01+00:00
BUILDR-327,8e24f8fd01d469940e4b000e90ea3c250b6552b7,2009-10-11T00:27:47+00:00
BUILDR-327,bf2d687f5a9c7387392f91481f18720fad33f503,2009-10-11T00:27:47+00:00
BUILDR-689,d85074bd3f0676ced1c57e3e0477ffc26e5af105,2013-10-22T23:50:23+00:00
BUILDR-689,8c8483eed5d60ac2f02e5e9ea86894e6238c53fe,2013-10-22T23:50:23+00:00
BUILDR-689,84e9da09a0348fd4efb7bc7dfbae25bebf943e2e,2013-10-22T23:42:14+00:00
BUILDR-689,dbb367cd0f202292ddd2028a0a1ced2557bb5612,2013-10-22T23:42:14+00:00
BUILDR-447,8c3b98e3c2336c98ac98f3acf1ca259710d18a8f,2010-06-05T01:54:52+00:00
BUILDR-447,3ca1268b82b872b277eac14681fc3d3c24843c83,2010-06-05T01:54:52+00:00
BUILDR-447,312c48893234c19699fc61e82ebb637983a81ab1,2010-06-05T01:52:05+00:00
BUILDR-447,35e20a1fb385061acc348d009e366c0597ab522c,2010-06-05T01:52:05+00:00
BUILDR-681,2ac0e4a840cb199673467d0fe0ff04ae17f05b1f,2013-10-09T06:06:06+00:00
BUILDR-681,8a84524a5a2bd5d901ebaa2c8c647dd54df05257,2013-10-09T06:06:06+00:00
BUILDR-560,34af5cda5eac435e7c22656f0b2b2eeca2b6df4f,2010-12-09T01:41:47+00:00
BUILDR-560,289c5c9c3a4c6559ae368386086ff1d460ab73c4,2010-12-09T01:41:47+00:00
