Bug ID,Bug Fix Commit Hash,Date of Commit
COUCHDB-2858,a8146e097350ce909589b25a71819984a94d1672,2015-10-29T17:29:56+03:00
COUCHDB-2858,2147dba9c87ae0ae39206009bdb2784108507a16,2015-10-29T17:27:38+03:00
COUCHDB-2614,698e3490e6ae5c0dc51cafe1dcbccfc0f1bf5819,2015-02-24T19:05:45-08:00
COUCHDB-260,de490b914af7ed6ca55922ffb2ea2ace972ecea9,2009-02-25T06:34:03+00:00
COUCHDB-260,0fb2f9696d8005eb46d5efeac1ae217fe0fb6a04,2009-02-25T06:34:03+00:00
COUCHDB-2850,a8146e097350ce909589b25a71819984a94d1672,2015-10-29T17:29:56+03:00
COUCHDB-2850,32e9653530f8f347cd4947f6da8f2efc35824083,2015-10-29T17:26:54+03:00
COUCHDB-1760,807c4e32fa0e5aa4fd4a74a2338df215ffbe5ac7,2013-10-16T10:24:52+02:00
COUCHDB-269,f856b583124069e7594cb669670db5dd6d003bf3,2009-03-05T19:47:25+00:00
COUCHDB-269,e8ca9805f1ea6fb13cb7255ea90b127ac3b8201f,2009-03-05T19:47:25+00:00
COUCHDB-266,cb03fe83412bd514bdbfad0e7ac0da76be3bf372,2009-02-24T13:58:34+00:00
COUCHDB-493,e537632a0b357c265876517efccd0bc06950799a,2009-09-02T12:42:52+00:00
COUCHDB-2628,6c4aa04e21cc94c4e2d1c9718a52d5fbffb58b73,2015-02-26T21:57:10+03:00
COUCHDB-2628,c685590243164e6812559ad1bf9d4517f46ab2cd,2015-02-26T21:56:45+03:00
COUCHDB-2628,b24a63279868a23becdef306fc6e2bad4aeb5006,2015-02-26T21:55:43+03:00
COUCHDB-492,e9cbe42d6c3b6a149c40d285bb35b3bb85627e40,2009-09-02T09:35:05+00:00
COUCHDB-492,2fa163c599b81018a60790cb7a0400e21e8d6d89,2009-09-02T09:35:05+00:00
COUCHDB-253,85618192f3d3f70f1ce46749a14f8ec74f8b12a6,2009-02-13T17:58:03+00:00
COUCHDB-253,9b2e6ed37184709e70def81d53246a9fe58f18ba,2009-02-13T17:58:03+00:00
COUCHDB-2868,853177ca42160e572610cfec5c9c9f5ded9ecedf,2015-11-05T13:42:05-08:00
COUCHDB-1537,cda6f2f9e24ab6fb831bbbbe6bc1fb88ace14f2c,2012-09-28T18:19:18+01:00
COUCHDB-1537,ac320479035ac7a844686f2efb5b314baa33e14c,2012-09-28T18:19:18+01:00
COUCHDB-2863,9a1d0c54c78cef70d1a3992f3c71ef2878c498e4,2016-05-17T10:53:25-05:00
COUCHDB-2863,6360857f30d2917827a5088015b16beaba8df4b2,2016-05-16T11:20:12-05:00
COUCHDB-2863,09a370ab98aa31f45b57f3931dfa8b6e2ad04dd8,2016-04-21T15:38:36-05:00
COUCHDB-497,04183abfb1c3af4c56492bca21d12543bb314071,2009-09-15T13:04:10+00:00
COUCHDB-497,fc201b8869eb22cd1ef39d11bf945283c439059c,2009-09-15T13:04:10+00:00
COUCHDB-498,85d1cbfc79eb0a04ec7f16624d6290920b4355ac,2009-09-09T01:48:24+00:00
COUCHDB-283,3c3e005921f594d9be6c85f759893ba1905bc83c,2009-03-06T16:45:45+00:00
COUCHDB-283,ca79ad7b3104ba4a55006a358b3b7ff2f0c060e8,2009-03-06T16:45:45+00:00
COUCHDB-2878,3f268abba89bd5b93f43185465e66ef42b3876ad,2015-11-12T10:53:00+00:00
COUCHDB-286,d865942f5b19f88598df4f33b6e628ad78610c06,2009-03-10T08:19:58+00:00
COUCHDB-2879,ff8a673734b1687abeedb06c6eab032b8a23f2ed,2015-11-13T02:54:24+03:00
COUCHDB-1309,cb4850313b944632a3a2744099bdb947c236c4e9,2012-07-04T10:45:31+01:00
COUCHDB-1309,0e9c5a5afbb35f6fdaa059fa56c6d5ccb87baec9,2012-07-04T10:45:31+01:00
COUCHDB-1309,98abd3b826b92b8912a84bbe7171ce7f74f3d8a6,2012-01-17T20:38:41+00:00
COUCHDB-1309,8d6363cd3b4a2dfcbc2e488f7c3e716dfdc8f17b,2012-01-17T20:38:41+00:00
COUCHDB-1309,72992642d2a5f15b417736e019ef2b6437300fc9,2011-11-15T13:00:18+00:00
COUCHDB-1309,cd67817f2f42c65250566e4173b2fb09fb6d6326,2011-11-15T13:00:11+00:00
COUCHDB-1309,ee942109e39d88947e82672c526d8277f9824b65,2011-11-15T13:00:11+00:00
COUCHDB-1309,b3c84c235c7e7d1e5c04c4441a73afdc1806960a,2011-11-15T13:00:06+00:00
COUCHDB-1309,34516a8b45708b4917eff27a9363b476fe40e26a,2011-11-15T13:00:06+00:00
COUCHDB-2630,a7cb8fd3edd4ec21ad0cec4a96a2c496ccc3e7a8,2015-03-31T14:04:19+01:00
COUCHDB-1788,7c9704c449a1883843491ab68c34a1b7b92f28c9,2013-05-06T10:34:04+01:00
COUCHDB-1788,65107660fa11b05d69476b76e69c66486b44bfea,2013-05-06T10:34:04+01:00
COUCHDB-2632,a7cb8fd3edd4ec21ad0cec4a96a2c496ccc3e7a8,2015-03-31T14:04:19+01:00
COUCHDB-288,61985d24d7644e4904cdb59ab58ec3c3d41e906c,2009-08-04T12:28:58+00:00
COUCHDB-288,afb9467fbe19d0741559253d3042627c299abbcf,2009-08-04T12:28:58+00:00
COUCHDB-1319,45115e82325cb82f6cf242ed2f693dc2ab4713f0,2011-10-30T14:27:39-04:00
COUCHDB-1319,1dc866b3c795d7d7515f732f444cd54e656390bc,2011-10-30T14:27:39-04:00
COUCHDB-1317,cae15a126ab63251ba5e99ca79b69030469dcaff,2011-10-26T09:38:24+01:00
COUCHDB-1317,02e808ae18e42d10152b29b4dfd93932ad0389e7,2011-10-26T09:38:24+01:00
COUCHDB-2409,a8146e097350ce909589b25a71819984a94d1672,2015-10-29T17:29:56+03:00
COUCHDB-2409,5b4520b9baada836485a5a20c2291d22e0de124f,2015-10-29T17:24:13+03:00
COUCHDB-1795,5e2a4278ea50d284c75469a4cf3c5a2d26ceb63d,2013-12-14T11:39:04+01:00
COUCHDB-1793,b1c87da66ce6e5c59ee14681c54e64652137782f,2013-05-27T17:26:26-04:00
COUCHDB-2645,f6d4901bc5717c17397d8baec27e3501d92c1fdb,2015-03-31T08:50:48-07:00
COUCHDB-1799,4abe8cd97f1dfe15c414989af67703952cb607fa,2013-05-22T16:30:59-04:00
COUCHDB-2643,a7cb8fd3edd4ec21ad0cec4a96a2c496ccc3e7a8,2015-03-31T14:04:19+01:00
COUCHDB-1312,ce41b0535deaef4c8e42735604f0c72bd914a7a5,2011-10-31T01:05:16+01:00
COUCHDB-1312,31edafecbe9e089302da43e32da538eb093543f4,2011-10-31T01:05:16+01:00
COUCHDB-278,0d315e6a89b4dedb093a52f8f8604c71605046f7,2009-03-23T17:40:49+00:00
COUCHDB-220,fe2727b59f271a7085d1905e61f808a87d575384,2009-04-09T21:37:23+00:00
COUCHDB-220,cdf43ab5a1d5ea21e42302c848fe4f07150e6947,2009-04-09T21:37:23+00:00
COUCHDB-461,c4df256f42cae5ca05bf00cbf9fd331186fb7dc9,2009-08-14T06:58:30+00:00
COUCHDB-461,6b574e7ad82ab7c9d5896cac7188677f6d71e09a,2009-08-14T06:58:30+00:00
COUCHDB-461,29b6c94def3a16066861e214cfa6ae52c11ed620,2009-08-14T06:10:16+00:00
COUCHDB-461,83ec3acc48ad9918ca54168a3a41a60f6b0a615e,2009-08-14T06:10:16+00:00
COUCHDB-1563,07a6af222247d34c41ee8eabec9822c26a407ff8,2012-10-25T00:29:02+02:00
COUCHDB-1321,064bdd92cc28ec5ba7531ec761e8af0c2bd6307c,2011-12-10T19:57:02+00:00
COUCHDB-1321,f20dcd207da624f18c2f7f740d011a7ff7f42bc3,2011-11-13T13:07:05+01:00
COUCHDB-1321,c307ba95c6edcb0708b948c5fc55d8a6a6192e40,2011-11-13T13:07:05+01:00
COUCHDB-2650,1c8a3026b2b695755a1fd39530276d4f90235ab2,2015-11-04T23:53:36+01:00
COUCHDB-2651,6490184bf36c6eb04587d5fb3bd86923e62ec2b5,2015-04-05T21:56:12-07:00
COUCHDB-1320,064bdd92cc28ec5ba7531ec761e8af0c2bd6307c,2011-12-10T19:57:02+00:00
COUCHDB-1320,cfc839e5f38b45705dbc4b3d30275fe5ff66e9c5,2011-12-10T19:40:26+00:00
COUCHDB-1320,094cfe795286b74303ec517c2262e4845428def9,2011-12-10T19:40:26+00:00
COUCHDB-2656,f7b9dae2db409299102131c449f1d331a7bd915a,2015-04-29T12:29:03-07:00
COUCHDB-2656,44fe5b6b2280ac1228f8b5e89794fed7cb8bc6ef,2015-04-23T23:42:17+03:00
COUCHDB-2656,79e7eba3e61e766d1c04408c02cc6156f7032e22,2015-04-23T23:37:52+03:00
COUCHDB-2656,6ddb2ab7a1af7a9def8b22dea013cc9f400ea084,2015-04-16T08:01:33-07:00
COUCHDB-2656,0b5e15e0ff9cd5ec13f5a332b0c3f1f2951ccfac,2015-04-16T07:50:58-07:00
COUCHDB-2656,1a15afcbf125fef512bf6a35e10bc25dc13cf4e9,2015-04-07T08:49:53-07:00
COUCHDB-2656,1dc8d5252d8fbaa9df56ee63800fa616c154602e,2015-04-07T08:20:17-07:00
COUCHDB-1325,e76ec9da57a557a9f1033e162cde5ba384a7ba6c,2011-11-01T11:57:09+00:00
COUCHDB-1325,4a0d87dfacd7b536f460f1fbc62947db3d4c38b7,2011-11-01T11:57:09+00:00
COUCHDB-1326,7e8d492674716aad8a8e2656cadea94b8b93a416,2011-11-01T19:59:02+00:00
COUCHDB-1326,2bdc0b4f0467eb1243be635efc5bece524979d56,2011-11-01T19:59:02+00:00
COUCHDB-1565,67ae11292cd8c1e270f82dac16dc121376f1fb51,2012-10-24T23:31:05+02:00
COUCHDB-1566,d7e913de1e8e988acb2105e010201af6413f3ffa,2012-10-24T20:45:49+02:00
COUCHDB-1324,1376d5de8f47d527d5937ade181d59d35fdd6954,2011-10-30T22:50:57+01:00
COUCHDB-468,49d6586f26b38e7dcaa60af2b65c099b1190359f,2009-08-16T03:07:21+00:00
COUCHDB-468,58251b581684923782f879e67b13361644592a37,2009-08-16T03:07:21+00:00
COUCHDB-226,a90d601dfceb3210d90fa1c5692748ca20dbcfda,2009-01-30T03:50:44+00:00
COUCHDB-226,d6fa592563650395d2dfbc814915d239c335bea3,2009-01-30T03:50:44+00:00
COUCHDB-225,614f3c26d98ab656e095b5672511d710732f034a,2009-02-01T08:00:46+00:00
COUCHDB-2663,fa557b72835f35f34d6417b590727013647286b3,2015-04-18T12:48:20-07:00
COUCHDB-1333,2646c918fbf60a57aa76cf20b10fd495f43617d3,2011-11-04T15:41:35+00:00
COUCHDB-1333,2190ff008c3c701e603c128f7effa9cae4897107,2011-11-04T15:41:35+00:00
COUCHDB-2667,65ed085166309d656dc3e091425c734d3213b74d,2015-05-07T08:10:20-07:00
COUCHDB-2667,2c267617d81f49a2ff549462075acf9a9b766b99,2015-04-27T07:41:50-07:00
COUCHDB-2425,1ca78bfd8058a79fed6c754dd5771ad80d554625,2015-01-23T19:05:28+03:00
COUCHDB-2425,f9d0785c93a6523e187ec4bcc8e487def5db8bd5,2015-01-21T22:21:12+03:00
COUCHDB-2426,f9d0785c93a6523e187ec4bcc8e487def5db8bd5,2015-01-21T22:21:12+03:00
COUCHDB-2665,40e88fc7b95017270400e4fa78c3357f125fb0f0,2016-04-17T20:03:45+02:00
COUCHDB-2666,63e885908b0e9cf87b4fbba6664a129e73edb1d0,2015-10-22T21:54:03+03:00
COUCHDB-2666,895715a6adf317a7b2f25dc54b0ce7eb1191c8ff,2015-10-21T12:56:26+03:00
COUCHDB-1340,eb3da6343384dc2c4fe03d8ac2c457e628bf1bec,2011-11-17T18:16:08+00:00
COUCHDB-1340,e0ae630f95cc7ab391257757f8865fa646c7c1dd,2011-11-17T18:16:08+00:00
COUCHDB-1340,2e486781af61b1286029c13496ba5ac2edd0bbf9,2011-11-17T14:29:16+00:00
COUCHDB-1340,df13c3b50196e6165514433db84576d19f09ce92,2011-11-17T14:13:05+00:00
COUCHDB-1340,8bbaeea38cd022117dae4b40adf3b7acdf02ee2a,2011-11-17T14:13:05+00:00
COUCHDB-1340,3104c36670b243b22769f74fbae46c6ef413f7d2,2011-11-17T14:13:05+00:00
COUCHDB-215,cf4fe7f822e897353e9a2a97a6e432ff351a9d26,2009-01-19T23:31:51+00:00
COUCHDB-215,06a084d40de16f72b6278a63f4c06c2d2b0c9281,2009-01-19T23:31:51+00:00
COUCHDB-215,6dbe03c51c79ae28f614ef34225348becf2aa204,2009-01-19T21:07:26+00:00
COUCHDB-215,e18359140f647a67874b2cfff5cf71980a2ca2f2,2009-01-19T21:07:26+00:00
COUCHDB-214,3de248e62554b399cfa658d9ac1cf088d0b66381,2009-01-21T20:11:31+00:00
COUCHDB-214,5682009dd6089269a6e26ab065dd2bc7eec38353,2009-01-19T22:22:37+00:00
COUCHDB-214,8d735cb60ee4ca15dd9f60f916d001c4b9efb675,2009-01-19T22:22:37+00:00
COUCHDB-459,2500ff087b87ecf39db3d8ee01db0cb4822e8e08,2009-08-10T12:34:08+00:00
COUCHDB-211,ed46f6d82b80825695ee7d951721c759dc7d1103,2009-01-16T10:04:18+00:00
COUCHDB-213,ceb625242d53f52680021fa619fd7f104e091722,2009-01-24T12:27:15+00:00
COUCHDB-454,503e1691529cd3be54fadbf765f7961ef7d1ca10,2009-08-06T13:40:45+00:00
COUCHDB-454,4c1b0886f0a2481d23eee13c1475a383800cc1ec,2009-08-06T13:40:45+00:00
COUCHDB-482,241f3fa22ff3977d4a9c5186984bac98d94b0b62,2009-09-01T13:08:40+00:00
COUCHDB-483,c8115775f55193096bbacbd4d76d804ed5bd9bba,2009-09-01T13:32:33+00:00
COUCHDB-2674,a8146e097350ce909589b25a71819984a94d1672,2015-10-29T17:29:56+03:00
COUCHDB-2674,f087a016e9a75c9f2518a29dec37a6c8dd27871e,2015-10-29T17:26:03+03:00
COUCHDB-2673,68a02899522a31ff7022f0f1a542054ec00ed440,2015-10-01T14:55:09+01:00
COUCHDB-2673,9ffa1607bce778cc26dccf08a7739fa6d61a5fee,2015-10-01T14:48:15+01:00
COUCHDB-1103,2418a845bd8cf0852764b654cfba0cd4e5842f26,2011-04-25T23:45:32+00:00
COUCHDB-1103,ac07d723c566dadaec1d641c9a5e6a927266e247,2011-04-25T23:45:32+00:00
COUCHDB-2677,35bb5ddb4cf66e875755cb93e0718488e73336c7,2015-04-28T13:17:05+02:00
COUCHDB-1346,ad50fe95150e24a3205195755351ceaa0918e4ea,2013-07-23T13:14:33+02:00
COUCHDB-1346,c13d84bb8971d036d1b0730bc852649d61ba43a6,2013-07-23T13:14:33+02:00
COUCHDB-1346,6ffc52796182a8d3673f3648c59c7e9abddf4fa2,2013-07-23T13:14:33+02:00
COUCHDB-1592,e696e4399a2cabeac0d77b50f663be4379670164,2014-08-23T12:16:52+01:00
COUCHDB-246,3318b8d5c6ccf4d157f69bd197ddbc426ddb67e4,2009-03-06T18:20:09+00:00
COUCHDB-246,5b9b9823e091b6e8720d3930785f59c424239daa,2009-03-06T18:20:09+00:00
COUCHDB-245,2d27a971eb1f39f93187101f66c0f1a31811d849,2009-08-15T02:09:16+00:00
COUCHDB-245,f56afb1ea2dbd59262947ed27bb1913394aeb5c6,2009-08-15T02:09:16+00:00
COUCHDB-471,a6ef08d1670d15e3a91befdc3411a64e5a27c0fd,2009-08-18T23:26:56+00:00
COUCHDB-471,f8a813f27254fddbcb1b43b9c65ec10af69b4038,2009-08-18T13:44:39+00:00
COUCHDB-471,2ca6b9383da5bada660d835680c73b18224de10d,2009-08-18T13:44:39+00:00
COUCHDB-473,c59f6d4dbf68c228f217b1b838286f5f57746603,2009-08-18T13:58:36+00:00
COUCHDB-473,bc185008d8e891d406a938756b5f091c41fe3fa1,2009-08-18T13:57:37+00:00
COUCHDB-2201,d2a3c3c09869954dbb3cabbd4543c036e55412f0,2014-03-13T14:04:00-04:00
COUCHDB-2684,9c23a065dd30577aed887b2e371a23e9557d4fcb,2015-05-11T05:49:35-07:00
COUCHDB-1353,ce1a1f8ec4adfbdf2bc6e4d1971e265ffe7d604b,2011-12-02T12:47:26+00:00
COUCHDB-1353,0c6f529a73c8ce4e81e95e90eabf2f0b772b3a64,2011-12-02T12:47:26+00:00
COUCHDB-1111,30eba0586552f957fcc6435e5b573583e92a8679,2011-04-16T20:38:49+00:00
COUCHDB-1356,f6a34da73b0b1c3552b77afa037c9ae287237f87,2014-12-25T23:49:13+01:00
COUCHDB-1357,05f9edab323dc0df595d406b2c3dcd03bf7b7bf9,2011-12-16T15:13:39+00:00
COUCHDB-1357,84510eb0d182b99891cce80579ba16cc67e71889,2011-12-16T15:13:39+00:00
COUCHDB-1361,0658d982e41e94da6084988b24a347898f51ea8e,2011-12-12T14:21:38-08:00
COUCHDB-479,546db2b8fa0c2cc62740c7f427d91f097270d725,2009-08-23T14:51:24+00:00
COUCHDB-479,ab71069d36708d68206b79d97affce03173366b7,2009-08-23T14:51:24+00:00
COUCHDB-239,dd67e81b940e459d9f2775dde8632b6896639adb,2010-06-01T15:39:06+00:00
COUCHDB-238,f9b6e974077df38bf211e1ca3a6e972592d9f4ed,2009-02-11T16:08:38+00:00
COUCHDB-238,59f41c2678f59a2effade9651c0de11bbe811c56,2009-02-11T16:08:38+00:00
COUCHDB-3307,8fc85c8653dcec640717d8a51ea29a28194cbe4a,2017-02-28T11:40:00-05:00
COUCHDB-1365,affa43dd9e110ec4ecef2f942cfa715e590a5935,2011-12-19T14:26:29+00:00
COUCHDB-1365,c64030fd4c6be3b9e0456123a60124c7b0f8d028,2011-12-19T14:26:29+00:00
COUCHDB-1365,5e2396fdbe0408f065bf799913a8ade33ca7bb6d,2011-12-19T14:26:29+00:00
COUCHDB-1363,80d7d09c504dabe8d67c172fadbcd9745e8e40bc,2011-12-15T16:45:33-08:00
COUCHDB-1363,573a7bb90bb86fac6143abbd0f46e1487136f7b7,2011-12-15T16:45:33-08:00
COUCHDB-1369,1b6bc4f0bcc481f67e6c789bf9906aaf93ebb020,2012-01-23T16:19:41-08:00
COUCHDB-1369,5cece68ec4e18d6be8e37dfc0e7b786b0e2140c1,2012-01-23T16:19:41-08:00
COUCHDB-1128,c47216cb70b2fcdb864102adf6dbe0bb680263f9,2011-04-19T20:36:48+00:00
COUCHDB-1128,0d941ef5b0597ff82606aedc47d6c6b4dc500d61,2011-04-19T20:36:48+00:00
COUCHDB-3304,8cf4896ff421898ea5d93de170ab8fbcbd317f4e,2017-02-20T14:01:58-05:00
COUCHDB-1368,11f3586558c82fc37159bbad90aa732ab8ab0a81,2013-01-08T21:17:35+00:00
COUCHDB-1368,a2b3cc72229b86805ad11a27e93e74a78d6bdfa6,2013-01-08T21:17:35+00:00
COUCHDB-2461,eb616267ef5cdd8f76ec80322f397b50c82f4e3a,2014-11-22T22:08:30+00:00
COUCHDB-428,72edcd3eb9152d0dbf1bd7d8eac5f42cff95ed44,2009-07-22T22:22:28+00:00
COUCHDB-2462,4ea930e62f4e2fceb0e13a62ecd90cb628477c9c,2015-02-09T19:53:22+01:00
COUCHDB-2462,2a45cb0325b72eb0910029bed5d2c38f784f68f9,2014-12-01T21:22:43+01:00
COUCHDB-2220,e348d4f2da082cee52d11efc6fbc94f1d8a047c9,2014-04-21T01:30:01-04:00
COUCHDB-1371,ee00d8183f9cff14e900897fed7a14f78bb7f617,2011-12-28T23:58:56-05:00
COUCHDB-429,dc26215a3a831d940f8590c9d1f359e7f2c27e68,2009-08-14T15:17:23+00:00
COUCHDB-666,e7467d78f30cc2da6f45021bbc994f4079269557,2010-05-22T21:46:08+00:00
COUCHDB-666,1ea5ee0b22f275aa65f9b0f657f01942f11b3524,2010-05-22T21:46:08+00:00
COUCHDB-668,21bf95639695e0a3a8379ff2a03a0061246870b0,2010-02-23T21:37:15+00:00
COUCHDB-422,4d50f589627ed3aecf479571523ebc332a59b2b1,2009-08-14T15:47:27+00:00
COUCHDB-422,786bad421dc20bdcf9f7e0a7b5590f65d0c90451,2009-08-14T15:47:27+00:00
COUCHDB-3318,f706bb87be71006875c2fbaed3a14a18c79396f8,2017-03-06T12:05:33+00:00
COUCHDB-1134,f8cd2a823dc8185b2c1e839f2b98853eb6c3b453,2011-04-21T09:45:16+00:00
COUCHDB-1134,f022e13026dd0a4ca51e7d66084d2485e82f7432,2011-04-21T09:45:16+00:00
COUCHDB-2221,7439833ea51ac1436f341c7aab6e8de1fe4a2a18,2014-05-21T17:08:11+01:00
COUCHDB-2221,67389ff1e2cb8aa227674aa586d4e99f5c9931aa,2014-05-21T15:00:46+01:00
COUCHDB-2221,dbe769c604e5f1e000594336f8c4546bf9e3fd5a,2014-04-06T22:09:54+01:00
COUCHDB-2222,23490c143d3e8abc029c0ceaeb81d910e0a06949,2014-06-02T23:10:03+02:00
COUCHDB-1138,30cac602a6e1a52ce07f3d2a7c0a718538d6c74a,2011-04-23T22:56:49+00:00
COUCHDB-1138,0ce2c544b632cb6b405738d5e83d618e079a5d9c,2011-04-23T22:56:49+00:00
COUCHDB-1136,e9ce68377f4d3b250aaf2e786ece06d5174fc907,2011-06-08T09:37:58+00:00
COUCHDB-1136,6223d06446fae7a912cdde35f2f60ff28bf305c7,2011-06-08T09:37:58+00:00
COUCHDB-1380,269224b8d3ddddc2199643a0500076f4250c7d75,2018-11-15T13:31:13+08:00
COUCHDB-1380,066911b9a52dac1ecaf55e0ad655f6d1743a61b9,2012-01-17T14:46:23+00:00
COUCHDB-1380,6228b178543429732c17b3a784c957d3782573b9,2012-01-17T14:46:23+00:00
COUCHDB-1383,ce483428d6553c9b2f8930e4649c4770ed83f78c,2012-01-23T20:27:01-08:00
COUCHDB-1384,2ab1e878e171e6d6c77f882a7c00d6f16f6b2a03,2018-12-08T10:02:49+08:00
COUCHDB-416,8a0ecc7cde0e52fb2fe01bce22873b77c1e72372,2009-08-15T05:11:45+00:00
COUCHDB-416,165531bcf223f1c05c4c2eaef7cd2f2943c10584,2009-08-15T05:11:45+00:00
COUCHDB-1381,dfc5d37c4a29ed02d74946aa88576c98731a5c51,2012-02-18T15:33:39+00:00
COUCHDB-419,ea9ff82bd951159cf2b535704c8eb9abf406a3f5,2009-08-13T19:39:30+00:00
COUCHDB-419,9d5e79af0d87ff2f5e361396976d7a0ee7a3af13,2009-08-13T19:39:30+00:00
COUCHDB-418,e4b2d064fae37a7064beade87bd9e90f2f569d23,2009-07-21T09:18:07+00:00
COUCHDB-418,51b496b3e25c03323ce296fcb4a2a932c9b77f4b,2009-07-21T09:18:07+00:00
COUCHDB-896,b36fa4fbe4f5f62129d8025e0e9df6bc6489a156,2010-10-18T14:05:44+00:00
COUCHDB-654,2de803188f6a9fea703bc1f02679e8fc29050297,2010-02-14T18:17:19+00:00
COUCHDB-414,9807cda46b01f31bc77025c34a8b7f4275be6563,2010-06-02T21:47:28+00:00
COUCHDB-893,105f89c462ba7dc68d00fb238abf2a8d1e778071,2011-10-02T04:11:45-07:00
COUCHDB-893,b09c2694b36e6f91d19e9501ad3d2904c537a2b3,2011-10-02T04:11:45-07:00
COUCHDB-411,eb0d68018c0f0d76b2da54b1911b645be2c72aed,2009-08-04T17:25:17+00:00
COUCHDB-411,251e9ad70c6851023f6765fa5b5a6fdcc8456b2a,2009-08-04T17:25:17+00:00
COUCHDB-2238,3e981dc047f65a32e758929ed82077b791d683a9,2014-06-05T20:59:25+02:00
COUCHDB-3325,92c25a98666e59ca497fa5732a81e771ff52e07d,2017-03-14T23:59:11+00:00
COUCHDB-1394,cc56d78ae43be3519162cf77769c8b60aa1f1927,2012-01-26T14:58:28+00:00
COUCHDB-1394,a11c41dfb003c460b5a10d6515934b85a878bf94,2012-01-26T14:58:28+00:00
COUCHDB-1394,7309340cf941f28a8a6975c75697ed28e2ee805b,2012-01-26T14:58:28+00:00
COUCHDB-449,6ea30ef1faaec54244d6272e11c1c839b9f6ac4a,2009-08-15T01:55:32+00:00
COUCHDB-449,bff8b7d9751fad8319124fbfa238446170885b21,2009-08-15T01:55:32+00:00
COUCHDB-206,ba57330812fe24e068e8a08244a1abf667861d18,2009-01-24T11:39:21+00:00
COUCHDB-206,d35cbb3032767ebe2632b9be69f1b88f8522639e,2009-01-24T11:39:21+00:00
COUCHDB-205,54986fe78df83e75b369c5a0c3049f36f96f1ba1,2009-01-13T10:52:28+00:00
COUCHDB-444,b8da5590d2660ce7c078acf4c1fa1e85f90e0cbc,2009-08-01T11:16:36+00:00
COUCHDB-444,2cf4fec22fa7214b11363eb7430c411e0afa6221,2009-08-01T11:16:36+00:00
COUCHDB-671,c91a533e432a3297dfc67049338c97f6c53daba6,2010-03-04T21:46:55+00:00
COUCHDB-670,c091f9f165da576bca9de415564f7cc8d009475c,2010-02-25T06:09:30+00:00
COUCHDB-1156,e92b098d0649dd2aea2038108038c3d76ec1ec6c,2011-05-11T08:45:54+00:00
COUCHDB-2249,9fb9b4b799daea53e02a4e8ff7dee03d0ec0608c,2014-05-28T11:33:28+02:00
COUCHDB-2007,f32dae50fde7e20b52bb8399d42e9b0cd3a89b8d,2013-12-19T21:48:49+01:00
COUCHDB-1158,b88c42cfd3a65e4de668a64477d58af00b146e8b,2011-05-11T14:26:21+00:00
COUCHDB-1158,fbb9b3ce9848e6937b8c054e6a6b58fd187c8f8a,2011-05-11T14:26:21+00:00
COUCHDB-3100,a9dd4c4cc86634e4bd9c0ec7d947c12e467d1c7f,2017-04-18T12:57:50-04:00
COUCHDB-3100,96d10a9046f829802443fff799f9fff061b8c415,2017-04-15T13:26:41-04:00
COUCHDB-1163,98fc96a1cbfb07e3734c8b42b7f1ca1beca40d53,2011-05-26T22:21:27+00:00
COUCHDB-1163,ce6a0fb730ee16be5d17de793e95990d76f9426b,2011-05-26T22:21:27+00:00
COUCHDB-676,668539cdb048731c6c89824daaddaf909e355de3,2011-10-30T22:03:42+01:00
COUCHDB-676,ee8044ff5fe75dbd2f802ab50834af45a04299c9,2011-10-30T22:03:42+01:00
COUCHDB-434,a8e9f9f5442c3977dee6500a1035b2b11c19964c,2009-07-29T21:48:53+00:00
COUCHDB-434,a05287f49dc20ef83f89668f1d2603174823565e,2009-07-29T21:48:53+00:00
COUCHDB-678,45049f17ea21902e9d00a04171dabfc446f1374c,2010-03-01T14:57:28+00:00
COUCHDB-678,14bc90f931430c7cc3bf2af3f09874445dac7d29,2010-03-01T14:57:28+00:00
COUCHDB-430,808c4c2c9b22fc35d47a4a76db8b59fb34cbd369,2012-11-28T13:42:38+01:00
COUCHDB-430,2a74f883758b194dd23394926f2e1b0fbb81dac1,2012-11-28T13:42:38+01:00
COUCHDB-3104,ef5df133bbee5fef0622ce6cdd646c7a08c11dbb,2016-08-15T10:26:14+01:00
COUCHDB-3104,f67ebff225d63d20ccbcbd33de800f86911a5e79,2016-08-15T03:20:44-04:00
COUCHDB-3104,40a087630b9b6688fe2db87f1e8adc7972c4a0c9,2016-08-15T02:50:56-04:00
COUCHDB-1168,598ccd4d87be97d3cbed8ab1773d5b79f0a9d5f7,2013-09-28T13:18:50+04:00
COUCHDB-1171,a85845b637ba5802a91b4e6993fbd92468585b7d,2011-05-28T16:41:07+00:00
COUCHDB-1171,4b39349f3a82f7c22074b6816825f78fce6d070d,2011-05-28T16:41:07+00:00
COUCHDB-1174,951d39054397bddb2f8d90088eae09cda3a297d5,2011-08-15T14:14:20-04:00
COUCHDB-1174,1e56ddba5cffea855de4c8f298a50b797d91beed,2011-05-23T10:53:37+00:00
COUCHDB-1174,8520662745b108f9ea78952bb4c45d0e3dd4b883,2011-05-23T10:53:37+00:00
COUCHDB-868,2b6e1ff181b0feae9ab1028c5b93c83d21548f38,2010-11-12T12:32:25+00:00
COUCHDB-868,765b145767f7c0367aac1e9dfb865385ab68fecb,2010-08-23T17:55:15+00:00
COUCHDB-868,059e5f4d9979e9fcc31dc8671f8744e2af8fe7c0,2010-08-23T17:55:15+00:00
COUCHDB-869,c118442adb9f43dcd9bd70f4113cf91aaaa00ff1,2010-09-12T09:01:47+00:00
COUCHDB-627,3ce785710e28222064bfcfd68d7fd0af96b72add,2015-10-18T12:16:57+02:00
COUCHDB-627,cdf8949d341722423828471ca45d71f2fcb3a36d,2013-04-25T00:13:57+02:00
COUCHDB-627,f006dfc57d83c548c923579e7ba7ce7e5767ac46,2012-08-15T18:35:53+01:00
COUCHDB-627,e7bb46de7853fa568c1c454fa7c25ebe404c6c16,2012-08-15T18:35:53+01:00
COUCHDB-627,b1a049bb7091d3d75092b68bb3645ae909653547,2012-08-15T18:35:53+01:00
COUCHDB-864,b8a3f8da8a9905ff2dc6dafce07c14cc290e89ee,2010-08-22T13:15:30+00:00
COUCHDB-864,4e2c27d024d5d0353ebde7f0f72c3d22f733821d,2010-08-22T13:15:30+00:00
COUCHDB-860,7bc22f91ddcbd74945c314ccb14328f07266d292,2011-11-09T02:10:07-08:00
COUCHDB-862,544bf49c09760e46507f71979f910f1ae81e2935,2010-08-20T11:26:28+00:00
COUCHDB-1178,72c90cd279c68cd219e94d89621a72f7cc5d8347,2011-05-28T17:05:54+00:00
COUCHDB-1178,87ed9e1413473682ab717529aefea8cfb9c09faa,2011-05-26T22:21:15+00:00
COUCHDB-1178,925c336f13c2ceb22326c0d633158090c46d0979,2011-05-26T22:21:15+00:00
COUCHDB-3114,d976a29364e873da7ef3a326b3e4867959beb3f5,2016-09-06T10:55:03+01:00
COUCHDB-1177,7c0175ba42e05ce083c80ff375cfd42ee9d79210,2011-05-26T12:07:19+00:00
COUCHDB-1177,731a696a35e20921fe9d639c22e9518e9ff70e99,2011-05-26T12:07:19+00:00
COUCHDB-3118,d976a29364e873da7ef3a326b3e4867959beb3f5,2016-09-06T10:55:03+01:00
COUCHDB-856,6b5e48a6e9322fdbbec0dd9e4d75c71038944800,2010-11-12T12:44:51+00:00
COUCHDB-856,c437600e2af0d9231a0d3b72d835f0188ff99ec9,2010-11-12T12:44:51+00:00
COUCHDB-2031,37c8459693dbf55cd4683c7e288dcc9ca8899e97,2014-01-22T09:32:24-05:00
COUCHDB-2031,cb5e7f6a423865d45b134495888d10aa2e8ac474,2014-01-18T23:17:54-05:00
COUCHDB-2031,832293badab4ff2c0346c37c9f63eeab1ac58cfc,2014-01-18T00:31:49-05:00
COUCHDB-2031,147adec8ef3763cb1821f411f393d6560aaccad2,2014-01-18T00:31:49-05:00
COUCHDB-858,a2cb9ece1df094055f343f226c7825a0eea60dc8,2010-10-30T11:19:37+00:00
COUCHDB-858,8a8ecd50321a24245ad020aa0808a112481e28fb,2010-10-25T18:06:02+00:00
COUCHDB-858,7bb18fb537cdf4546aa4aabe794815bf6ee9a2ba,2010-10-25T18:06:02+00:00
COUCHDB-611,85ceb17d00984b902cadc7a344f9d4adb82d50a5,2010-06-02T18:09:43+00:00
COUCHDB-850,fa06a9542d4db794dd0999af184797bcc4feb04c,2010-08-10T21:59:04+00:00
COUCHDB-2040,1ebec99c7a76bbdf0d7594628acf35768f6e2b5f,2014-01-30T11:39:07+00:00
COUCHDB-2040,e7fdc16a485ec9a9d3b6bb3555957e367ec55f11,2014-01-30T11:39:07+00:00
COUCHDB-1196,de354dcf98afd71d003a97c42822897ea0761712,2011-06-16T10:53:42+00:00
COUCHDB-1196,385cd3bc3fda58b81454ed3a0ff0e077ceb4baa3,2011-06-16T10:53:42+00:00
COUCHDB-648,743e126f26adf7ce119b0be1724444004887783b,2011-10-01T03:19:05+00:00
COUCHDB-648,74613f5c413a3d10bec024bcac8fe9e7be10ac74,2011-10-01T03:19:05+00:00
COUCHDB-3132,43f4873e62419b471a2699eebdd51b4b8c701dd0,2016-09-07T19:32:08+01:00
COUCHDB-3132,c7214fd2fef2fdbbf47964f6017c71ec8e8196ca,2016-09-07T18:56:14+01:00
COUCHDB-1197,a0e5efab6bb9d7c080b42de1c342155b3ccb3ac9,2011-09-12T20:53:04+00:00
COUCHDB-1197,778e63e5a7184267a6c430291ba667184b34ae3f,2011-09-07T22:06:40+00:00
COUCHDB-1197,c04f212ca73df07eeb9c9469a10a7fd5a76ef1d3,2011-08-23T19:17:23+00:00
COUCHDB-1197,b035c220955a31a4d2e6cc55e93328d89bb3c7e3,2011-07-15T07:54:36+00:00
COUCHDB-647,b075b0c6d997c410102a568ec542dcd04aa9cbf8,2010-07-01T21:37:49+00:00
COUCHDB-647,fdcd082dfad0fd979ce46331cc98113a1683f3b4,2010-07-01T21:37:49+00:00
COUCHDB-402,0856c340ca46b72d61035de93af2dd2fa3c1ae97,2009-07-08T01:26:04+00:00
COUCHDB-402,6012a3374081d92eaade74b15f1c072aaa6ec09f,2009-07-08T01:26:04+00:00
COUCHDB-885,98fc96a1cbfb07e3734c8b42b7f1ca1beca40d53,2011-05-26T22:21:27+00:00
COUCHDB-885,ce6a0fb730ee16be5d17de793e95990d76f9426b,2011-05-26T22:21:27+00:00
COUCHDB-885,d66a7710bf37590f903e39d2bcc3f30b8091503f,2011-05-17T19:41:02+00:00
COUCHDB-888,aaa7e33a046b0c12a08d2cde3e2fafb238f7743b,2010-12-14T20:23:45+00:00
COUCHDB-888,a18429b7bbacf5d11c18c24b6f703808bc7eb5f9,2010-12-14T20:23:45+00:00
COUCHDB-887,49f89d66f0f7f5dd9c28f00c848f3991a6c03f07,2011-10-31T10:11:42+01:00
COUCHDB-887,a0284a483f83d2fb98ff2755743053f3a3898454,2011-10-31T10:11:42+01:00
COUCHDB-640,cf579b318135d404de9e8ba4ed9b278eb0c3c66b,2010-02-18T19:55:55+00:00
COUCHDB-640,0f3bc594c57d048d329708a6c91edf5bb5be3719,2010-02-18T19:55:55+00:00
COUCHDB-3379,3f0f806e903ac334a768210a9ac4a3c7947956c7,2017-04-18T14:44:14-05:00
COUCHDB-3379,d754c8c7f7d43e6d526f800d329704e906f793f0,2017-04-18T14:03:02-05:00
COUCHDB-3378,778738b1b61dbb559a0ecc2acdd8720a02cc7ec8,2017-04-18T16:26:04-05:00
COUCHDB-3378,db2f19b8b40c12420070612acc3ed7faed45b819,2017-04-18T15:53:00-05:00
COUCHDB-3135,b43bca9b6ebb533f37f005e75799e9863fad6d0b,2016-09-07T14:23:55+01:00
COUCHDB-3135,a4db124b097089b89fe26cd9a60b88b9f38dc3c0,2016-09-06T13:19:33-07:00
COUCHDB-3376,a3ec4fef1a68628ea7fba161399cb46aea7280f6,2017-04-25T16:06:40-05:00
COUCHDB-3376,c1c6891aafac548314c8eb610b8e63f1997b107c,2017-04-24T14:54:00-05:00
COUCHDB-3376,b71677f593fb62e590f37c2cbb5bb851bd12c11c,2017-04-21T10:46:07-05:00
COUCHDB-3376,e4c3705def6021a6b801c0bc0ceaac4abbc7c0d8,2017-04-21T10:41:30-05:00
COUCHDB-3134,c17732657f03156417ccd1c6ad7dd76896d88189,2016-09-07T14:07:58+01:00
COUCHDB-3134,a0b0392afe66ece9ef3bb4fdd5a4f159c97c47eb,2016-09-07T14:04:23+01:00
COUCHDB-3134,c6b044006fcb58386099105fb6d9e0a036a62ed9,2016-09-07T14:03:17+01:00
COUCHDB-3134,00d305e7cba75f271a5fb6c807d918b4cb390b38,2016-09-07T13:08:29+01:00
COUCHDB-3134,ed52b77cd7255155d57874fe31896deae3d57efa,2016-09-07T12:54:35+01:00
COUCHDB-1199,2c36076af264a9a07b078cc9bf75cdaaad0e66eb,2011-06-21T10:13:33+00:00
COUCHDB-1199,0db6df9fb13f9af4adbae8cd724a9c1bfdc673db,2011-06-21T10:13:33+00:00
COUCHDB-3380,e367575c75dbf9ca5c325c146336b63223b5bb27,2017-04-18T14:11:53-05:00
COUCHDB-3380,c0fda54d3ed4f06f1e41db598859de23aaf0e3ac,2017-04-18T14:07:24-05:00
COUCHDB-2054,bc467c323f8a09d0bf563739cd57a0596006968a,2014-02-07T20:33:57+00:00
COUCHDB-2054,4d893387291ef4db1058a2f101bc0fd3c5064b17,2014-02-07T20:33:57+00:00
COUCHDB-3143,966fd3be90f3d058e7539dcac54a7bb03474832c,2016-09-12T08:14:30+02:00
COUCHDB-3143,29b59449dffea83470ec5c828a8ab2e8c6504a65,2016-09-11T14:08:51-05:00
COUCHDB-3143,d8432c58a004141123e13a5af6dad78e3746399d,2016-09-11T14:07:50-05:00
COUCHDB-638,ec57dea6adc98aa98edd2c0f5f443d430d4691cd,2010-02-04T09:55:56+00:00
COUCHDB-638,88c27f28fa212b1bb7e9fbd3da4fd70e34965cf3,2010-02-04T09:55:56+00:00
COUCHDB-875,cce81d89f7630f7d9b95757419d4ab91faf8217e,2010-08-31T04:21:47+00:00
COUCHDB-634,70544a1352d627503b788d45e4f6d3e978c46560,2010-01-31T21:16:19+00:00
COUCHDB-870,08f170f241e3ee85b4d10fb0ef47ffb2f8158832,2010-08-24T18:03:21+00:00
COUCHDB-2059,e1453abf7d8075906abaf240d8f31465a94b6b25,2014-02-13T10:20:17+00:00
COUCHDB-3149,b5340347294ac8047619df23b1586774d22e5b71,2016-09-15T11:16:19-04:00
COUCHDB-16,03800e092938c950a394e23e4dbb57b7a723778d,2008-06-04T15:44:17+00:00
COUCHDB-948,891bd8c96063c35a05be9d3d7c8647e1fec8c23e,2010-11-19T13:26:04+00:00
COUCHDB-948,03c6f4ae21200a1e1bbcf8a7a8bcc80a59d855d7,2010-11-15T11:37:02+00:00
COUCHDB-708,67f115e3ede1297d1a1086b321afc7fe424fdada,2014-10-30T15:30:50+01:00
COUCHDB-708,9ee298ff0af335f7449eca0f839caf0c5646887a,2014-10-30T15:20:32+01:00
COUCHDB-708,b44515f1c137994f5278f42106ecf720e2c35011,2014-10-25T15:31:22+02:00
COUCHDB-945,a08160e6f9ba46120992f96be363b4a0890315e4,2010-11-10T18:44:45+00:00
COUCHDB-945,1f7e7cb5c22302788e232ce455fd0505f6420201,2010-11-10T18:44:45+00:00
COUCHDB-703,61635f00be831a8cb52d5d93a8fbc619e87a73e7,2010-03-21T20:20:52+00:00
COUCHDB-703,c13cefb0b2ee72da879662e38795df030b9defdf,2010-03-19T23:57:59+00:00
COUCHDB-703,dc842619158dcc7aa9d2adc4873a36ba511e3108,2010-03-19T23:57:59+00:00
COUCHDB-704,ae61fd5fda7dfa08f64ed31c1e261b19cff996d6,2010-10-20T13:45:31+00:00
COUCHDB-704,3880ad954c47e8f05224f768159822b453a35e1f,2010-10-20T13:45:31+00:00
COUCHDB-2067,4e60f0b7a7b26662dde0ebc0a73c70df54e0f309,2014-03-06T11:48:09+02:00
COUCHDB-3162,f1d0c5dc8e9ea8c639d39ff63001f3925d6786e8,2016-09-27T16:15:44+01:00
COUCHDB-25,6c90b82acc016f8416e0bacc429b3a56908fe936,2008-03-29T00:15:02+00:00
COUCHDB-25,3becac5769f5af05be4cc033ab24924f4bd3458c,2008-03-29T00:15:02+00:00
COUCHDB-3164,297493f29978d6effd9ae865b5822f54261c6955,2016-09-27T23:47:13+01:00
COUCHDB-930,84da472629832488c6c0c98ce437a09d40b7c543,2010-11-08T19:22:01+00:00
COUCHDB-930,4c6355483d3e97971a97a9a3935263ecf47f7ca8,2010-11-08T19:22:01+00:00
COUCHDB-932,d2ffe0f1c251a88370b19bd912c37df01e648d0b,2010-11-04T21:53:50+00:00
COUCHDB-932,7ae8cc653381805896e57514e9a3dabe8bffc522,2010-11-04T21:53:50+00:00
COUCHDB-932,32922b51f4cabe852299f5e86f561b21018fd33e,2010-11-03T10:58:14+00:00
COUCHDB-932,baf96311321105383f186e5c149f6be3958c685b,2010-11-03T10:58:14+00:00
COUCHDB-42,65e850a01858509e0bc519832686aa52d58809b0,2008-05-26T09:06:49+00:00
COUCHDB-3168,92fa3b11ebb3d109eb711a02972adbbf0468c2a1,2016-10-04T10:32:46-04:00
COUCHDB-3168,93c4ceaf97f46e0dd0fcc1deffe966263eda67d3,2016-10-04T00:45:56-04:00
COUCHDB-3168,e5747dbaa2fb10760eb2cd3e289a01b51694c7cd,2016-10-04T00:45:56-04:00
COUCHDB-3168,2f23b57cd705c87570d98340a4aad1bc611cd4f0,2016-10-03T16:10:04-04:00
COUCHDB-40,7409e56fc2cc3c8927153c63959a23d867466967,2008-05-26T11:51:44+00:00
COUCHDB-3173,37d3778172ca354f124334edf13bc09d9abc28bc,2016-10-04T09:45:36-05:00
COUCHDB-39,2ffd808fd701b96d0e3433386b4822bcf923e360,2008-04-11T21:19:59+00:00
COUCHDB-37,ae0af8ba0aba06e372ef07ad3955becc9c854f18,2008-05-25T22:22:29+00:00
COUCHDB-37,496e3b2e876b74b3da3007268271c3c667e8fbee,2008-05-25T22:22:29+00:00
COUCHDB-966,78751594243382b26a316366321367269e3d02e5,2011-01-08T11:57:42+00:00
COUCHDB-966,30c87d99f5989e9201aba7bceb76afa374a01cd5,2011-01-08T11:57:42+00:00
COUCHDB-966,cf1d95adb863055f8368fbe89971770e85c992f3,2011-01-07T11:42:03+00:00
COUCHDB-966,ea08229b7c802e5247fa025928a8909fe9f99753,2011-01-07T11:42:03+00:00
COUCHDB-969,021bb31d05d671f2ac98d15e0bf0f06fd2bc07a0,2011-02-02T19:56:02+00:00
COUCHDB-969,4304e762ff44175d34882ea7655c9b361e28c177,2011-02-02T19:56:02+00:00
COUCHDB-969,accf2b8c618318f9126dcad7fca7ef6e02681b41,2011-02-02T10:25:56+00:00
COUCHDB-969,e01884af02d55a477eb1cea9539edb5385196f16,2011-02-02T10:25:56+00:00
COUCHDB-969,7f0997a852cf729771fcd4b81687101902321309,2011-01-28T20:11:42+00:00
COUCHDB-969,eaa220ec5cdece796a8966c02ddc4ea06e0e2310,2011-01-28T20:11:42+00:00
COUCHDB-3174,e5550fbd9ad3ee97cd90b01bd8162e38bd3f9299,2017-04-25T10:51:32-04:00
COUCHDB-3174,a5e3deba154974c05ffd70d1b0002ddebeb013a8,2017-04-24T19:41:39-07:00
COUCHDB-3174,554be3a1be4f6e3934fa0e1bf4991009915e0872,2016-10-10T10:42:48-04:00
COUCHDB-3174,313f6f3f9a722dc1c88de1e809ae28c8bc741970,2016-10-07T00:38:16-04:00
COUCHDB-3174,5d7170c472d2ca72d4a0dd41eb7ae4434266be7d,2016-10-04T02:58:32-04:00
COUCHDB-3174,7dec013e8dc12db718ce124ad07f62b7cd3f7419,2016-10-04T02:50:07-04:00
COUCHDB-3174,93c4ceaf97f46e0dd0fcc1deffe966263eda67d3,2016-10-04T00:45:56-04:00
COUCHDB-2086,5989bb324a7998f931050b542f7e526309bdcc32,2014-02-26T08:49:43-05:00
COUCHDB-968,fce11ee6aa5b3e792182bbf5530c4a0557998628,2013-03-20T06:02:48-05:00
COUCHDB-968,f1ba5d08a668eb5a5a85c501607a113f4b76ef72,2013-03-20T06:02:48-05:00
COUCHDB-968,301b9edd47fa0cb0b1a7d50e7da232d6c966d3a8,2010-12-29T02:42:29+00:00
COUCHDB-968,34bdcf682dde59de3932909f087c6f7339ef3d21,2010-12-29T02:42:29+00:00
COUCHDB-968,51d008e9d13fcca88d080c520f4149d1b06e1932,2010-12-29T02:42:21+00:00
COUCHDB-968,71590c68d9360efdd3193ef93ab2294b2388bf66,2010-12-29T02:42:21+00:00
COUCHDB-968,3b2ee7e90ab41c6ad2731f75b81eb1ae3852b9c0,2010-12-08T17:39:20+00:00
COUCHDB-968,4137a8eb9b2bef436a7e975f4ffe58af49072d94,2010-12-08T17:39:20+00:00
COUCHDB-968,5ab41fb423d27303e0fd129e1c4163a32c785a3e,2010-12-08T15:28:06+00:00
COUCHDB-968,dcde7c3c10c4a36611daefc7eef020b886c98961,2010-12-08T15:28:06+00:00
COUCHDB-968,4e31616aaffdcf2894dee5b2211390df96ab6e27,2010-12-08T15:27:59+00:00
COUCHDB-968,a19ad631cf09d818f473587bcebb92a7229c2418,2010-12-08T15:27:59+00:00
COUCHDB-968,7bc7473d30b577af2afea16bb022dc8c8a6cf00d,2010-12-08T15:27:52+00:00
COUCHDB-968,3bb11961f4fbe545e05caf0a8a75bb4ff1e04cbc,2010-12-08T15:27:52+00:00
COUCHDB-963,f25e8a7ca8a4cdc90ea9b61df23eebc729ca9081,2011-03-21T09:28:57+00:00
COUCHDB-3184,1d5c6a5d92977308fd94b2b8f43463b9f2bdac71,2016-10-07T13:04:13-07:00
COUCHDB-49,5551656ea0af9a2a03af5a282204649cef521d4b,2008-06-04T10:41:46+00:00
COUCHDB-49,f6b5608dd05db1f10faaa6b426659dfcb84e22e4,2008-06-04T10:41:46+00:00
COUCHDB-959,cc18f7c4c97d4784ba905ee01e10817d3f216de4,2011-04-17T12:52:53+00:00
COUCHDB-3181,d2c449b7bebc52bb40913be868c977cdbc7d0d9a,2016-10-05T21:58:51+01:00
COUCHDB-957,9741ab0ea74fab1a480a9a7c34dac954bedd1dd6,2010-11-18T15:20:08+00:00
COUCHDB-954,c30b3b3afb36615b6f699ca0e517f25bdbefeaa3,2011-08-26T02:36:21+00:00
COUCHDB-954,c2c7f1992579e1d573608ed035f3ef1f3ba92392,2011-08-26T02:36:21+00:00
COUCHDB-3199,7096273aac92afcffdb326ec963205583b4bc46f,2016-10-14T15:26:42-04:00
COUCHDB-3199,48996b108c458421c8a73097be152769bdc3fc48,2016-10-14T15:13:47-04:00
COUCHDB-903,5614204b6beaa1243ce8b2fb2995c4159b83fc62,2010-11-21T13:23:45+00:00
COUCHDB-903,5670e4b5fcddd0d9e79a974ff24cec74250b47f2,2010-11-21T13:23:45+00:00
COUCHDB-903,71021e18d80d4c62a5e3382175f314a8f6b1abcc,2010-09-30T12:46:57+00:00
COUCHDB-903,f64b4a4bd7ac4c833271591f62010288270bfb93,2010-09-30T12:46:57+00:00
COUCHDB-903,94fa7d2cf797cf8450e50af2db18dd84a2ec7df4,2010-09-30T12:22:29+00:00
COUCHDB-903,5d918e616119e308ca38dc847dd8165e089557dc,2010-09-30T12:22:29+00:00
COUCHDB-902,40308d80402594be224f3833ef83dc25c9931ead,2012-11-14T14:57:32+00:00
COUCHDB-902,822131e28362739184df2cf7455aaa0903e13422,2011-01-31T02:46:44+00:00
COUCHDB-902,3a52f24172e62361e18f01691f034daf6851dbab,2011-01-31T02:46:44+00:00
COUCHDB-902,c484b5bb928c07f09e351a1dc0997d7b01182aa0,2011-01-27T11:01:25-05:00
COUCHDB-83,309823b832568946760dc69e3ceca4008b648370,2008-06-23T20:28:35+00:00
COUCHDB-83,46fec78939b70a8fbe0d1af85a25cf50db32622e,2008-06-23T20:16:47+00:00
COUCHDB-84,932abf2a6149ece209b88d1d59d3a02e68a31ae1,2008-06-23T21:32:58+00:00
COUCHDB-84,d054aef0e2419db31d8277a051b54abdf6ee1d34,2008-06-23T21:32:58+00:00
COUCHDB-81,68886b12bb737fc09bc28f0362673ebf46e08cf0,2008-07-25T16:05:01+00:00
COUCHDB-926,898aab04c8c66a6dce8e50836fc89b9f5eb579a9,2011-06-23T09:44:33+00:00
COUCHDB-926,c0de37df72b240622faf819457485f694c391e21,2011-06-23T09:44:33+00:00
COUCHDB-926,f3175b2cca93a4ccb97d1ff51dbd0c758f9b96bf,2010-11-19T01:38:41+00:00
COUCHDB-926,1074767a6b2a254fc6abcb08ec8ccc156e5aa6e9,2010-11-19T01:38:41+00:00
COUCHDB-926,27e7cf194cd604048fbd8f99417d3183e0da3d3b,2010-11-18T11:11:00+00:00
COUCHDB-926,cd0468cf3767a8854e50ce0741692883b21cfaed,2010-11-18T11:11:00+00:00
COUCHDB-926,ca82c920597112e35d439772310c4740bd76ec6b,2010-11-18T00:11:18+00:00
COUCHDB-926,5e05bcd220251d4b1c4e826156c50efb9e22ee12,2010-11-18T00:11:18+00:00
COUCHDB-78,26bef8764b86bd3e57b9c6e04fdb0c335e02da3d,2008-06-12T18:16:30+00:00
COUCHDB-78,479ef9df7559cc29ef558aa889637bd5a34516b2,2008-06-12T18:16:30+00:00
COUCHDB-925,2e0083ef15434f19b18b593a49e66cc3927265b0,2010-11-23T16:29:30+00:00
COUCHDB-918,41a49ae6ea34ea205afdd3067b6064a7bf858b02,2010-10-16T18:25:12+00:00
COUCHDB-918,e0b39b55f581867327728f8e0af470144c77915a,2010-10-16T18:25:12+00:00
COUCHDB-911,1cb7d885ff1a88a725e4b57105784584565ea470,2011-11-18T17:44:17+00:00
COUCHDB-910,094d7664d9e8cb6dc2465b10dfe77ea09467b3ff,2011-04-17T13:27:18+00:00
COUCHDB-910,8240b0fe9a4c55e46824d6c5bbbc7787eea70fb6,2011-04-17T13:27:18+00:00
COUCHDB-1805,19737b758363b56ba14515b677cbe485b773c3bf,2015-06-30T11:39:23-04:00
COUCHDB-1805,331f8110b5026df38df59db26a1a614fb7251574,2015-06-30T11:37:35-04:00
COUCHDB-1805,ba84fb80900e9a86ffa7a05dfcac3c092f2920e1,2015-06-29T22:45:41-04:00
COUCHDB-1805,14f5bba64b8525f65d70b59e6bf77954fdcded6e,2015-06-29T22:45:41-04:00
COUCHDB-2900,3ac6fe38b021122dedb2cc67a6f888ac9bd21529,2016-03-26T13:17:46+00:00
COUCHDB-2900,08428831b45f98de9a60eec38a3b0c0ef65f34c6,2016-03-23T23:12:54-07:00
COUCHDB-2900,96fe423aa1b92e91d35c4375c9d933eadea3305a,2016-03-23T23:12:54-07:00
COUCHDB-2900,eeaa4007c8e57d873ac96a7f75ba0ef50303fa18,2016-03-23T23:12:31-07:00
COUCHDB-1822,d513c57619251d4b7b0023a7f2b86b69b4a11300,2013-09-28T15:45:14+04:00
COUCHDB-1820,39708d71d6121a7c39748a812f64a26d44619551,2013-09-27T21:55:47+04:00
COUCHDB-1833,d677c51193df3e30bbdec68d04244a5dde921b62,2013-06-21T15:12:26+02:00
COUCHDB-1833,136b28991fa40b92cde6e544f49c8fd18b9340ab,2013-06-21T15:12:26+02:00
COUCHDB-1607,da817fa1cc29254befdcc0ad4bf225676e0278e1,2012-11-18T19:02:07+00:00
COUCHDB-1607,d9566c831d002be16f866f0065a905bc23773cf9,2012-11-18T19:02:07+00:00
COUCHDB-2932,1be5506e39baa3b4c7b3d64daf8032a5580b38ba,2016-03-23T23:12:54-07:00
COUCHDB-295,0100109d72a426c235df11ec26bf43789a02ce51,2009-03-19T20:51:28+00:00
COUCHDB-295,f73b12a67d852b2ff710acf4510eff5abc472b10,2009-03-19T20:51:28+00:00
COUCHDB-297,f24206e06e701c46a66341b9e752845933c5184d,2009-03-21T14:18:46+00:00
COUCHDB-297,17266b0581a214315ebf8ce7454ef9f73fc2a02a,2009-03-21T14:18:46+00:00
COUCHDB-2945,02bdd77dd36fd850cbb979622c1e703594523e91,2016-03-03T11:58:49-08:00
COUCHDB-2945,937689eb4c7271817f362716fc386ec782b845e2,2016-03-03T11:58:49-08:00
COUCHDB-2945,5b7096dc1e908b4384aa16190b0469d1e15ef844,2016-03-03T11:58:49-08:00
COUCHDB-2945,174580824e7c438095448454b0e1a187d7815fcf,2016-03-03T11:56:59-08:00
COUCHDB-2945,7cf698e2dfb9986f54ad3d02476727d94299b7fc,2016-03-03T11:38:17-08:00
COUCHDB-2945,f58817f547924f52eef6f01e3b788f3b308a1979,2016-03-03T11:38:04-08:00
COUCHDB-2945,9b69868838089569176093380e1b6a6648fcc547,2016-03-03T11:35:37-08:00
COUCHDB-2945,fe2b6ae3b30586f7dab5aedd841bf61d1a0e8a18,2016-03-03T11:35:37-08:00
COUCHDB-2948,31be5324023771fa80bfe8a28a31f6592cb28af0,2016-02-10T11:59:23+00:00
COUCHDB-2949,fc49a366cb51522bc2be8c2aa022cd9636528c9c,2016-03-01T18:05:58+00:00
COUCHDB-2949,fd66cb6b3dc70a64b556bb1e5bd9fa05f20df571,2016-02-12T17:55:47+00:00
COUCHDB-292,b8725434d2d9449140bc5f4a23242a45e9665622,2009-11-23T20:41:06+00:00
COUCHDB-292,2f908cd15bfd5d78a2b42712e668c52405b67d16,2009-11-23T20:41:06+00:00
COUCHDB-2701,6dcbf935390485bc7f141e029451714b1652006d,2015-06-24T13:02:49-03:00
COUCHDB-1852,002a908132bfe6a74e4a886fc539a3b7987d4c63,2014-05-28T15:44:57-07:00
COUCHDB-1852,cfd423dfebdd48fb40b55df0c63c90a36c46b9be,2013-07-20T15:46:04+01:00
COUCHDB-1852,dfd2199a4c6f67b76018eccfdd00b4fd4190e392,2013-07-20T15:46:04+01:00
COUCHDB-2958,0df200a3c4df7dd4bb3dee4c43d268d75f1e117e,2016-03-04T14:04:52+00:00
COUCHDB-2959,8344e39f1137bfd345eced1b7383bbcee0553feb,2016-03-14T07:48:12+03:00
COUCHDB-2959,493a0d11d43b512ae81195f84aab0336ca61e94f,2016-03-04T01:31:45-05:00
COUCHDB-1628,4b20418391a9a77012ff74c8064f3da910c310fb,2013-01-04T17:28:42+01:00
COUCHDB-2710,3d97e7792ca081dcd66e5ea5561d3a09309cbd53,2015-06-03T19:38:13+01:00
COUCHDB-1621,811e49b86a4eaaaf6e2c29e9864fde9913a2be8d,2012-12-04T14:24:04+01:00
COUCHDB-2968,2b5bb3e740b9086ccf1cdd3d2e9298584a7d0b45,2016-03-14T08:23:48+03:00
COUCHDB-2968,e4abbd3874356dc7a201b09676e27ff7dc8bed7c,2016-03-11T13:03:05+00:00
COUCHDB-1637,0785198ff58fa1782ff81c1db3de00c1febb97df,2014-12-22T15:05:21+00:00
COUCHDB-2965,330393b08802fc18f9087eff00da80f02a1e14fa,2016-03-14T07:48:12+03:00
COUCHDB-2965,2363748baca628f69563c571711be45771f2a352,2016-03-09T13:32:19-05:00
COUCHDB-1876,cb58087c9ad50f1e4e04a484b8fa3e833ece2d49,2015-09-17T12:48:07+01:00
COUCHDB-1876,c63796e4e5b7f649d461f6b72494dc9f9246a59e,2015-09-17T13:24:54+03:00
COUCHDB-1634,f726bc4dee4a4be0d5ed15f012cfbafd2a9dd7d7,2013-04-05T00:16:34+02:00
COUCHDB-1873,d3c2077131c18d0b109b30b7e5b8be41a4d1ac6d,2013-08-21T11:35:39+02:00
COUCHDB-2963,5bc11ffb8ddd9000d981e9d065a20fa4e385090e,2016-03-14T07:48:12+03:00
COUCHDB-2963,a7e7565d6a743961ebdec155fbfd70f609337ce2,2016-03-04T15:06:41-05:00
COUCHDB-1632,1696e162285590eadcd17d11ded20448b963b8fb,2012-12-19T10:18:36+00:00
COUCHDB-1632,2b4ab67a951592c31cece2bb5dc0ea84d3099090,2012-12-19T10:18:36+00:00
COUCHDB-2979,9ee3e19b997258a7d57b993afec34bcbbf4772c5,2016-03-31T14:48:37-04:00
COUCHDB-1406,1107aeb7374e1387e1347caa90316a73e6125436,2012-02-08T18:39:24+00:00
COUCHDB-1406,a7c5344371a4bd8123887291411fbc7b564b8513,2012-02-08T18:39:24+00:00
COUCHDB-383,590552f4e70e25c748615fe57cfc203fbb7b8726,2009-06-18T23:43:40+00:00
COUCHDB-383,a86aa967f17c32881e37955975652522b5bda1da,2009-06-18T23:43:40+00:00
COUCHDB-2738,3c204d00967318d14d767316c14639d1ba8f1d23,2015-07-15T11:16:30+01:00
COUCHDB-2738,cc7850c6d15125fd8e1c7e4969e4bf76a140c6b0,2015-07-15T11:14:52+01:00
COUCHDB-2738,04c946f4f63bc05a2b566ccc59e78938d517eb24,2015-07-15T11:13:14+01:00
COUCHDB-2738,c30665dcee9f5eeffc74ec03a5c7e50ed4d7c3b8,2015-07-15T10:53:36+01:00
COUCHDB-1888,f5c829fd69d355779b0fc2ebfde024ea76221f6f,2013-10-03T17:58:25+02:00
COUCHDB-1888,674aad6f37355529da81af35105fbb86de5e5974,2013-10-03T17:58:25+02:00
COUCHDB-2978,3c8601ae0356359376feea8e7394f4daf275e63d,2016-04-12T10:53:26+02:00
COUCHDB-2978,bf9cd2b1c36909b41fc3db40f4a2c351e2e43182,2016-04-12T09:37:33+02:00
COUCHDB-2978,1ca86421bafd17cc5b954d9075e3a053ea951f6a,2016-04-07T15:47:05+02:00
COUCHDB-2733,9ddbd04045a833262ff850d63a4e6d6632caea43,2015-06-29T09:08:07-07:00
COUCHDB-372,4d7b8ade53b49dd08625be2c0a300eaaed6fe3e7,2009-06-09T00:56:34+00:00
COUCHDB-372,d6946dc120a7eaf0897e2149317a2ead477af297,2009-06-09T00:56:34+00:00
COUCHDB-1651,f9cad9dd19fd175d8b26da3d5af10ba70e3513d1,2015-07-29T18:23:10+01:00
COUCHDB-1651,7e3bdee49e804b70d01f67418cd4e1e9122b599a,2013-02-17T19:46:57+00:00
COUCHDB-1651,fdbd48a44624bff120daa51992924feeca23ba00,2013-02-17T19:46:57+00:00
COUCHDB-2986,4c0564fc36fcb7204eb98a7fc2228890c1c54fbf,2016-04-12T16:41:31+01:00
COUCHDB-1413,3c8432e4d44c4d3aa4d7d69b0ee2723cf33c18c4,2012-02-22T13:36:08-08:00
COUCHDB-1413,92b606aae6a22498e80c0ddd4948271987ac910e,2012-02-21T22:35:13-08:00
COUCHDB-1413,1e6a1b526dbf80e407ca48ecb5f62a05cac4a740,2012-02-21T22:35:13-08:00
COUCHDB-1653,e62fa49621e7f4725afafa2e1ba4d3ae68cd1dbb,2013-01-31T11:02:06-08:00
COUCHDB-2743,e858e7dfef06a4d6e6c9228de80628f7166397ef,2015-07-08T15:23:39-07:00
COUCHDB-1654,0e28dfc52a37ee555862bd12e41d107ea20439e2,2013-02-06T22:52:09+01:00
COUCHDB-1654,da35ed0f012c265d35a71cc12e3683bdaad9e6d3,2013-02-06T22:52:09+01:00
COUCHDB-138,2f805e3e564d83ef17f6098cf2ed47517e59db71,2008-10-21T19:49:41+00:00
COUCHDB-138,9866203c3c0bff9cd972df09624e5647cfc4e9be,2008-10-21T19:49:41+00:00
COUCHDB-379,426ddcb6e73ab06c86022a081112bdbcf37c4740,2009-06-15T09:49:46+00:00
COUCHDB-379,33b7dfe1eb1914aa1f192e05b44892c6e9ffc537,2009-06-15T09:49:46+00:00
COUCHDB-139,d9d61115c4e7db8da89698c510890da283ceed6c,2008-10-21T20:06:37+00:00
COUCHDB-139,7b27c98889ec0acfcaa3b798b1879e7749407a55,2008-10-21T20:06:37+00:00
COUCHDB-135,c97712350df0161ab41bcaca26afe7ae4e1cc91b,2009-03-17T03:47:37+00:00
COUCHDB-2517,4b6b2fe1a9a1d11832b9ca5af5432e8c8a8f467f,2014-12-16T14:58:29-06:00
COUCHDB-2517,c256e919220b298b7ab14074a68c1ff91bacf12a,2014-12-15T12:22:33-08:00
COUCHDB-2517,016ede4b458db2e006914f5cd7d157fb42ff0733,2014-12-15T12:22:09-08:00
COUCHDB-2518,eb0f5cb370c1ad64155e20a5b762380c3f25ac8d,2015-02-03T19:04:32+03:00
COUCHDB-165,9807cda46b01f31bc77025c34a8b7f4275be6563,2010-06-02T21:47:28+00:00
COUCHDB-1669,e348d4f2da082cee52d11efc6fbc94f1d8a047c9,2014-04-21T01:30:01-04:00
COUCHDB-1662,fa4101ba09db5e74af206497e927909284d263e9,2013-01-30T18:42:34+00:00
COUCHDB-2510,4e0e81fd9d668bf4d532864b9cab3ad2d7653d50,2014-12-11T20:13:57-06:00
COUCHDB-2991,da85db2dabe371296c54fded76d1de61289f3319,2016-06-22T13:44:12+01:00
COUCHDB-2991,18e6fd852e7442ad957950daaaa7ee11d49255ea,2016-06-21T17:10:03+01:00
COUCHDB-2991,411c130ea63c3423d7ea71743095dfb446680da6,2016-06-21T13:03:29+01:00
COUCHDB-2991,21be898160793be392288b41230fe0ac74255c23,2016-06-16T23:24:05+01:00
COUCHDB-2991,f3d5d1b0cd8eda814805b5a7290892ee0b3a73ab,2016-05-16T17:58:17+02:00
COUCHDB-1666,cab082b58586a814190bcd4655391ba405a89f76,2013-02-04T11:39:26+01:00
COUCHDB-1666,8097f988d635f9ed3fa5af3c2aa4a49058f107db,2013-02-04T11:39:26+01:00
COUCHDB-1424,d7f20376b1a880ba45e0a2699de2dd66df82f671,2012-11-13T20:53:16+01:00
COUCHDB-1667,9a53bc6e5bdb9b35e72e589422dc9a74e26a4d7f,2013-02-06T21:45:48+01:00
COUCHDB-1667,b267a29011c02712860dd69bd0b680e93739935b,2013-02-06T21:45:48+01:00
COUCHDB-169,ba543146ea71b218b26a0660f9d28eea817c8fe5,2009-03-20T17:26:59+00:00
COUCHDB-152,50afadc47f1732b5583746ba6f38ac06a0d9a1be,2008-11-03T09:06:05+00:00
COUCHDB-151,cee8134f41f2dab481be12c93170c8486b3a5a84,2008-11-03T08:59:55+00:00
COUCHDB-392,38c101cda84a8656460476a26152358d37d9b85f,2009-07-04T16:19:23+00:00
COUCHDB-392,887955a951470a9dc211c6e404905292f1a39585,2009-07-04T16:19:23+00:00
COUCHDB-2524,b7e4a4409bd9f114011b6a7e970258d34a55996a,2015-01-19T06:54:32-08:00
COUCHDB-1675,ae65e85e6b9ab6b494c5709e0d663d3dbc307185,2013-02-10T10:52:24+00:00
COUCHDB-1675,5f507095a0c7996391f6ca37a30fd0c4829b5e45,2013-02-10T10:52:24+00:00
COUCHDB-2523,1e413118d2bbe3ef97c4bf98a7430e02cde154da,2015-01-29T21:18:38+03:00
COUCHDB-2523,9a8e65099758560b68bcee450ced1d336d0fdbc3,2015-01-29T14:32:17+03:00
COUCHDB-8,1430f786d81508ba6ab2786f4a29cd1b491b7475,2009-01-30T01:40:38+00:00
COUCHDB-8,bbd217f334475cd83eaaf24cda71100d4db0efb0,2009-01-30T01:40:38+00:00
COUCHDB-398,5bf6ba5bf6282e4f77c9837307d8398923c96205,2009-06-30T17:02:24+00:00
COUCHDB-398,111da624f716217fc9180a75f388a025f3c27d1f,2009-06-30T17:02:24+00:00
COUCHDB-157,99f7017952407895b5f7d92b35e87649db41d2bd,2008-11-09T22:39:26+00:00
COUCHDB-157,538f455f2e2842d5caa33ed300d28b3cd52599b3,2008-11-09T22:39:26+00:00
COUCHDB-1206,acf1f2533244beefaac379cda59f09532100542d,2011-06-30T13:16:42+00:00
COUCHDB-1206,8dae16fe870142ed3ee891d3ce28e5b65ed10eae,2011-06-30T13:03:53+00:00
COUCHDB-1206,54ca58d7de32560b4f987185167811c6ae5ebe29,2011-06-30T13:03:53+00:00
COUCHDB-2538,ec31e09e540dc4916c416247d2eb8d132b51fffd,2015-01-21T04:36:54+03:00
COUCHDB-1449,15c1a97e42c5bafad6f5fa83d753d3a7cf64d6d7,2013-03-18T17:12:08+01:00
COUCHDB-582,61ae7fa70d73ca9e9cd0bde54e5bd34e6eb8afaf,2009-11-30T03:59:02+00:00
COUCHDB-582,85809452290b99a0a00a91dd319b82f51f9f0c4a,2009-11-30T03:59:02+00:00
COUCHDB-2773,8539ca28789b21d0b7687ebdcfc538fe828ef9af,2015-08-13T13:59:00+01:00
COUCHDB-2531,f418f0df6f44ac35d29f467880b7759ef7d72aa2,2015-01-31T23:54:51+03:00
COUCHDB-1442,3238a94587b0e17346108c8cef6494cd3b082055,2012-04-25T16:54:08-05:00
COUCHDB-1442,40a4e3343179936cc35d586f78ca99f4c0b65a42,2012-04-25T16:54:08-05:00
COUCHDB-2772,74e77196e46e6057ef25079efbdec84eb4c9340c,2015-09-07T13:14:54+01:00
COUCHDB-2772,6565cb961a8da21b21d213e4981133e119bb5ff1,2015-09-07T13:07:57+01:00
COUCHDB-2772,9d4b0fe7272caa69722d4637f9fa43dc8aa4d777,2015-09-07T13:05:47+01:00
COUCHDB-2530,6bfa947ffd9ec083c66b103d06e0f91a58eb8ba3,2015-01-31T23:56:38+03:00
COUCHDB-1441,f9cad9dd19fd175d8b26da3d5af10ba70e3513d1,2015-07-29T18:23:10+01:00
COUCHDB-1441,02297e02f736bd5013f50e2dfe7e45324fd75044,2012-04-25T16:54:08-05:00
COUCHDB-1441,d076976cafc7ae01555f69808a7bdf0e84ec5702,2012-04-25T16:54:08-05:00
COUCHDB-1689,752ec274aab3d4e2ddc933a60cbeb11dc73105ce,2013-03-10T23:16:33+01:00
COUCHDB-1689,b033dde2e24dc8654afec1978fefd97c2a6fc8e8,2013-03-10T21:09:53+01:00
COUCHDB-1689,b0420f9006915149e81607615720f32f21c76725,2013-03-10T21:09:53+01:00
COUCHDB-1447,7bfd253c676800b1dfa85f003217197bd6761360,2016-12-01T15:20:38+00:00
COUCHDB-1447,e796a95ea6a4af615054bf476d902b86b7b6c4f2,2015-11-10T02:40:17+03:00
COUCHDB-1447,0334f690c5ccc16ea0284d9c2f2b58c77f1fc2b9,2015-11-10T02:38:24+03:00
COUCHDB-1444,c54c5b8e24e4237b3f49f9799b3bcc04b0b9b1a4,2012-08-15T15:07:28-05:00
COUCHDB-1444,311138f08109ff78221ca26815ef2d6eb2025c29,2012-08-15T15:07:28-05:00
COUCHDB-1444,b59ac98b4be8d8c9e3f1114dd0a785f0f4dd30d1,2012-08-15T15:07:28-05:00
COUCHDB-1444,43e194602b4beb44160fb0ad930344f346cc72ea,2012-08-15T14:53:50-05:00
COUCHDB-1444,6f586c057b579268109367ee0a4b06a653a88f06,2012-08-15T14:53:50-05:00
COUCHDB-1444,a28110fec442bd1da0962a05e706c9bd0deb9298,2012-08-15T14:53:50-05:00
COUCHDB-1444,d56d3cf089eb4ba5b8aa14c0b89cc977547a9f2d,2012-08-14T16:29:57-05:00
COUCHDB-1444,a97a3245aae549041b3e3fd42502380c483daa29,2012-08-14T16:29:57-05:00
COUCHDB-1444,f5341a7dc65e96b806a958a27c9ccee5ec431162,2012-08-14T16:29:57-05:00
COUCHDB-1444,3ff74b263624c72cd7163b14c8121c9d9b6a2e34,2012-08-09T16:49:48+01:00
COUCHDB-1444,bde29bea6a4bdb5c73966524bd349335071262b5,2012-08-09T16:49:48+01:00
COUCHDB-2534,3f2cf84f9efe3114a7e82273be493ddf04e805f8,2015-11-10T02:21:27+03:00
COUCHDB-2534,a5aa4e17c3593a484ee8665d8b4272be05bedfe9,2015-11-09T22:53:24+03:00
COUCHDB-1445,43590d89e9eabff22402d99ede5df66a32c47261,2012-10-25T09:41:53-07:00
COUCHDB-1445,10202bfe2b5e573598b7aa1a0cd7e02de13cf2a7,2012-10-25T09:41:53-07:00
COUCHDB-109,33532b4cb56a593428f4df6c9726abf735da239e,2009-01-30T04:57:44+00:00
COUCHDB-109,02e15395d8f4fa43e135e48d321c89cc9622a1a8,2009-01-30T04:57:44+00:00
COUCHDB-109,8b020a85d1a2eeb980c3ce397eadf051d80ac63c,2008-09-02T17:06:33+00:00
COUCHDB-109,a75a39b2a47f3275f198cffa932a78bd70e1cac4,2008-09-02T17:06:33+00:00
COUCHDB-2781,96e1e008e5b9b2e77b510bc1e862b5c86fee92c7,2015-08-19T16:53:43+01:00
COUCHDB-349,e69ff9662344905fbac5d045259e791227772a18,2009-05-13T23:10:43+00:00
COUCHDB-100,fdc96b432a6b3579fd6db2df435e8b109ff0c16d,2008-08-07T20:28:42+00:00
COUCHDB-100,986302c54df1bdb4be3dc1d1a4d5a9f34e6af50d,2008-08-07T20:28:42+00:00
COUCHDB-345,e972819bf1fcd13560623c179aa60b0a7687674c,2009-09-23T20:43:35+00:00
COUCHDB-345,219cd4db7e62878b3bd2cb537c73cb8acf04bf47,2009-09-23T20:43:35+00:00
COUCHDB-586,fa27b0249d1cb872e3bf46915c6dd03b91ef4375,2009-11-30T18:33:59+00:00
COUCHDB-586,b409b8836b82612880df1628cf831d0420e5eb2a,2009-11-30T18:33:59+00:00
COUCHDB-2785,f6b69a925610ea0295e299a4186df43cd64cf75e,2015-08-24T10:55:30-03:00
COUCHDB-1451,de369a5e200b5eb91a1fd6485ec2f2aaf7966443,2012-03-28T21:34:57+02:00
COUCHDB-1451,9b08d4a80f150daaa2310acca0c3373d9df73b0e,2012-03-28T21:34:57+02:00
COUCHDB-1210,2c3c241f1fef37812d6811e658964d021aa1a089,2011-10-29T17:54:49+02:00
COUCHDB-1210,05858792ace840206d083b2b3cd7367d1b45221a,2011-10-29T17:54:49+02:00
COUCHDB-2788,e6fa441b1c8bc6b51e4c3fb5e3cc6855ee8914cf,2015-08-26T06:04:36-07:00
COUCHDB-1699,d9e3c58b930315189a4141891bd49d5d212c1059,2013-03-20T15:07:28+01:00
COUCHDB-1699,9e4562e7460bf4b416b42c0b6323b96428ff2ea9,2013-03-14T23:00:52+01:00
COUCHDB-1697,d1ca821f015cceb98da443dc8e4e6478c97cf644,2014-04-15T22:27:40+04:00
COUCHDB-1697,d843de230d070b4d29649974f806d289e6f76098,2013-03-13T15:09:40-06:00
COUCHDB-1697,bc3ef5b8cfd58b9d07868c1267c4099f994e53d8,2013-03-13T15:09:40-06:00
COUCHDB-1461,faa25209592c379803e0945c53f0f665d9949293,2012-05-25T13:28:07+01:00
COUCHDB-1461,e4d3e15ca451e59e9c3ae2993257328e332bc71b,2012-05-25T13:28:07+01:00
COUCHDB-578,93592c40c90767df51ab16323b4f4f5efe49fe6c,2009-11-24T20:21:16+00:00
COUCHDB-578,6f3bde270c686403d7b0434e84d37cb8fed405b2,2009-11-24T20:21:16+00:00
COUCHDB-337,1b02b39ab60a004c09d03f8800ef294cc78f5cd9,2009-05-04T22:36:46+00:00
COUCHDB-337,887c9b1a8b551272c3ca06906cfdc4fb901830a8,2009-05-04T22:36:46+00:00
COUCHDB-574,a1ab05beb99d05997fc2294aa5e3f713540e12ef,2009-11-24T06:54:20+00:00
COUCHDB-334,50c112b91dd85ddeda49bb3cb14accc5820aae40,2009-05-13T03:33:31+00:00
COUCHDB-334,db55453ae3ea2c1952ee6c114c733dc934e25682,2009-05-13T03:33:31+00:00
COUCHDB-334,790ac57fab7dd68b54de11bc1c2fd3abbe03d78b,2009-04-27T19:08:33+00:00
COUCHDB-334,f5d752a3c5f1c05962a7b693b54636967bfa7a5d,2009-04-27T19:08:33+00:00
COUCHDB-333,d4ac5c5083a310c16ac1754e3dbc3fafe8c5eb66,2009-06-08T14:24:54+00:00
COUCHDB-1228,f976d7dd0284b9c9f72a91659d9a3b65a478796c,2011-08-11T06:41:47+00:00
COUCHDB-1228,46d2dc647f786fa1920f365af89ce4d0070ef280,2011-08-11T06:41:47+00:00
COUCHDB-1228,e4d377131e8ec685be7a9b71b161bb165b18dcaf,2011-08-11T06:39:41+00:00
COUCHDB-1228,3074bfccd6c3bf6797543b7c8c37ff15b6d10e1b,2011-08-11T06:39:05+00:00
COUCHDB-1228,cafae925fe9d9ee7771631324e17ae5bbc0c1eeb,2011-08-11T06:39:05+00:00
COUCHDB-1228,2191ceee57478ccbc52469eec7d01a1ac254d0e5,2011-08-11T06:38:20+00:00
COUCHDB-1228,fc7ea9dd6be91e0f19446598f9e2fab8f87e6f0f,2011-08-11T06:38:20+00:00
COUCHDB-1228,d40fc2368038f25bfd42f9414fb7ff743e18f296,2011-07-21T08:41:46+00:00
COUCHDB-1228,918d8b3f9c79bc66152386d1c3cf66dc5e5130e7,2011-07-21T08:41:46+00:00
COUCHDB-363,d97233255338177deebedec29611de71d9428f08,2009-05-27T01:16:48+00:00
COUCHDB-363,dbabd6616febf5585be567695dd61a27bc463092,2009-05-27T01:16:48+00:00
COUCHDB-1229,81ed68eac58ecb868f4729680c10b9a64351c5a0,2011-09-17T17:03:11+00:00
COUCHDB-1229,4d63747574a042a87f209a9838bdb2d5805aa8e0,2011-09-17T17:03:11+00:00
COUCHDB-1229,f1bc03880569d6fc84ddcdcb5e4b5aebdae1ab08,2011-09-13T18:53:38+00:00
COUCHDB-1229,41c8430c9bc18a8ef5f9254e5f4709ac5d8ce263,2011-09-13T18:53:38+00:00
COUCHDB-3400,994fe33bb02ca6a1d1b2d807a486c3b386426999,2017-06-02T11:34:35-04:00
COUCHDB-1223,2c381d807eca961b2372adeec69f7b9bab477f54,2011-09-28T01:12:46+00:00
COUCHDB-2552,d8d1a3ca0e3fe7ba6cdeced111f868a8e20fbccf,2015-02-10T11:39:00-08:00
COUCHDB-2552,055740aacd0abaa953641b24ba4d6bc2cc437622,2015-01-19T11:20:42-08:00
COUCHDB-2310,933ba2e3a2a77637b4ad275cf505b7d8a3ef0777,2015-09-18T01:08:16+03:00
COUCHDB-2557,f29226a14f2c92bfb130b8799711720d0cd0529f,2015-01-22T21:43:39+03:00
COUCHDB-1227,b4dbf1e25196ce004215e6b55dbfaea9143ee498,2011-08-13T22:08:47+00:00
COUCHDB-1227,938ab9d354037a1ce0bfc9524b597df6932eaf3a,2011-08-13T22:08:47+00:00
COUCHDB-2797,315832d4dbc402347e4154eaf17b20587bbb6ea0,2015-09-03T22:06:58+01:00
COUCHDB-2797,d1dd5d67e25d4190c96f88507fb1ed0c4225baff,2015-09-03T21:42:47+01:00
COUCHDB-3402,81ee7c5ac71e617a03e967b4fc5d0358f4ba9459,2017-05-02T14:14:58-04:00
COUCHDB-3402,2689507fc0f4a4a3731df34d3634bb1bcd4afbc3,2017-04-30T01:43:32-04:00
COUCHDB-1472,7156254d09bcee4580fa1340edfc5d616ff2213d,2012-05-24T00:38:06+02:00
COUCHDB-369,7100ca639471005be44baf3f7036c120dfe4166b,2009-07-21T10:12:23+00:00
COUCHDB-128,3c1504c05aa817731d76124a13ef06c06abd6aa7,2011-07-15T07:54:22+00:00
COUCHDB-366,2cfaa35fbbe737317690a0baeb92360ea7034638,2009-05-29T03:29:25+00:00
COUCHDB-366,5e2db72572299ac4a03c762ab2ee87f53c42b518,2009-05-29T03:29:25+00:00
COUCHDB-593,f94630fd4af5656b4412ca5de0fc1211d19ddbf3,2009-12-06T22:47:05+00:00
COUCHDB-2321,db58e794f937a52b6b61c964942e56afa7d03d8b,2014-09-05T18:18:59-05:00
COUCHDB-2568,9664463d9b2b2dc11f1a28896eaee6b39ec5177f,2015-02-11T13:23:30+03:00
COUCHDB-2324,e7bdfa83525d10b289db3c749dfcdb708b82bfc1,2014-09-10T10:34:08+01:00
COUCHDB-2325,88ff6d323f904425f5130a237ce712b68ac70dfb,2014-09-10T12:17:46+01:00
COUCHDB-1482,a6eaf9f15625ebcd361cd2cf277026a8318e818c,2012-05-24T00:38:25+02:00
COUCHDB-1483,9256d130e98be71ed14e41110a18f764f715bca0,2012-05-26T20:36:11+01:00
COUCHDB-1483,b1cf9a7e15f2f5985f8e918a57d2fb0986948ecd,2012-05-26T20:36:11+01:00
COUCHDB-1483,72ea7e382b22074733a3faa9906864ed78f70bf0,2012-05-26T20:36:11+01:00
COUCHDB-1241,0cd3c9adeb5e8bd7d64513ad7dbd6ef84f9502cc,2011-08-12T21:36:51+00:00
COUCHDB-1241,6a0f615b24838fec53c69213642b643cec2aedcf,2011-08-12T21:36:51+00:00
COUCHDB-119,7383f21f621c65be591bca196d51dbc2cde239ba,2008-09-23T20:15:27+00:00
COUCHDB-119,9f7381dade1d8a8d1e3209a7c46faea305632d14,2008-09-23T20:15:27+00:00
COUCHDB-118,3cbb3a00d50acc3fabd597f9486a85713afe3c3a,2008-09-21T13:23:11+00:00
COUCHDB-117,bc8dd6acee3c58474f322821b16892e00d957f83,2008-10-21T19:34:59+00:00
COUCHDB-595,1584757ddaf46a1acb4216b182089c38a6a7dfe3,2010-02-03T18:55:30+00:00
COUCHDB-595,17632461e3ea7007594783c39a25055fa0ccdffe,2010-02-03T18:55:30+00:00
COUCHDB-597,8c73a2807ad93825505cf744262e6b4ceddb2916,2010-02-28T02:41:05+00:00
COUCHDB-597,5a9f96cf2646a0c9db468cd7876e75cdb9fda742,2010-02-28T02:41:05+00:00
COUCHDB-597,9d36a1bfa9e89158d4d3e1109dc9f15f14470cb2,2010-02-26T23:43:28+00:00
COUCHDB-597,64572be3b4b5e186013213bc2adf883d26d8f729,2010-02-26T23:43:28+00:00
COUCHDB-355,0d3b5fe311118a3f9cbf2ff144ae6c875579d84f,2009-07-19T21:29:33+00:00
COUCHDB-355,358f2a9405e2cbb0700bce2046e5569e33594127,2009-07-19T21:29:33+00:00
COUCHDB-1002,8269f7970e7a6c3a2217127b4719062c18787449,2011-01-01T14:37:55+00:00
COUCHDB-1245,92fc5e4a4fb5f0e2fa24e6926e7f59bcd5d40769,2011-08-10T21:07:04+00:00
COUCHDB-1245,6c930be86eafb1af455ce77f8f84fea7a74bf290,2011-08-10T21:07:04+00:00
COUCHDB-1242,019ebda7eb00f3368b08986abcef7418973dd372,2011-08-12T17:44:21+00:00
COUCHDB-1242,11ba679773b9d549f8cdc86057d6cb0cea255085,2011-08-12T17:44:21+00:00
COUCHDB-1248,22462e5f3788b81ca418f4ef6bc99d9dca8a8f61,2011-10-29T17:39:51+02:00
COUCHDB-1248,bea76dbf523498890a9d59df5d6712ac9374a219,2011-10-29T17:39:51+02:00
COUCHDB-1007,1473dab3936880058f691c9b93f972b8db7b2770,2011-01-03T20:41:50+00:00
COUCHDB-1007,65ba4fab111773996c149cd48ae979266066a69a,2011-01-03T20:41:50+00:00
COUCHDB-1246,216adaedb8ec8e137e1bdfd07bfa86c9e4c7a360,2011-08-18T05:48:10+00:00
COUCHDB-1246,95da6f6f4246d2e8e86a3cf92ddf6487e46c10e9,2011-08-18T05:48:10+00:00
COUCHDB-1493,e0a9f38cfec4a2bf5ca508c0a393c83826795b50,2013-07-23T11:28:07+01:00
COUCHDB-1493,02416a1bcb12fa7391cceddd0268e1c2f2a3fc01,2013-05-15T00:19:29+02:00
COUCHDB-2583,952a41c7a10fc4dcb0324d09c5be7e5d1d548803,2015-02-20T02:40:28+03:00
COUCHDB-1491,26bc97dfeb734d2174f5d80929221fba368058b0,2012-07-30T16:54:16+01:00
COUCHDB-1491,ce7204b7eb64ac98d4445130fc4e647ed5181da9,2012-07-30T16:54:16+01:00
COUCHDB-309,fd587b8a0c1e374f8afc3e06219e805b8f03381d,2009-03-31T16:17:04+00:00
COUCHDB-99,7cca1502bb8642372ed23fbaa3dcb205fe5690e8,2008-10-21T18:43:42+00:00
COUCHDB-99,6c9891e4f33e980f3cbe6a0e509c3ba84b692d3e,2008-10-21T18:43:42+00:00
COUCHDB-545,1d38ba6c989ac8e3f653bb8c973118c9e1d154d1,2009-10-29T03:19:45+00:00
COUCHDB-545,97dc2ded847aec78ec2ac1f60eec583ae7111f6c,2009-10-29T03:19:45+00:00
COUCHDB-789,c84ff711da725079a2d24754fc4716159dddf191,2010-06-08T16:50:58+00:00
COUCHDB-789,5aae08bf66411e4e81b21a3c137627733efa6b26,2010-06-08T16:50:58+00:00
COUCHDB-788,6be5ecc85531127a41af22a63b1f201ca3b368d1,2010-06-12T19:24:26+00:00
COUCHDB-788,d8c25ff8ee02aa5bb6f3a8aecf479109226d42db,2010-06-12T19:24:26+00:00
COUCHDB-546,e15698f743f9b7013afbbba90acd4d45de72ca2b,2010-06-03T15:09:47+00:00
COUCHDB-300,4db90324664ec3a7678fdade6aa44b82e111b361,2009-03-21T12:27:40+00:00
COUCHDB-300,cc3cd646a64e2cd6e4c318532ba469b152defb41,2009-03-21T12:27:40+00:00
COUCHDB-1256,116856ab923063bb113abd226d761c212fcd75da,2011-08-25T19:02:27+00:00
COUCHDB-1256,ea4e9504083ac7470d3b0b26a7c61c34fe385f4d,2011-08-25T19:02:27+00:00
COUCHDB-1259,a6b8ce7d647b629db01fe178ca24b6a9204cad73,2012-11-14T10:59:31+00:00
COUCHDB-1259,7c9150ab762f44c284ade74a443ad249999dee68,2012-11-14T10:59:31+00:00
COUCHDB-1259,c6252d6d7f8d7fa3a27bf8e09beecb87033fa2fa,2012-11-14T10:59:31+00:00
COUCHDB-1018,0f85cae7709d79ea51fe7438890232ad5c31c601,2011-03-30T13:15:01+00:00
COUCHDB-1018,077e95290003ee7c8080085bc822de4e2e38efef,2011-03-30T13:15:01+00:00
COUCHDB-1016,9cbc3f979f49c150e151c78f245539140c5d9dd8,2011-04-16T18:29:03+00:00
COUCHDB-1021,47f320cc8ccd978221214951d5107335571ee355,2011-01-12T10:44:16+00:00
COUCHDB-1021,9b3c8dfb58f68f73da93ecb7986cbcce72f4f6a4,2011-01-12T10:44:16+00:00
COUCHDB-1021,8603749545aff0a56668dc0912ec6ee6f9c37d45,2011-01-12T04:22:43+00:00
COUCHDB-1021,9b336fc0eb834c2141b962401ee42a5698ca3154,2011-01-12T04:22:43+00:00
COUCHDB-537,6343efd6768a3d4d4ff2c6e1b22200f4e4aaca3f,2015-06-30T21:32:17-04:00
COUCHDB-537,edb2c8517485a701ac38ebc8c4de2cd4df5a12a0,2015-06-30T20:55:05-04:00
COUCHDB-539,743978109d231c6e5f90854f3560b57ca2ab4896,2009-11-03T19:15:40+00:00
COUCHDB-539,f2689f944e1c0f573afe4393ff26bbc988db8baf,2009-11-03T19:15:40+00:00
COUCHDB-539,8ccdafdb0c5497aa072b48bff814f19b23dc8426,2009-11-03T17:15:37+00:00
COUCHDB-539,6943c2f9d7117b7e15090bf7ea86bc18d2bd8a85,2009-11-03T17:15:37+00:00
COUCHDB-775,1a40bb815a8b4f8fdd21a6263c55dfb9fa6d0dd8,2010-06-15T16:27:22+00:00
COUCHDB-775,e421789386d4f621ddbb1a107278f7843b3042c8,2010-06-15T16:27:22+00:00
COUCHDB-533,6ac2a044263f50c48f101af3f9df4a47fe823003,2010-01-20T22:42:10+00:00
COUCHDB-774,16a19110eba7c378ade36320598faf10c3c723c9,2010-05-22T21:28:54+00:00
COUCHDB-560,1ba1a72eba6b02e4b499d903991423a76f52ad0d,2010-02-02T00:53:54+00:00
COUCHDB-1267,83eddf8aaa56bae23e8f0439d447045d412860a4,2011-09-10T22:45:53+00:00
COUCHDB-1022,2c82d8832b9f8f9b47dd735497b5f90dab856625,2011-02-07T14:16:36-05:00
COUCHDB-1022,4065f86a42962b6dc163ef17417b54bcbbebeb14,2011-01-11T21:28:20+00:00
COUCHDB-1022,3285c45ad4d3c09524e44a1e8f1a6d640a6eac20,2011-01-11T21:28:20+00:00
COUCHDB-1265,fce11ee6aa5b3e792182bbf5530c4a0557998628,2013-03-20T06:02:48-05:00
COUCHDB-1265,f1ba5d08a668eb5a5a85c501607a113f4b76ef72,2013-03-20T06:02:48-05:00
COUCHDB-1265,832b797058ebf92e059197d662e4351845708319,2011-09-28T03:36:31+00:00
COUCHDB-1265,017ebb3feabbdf1bb569fea500c9d6b9f66bdf4a,2011-09-28T03:36:31+00:00
COUCHDB-1265,c62acac324205ed4aef3f922c401abeb8909acfd,2011-09-02T04:31:10+00:00
COUCHDB-1265,d0ed963d3b2eae5ec8dcd4e706e6f426dd85b37d,2011-09-02T04:31:10+00:00
COUCHDB-1028,33a05dd0153d7774cf0b8f8d58241113992cdb83,2011-01-19T16:45:40+00:00
COUCHDB-1028,b9805633b9b04a82714729fa01aeedae766958a5,2011-01-19T16:45:40+00:00
COUCHDB-1026,38e230c4f33de2f42fbe8e669229a55e650b4548,2012-08-31T12:22:17+01:00
COUCHDB-1026,272d641529e6cde5a24ed73e827e27ef52c87d2a,2012-08-31T12:22:17+01:00
COUCHDB-1269,0caa63d97b5813b5f593835d8612fd71175f0805,2011-09-01T22:15:13+00:00
COUCHDB-1269,7d1a814f7728d49831fb1bbdfd7c599e8fcac84f,2011-09-01T22:15:13+00:00
COUCHDB-1271,b196742ccad09deda91a29979c6172c63623df2c,2011-11-13T12:15:33+00:00
COUCHDB-1271,0277d45804799d791b4dba9e37951bc225132859,2011-11-13T12:15:33+00:00
COUCHDB-1271,0c8c6016db9e11d6b4ffe8620c40e3c73a08d81e,2011-09-17T05:44:46+00:00
COUCHDB-1271,d914d1cc78fa91d19a09c3e5a793216e1378a15b,2011-09-17T05:44:46+00:00
COUCHDB-1272,92f70219ce5ba487e4eb65dea7d16a9168a8547f,2011-09-08T11:01:30+00:00
COUCHDB-567,22d7cb27c21c579eb28ca1ba6fadfee13f1dab72,2009-11-12T02:15:25+00:00
COUCHDB-566,5ea1cd95c6f5bf3bace5a641b16306993cb554e3,2009-11-09T20:08:43+00:00
COUCHDB-566,a641d97c1b7cff839ee7fb0681fc84ef582b0a38,2009-11-09T20:08:43+00:00
COUCHDB-327,d4ac5c5083a310c16ac1754e3dbc3fafe8c5eb66,2009-06-08T14:24:54+00:00
COUCHDB-321,8b3d706b70bd55f5a3a37ff48c9b809aacf2a8cb,2010-01-30T01:22:36+00:00
COUCHDB-565,74ba7738142f9331b087cc327680dc196c3b8ca3,2009-11-10T11:40:01+00:00
COUCHDB-565,9032cfd7e12c5935982dd0c8b4e3d0be15c869fa,2009-11-10T11:40:01+00:00
COUCHDB-322,8d46b4167f9108544d71ff9cde1e03afcddc8680,2009-04-18T16:16:35+00:00
COUCHDB-322,5442bdb4f36f6079c5e63b5ddd8486acd032e5ad,2009-04-18T16:16:35+00:00
COUCHDB-790,35695cfaa5b4d1997e8130fb3a0e72016871539f,2010-11-21T14:06:48+00:00
COUCHDB-790,a965c0e92ae20561ee343807bcebc63d87fbadbd,2010-11-21T14:03:25+00:00
COUCHDB-790,fb488a926bd2a3c76a5b1a8c3c54ba014f1ed5e7,2010-11-21T14:03:25+00:00
COUCHDB-2365,f02a1013dc61f011ccb58f1fddb689a93795af98,2014-10-29T23:12:27+00:00
COUCHDB-1034,45997053c322bccce16319a5417a033b80012321,2011-01-20T13:00:41+00:00
COUCHDB-1034,1d62c0418ae525994ca316ba49580084a1fa8cce,2011-01-20T13:00:41+00:00
COUCHDB-1039,76a82528fbe4dd8adcac3083b34a1c6f6729b2ff,2011-01-28T01:48:51+00:00
COUCHDB-1039,53810b7676395592dc7cfd6dbbb83369cdedb097,2011-01-28T01:48:51+00:00
COUCHDB-1037,b63f700d7837525b933adfab1a9af1fd336c31bb,2011-01-21T14:02:59+00:00
COUCHDB-1037,6c34bdaa4af93ef523d9635c81983d94402e466c,2011-01-21T14:02:59+00:00
COUCHDB-318,f4aa228848f8b465ae5ea3088ef02a04051feeac,2009-07-21T21:42:59+00:00
COUCHDB-3220,64235ef3b40be067d8304ee97e23eae0b446337c,2016-11-02T15:29:02-04:00
COUCHDB-317,7089f60c33bda2bc73edb684afc34cd6fcd2e39f,2013-01-26T18:27:49+01:00
COUCHDB-317,5d92ae8fa9bfb1c21fb4d974671cf6ae3f5b409a,2013-01-26T18:27:49+01:00
COUCHDB-1283,439e642363cbb7bbc299b844df211e849aa667a8,2017-07-25T17:38:35-05:00
COUCHDB-1283,0f46cdeceb4d8c12a7e95ef110b381fdc6c3b2da,2017-07-18T14:28:26-05:00
COUCHDB-1283,148f6850b62225ea058428121882cf7f3753223b,2011-09-21T00:40:19+00:00
COUCHDB-1283,561c45c2e23051aee0b5bcbaab6cf3df6beb6edf,2011-09-21T00:14:25+00:00
COUCHDB-1283,615c95167d3f85edc5e0a7bc919297bf869212a2,2011-09-21T00:14:25+00:00
COUCHDB-1283,40f345c530b2383b18ca99385d29d6a0ed30ff59,2011-09-21T00:14:25+00:00
COUCHDB-316,c207425da84875be25f299f65e719035deeb7cf3,2009-04-04T21:47:12+00:00
COUCHDB-316,05838650cfd06fa27f07d0a13b80617879b381e3,2009-04-04T21:47:12+00:00
COUCHDB-793,a1ece398902a22a211b4a23b75003f4e2c3fe465,2010-06-12T16:35:37+00:00
COUCHDB-793,c71b9fa6a197db1657aac41f8fd2994f23364d3b,2010-06-12T16:35:37+00:00
COUCHDB-551,eb7eea09e5606affef270f9f6cac237c147336b2,2009-11-02T20:31:08+00:00
COUCHDB-551,9bd34f364e1d9d3a02391cc3ace1ee98d84ae547,2009-11-02T20:31:08+00:00
COUCHDB-311,04989c6fc78ad7cb725600562758f908c067275d,2009-04-18T16:34:33+00:00
COUCHDB-311,6adbab8f3fadda652844c8db7ca30d382ad0fa5a,2009-04-18T16:34:33+00:00
COUCHDB-1289,4d9f690daa477090a8afd1b649024e5ccf546570,2011-11-28T12:52:11+00:00
COUCHDB-1289,1317d5c5ce2d0e6f122dc0669f7c6a3e84f89c25,2011-11-28T12:38:39+00:00
COUCHDB-1289,d159dba5620060dcec00c9a877c00a699d6087bc,2011-11-28T12:38:39+00:00
COUCHDB-1047,8c79577ad3cc1c7e75ecb680fe3af52be2d0d0cd,2011-01-28T17:47:13+00:00
COUCHDB-1047,e14d295fc9a12f2b5780d97b368ccbc4b543b504,2011-01-28T17:47:13+00:00
COUCHDB-2375,ed360325cacbc3f5320b28f3c42ef2bc3ca3c716,2014-10-13T21:25:21+04:00
COUCHDB-1286,bb44cdd2b68ee22394ca4995cc0d854f5ccd629f,2011-09-18T22:32:10+00:00
COUCHDB-1286,06fb18a149c97b101067258417f0edecb245bcbe,2011-09-18T22:32:10+00:00
COUCHDB-1044,451f5a08415680d2338ba4f6d82a12c3d5daaa8c,2011-01-27T15:24:29+00:00
COUCHDB-1044,bc7b57dbe7c1c5b61b4f00162fd206d22879f8f6,2011-01-27T15:24:29+00:00
COUCHDB-3222,262944f0244c86c5fdb794ebe538fb916ff5415c,2016-11-03T19:46:05-04:00
COUCHDB-1049,5b79623e2081c9c4dbf1799167cc70070a8dfb4a,2011-02-02T18:40:25+00:00
COUCHDB-1291,79a3e081db2f367e29bc6674f8d9f6591e7e6458,2011-09-21T00:51:18+00:00
COUCHDB-1291,48dc9612d1c5043847dfaacd18f3f82f0400f515,2011-09-21T00:51:18+00:00
COUCHDB-3232,1ee7c63ebd0daaf0430460adda23560d03a1ba16,2016-11-10T23:45:14-05:00
COUCHDB-504,a4524e9030bb79b6b3f1ee43b8231f721879f4f7,2009-09-17T03:16:54+00:00
COUCHDB-504,da4f4a1b69f40c8847131f6103d8faca2ef4602c,2009-09-17T03:16:54+00:00
COUCHDB-748,ead517e9c72a264e048f086999b16d4cfd801da2,2010-06-24T16:53:43+00:00
COUCHDB-501,d371de8641a9482f138fbcd4bbb3ead7d85abeba,2009-09-14T11:08:46+00:00
COUCHDB-984,f74a820603ab5ce4fe2dc2a9fd56b4bc464e260a,2011-04-20T23:30:47+00:00
COUCHDB-984,5234a7ee70121bf83c4b9e5a80ac6e1000f8c1fd,2010-12-13T16:00:46+00:00
COUCHDB-742,9a8c496a787bdef6eb0af2ded243d2bb209503d5,2010-06-24T16:47:18+00:00
COUCHDB-500,2abb74e62571b2c775bcd18cfa8c4117f6a544ce,2009-09-14T23:15:34+00:00
COUCHDB-741,3c6d70299dd6bfaeff757393a0f8259f2c0b3d0a,2010-06-24T16:35:58+00:00
COUCHDB-741,2f502eb36358dbdc3816a28000b3dd4036ed62ab,2010-06-24T16:35:58+00:00
COUCHDB-740,8a8cad04afd593d21f5ae114a157b9cfd43796ae,2010-04-22T15:08:08+00:00
COUCHDB-740,3143d4eba8b40b33c3dbe5897d6fdb7ec7377f71,2010-04-22T15:08:08+00:00
COUCHDB-1297,19fec6e1e4d931ad7ccf52f84790bac71b2084a2,2011-09-27T22:29:58+00:00
COUCHDB-1297,7fe255e8225cfcb8f5ed5837f7f0a853c5236a68,2011-09-27T22:29:58+00:00
COUCHDB-1055,68d81b1e3964a2ae857cf98f56fe97b20c78d4e3,2011-02-03T00:17:19+00:00
COUCHDB-1056,6ac8df8cbc13fa9cb9ad080f5fb9836e6ea768f3,2011-03-26T21:01:57+00:00
COUCHDB-3238,65b1b6488953ff9c8eb1bff1dbe2c9684fd309d6,2016-11-16T19:36:04+00:00
COUCHDB-2390,2a583cb0dfcd446ae259b272acd58068079c9b52,2015-02-19T21:21:25+01:00
COUCHDB-2153,6a46608604812346628e21fa75c99b2b2a095cc3,2014-05-31T22:57:25+02:00
COUCHDB-1065,0060eb2ca6ccbbd5c4f28b7231a6e19e8b30008c,2011-03-28T14:01:10+00:00
COUCHDB-1065,b9ad24926724f3f711a01e4a36a363dfddaf1285,2011-03-28T14:01:10+00:00
COUCHDB-3241,54890e1b8f1d44225ed559ec53f7bf1f4402435b,2016-11-23T15:20:11+00:00
COUCHDB-737,fc8069eedf13c10b9b61f527964279fa2085009b,2010-04-15T14:56:59+00:00
COUCHDB-975,cd461f2ca7012069d80cc410741c6d87af5594db,2010-12-04T09:23:22+00:00
COUCHDB-730,42eebe57c2d5013a9dc8abcb9ec31064fb523e1b,2010-04-11T23:56:58+00:00
COUCHDB-730,2aea9fcaca0f04aed8c3cc0f9ca9e627f60afdae,2010-04-11T23:56:58+00:00
COUCHDB-3245,14157e3ee03f1f0c6ea5580a52b9de3b93bc149c,2016-11-30T14:25:23-05:00
COUCHDB-3245,1659fda5dd1808f55946a637fc26c73913b57e96,2016-11-30T14:15:38-05:00
COUCHDB-3249,4afd60e84d0e1c57f5d6a1e3542955faa565ca4b,2016-12-06T12:59:55-08:00
COUCHDB-3006,13326bb4b265c09c37f8088c6432f80f495ef0cd,2016-05-06T10:20:41-04:00
COUCHDB-1072,08a4254f5f6e8a63a6817eb3ac003986ae423886,2011-03-01T16:34:01+00:00
COUCHDB-1072,c05286683a50a1313a8eb630ec40dd2be15ca4bb,2011-03-01T16:34:01+00:00
COUCHDB-1075,d5cb8c068e82fb181148c004c2c3ea15aeebeed0,2011-05-11T18:09:58+00:00
COUCHDB-3252,317a95fbb852ba6c990122b785c6171a82fafd71,2016-12-07T14:12:47+00:00
COUCHDB-1074,d7721cfefaa30c3ade557e7ff5f9a7d6615dd21e,2012-11-14T15:05:55+00:00
COUCHDB-1074,11773776074ef5d8051c84a14afc4c93c8f87712,2011-04-06T08:55:45+00:00
COUCHDB-1074,49cf5e195fb33b7f887b528d6fde388db8279f78,2011-04-06T08:55:45+00:00
COUCHDB-522,3c3a5e3456353689ad5dd30811e72f089d47d141,2009-10-12T10:28:18+00:00
COUCHDB-522,022ce7a40c0be1c5cf90f05fdb223f5e1f140cfa,2009-10-12T10:28:18+00:00
COUCHDB-761,71aba4c4cb3bcb99dc9578f32437cdb04b66ea7b,2010-06-13T14:15:29+00:00
COUCHDB-761,3c83fe3827bcebf1e8bc8c5c16af1ad9fd9e0555,2010-06-13T14:15:29+00:00
COUCHDB-760,d1ac58e54e2a8a89add1aed9fb710224bd0a39fd,2011-05-06T15:44:12+00:00
COUCHDB-760,8e1a79d60b8d26944f634cdd5432a39a3e2af25c,2011-05-06T15:44:12+00:00
COUCHDB-1079,d56862a2c1f8df906b7e040bbbb73d546b953fd5,2011-04-16T21:53:28+00:00
COUCHDB-2169,6f23ad403d8669abedc5f090284450793b2a77e5,2014-03-17T18:20:44+01:00
COUCHDB-1077,195d224a2bef2dd990d8214483caf3cb965797a8,2011-04-16T22:25:20+00:00
COUCHDB-3255,49d41949f59d39e3f1d24f76e8bf281dd17745f5,2018-02-28T10:32:43-06:00
COUCHDB-3255,b8a06c319aab95802c489383c19b40926269b896,2016-12-15T09:47:27-06:00
COUCHDB-3255,58382d441e5ed499dce5904229d176068c17a5bc,2016-12-14T10:14:24-06:00
COUCHDB-3259,2994cded4968fa3fbf9f6178c224f3b1f62f3ea5,2017-01-05T21:41:55-04:00
COUCHDB-3259,bbc32e160562fc2f6233b6f583cdef28ced8ed9f,2016-12-21T11:32:46+00:00
COUCHDB-3017,7422b55af919ceeeb41885c85b36ab078cd7af2d,2016-09-02T12:14:00+01:00
COUCHDB-3017,68c6a0eb43e52ba2c867a6f0c8318fa98c3f053f,2016-09-02T11:33:02+01:00
COUCHDB-3017,c4b955f419955e31e57f66b36edc0940fdb81d74,2016-05-13T22:15:32+01:00
COUCHDB-2170,b63ff1b50b7bde0c8f1f95988d076dda63f41fed,2014-03-06T11:40:30-05:00
COUCHDB-1081,f69b02aad72fa5c743265cf5f14ce44fa1e97ad8,2011-03-09T20:01:08+00:00
COUCHDB-1081,c18395a64f0c13adaee7b08980c524a770a83bfe,2011-03-09T20:01:08+00:00
COUCHDB-516,d20a302fb46748627e6f9fca71e31b4aacc35531,2009-10-02T00:27:48+00:00
COUCHDB-516,6bcdf27022bd3992685a0188c3025aacfc35de5c,2009-10-02T00:27:48+00:00
COUCHDB-3264,8dcc3fb175807ac18a3d7c1fc95364910ee8969e,2017-01-03T10:37:15+00:00
COUCHDB-1087,9b8143ad0c302ac21f40876e877c9a4954c342ac,2011-10-29T20:21:48+02:00
COUCHDB-1087,3b37d17d1329dbb7515b05a849bfa6131ba1c89b,2011-10-29T20:21:48+02:00
COUCHDB-518,93bc21dbaab3428f5c6cc29d4171c0479ddcdca6,2009-10-04T12:39:53+00:00
COUCHDB-517,5cde423a3bde9752ee996c5e2f6a65bafda7b93f,2009-10-03T19:53:03+00:00
COUCHDB-517,d6c411269c1159016c80ff6d244f1f9124f19329,2009-10-03T19:53:03+00:00
COUCHDB-996,31ac15974d63a1b86bc642a44b97a9a152a44cec,2010-12-22T19:07:04+00:00
COUCHDB-996,15941e63e8982602367212b090f7273d9351d9c9,2010-12-22T19:07:04+00:00
COUCHDB-998,73500a0095ee7a0672e8350b5f3f3c27fc5c8ec4,2011-01-11T00:18:39+00:00
COUCHDB-992,60870460fd732d4376580c6632e65e276bec298c,2010-12-23T11:24:36+00:00
COUCHDB-992,c802e0d56633e9a66fcbada5a113f0366348228e,2010-12-23T11:24:36+00:00
COUCHDB-994,ee7f65b2345bd60ba9e4fcab91c0464a8968738c,2011-09-23T19:56:14+00:00
COUCHDB-994,a89426f7cf571b7f64d3290c684715bab4408299,2011-09-23T19:56:14+00:00
COUCHDB-994,898aab04c8c66a6dce8e50836fc89b9f5eb579a9,2011-06-23T09:44:33+00:00
COUCHDB-994,c0de37df72b240622faf819457485f694c391e21,2011-06-23T09:44:33+00:00
COUCHDB-993,733700e22a603df98c564ee1f207a02bfdad9260,2010-12-29T15:55:25+00:00
COUCHDB-993,1fc02e5ea5a856431747004b9bbd9d49873532ff,2010-12-29T15:55:25+00:00
COUCHDB-3269,998cf2d66aeb0a436f2d836f3f50ee0c647137fc,2017-01-11T18:08:57+00:00
COUCHDB-3028,c2474ee98b317e59cac27d9d43518b893e33c1c0,2016-06-09T19:18:38+01:00
COUCHDB-1093,1a53cf03cfcb51de727618b2817f9523f836edf5,2011-03-27T19:18:51+00:00
COUCHDB-1093,dac8214fd5d65c28eeb8c666d25208d453863ba2,2011-03-27T19:18:51+00:00
COUCHDB-3271,d90326bd2dea5b3941843c0dac77fa2ee698e993,2017-01-20T11:16:45-05:00
COUCHDB-3271,ec2235196d7195afab59cedc2d61a02b11596ab4,2017-01-20T10:56:14-05:00
COUCHDB-3271,6fa8d3ca004fb8fa658bc30abb0705e88fd810ab,2017-01-20T10:56:14-05:00
COUCHDB-827,8bf0728eb791bc3da195d185972b6d75dd1fd328,2010-07-16T22:55:14+00:00
COUCHDB-827,2cb0b6ba823521792ad481d6faf8e52af09c531f,2010-07-16T22:55:14+00:00
COUCHDB-827,18bc680eb8536814ae090ccbcd444ddd11bcbac3,2010-07-16T21:32:57+00:00
COUCHDB-827,aa979801f94952acd558f7809417b40104846cfb,2010-07-16T21:32:57+00:00
COUCHDB-829,6a262a9f3d9bf277741f3a72601fefeef0a96a9e,2011-02-07T20:42:08-05:00
COUCHDB-829,8194ba4a96b5f307a1fb6352475d750af0e3bf01,2010-07-19T22:46:14+00:00
COUCHDB-829,662bf6812ef0a4fa80cf137761f9b1b5a93821c0,2010-07-19T22:46:14+00:00
COUCHDB-1097,b8da9ed3ddafe093f38b911867077d375e1eb6ce,2011-10-29T20:53:29+02:00
COUCHDB-1097,9f53704af06c8eeffb0b47a526a3777bb33c737a,2011-10-29T20:53:29+02:00
COUCHDB-2187,adf9ae25c6be1c654fededfc72350b48abfda1de,2014-03-07T10:23:54+00:00
COUCHDB-820,e056188adedf711c08355ecfcec2064716538745,2010-07-22T20:39:40+00:00
COUCHDB-822,536c2de01c98ebe3cc73be00dc420850ada2e8bf,2011-08-18T16:25:08+00:00
COUCHDB-822,fbac8ab488e48c5c6e892aefe074723ff52842a2,2011-08-18T16:25:08+00:00
COUCHDB-821,a2cb9ece1df094055f343f226c7825a0eea60dc8,2010-10-30T11:19:37+00:00
COUCHDB-3036,d5511c4fb0efead8d61187279220fb6f06c0e086,2016-06-10T12:52:42-05:00
COUCHDB-809,fc07ac02d94735a8c56dd12f4567c34cf091d12e,2010-06-24T17:56:41+00:00
COUCHDB-809,88caaddccbe40a148ffd83aab6fdd78b68442ecf,2010-06-24T17:56:41+00:00
COUCHDB-3039,aa0c08c2d48dcf20ecdc8b0bd4a1b6aee6b1b56c,2016-06-24T12:40:50-04:00
COUCHDB-3039,aa17ddf3c149a7ac5316e5c821d0d704ac857960,2016-06-24T12:18:24-04:00
COUCHDB-3286,6412412ce76e42adb7b1f899f7eebc704b8d6416,2017-01-30T15:27:59-04:00
COUCHDB-3284,c644280554aba00055886602fba39ad058306d7e,2017-02-01T14:49:39-05:00
COUCHDB-3284,bf12a7a3336bd438493e7db1d090160f1c1a09f3,2017-02-01T14:42:59-05:00
COUCHDB-3284,7c7a1d66e4e8800775723eaf24fdd81d73adffcd,2017-01-31T10:54:33-05:00
COUCHDB-3284,d52a5335d930d11ade4953c8576d22f55872ff6f,2017-01-27T16:49:42-05:00
COUCHDB-2196,0e33059e929e2f9ee41bcd743768daa3dae716e2,2014-03-12T10:47:04-04:00
COUCHDB-810,0aab3c54dcc6e0c16c4086eba44b64f1cb765951,2011-03-13T12:58:38+00:00
COUCHDB-810,086c3564ab3889c1d4a054082a4ba4b66f5b4768,2011-03-13T12:58:38+00:00
COUCHDB-810,a944eaa03bcd4465a59d46f7a36bbbdf295835c3,2010-07-19T00:10:11+00:00
COUCHDB-810,4c780ad5eb81e0e4c66b45fd70fbb623c3a19be6,2010-07-19T00:10:11+00:00
COUCHDB-3049,0627357bfee793dea28f3822e952ddd31601fd92,2016-07-07T08:40:23-07:00
COUCHDB-849,79d3861733a2f492f9e4c4de50b4bfeb5ca89e64,2010-08-10T19:33:21+00:00
COUCHDB-3054,01be91c129b5c698c8e3e8bc512cb69979d935e7,2016-07-12T15:01:00+01:00
COUCHDB-3054,5e3bf1f5e2e96841ce0d2b26606c7f590c067bdc,2016-07-12T13:23:05+01:00
COUCHDB-3054,ebea1b8f5d49fe60f326b33dbdc06176ecfea5d1,2016-07-12T12:08:38+01:00
COUCHDB-3054,fc7287a9eddca2f1d114853bc555b07c0a6ea3f8,2016-07-12T12:04:49+01:00
COUCHDB-848,501dc95ca8cb5dad6b42decd6b3443691bce7a1e,2010-08-10T19:09:22+00:00
COUCHDB-844,829c3b0ad518cf44c6d8c86871b2355b65ad4167,2010-08-08T15:37:10+00:00
COUCHDB-844,6cc14b1e06e7a0f27b0c40382ec96d9d2bf1c6a6,2010-08-08T15:37:10+00:00
COUCHDB-844,db258533dc749f0b1368f4bacbb039292928cf51,2010-08-08T00:45:07+00:00
COUCHDB-844,1423d6f0a593e16817068d2b5dc5463a21bc0ea4,2010-08-08T00:45:07+00:00
COUCHDB-844,c8ec909e005db41f4ca4847d471dc6bf0b4951a8,2010-08-08T00:37:16+00:00
COUCHDB-3058,f6ad55d804ac741b59fe37dd092787113847661c,2016-07-14T15:56:42+01:00
COUCHDB-838,7b2911d796a2257e9d52871d9e4247dfd7906904,2010-07-28T23:28:26+00:00
COUCHDB-838,ccd81fdcd98c02ca1396e4752831f3a21b66ce3b,2010-07-28T23:28:26+00:00
COUCHDB-3060,fe39a0ad37e8248f6fe68ad826d236fd2c083e63,2016-08-26T10:44:18+01:00
COUCHDB-3060,9133f6d1612374e73f18f13244a32ce8678aab67,2016-08-25T18:27:19+01:00
COUCHDB-3060,e936267dca63e78775c7c1ed3580f92a50e61b54,2016-08-25T16:01:47+01:00
COUCHDB-3060,0db83c4c8ce9819c00975f0a024e246bf4e3bd6f,2016-08-25T16:01:26+01:00
COUCHDB-3060,e9e84c5d55ec5ef9b83dba0800bc27c23b4b35f6,2016-08-25T13:08:58+01:00
COUCHDB-3060,82f7913d95a1e418725408cbbc1f822d20dfa77d,2016-08-25T13:08:44+01:00
COUCHDB-3060,212ac60e59ab5d2384b6b10f223e42a2ad280924,2016-07-15T19:02:20+01:00
COUCHDB-3060,3ce28641c85af0d5054df47e9ac7de917a9d33cd,2016-07-15T17:47:21+01:00
COUCHDB-830,5fc1e706ee5015e6a555f46a5eea601b4ec3bf63,2010-07-20T10:42:21+00:00
COUCHDB-3070,6a2ffe5a61d5a7d8f83211d8728ebc1405da315a,2016-07-22T14:56:43-04:00
COUCHDB-3070,5b6d1b1dc2809af464fc11385d558631593f0614,2016-07-22T14:48:42-04:00
COUCHDB-3084,0b8840008302209032265a6ae768f5b2af1bae63,2016-08-04T10:58:02+01:00
COUCHDB-3084,1df597fc2e9a8208e7716f8542a7f6a8e9b606e8,2016-08-04T10:57:37+01:00
COUCHDB-3084,4f6d5865f84b0e422ba9388ae86d307cd7656868,2016-07-30T19:55:23+01:00
COUCHDB-3084,4e7b6265b3be88bed97572b50a412b470bf680d1,2016-07-27T20:07:23+01:00
COUCHDB-3084,3509b91537266e29709789a5f8ccc4f101f4ce54,2016-07-27T19:24:12+01:00
COUCHDB-3082,1ad1f0fac0edb4ad89d22424b7a22d71ff2244f6,2016-07-26T16:04:35-04:00
COUCHDB-3082,05247a26019ce5416e13ef80a12c307bdc790ee4,2016-07-26T16:00:17-04:00
COUCHDB-3082,c661e74d2de99007804b6cb60489421d68fe406f,2016-07-26T16:00:04-04:00
COUCHDB-3089,28eb33cc766eb3c840bb8b02118c35225c322eeb,2016-08-05T15:56:01+01:00
COUCHDB-1901,eb137e3f8c3b618020b6d1032bcb35238d93c2e1,2013-10-03T20:57:13+02:00
COUCHDB-1901,eb06a31ab0731ebe19e329923b9fde668b8543dd,2013-10-02T17:00:16-04:00
COUCHDB-1901,df0423b5d5c35170626cfc0c10216d2e72e3a83e,2013-10-02T17:00:16-04:00
COUCHDB-3096,53aafa9bedc99be7fbf097a32c3af73aa21934b2,2016-08-10T15:08:31-05:00
COUCHDB-806,eb043176b14d451fd240c3459fad6d050a3ed213,2010-06-21T12:34:29+00:00
COUCHDB-3095,f0b84513752cad3d7f6f944ff912244be4c08e32,2016-08-16T12:06:06-03:00
COUCHDB-805,c7d03ba1f2b255076ef85f2b21fd8899d04db529,2010-06-19T12:24:41+00:00
COUCHDB-805,7450d192bb39c2c3f051a9e8606340abad16b5e5,2010-06-19T12:24:41+00:00
COUCHDB-802,654567c6bb3e306210030937fe71952c8e5a7b3b,2010-06-16T21:14:06+00:00
COUCHDB-802,db16441b58fa57c14b5b814ba62d042455e6afd1,2010-06-16T21:14:06+00:00
COUCHDB-3097,4f6cda5701118300d73f844219d06d05282c3f97,2016-08-11T12:19:34+01:00
COUCHDB-3097,96f9af918248e5208aa62bf55226a8bd0e27bf32,2016-08-09T15:30:51-03:00
COUCHDB-800,9f7bc593ce16cf7a4fa28da147742842dea65087,2010-06-15T18:52:11+00:00
COUCHDB-800,8f6a0089ee04ff7e95d1650ab1a2b7ddc0fcaca6,2010-06-15T18:52:11+00:00
COUCHDB-3092,d7b92a101559b0664e03a3defba3d4e307a952a8,2016-08-05T09:38:42-05:00
COUCHDB-3092,afe8375e08808f01984d03286dace759b37efc05,2016-08-05T09:37:33-05:00
COUCHDB-1922,0572bfbb8e5d941648ab014d787db7a1a37a90a9,2013-11-07T11:41:50-08:00
COUCHDB-1922,4f619833695abb38b25d670c88bfdf9324c79f40,2013-11-07T11:41:50-08:00
COUCHDB-1703,18ea4df42f943c5ccd2a5ed747d30a9f638a53fd,2013-03-13T23:22:22+02:00
COUCHDB-1946,7c3aef6999691bd02fbae56a72c991a6150af261,2017-05-09T16:06:35-04:00
COUCHDB-1701,f0b351022d60ae2d5753fa6c38ffb604c2701c46,2013-03-19T15:03:47-07:00
COUCHDB-1708,d2040ab43aa9a31d3442bce2cdd514003fad7e4a,2013-03-16T13:55:24+02:00
COUCHDB-2815,31c15c70d1c1885ccf1cf6f03f18d0b079d664d9,2015-09-16T16:48:20-04:00
COUCHDB-2818,aa51eb4beefaf69d32f835df82bd7f9e738c1884,2015-09-24T11:07:25-04:00
COUCHDB-2818,7691f48627ebac932f41e0ac2d7748e979673883,2015-09-21T14:07:03-04:00
COUCHDB-2819,61fbb94b9f7f59c34483c092ecc39bd3a63155e2,2015-09-22T13:49:22+01:00
COUCHDB-188,ee4f96c9ac78108a87fab0036ef07a8d0a75835a,2012-01-17T20:38:41+00:00
COUCHDB-188,ca51333f379204771fa225e21d110b3488c74ca5,2012-01-17T20:38:41+00:00
COUCHDB-188,f625d39145c03282501a4939f64d39061a43cd37,2012-01-07T12:46:04+00:00
COUCHDB-188,975ea08c719bc6a457fb407225dbdf772764b13c,2012-01-07T12:46:04+00:00
COUCHDB-188,6d1d23b7d0eba4de3c4097907adc37b09191196e,2012-01-07T12:46:04+00:00
COUCHDB-174,58682cffd8fae4aee86d62ae45cf75c28173ca1e,2008-12-16T21:55:37+00:00
COUCHDB-174,27dedcf33c085a3cf88809b8e42a86b940a318fe,2008-12-16T21:55:37+00:00
COUCHDB-2824,b6ef656ec28b1355ef0193e6d83c0863e40a946a,2015-09-28T18:00:17+03:00
COUCHDB-2824,d7f0093b1c83a721dd8e9a9b3c625d0575e26c9f,2015-09-28T10:55:06-04:00
COUCHDB-2824,3ac3db6806cdf89114fe23290a7e13e4e7c35acd,2015-09-25T21:48:54+03:00
COUCHDB-175,3c30452e37e32a8c012a9b4a07702fb591423ccf,2010-06-01T15:13:18+00:00
COUCHDB-170,cd68c16d96bf9fc8a0eb2e6126b176b50a040a86,2009-02-18T09:54:24+00:00
COUCHDB-172,e397d301ca0e853bcad3c6964060a7f55dd799bf,2009-03-21T14:42:44+00:00
COUCHDB-172,bbb5dd8aac27620f55c8f868ecb2f1a2524a8d1c,2009-03-20T12:18:11+00:00
COUCHDB-2828,e1d1eeb14dd9a244c98c9610a94debb8b522369f,2015-09-30T11:26:49-07:00
COUCHDB-178,083b26df25ea661c6c67b66d62b777ffc3f48b55,2009-03-20T16:55:59+00:00
COUCHDB-177,344595578088908463c5cc64018f5122610973cf,2008-12-16T21:19:03+00:00
COUCHDB-177,3b27d154b2f36ff7a7514a6b0dbd29dd3715193b,2008-12-16T21:19:03+00:00
COUCHDB-2834,c4624d95e45ec4b45f7c6ddfbc4cd61413ee1d63,2016-04-19T00:59:37-04:00
COUCHDB-2835,da7f03b42da0be8793ee8cc41b0a5eba32d20bcc,2015-11-10T02:24:58+03:00
COUCHDB-2835,a02f6106af37dd6900ceed5288e692661c369ef1,2015-11-01T16:52:36-08:00
COUCHDB-1508,cb4850313b944632a3a2744099bdb947c236c4e9,2012-07-04T10:45:31+01:00
COUCHDB-1508,0e9c5a5afbb35f6fdaa059fa56c6d5ccb87baec9,2012-07-04T10:45:31+01:00
COUCHDB-2832,f1bb186eb2cd1e1a4930fbe1feb2e060b1172e4e,2015-09-30T13:16:39-04:00
COUCHDB-2833,307ae6d92fd300d31d6eb96bd5aca5b9a558a66d,2015-10-15T13:54:10-04:00
COUCHDB-2833,85d62d1e2b72250c329b4b10db4df1231e647933,2015-10-02T10:03:24-04:00
COUCHDB-1986,eae95be9822b3b8af69d93c4ac33a8917e4403ec,2014-09-23T21:20:46+01:00
COUCHDB-1986,9a0e561b1f3bc34810dd9112ab0a3fe3722c9a54,2014-04-01T15:45:57+04:00
COUCHDB-1986,b58ffb9b7ad263a185377feb25ff30ad9bab8f62,2013-12-14T17:21:26+01:00
COUCHDB-1986,74e0f08f72f8c002674159a4f765991f101abddc,2013-12-14T17:21:26+01:00
COUCHDB-1502,2c8990922fe61efa1a751704c653f153f306023c,2012-06-23T12:46:14+01:00
COUCHDB-1502,f0d6f19bc83206720df6e2eea43f378cace5b969,2012-06-23T12:46:14+01:00
COUCHDB-2830,2ee5e28d0208188a9f99b513793b31a0e28f8139,2015-09-29T20:06:09-04:00
COUCHDB-2831,e7e5cc84c13f7d2031dd5cb661745590b8efbef6,2015-09-30T11:04:00-04:00
COUCHDB-2848,acfd7cb0c709345f396cbcb696b6305091dfac12,2015-10-19T02:05:46-04:00
COUCHDB-2848,c0bf9d67d70092e02226079053c55ff20fb972de,2015-10-13T14:24:11-04:00
COUCHDB-1759,8a33322704ca03a09849a6a72ddbb16ff444071f,2013-09-16T10:48:24-04:00
COUCHDB-2845,76831000a6ea31313ea634d6b4ac2142e5f4a8e5,2015-10-08T13:14:02+01:00
COUCHDB-2845,33bc0608602f100527d1e00d8b3dbedf938647dd,2015-10-08T13:12:35+01:00
COUCHDB-2849,65b7a3a64ae087901d2d2fbe785233b04f135b4b,2016-04-17T19:21:20+01:00
COUCHDB-2849,dc5cca804132266edec7a62cb2ca6b36cfadab27,2016-04-17T19:18:16+01:00
COUCHDB-193,8a0ecc7cde0e52fb2fe01bce22873b77c1e72372,2009-08-15T05:11:45+00:00
COUCHDB-193,165531bcf223f1c05c4c2eaef7cd2f2943c10584,2009-08-15T05:11:45+00:00
COUCHDB-2844,07e8d80618c5848e90fa76d2e4221835bd97d876,2015-10-08T11:47:03+03:00
COUCHDB-1511,3aef6605e63037ccdd63d8e8206dfdb932c75c49,2012-07-30T12:58:52+01:00
COUCHDB-1511,41205000c7d756a951021641c586b73f7489510a,2012-07-30T12:58:52+01:00
