Bug ID,Bug Fix Commit Hash,Date of Commit
DIRSTUDIO-96,abce34b8c894a07775b7539b95b5d0a1537d1e2e,2007-07-02T20:21:52+00:00
DIRSTUDIO-96,5e67f102a4db3a8d027d091349f16fee9cb78165,2007-07-01T22:12:50+00:00
DIRSTUDIO-921,4b47c4bf1d28bf40af52ff995d80c412e490ef24,2013-06-07T15:22:46+00:00
DIRSTUDIO-808,ef89043708868e382e32fd48b7f7c515a9711d8d,2012-04-27T12:55:21+00:00
DIRSTUDIO-808,b8d8f00caad8fb3692c0d51d6c43a55e8e33197c,2012-04-27T12:48:11+00:00
DIRSTUDIO-802,853836f85d2effdf6c45daedfb4d95b30007b823,2012-04-10T12:46:42+00:00
DIRSTUDIO-82,19821781eb3cd0f3d6cb08c78916a38d2b248c45,2007-04-22T20:17:54+00:00
DIRSTUDIO-83,6f5494481eede64262091256fed4b1d120794cc5,2007-04-23T14:57:15+00:00
DIRSTUDIO-84,f387fcfc3d058fd281a1af403266dbac3af6cd67,2007-04-22T22:13:45+00:00
DIRSTUDIO-88,2dd42d5fdacb5f66f7642f83e1f15222e4957a77,2007-04-23T13:24:22+00:00
DIRSTUDIO-919,5b3d56d348949d44a3ba1dbe05eacf81daec5213,2016-02-22T19:16:04+00:00
DIRSTUDIO-919,b2ba15806c756e6fd565614eb6c7a1d0afa94434,2013-06-14T15:40:07+00:00
DIRSTUDIO-918,f19b759396bfe0c3505a6c1b91b5d8b7b94f3e19,2013-05-31T11:17:30+00:00
DIRSTUDIO-917,b56fcc1b4f7fa30a246a76b08b49b2668a44f6f8,2013-05-27T13:57:07+00:00
DIRSTUDIO-912,8a865ff9f99c318ced2a93cad2574a3634a8a8f3,2013-05-31T11:16:30+00:00
DIRSTUDIO-905,c55aaabf22cf95ab066caab6db8a0987c05ca73a,2013-04-30T11:12:59+00:00
DIRSTUDIO-904,6cf96ef3f5a8c14b65154192a0cb7220277d2a28,2013-04-29T15:38:43+00:00
DIRSTUDIO-903,7c0871501ddd02750ae52edbf9795532a48ed4f7,2013-07-05T14:18:57+00:00
DIRSTUDIO-903,4e6d98416ac109f6b4df9fcc10267678c9045822,2013-04-17T15:13:46+00:00
DIRSTUDIO-902,8689c51ea393503e880607511f1b339ade33c09a,2013-04-12T15:50:58+00:00
DIRSTUDIO-902,816f3eabd3379ace0e456e7eab1bd5e763d4e3f5,2013-04-12T15:22:47+00:00
DIRSTUDIO-1095,e47ffa2c028d10732def0830f19d23e092f4f649,2016-06-05T20:41:25+00:00
DIRSTUDIO-1095,9ccc0150047196bcef2d11ee5007de29c691ab40,2016-06-05T08:47:10+00:00
DIRSTUDIO-1090,f1c13c6618ed5a2804f1453ab1ee1e86d7c6e2fa,2016-02-20T09:01:55+00:00
DIRSTUDIO-50,d92bbab96e8027020ec6d3430e04dee0e47fd7d4,2007-02-05T22:15:25+00:00
DIRSTUDIO-57,03bfa463a6225c18e6372cdcc63e1cf3a9564200,2007-02-19T22:32:47+00:00
DIRSTUDIO-1085,7b347f4843fffb3718592dabe190c3a2a8c74965,2016-02-15T23:12:24+00:00
DIRSTUDIO-1080,b28c3202a8cd56913d59757110d1a3f185bf4b50,2016-01-10T18:39:19+00:00
DIRSTUDIO-1080,a321387fd8cba507041fea281da609b6720f3f09,2016-01-10T18:37:54+00:00
DIRSTUDIO-48,545827a0efd725229a974876b94ebecc5dea449e,2007-09-18T09:33:08+00:00
DIRSTUDIO-1197,2f6f71de1d4495ca8eba125f4ab3e6a0b9b6d6e6,2018-11-10T16:39:18+01:00
DIRSTUDIO-1077,4c855116d88addb20882ef52590f628b78813c37,2015-12-06T14:03:01+00:00
DIRSTUDIO-1199,e8f15ea553a3ae7bebc2fe96d6a2864e188f8017,2018-11-22T20:54:30+01:00
DIRSTUDIO-1194,17158d3c9eb33dc0aec123567147ad03e6fb3d4c,2018-09-22T17:43:00+02:00
DIRSTUDIO-1194,7e68f083da1e95a14724d8ad8347010db7de996f,2018-09-22T04:22:04+02:00
DIRSTUDIO-71,3a56493d1131516d7731b4572da9a2b603af4c31,2007-04-26T22:35:44+00:00
DIRSTUDIO-71,2d91eded268b280a6939ac7e871fe03132564855,2007-04-24T21:45:10+00:00
DIRSTUDIO-73,898e8ce48f3d168e41f979b512b89fb6705882b0,2007-06-17T15:39:02+00:00
DIRSTUDIO-74,eddc682056b77d340e5276e361b4542d600665d0,2007-04-06T21:09:30+00:00
DIRSTUDIO-74,d1fe8c1df479f480da061613d40af1d4c9d18ca6,2007-04-06T21:08:21+00:00
DIRSTUDIO-74,b39c583b9ace8e47e5da1f510b91c837a022bfe4,2007-04-03T22:47:13+00:00
DIRSTUDIO-1188,2711ab57aa77e7ac1fccccd9dcccfcd3d2c9e1da,2018-07-29T13:39:50+02:00
DIRSTUDIO-1068,3652a9160cb3516a047d58f7b28864c1f05ac284,2015-12-21T18:58:05+00:00
DIRSTUDIO-1061,0495e9c175585b0b13c0dc5f263613f0ecb61e88,2015-06-26T21:47:51+00:00
DIRSTUDIO-1185,59948821d6b002ffbe47f3a4038d07610f14ceaf,2018-09-08T22:33:14+02:00
DIRSTUDIO-1060,3f4824bd4ef2efb64b4a9cb2efe66a955dd767fa,2015-07-06T17:09:16+00:00
DIRSTUDIO-63,e50b815ead9bfb5687c04c84029f153d4cf1a29b,2007-02-22T16:16:47+00:00
DIRSTUDIO-63,9eec301c830216b65d17a8e140fed98c03553def,2007-02-22T16:14:38+00:00
DIRSTUDIO-69,ad1cb95dbf7f86bdccf26571d2c396d867e31822,2007-03-30T10:12:09+00:00
DIRSTUDIO-64,77cb6b6ed28ecdaf5e81a7b2de214ebc5e566a4b,2007-03-07T16:12:45+00:00
DIRSTUDIO-64,25ff9338fbff202575f549d0dfc7191cd5007301,2007-03-05T10:59:35+00:00
DIRSTUDIO-64,25f6cd09f32e62ef8baab34c234e6c22cfc31da3,2007-03-05T10:53:40+00:00
DIRSTUDIO-1179,a04da70202572fb071b28846fadf01df0b9325a8,2018-08-19T18:49:26+02:00
DIRSTUDIO-1172,2730f3087cf7678bf7df8bb792f8062067b6de1a,2018-05-21T14:51:13+02:00
DIRSTUDIO-1174,f85cd15360ff1e6cc3c04b18323840b2221d5579,2018-03-25T10:29:49+02:00
DIRSTUDIO-198,e03e9b2c21083743496386b6d8aaad7b9a08a15e,2007-09-17T15:59:31+00:00
DIRSTUDIO-197,7fa480de4f20307d33311d7d8253877a8887a53f,2007-11-13T23:31:58+00:00
DIRSTUDIO-196,62adf94b5b36c63d243235f7d2d15f45dd8c1996,2007-09-14T15:14:56+00:00
DIRSTUDIO-186,da416aec1f7ebad05986c70c9bf0e855e652b6de,2007-09-07T13:45:20+00:00
DIRSTUDIO-184,7fa480de4f20307d33311d7d8253877a8887a53f,2007-11-13T23:31:58+00:00
DIRSTUDIO-183,5b21d16ea79fceb37491cdf149b58cffc980a5e7,2007-09-07T09:08:19+00:00
DIRSTUDIO-191,f831044b1565fa9c374ee392c3e79e1b734d9b2f,2007-09-17T15:15:47+00:00
DIRSTUDIO-298,ff995d7c8ad0352a03789d3e496e269f0008523d,2008-07-22T11:14:03+00:00
DIRSTUDIO-296,31ebf4838e14600a180efbc29b27a146b64b02ae,2008-03-19T14:21:33+00:00
DIRSTUDIO-293,4b603457a8f52e7d7ff560d74fe36eda0d2f07ad,2008-08-18T11:42:23+00:00
DIRSTUDIO-291,044337f7216ba339fc140a1e9d1541c8adcbff3c,2008-08-21T10:05:39+00:00
DIRSTUDIO-299,b2de43d40b03f19fb22ecb51cbb4b307677641e4,2008-03-20T09:05:09+00:00
DIRSTUDIO-299,6584f9c65122d8352e3bef842aca1559e73d67e8,2008-03-20T08:52:08+00:00
DIRSTUDIO-180,1494768676770399b96060d465f816340b27a964,2007-09-02T11:55:29+00:00
DIRSTUDIO-287,48fb56a00bceb7cd0d533618d5dc6655d280bfa3,2008-03-19T22:03:43+00:00
DIRSTUDIO-166,639fddcbfa3412327e122767c7e0d483b44db8e2,2008-01-21T22:01:08+00:00
DIRSTUDIO-286,948f4dcf966958f625014be2ebe329d782781872,2008-02-27T00:18:28+00:00
DIRSTUDIO-285,5d21c526b094c05e1fe83dab805feeb4639bfdc3,2008-02-26T21:26:46+00:00
DIRSTUDIO-284,5be62129852b3632f631753298821f4314654313,2008-02-25T16:08:55+00:00
DIRSTUDIO-163,c2138a2308f64906fdd14d51f9a19181d3d26308,2008-03-19T10:21:02+00:00
DIRSTUDIO-162,809126589caaa75890deb0bb768a90cd44803446,2007-09-06T12:18:52+00:00
DIRSTUDIO-288,a373d5070d948746af3dd6340b82009fcddf43d1,2008-03-04T20:43:14+00:00
DIRSTUDIO-154,caf17c7c6971b9343fd8a1e2ec64021e7e60e167,2007-12-03T00:05:03+00:00
DIRSTUDIO-154,bc8757d9170a804afeb2cb2c3d6dd25a1242efb6,2007-11-25T22:15:32+00:00
DIRSTUDIO-395,379240497245015ae2d789486a9af3b97d450790,2008-09-21T20:25:39+00:00
DIRSTUDIO-394,2ba3c972972527da7fb4ee0cde0f7f6aedfdf561,2008-09-17T15:28:33+00:00
DIRSTUDIO-273,08d24c35c32223934b5e8959aab4ab9d856e6e43,2008-07-11T09:30:13+00:00
DIRSTUDIO-152,77f604ee0560b15668b1f5d0470b3f53bf58ebb8,2008-02-02T19:43:28+00:00
DIRSTUDIO-152,c8f98d223d064c094691bcd1b9ea054b04ec2b9b,2008-02-02T19:42:38+00:00
DIRSTUDIO-152,acef0476fe250c1dd8d8b320cfe9ca51aa2ff322,2008-02-02T17:50:35+00:00
DIRSTUDIO-152,7d80e3c3d412c298d76038d776c969258687adc2,2008-02-02T17:43:35+00:00
DIRSTUDIO-270,d376327cc1d30c3dadcd9f048cb999bc17c396f3,2008-02-27T22:09:58+00:00
DIRSTUDIO-279,93cba78a5a67717847886a4e77421dc046d102f0,2008-02-21T21:44:35+00:00
DIRSTUDIO-386,97d7a0f3e71872b30cef1bbd839621569e56491e,2008-09-03T13:59:48+00:00
DIRSTUDIO-264,72e10f1575db30068659f1f15838c49fc8b785f4,2008-01-21T21:58:59+00:00
DIRSTUDIO-380,71d2f92ca510e69d82289cd682b63a06f4ffea6a,2008-08-27T14:11:47+00:00
DIRSTUDIO-380,358656fd5ebc20d20888e99774c56c7143daabf5,2008-08-27T14:03:04+00:00
DIRSTUDIO-149,2e249728fdb54ae43a93d96e8133ae443d02a4a0,2007-07-15T15:41:41+00:00
DIRSTUDIO-269,2d7ca1a73d3b01eb3c7d4cc86418f2112b0b95db,2008-01-25T21:56:12+00:00
DIRSTUDIO-389,eb837b26706885a1ffe6b099ab1a048f5e572295,2008-09-04T13:55:53+00:00
DIRSTUDIO-267,d5bda297aa39ae4df559111f65817878b0720079,2008-01-24T22:33:40+00:00
DIRSTUDIO-495,05a57f27fa69591c98436b4e48a3c150b43bbe48,2009-10-08T09:49:03+00:00
DIRSTUDIO-373,8252b3253fec5ea921c23c9a7ad243808f711588,2009-02-08T19:06:41+00:00
DIRSTUDIO-252,654a6692dd1f6c19d785ca500a90bd50162b2eab,2008-01-03T22:58:01+00:00
DIRSTUDIO-372,c9b288936cb67d6ad7852dd00c01b948f91c3c98,2008-08-21T13:29:58+00:00
DIRSTUDIO-370,750153ac27d5959a26c96942290bce4ab4313554,2009-10-12T14:20:41+00:00
DIRSTUDIO-490,7bbb4ded73a23e7948ee9afffe42845494003858,2009-05-15T14:42:26+00:00
DIRSTUDIO-139,f0f96c12853a266d3357ea55d63b90af8cf67ec8,2008-01-06T21:07:18+00:00
DIRSTUDIO-259,83494d6c62953850a7240903f59913d09a491ef5,2008-01-10T21:11:48+00:00
DIRSTUDIO-499,bcb862de2624ffd288a92083632dfff4dbf08550,2009-10-08T07:59:34+00:00
DIRSTUDIO-497,158b11d8ea3c68d14d8f6431d415b64e1794fae5,2009-08-03T13:07:47+00:00
DIRSTUDIO-364,40f836764d49e66c5f78e3eba53a2296c1a4357e,2008-07-30T14:23:24+00:00
DIRSTUDIO-243,1f54209ac43988875c4c73c8b8c5a9bf13f6c4ca,2007-11-23T09:55:23+00:00
DIRSTUDIO-484,78345e061f9ad7c8d16eba58c4a16b2d8cbeeed5,2009-04-21T21:34:34+00:00
DIRSTUDIO-121,053cb09d91133133be983cd4453bbd57a949403e,2008-08-04T11:49:15+00:00
DIRSTUDIO-121,c7201562e8ddac877d5823af68ed9b077cb05ac1,2008-06-13T13:32:49+00:00
DIRSTUDIO-483,cd548fa2d0de06cc1188004d967fdf51adb3fdc5,2009-04-20T20:48:28+00:00
DIRSTUDIO-120,caf17c7c6971b9343fd8a1e2ec64021e7e60e167,2007-12-03T00:05:03+00:00
DIRSTUDIO-120,16e1f3efa0df300e9ed4b241ee00cfd52c88c3ef,2007-11-15T21:53:30+00:00
DIRSTUDIO-482,a000490db5f0aba4fe43c06124380ddabc50a513,2009-04-08T15:40:44+00:00
DIRSTUDIO-481,667fa70eb905683149bfcf0e4c3a7385a28e2473,2009-10-28T10:43:07+00:00
DIRSTUDIO-481,be09f7655cd1e109145deefb1c10f1b89947cdb2,2009-05-24T20:54:42+00:00
DIRSTUDIO-360,172f45fed9b0225a9a7729e4d16d6e507762cf84,2008-08-02T17:33:54+00:00
DIRSTUDIO-249,908c143db2c62665ccdcf7bc824137a0ae56b603,2007-12-09T22:58:16+00:00
DIRSTUDIO-127,b9ae45552a5aa42c5daf693d06fed69d7b3295c4,2007-06-14T12:40:49+00:00
DIRSTUDIO-489,b1b9aa1900bb5384bee1c5086cb89d45920b1958,2009-05-14T08:41:55+00:00
DIRSTUDIO-247,9ddba9d50ae29ee3e4c2653524f4231e0543a2fc,2008-01-01T21:07:48+00:00
DIRSTUDIO-488,ac458a59eb539273e2bfb815bc783493d92c5616,2009-10-07T21:15:58+00:00
DIRSTUDIO-367,158959f1b12fa7e8d621778b4ce560562b678af6,2008-09-17T20:54:33+00:00
DIRSTUDIO-245,ce8fc1d8456c6271c7f7d9036b9d6d388a63482a,2007-11-28T12:26:15+00:00
DIRSTUDIO-486,c5f3278f06449bd619456c770f56305bcd64feb3,2009-05-06T19:05:25+00:00
DIRSTUDIO-365,290a86d88db779bb9ce73fc942ec2d7cf6d289e3,2008-08-09T08:33:24+00:00
DIRSTUDIO-1204,e8f15ea553a3ae7bebc2fe96d6a2864e188f8017,2018-11-22T20:54:30+01:00
DIRSTUDIO-1200,fd9e20b613550d872c27fbf677d0fc8df1d03272,2018-11-21T21:12:53+01:00
DIRSTUDIO-594,0d053c972572a4c8770ca030ec095ad6e5742ae0,2009-11-19T14:31:02+00:00
DIRSTUDIO-231,a911e5d204ddab66415223b3e225f1cae680279a,2008-03-21T22:21:08+00:00
DIRSTUDIO-593,de9c036f1c3223d6a9616a33c80acb8c21a3b589,2009-11-19T13:51:47+00:00
DIRSTUDIO-472,1479e900950d3598c0cd96571ae23d36005e5956,2009-03-12T21:06:44+00:00
DIRSTUDIO-230,5f566c4800295c46c592976fec596eaaec2f146f,2007-10-24T19:54:21+00:00
DIRSTUDIO-592,51c7be87636df939aba996941166e07a29809e84,2009-11-18T17:06:25+00:00
DIRSTUDIO-350,32d8914c5f171200cf6b883c42b4096bd63ffdbb,2008-07-10T18:43:18+00:00
DIRSTUDIO-591,51c34b9e41a01b6554ec76e6aa3d91067abb6105,2009-11-19T22:31:29+00:00
DIRSTUDIO-591,fb58f284e778e0014a884ac81e6556ff5dfc3cf3,2009-11-19T22:17:56+00:00
DIRSTUDIO-591,6208794f490fd902c839343c4a0bb53b2f336f8a,2009-11-18T22:43:36+00:00
DIRSTUDIO-470,528425eaaccdbfa0caf120055a25bf69d9dd719b,2009-03-06T07:55:34+00:00
DIRSTUDIO-590,a396e1b51e49054fc36d213ef9e12f7611a90205,2009-11-17T10:32:51+00:00
DIRSTUDIO-239,ef63557bcdb6a16084596bad4e998a9b8ebbd306,2007-12-18T15:29:26+00:00
DIRSTUDIO-117,cfebcb262a04b226676f8c0315700223681f3f20,2007-06-24T21:49:23+00:00
DIRSTUDIO-117,f4fd736b1c94b03f8f0c63119cac29c31c9aedb2,2007-06-24T11:15:21+00:00
DIRSTUDIO-598,493b0a0724193fc54c6c045f5381177c3da5ba59,2009-11-19T21:31:09+00:00
DIRSTUDIO-235,000a2e79da7fc5b189380f4cd5e56f6706360cca,2007-11-13T22:46:12+00:00
DIRSTUDIO-597,44881ed3d2d4f05da02de6ab10824991a4bed5ac,2009-11-20T14:48:55+00:00
DIRSTUDIO-597,a261947d19d8ee109dcb318b22aed0e29b100887,2009-11-20T14:41:41+00:00
DIRSTUDIO-597,9817185b31601cfbb22582b6add2c08568cf257b,2009-11-20T06:18:44+00:00
DIRSTUDIO-355,51b63c7ea8f93636f95b00940f2c6eff3bb7068f,2008-09-15T16:15:55+00:00
DIRSTUDIO-355,6cdddcb1f94f4fb2683c489d4ff4766068c3a1b2,2008-09-15T16:01:07+00:00
DIRSTUDIO-355,b683278f5711f99dee0eaaf504ac35fad8a71ab2,2008-09-15T14:53:24+00:00
DIRSTUDIO-355,20ff885ea435774af25256b58b0b5a779db89d91,2008-09-15T11:46:19+00:00
DIRSTUDIO-355,9b50b5e6cf6a8a1956a27af429ee00ab75169723,2008-09-15T09:49:57+00:00
DIRSTUDIO-355,b12df7d7365cbdfed4a11726597c6e44400635cc,2008-09-10T13:20:25+00:00
DIRSTUDIO-355,affcaf4f5d39e6e87f0b693f32d793b5947bd17e,2008-09-09T16:01:57+00:00
DIRSTUDIO-355,abbc476c1087aa026753c9093829faff05afe30c,2008-09-09T15:06:58+00:00
DIRSTUDIO-355,ca64610f9bb55a606dc6212f6cd3427803944b65,2008-09-09T14:46:04+00:00
DIRSTUDIO-596,834b24de9a840f09bae9977829fe80f34824cdea,2009-11-19T17:53:25+00:00
DIRSTUDIO-354,2b1e036b71c35c6f1e229a2f53bba351681d6943,2008-09-04T20:20:08+00:00
DIRSTUDIO-233,7fa480de4f20307d33311d7d8253877a8887a53f,2007-11-13T23:31:58+00:00
DIRSTUDIO-463,7e18f3ebbe38f8dceeb0634f171c32bf435960ac,2009-02-27T14:55:26+00:00
DIRSTUDIO-463,c3b1edee3bf7f2892b8553ef71e00728b2403cb2,2009-02-18T21:20:09+00:00
DIRSTUDIO-341,f832df4bc3ffb32c3bdd021534eae04de6895b65,2008-07-13T19:39:40+00:00
DIRSTUDIO-220,bd7315e263ed6f93de443191448e1d8cccff025d,2007-10-10T12:44:17+00:00
DIRSTUDIO-580,141b79b7f7a399058d05d5a359d1f65cc21feaf1,2009-11-16T22:31:30+00:00
DIRSTUDIO-580,adcd87e2d2ecc75c80023a98e53babfd77c6d3df,2009-11-16T14:22:10+00:00
DIRSTUDIO-589,51c34b9e41a01b6554ec76e6aa3d91067abb6105,2009-11-19T22:31:29+00:00
DIRSTUDIO-589,fb58f284e778e0014a884ac81e6556ff5dfc3cf3,2009-11-19T22:17:56+00:00
DIRSTUDIO-589,6208794f490fd902c839343c4a0bb53b2f336f8a,2009-11-18T22:43:36+00:00
DIRSTUDIO-468,ddacce08df9a8e727bd177b6d5c93bf1b96f2b59,2009-03-03T22:03:54+00:00
DIRSTUDIO-347,7b427b913545f062f1c8cc4c544acea70b9ba8b6,2008-07-04T08:48:33+00:00
DIRSTUDIO-226,34e4908850668efd05b4b33b44df4f9e83eb4637,2007-10-17T12:41:27+00:00
DIRSTUDIO-587,b64a250314476b8b4c9363d236fd864e3523392e,2009-11-17T20:36:33+00:00
DIRSTUDIO-587,aebe561562768d84dcbefee7ee6d580f16124eae,2009-11-17T14:20:17+00:00
DIRSTUDIO-587,de6078055cf559c3157c4188282913867b336664,2009-11-17T14:06:47+00:00
DIRSTUDIO-466,8b8100d13940451efc1e288faf95c22dd2024b77,2009-03-30T07:22:46+00:00
DIRSTUDIO-224,a8cb160160d0e7ad7f2a3896856117ca4f70c3d2,2007-12-17T17:58:50+00:00
DIRSTUDIO-465,9ccf4e9f2185876241324f24a7d9f4b5ff7de09f,2009-02-27T10:30:37+00:00
DIRSTUDIO-465,7ce31211b31dd3ebb66aa1b91b502bf0b5736742,2009-02-23T19:26:28+00:00
DIRSTUDIO-223,de310c1cd65fb03125c3eb1ecefa361f0bf1aed4,2007-10-11T21:02:56+00:00
DIRSTUDIO-223,e9f78a9fbdc5e5df21f27e956dca18d36d03f880,2007-10-11T11:30:37+00:00
DIRSTUDIO-585,960de33034399ad78ecf344cb53c25b6b92fdc77,2010-03-08T13:01:15+00:00
DIRSTUDIO-343,f354cf675de89afa32e2fc471d50198bde1cfee8,2008-07-13T16:53:55+00:00
DIRSTUDIO-222,3fcf0c3f546c2748042872703aac495514ec6401,2008-01-17T13:56:25+00:00
DIRSTUDIO-101,63dd2dba8d87ce820f3cb25af6983075edd4d8b1,2007-07-01T21:57:45+00:00
DIRSTUDIO-101,d3d0a92e1edbe68afe2582912b86a6486293a14a,2007-06-17T22:48:27+00:00
DIRSTUDIO-331,a51b90c5043f3f29a1cb05c6dd64e6ffba02bdaf,2009-10-09T07:52:11+00:00
DIRSTUDIO-210,57e4b61a65cd6825b377350d1fe0e4ae31bcb83a,2007-12-09T17:15:01+00:00
DIRSTUDIO-330,e937e7f4c7da4d2f1673f3d894cc8c65c7211ce1,2008-05-20T12:32:19+00:00
DIRSTUDIO-571,9e824bbc020d1b75fafc9dba7d687d56132b06e5,2009-10-21T08:35:55+00:00
DIRSTUDIO-570,99eddb43cd691d94485c01cc6d21b44474c8370b,2009-10-16T07:19:12+00:00
DIRSTUDIO-699,2f74f44e30663b234b93ce4cb50f372dbdc511ff,2010-09-10T09:54:28+00:00
DIRSTUDIO-457,5dbb787389c1631bcbeff71d0fd09e93089769ba,2009-02-08T16:52:10+00:00
DIRSTUDIO-457,c9415bb3034033e506b4bfd75f52016875756ec1,2009-02-08T11:05:16+00:00
DIRSTUDIO-457,a9f8c78958fb87c8146769f49444a5a195ea6e2d,2009-02-08T01:29:48+00:00
DIRSTUDIO-457,a6aaefb4c932bfbea9311de1aaf3f71387105d67,2009-02-08T01:19:16+00:00
DIRSTUDIO-336,84f730e72a59f4ca02363f9e3c46c34fdc941acb,2008-06-05T12:57:22+00:00
DIRSTUDIO-698,1e8c4ab6a73b6a03a97f43dec0307bfa99c35228,2010-09-10T10:57:55+00:00
DIRSTUDIO-698,2f74f44e30663b234b93ce4cb50f372dbdc511ff,2010-09-10T09:54:28+00:00
DIRSTUDIO-577,e23066fa728b8e84c8825e0e89fc19d430d3c6a5,2009-11-16T18:40:36+00:00
DIRSTUDIO-456,f1e9eae7f71a6c6d25d36090c9372a5be2ede52c,2009-02-09T21:02:49+00:00
DIRSTUDIO-214,c8f5da884cf30b6423169e29380345c398f2a99d,2007-10-02T15:55:07+00:00
DIRSTUDIO-576,c02b5390cd8c0b3a972e49c5eadf36eeb41225ca,2009-11-18T19:57:08+00:00
DIRSTUDIO-334,83c1e6b24dde4f3249584b8faaee67d6de559cf4,2009-10-14T17:06:19+00:00
DIRSTUDIO-213,07bbb2e74ba89733635bf51e32f5ab8eb44f81ed,2007-10-02T15:18:01+00:00
DIRSTUDIO-696,75e8bf5c16354cd49c73a7954ddea992f9a5e301,2010-09-08T16:56:35+00:00
DIRSTUDIO-575,38c4a8b7b1a798c2c2aba7c7649ba4f47ee179e8,2009-10-27T19:55:45+00:00
DIRSTUDIO-441,28fa26f0958f55a2ca4abb6b7253b6fc4c92b61d,2009-07-27T15:11:57+00:00
DIRSTUDIO-441,4415538ad3455eed3ca05257d19798eb10ab9044,2009-07-27T15:02:11+00:00
DIRSTUDIO-440,96209c34a37853f44aa183fcbbfabf2317e9be56,2009-01-01T09:51:53+00:00
DIRSTUDIO-569,cf91f7815eafdae65386ebf6e78d4087f861acf2,2009-10-15T14:55:09+00:00
DIRSTUDIO-206,4cda7029035feefdf947ca9ea999df060767a8d8,2008-02-03T22:24:54+00:00
DIRSTUDIO-206,665ada13021b8f9420a271bea1782364b93c1a42,2008-02-03T22:24:25+00:00
DIRSTUDIO-206,05c9f4151419c9eaed8d1bc8602e8806f329892c,2008-02-03T20:38:51+00:00
DIRSTUDIO-206,5ca83811454b717fb2946a6711ce6d441c8dcb8a,2008-02-03T20:37:12+00:00
DIRSTUDIO-568,2120895d9782fc427cedb7465c39a613e61d4e61,2009-10-20T09:38:37+00:00
DIRSTUDIO-326,1e6537c176eb3b82c6d4a021bcb9de3f676cbf58,2008-06-10T21:20:44+00:00
DIRSTUDIO-326,f7f00b4d81f95c772e52725d11f12b6eef35ec50,2008-06-05T18:58:13+00:00
DIRSTUDIO-204,63b127de99c4be57796ea7e24e750964d1ade2a9,2007-12-18T09:55:57+00:00
DIRSTUDIO-203,69ea9e48bf3f936a703d150fe3bb5f9a6c507de7,2007-09-18T15:02:00+00:00
DIRSTUDIO-564,3b6faefbdaab07739a7cab24222dbecc91484a13,2011-12-14T15:20:41+00:00
DIRSTUDIO-443,afd5d6206dcc04a10cb02970dc010efbced3c5a0,2009-09-28T13:31:31+00:00
DIRSTUDIO-443,0d62d92d7dfa34433f7d317d7585843c333390e2,2009-08-10T12:27:41+00:00
DIRSTUDIO-201,9ca1d474ea4a682caba93938d427416ba19705ca,2007-09-17T13:02:06+00:00
DIRSTUDIO-209,5fa755ccd8fdffd0a4b12451e151b39e3cdaeace,2008-07-11T11:50:47+00:00
DIRSTUDIO-792,5daa4a265ae775eb32668bf01fdfe0b869df3937,2013-06-17T14:44:13+00:00
DIRSTUDIO-792,e265678b5bfe793ac9604d4fe026abf328a3eccd,2013-06-17T12:34:27+00:00
DIRSTUDIO-550,9ac465c94afb948ffcd677de4fb7c7d4225306eb,2009-10-04T11:53:06+00:00
DIRSTUDIO-437,25e532247e1dfcb9cf5f0f4ca62fd1517eceb50c,2009-10-08T14:48:24+00:00
DIRSTUDIO-799,1d624571347ea85ec903492862091265b44e8ad5,2012-03-30T11:03:08+00:00
DIRSTUDIO-557,8852b847174d755093f03866a76d9ed59b03291a,2009-10-08T11:11:25+00:00
DIRSTUDIO-557,039c925f26a76a2f5769849d51d66cca178f40b0,2009-10-08T11:00:19+00:00
DIRSTUDIO-436,9232f6d54cfc824bf96632d3ce5755c6e4509786,2009-02-28T16:25:46+00:00
DIRSTUDIO-313,32f5bad4636a592935233d49c9d974754a081bd9,2008-04-01T12:38:23+00:00
DIRSTUDIO-796,82b86aba98653e7c4917b3ed0344017124b3b177,2012-03-15T17:05:27+00:00
DIRSTUDIO-795,8205007839014f14d3e1bccb52913f7f91420a8c,2012-03-15T17:06:04+00:00
DIRSTUDIO-552,030969669aa1dde711f9bc868629db2175209af9,2009-10-04T22:49:30+00:00
DIRSTUDIO-310,4175f28089ab710717f4d16df6b6a46f8ac7de27,2008-03-25T22:49:16+00:00
DIRSTUDIO-319,84049bfe5d5c7a3f5da13ffa308d504733bb72b2,2008-06-20T22:52:45+00:00
DIRSTUDIO-319,2643deb06ed225a3ccf12572240bfad8705c728e,2008-06-15T13:27:10+00:00
DIRSTUDIO-318,ac411d4ef19602f89112aa40214d5ef1747a8931,2008-06-14T15:18:10+00:00
DIRSTUDIO-427,1ceb555488d5f2a7acd689dcd0fcc293c644f43d,2009-03-13T07:47:07+00:00
DIRSTUDIO-547,3d60de948f98f10a2f43eea07ac6677e79283a65,2009-10-07T12:34:59+00:00
DIRSTUDIO-788,71448539dbdae176ce8f9839c1c70e7f6733be5e,2013-06-17T15:01:05+00:00
DIRSTUDIO-788,7109de0c09581555c2e98806c5f0b707d33ec273,2013-06-17T14:50:31+00:00
DIRSTUDIO-424,7d24cca85166fb37fbced5972df0825dc435e847,2010-01-13T12:59:48+00:00
DIRSTUDIO-423,3339291b580a35d92bf8af5f5dbf48ffca919c3d,2009-03-23T19:49:24+00:00
DIRSTUDIO-423,d0c41788a98f5978e752ab98b954f28db0fcd5a2,2009-03-23T18:14:40+00:00
DIRSTUDIO-302,b9c83fe3a83220b461ab357aa81a1cbc1e16a47c,2008-03-19T17:57:34+00:00
DIRSTUDIO-300,f7a40ec11a21a8e72f91020d1dd586ae4250ccba,2008-03-18T10:10:08+00:00
DIRSTUDIO-783,4168f8ed971f2fa0d57ad73c6329b6f74b001a1f,2012-02-20T14:34:35+00:00
DIRSTUDIO-420,dec4756abec842268a9fa525c84682682d84cacc,2009-02-28T19:16:39+00:00
DIRSTUDIO-429,ce1f170d3314cfd854298eb11ccc385f6eae055f,2009-10-09T09:46:13+00:00
DIRSTUDIO-549,535fb7470e1891855afb70193ab95334d3901b4a,2009-10-07T12:13:19+00:00
DIRSTUDIO-892,340120ce0c3443a5331e76a7b8a5f60f34b4db3b,2013-03-20T11:12:08+00:00
DIRSTUDIO-771,d11923bfea18cd09c6cf9178fee5520021d4706b,2012-02-08T16:40:24+00:00
DIRSTUDIO-891,ca80c843201d82d4d8a60a033fa92aab22e17c45,2013-03-20T17:07:36+00:00
DIRSTUDIO-770,a0391a3ebc3c49ad0f93d91f9af9658171b4d13b,2012-02-07T13:51:54+00:00
DIRSTUDIO-770,d48499f4a93fc24f7fd336239174c122f869d5b1,2012-02-07T13:48:31+00:00
DIRSTUDIO-770,3ea2ac9ffd06be2371afc6954e2adf7502392c74,2012-02-07T13:45:12+00:00
DIRSTUDIO-770,922d8b27d634eb41ef685f8e2c7a531b5d3993de,2012-02-07T13:42:27+00:00
DIRSTUDIO-779,b0a39bd1f50b87563c41fb3bdd326e6e6b7f89ea,2012-02-15T18:35:49+00:00
DIRSTUDIO-658,8a646425148ae1737dea958d569a65048fdedc15,2011-12-07T18:53:55+00:00
DIRSTUDIO-537,3709490f74a027c102bd6f789acd459bed5c96e9,2009-10-09T20:48:37+00:00
DIRSTUDIO-899,295823a82f79649e40fa9c76de3535f70f5b7a47,2013-04-05T13:48:09+00:00
DIRSTUDIO-899,47dd27395a9f8fb14ddb1966dd76309384990a4a,2013-04-05T12:42:09+00:00
DIRSTUDIO-778,6db5093f3ea0254246f5a4c9bf68fe903be2ed87,2012-02-15T14:43:41+00:00
DIRSTUDIO-777,f664fa5550927e234ba0b1659d36bd92a34aa5fc,2012-02-15T18:26:28+00:00
DIRSTUDIO-777,ba904d70e759fb8b656caaac9dbea98ceb0108f1,2012-02-15T18:25:26+00:00
DIRSTUDIO-776,77ba4ccbb67c2d2f7420bb900c10134cefed5ae8,2012-02-13T15:29:02+00:00
DIRSTUDIO-775,c2cee21a52dfdd0ed46470983d78cce123a2fdbd,2012-10-16T11:38:20+00:00
DIRSTUDIO-654,f5d86e8e2a3e1deba671b9a31f09947f59bc08c6,2010-05-31T16:53:09+00:00
DIRSTUDIO-653,1be18f604414f19e21de6cb19a44421380b23fab,2010-04-26T13:52:03+00:00
DIRSTUDIO-653,836787c467c6281247018ce32302c04a4200ab46,2010-04-26T11:26:31+00:00
DIRSTUDIO-653,815dd2e56a9f75106c4d099aed8c656ee7700ad4,2010-04-26T11:25:44+00:00
DIRSTUDIO-773,d454bc8dbf0d557418c9400e7414ed1fedec3c35,2012-02-10T15:29:51+00:00
DIRSTUDIO-531,728b487cd9a7e03fa7b80c486b7ae6b477dabc51,2009-09-01T17:39:35+00:00
DIRSTUDIO-410,9e824bbc020d1b75fafc9dba7d687d56132b06e5,2009-10-21T08:35:55+00:00
DIRSTUDIO-893,285d3123b622eb3e7ccc879d1d7da583ff317a15,2013-03-20T14:17:38+00:00
DIRSTUDIO-772,2b1dde10e170694b998edb0a1c3ff0475727e000,2012-02-17T15:28:56+00:00
DIRSTUDIO-772,89433ed62cbb46a42cf1764fd28fe534e5b6acd7,2012-02-17T15:22:57+00:00
DIRSTUDIO-772,038ae5e244d6359a04d199e213365e3856008fad,2012-02-13T14:01:48+00:00
DIRSTUDIO-651,143d1c3a8ceb21b33c3da48076d9e61c19dc4fa8,2010-04-21T12:39:59+00:00
DIRSTUDIO-530,4f6a65cd4afd0c057c645a29ef8828190efd88fa,2009-09-01T17:24:39+00:00
DIRSTUDIO-419,dec4756abec842268a9fa525c84682682d84cacc,2009-02-28T19:16:39+00:00
DIRSTUDIO-659,74d84136355de22730d9e16131b31b9c01c471f8,2011-12-08T14:20:31+00:00
DIRSTUDIO-760,a826e15cff382419d541f7a9fd4dd8c584976eca,2012-01-20T14:29:18+00:00
DIRSTUDIO-888,5aee4b92f7fd75ac0c2c39c00dba1c0d068f114e,2013-03-21T14:32:21+00:00
DIRSTUDIO-14,595b3b10d2d75e27ac4e348c39f558c0907a8abd,2006-12-06T13:17:42+00:00
DIRSTUDIO-524,c1431d11be7f97b02d117a811552be464893f742,2009-08-26T12:27:36+00:00
DIRSTUDIO-15,3a545cb4b0b1119db2ff1b2ec9555507ecd78627,2006-12-12T09:48:40+00:00
DIRSTUDIO-764,2b1dde10e170694b998edb0a1c3ff0475727e000,2012-02-17T15:28:56+00:00
DIRSTUDIO-764,89433ed62cbb46a42cf1764fd28fe534e5b6acd7,2012-02-17T15:22:57+00:00
DIRSTUDIO-764,038ae5e244d6359a04d199e213365e3856008fad,2012-02-13T14:01:48+00:00
DIRSTUDIO-643,0f8fd93dcf7cd7439739138f37ffba0b167c112e,2010-03-27T20:25:25+00:00
DIRSTUDIO-763,0ae2f4f68ffc8b97f019a02212d660249bc71741,2012-01-26T17:47:47+00:00
DIRSTUDIO-642,f7e1f0256d298a4bdd1db503ec3edbda3084c4c3,2010-03-28T11:55:15+00:00
DIRSTUDIO-520,5d6c9878c39b94e13d6db6eabe298b6a662e53bc,2009-08-11T11:46:20+00:00
DIRSTUDIO-1047,5a29d88fe4403034c7cd0bec254142256d28bfd7,2015-05-26T20:55:48+00:00
DIRSTUDIO-1043,6291889d7e098fa8cfedc5d2a901242943da6c7b,2015-05-02T22:39:08+00:00
DIRSTUDIO-409,94859a9c56c63bce249672c25fd8016edd818911,2009-10-23T09:33:07+00:00
DIRSTUDIO-409,8b8599849ea93b12c1f4fac470c51fcc41f72399,2009-10-23T05:38:44+00:00
DIRSTUDIO-409,9e824bbc020d1b75fafc9dba7d687d56132b06e5,2009-10-21T08:35:55+00:00
DIRSTUDIO-409,807afe73ea5b2a46c662c0769b08a7be8dc279f8,2009-03-01T22:55:35+00:00
DIRSTUDIO-529,ffa718eb1650d59475a0ccc61598a88add4faca7,2009-09-01T16:53:44+00:00
DIRSTUDIO-18,e1a0161d7ac4aba8c59563beebbc6a082b0004f2,2007-01-26T10:12:16+00:00
DIRSTUDIO-769,051928508a7843a0ec71e5e6bb8a1db9a3e85a7f,2012-02-17T16:26:29+00:00
DIRSTUDIO-527,077297a35fd9d2cc1c779cc3c8f19577cabb7a97,2009-10-06T10:51:08+00:00
DIRSTUDIO-1040,75f8c3b93f4c6eca39993114cf36d0dec634156a,2015-05-24T22:05:39+00:00
DIRSTUDIO-1042,cac232c0a24b5be97e40474993d779a4c49f0e1d,2015-05-16T20:08:40+00:00
DIRSTUDIO-1042,0c02ff5e8bc1603ef44f5c308a2ee5386af59947,2015-05-02T21:06:21+00:00
DIRSTUDIO-1042,9814bcf28898bfeb06848dd85406595b3a895ea8,2015-05-02T20:50:56+00:00
DIRSTUDIO-1042,e10b8ce21693acdcd4ebfcc0185788b7bda523e9,2015-05-01T13:12:50+00:00
DIRSTUDIO-878,2ed8d011ae64eb5894530e3f4e2a3d981c673f51,2013-02-15T15:58:46+00:00
DIRSTUDIO-514,df3fa49e1bcdb66c2794101c6cf3c20826d6905b,2009-10-07T15:45:41+00:00
DIRSTUDIO-876,74a4fc689f792ef671f3c485a40bf23b648935da,2013-02-13T08:05:13+00:00
DIRSTUDIO-754,bd9a3e128722a82d8042e1da02f2baf28c13123f,2011-12-21T10:59:37+00:00
DIRSTUDIO-512,0abe00b588c8cc6f40b4ab296d35105995d4c280,2009-08-04T12:25:05+00:00
DIRSTUDIO-632,26dd49174818d6136bed27210330328d4b69121a,2010-03-22T13:03:11+00:00
DIRSTUDIO-873,37e8a50e729db1b4ef0a01f25bffa2a1c0c31d36,2013-02-14T11:46:47+00:00
DIRSTUDIO-873,d222d7f442bb8a33331b9314219382abc3f40e08,2013-02-14T11:02:07+00:00
DIRSTUDIO-993,f30ae0120a0dd74c230e8ee4e342081fa3cc9e57,2015-03-11T14:13:31+00:00
DIRSTUDIO-630,3a4f0e2227d85bc5daaf332bde166036dd35d19e,2012-01-26T18:04:48+00:00
DIRSTUDIO-1157,feec22ecd376f48d251bdaf2bd368f77379e96e0,2017-10-12T13:31:16+00:00
DIRSTUDIO-1157,c8d5eda414eb31be2fba896ab201a00eab646dc1,2017-10-10T22:17:02+00:00
DIRSTUDIO-1039,616d20fad0d02a5ad365c98eba2fb6e6b8187b8b,2015-04-26T20:55:36+00:00
DIRSTUDIO-639,038552c827c29ebc5f201ff638f6c9114469f82a,2010-03-22T15:35:05+00:00
DIRSTUDIO-759,84f01a7f52d8c96765a034bc3ecc9ebfaa5703ba,2012-01-19T14:16:31+00:00
DIRSTUDIO-879,12ca20a2bbfdcfb710ed1208e4b6581004dccd0f,2013-02-18T10:33:47+00:00
DIRSTUDIO-637,e10321236895d1b402410d741f878146058f2b34,2010-03-28T10:37:17+00:00
DIRSTUDIO-637,c22c59b7708d5c87bf9f18ef2b45a0897252b4fb,2010-03-27T17:11:07+00:00
DIRSTUDIO-1151,9db2af1f20dba6ab04f36d561c17a4f30c4dd1b9,2018-05-22T22:26:31+02:00
DIRSTUDIO-867,e316284325a3bc28c1d4e0fcf29f0eb0e5fbd184,2013-01-30T18:12:20+00:00
DIRSTUDIO-867,bcb620c961f5f1a2870460d4bf763c1d3a544d11,2013-01-30T18:08:45+00:00
DIRSTUDIO-867,f4119dfcea5eeaf17c25138b15f09174a0fe310b,2013-01-30T18:07:42+00:00
DIRSTUDIO-867,0e3b748652fe8b51fb3e59d72c9d8e4b28e9ac2e,2013-01-30T18:07:12+00:00
DIRSTUDIO-867,61202bbfa4c624267aa31b817357f90b7aac6a6f,2013-01-30T18:06:28+00:00
DIRSTUDIO-504,7d76150caed8b0126d3c8f4f86a6022ea3acc842,2009-07-22T17:48:49+00:00
DIRSTUDIO-987,0bee43b580938a82904966b63943716736da9087,2018-05-22T22:14:58+02:00
DIRSTUDIO-624,adadabda2e26df7d3123127c912725353a621ec0,2010-02-02T13:57:13+00:00
DIRSTUDIO-503,7dd499ae767a0ffa6264eae2d74a02e6d03661f1,2009-10-07T20:03:20+00:00
DIRSTUDIO-36,965b9f5da078e87f9480f0eba1b33e7b03638150,2007-01-20T18:46:19+00:00
DIRSTUDIO-865,8df5b8852e595d8481ee6def12f9a5c7a84b4349,2013-03-21T15:25:21+00:00
DIRSTUDIO-865,4f2b440ff50782ac0ab7501d6f68ee99712ae5e3,2013-01-29T16:23:04+00:00
DIRSTUDIO-623,f718063edb1017df95dc6a9aedf0ab9f3763f978,2010-02-01T17:13:06+00:00
DIRSTUDIO-623,8c22745feb41387e43feb8a2107f4fef84370542,2010-02-01T15:50:48+00:00
DIRSTUDIO-502,1a40cd2a06ebc9604bed223bf056c657e921619f,2009-07-21T22:18:51+00:00
DIRSTUDIO-31,93986518f5f2c79aa9ac1675e57bf9e7c277787f,2007-02-09T13:47:56+00:00
DIRSTUDIO-861,c0862b40b3c3a2aad0286fc563e58c02958a8d0a,2013-02-13T11:19:52+00:00
DIRSTUDIO-1147,9d0cbe705208ad86c363af7da2e7136bb18e07fc,2017-08-16T11:39:47+00:00
DIRSTUDIO-1026,7d93bf056da98bb15b6c554b12f004af37eaf969,2016-06-11T21:12:36+00:00
DIRSTUDIO-1026,ef708b2f8dfd0732fb482543fca3243ee51e74df,2016-06-11T21:10:34+00:00
DIRSTUDIO-1148,e2df0914247eb9537263d90a9bcf986b5cee5e45,2018-05-21T22:15:21+02:00
DIRSTUDIO-629,5cd748d564129bab71608e1cce87e51f5f76d8f0,2010-03-22T17:17:32+00:00
DIRSTUDIO-749,8c4ab7ca2a86b063ed01bdef6ef04a5732790b8e,2011-12-02T14:57:58+00:00
DIRSTUDIO-749,012cc8b2bf55c72b6ed5c3711050f6c9cb78b0a1,2011-11-30T18:49:20+00:00
DIRSTUDIO-749,729fe18e418e6738c0ed99012462b3bdead77769,2011-11-30T18:18:22+00:00
DIRSTUDIO-507,3a0747a3582b36964d742dd513762ed19748fcef,2009-07-26T17:42:25+00:00
DIRSTUDIO-627,a9974d0e2398d423b78f7998a3c7db1cc24149a9,2010-03-08T12:02:49+00:00
DIRSTUDIO-506,a58e425b9b53ec3a4d918eb30b082183f082d433,2009-07-25T17:04:53+00:00
DIRSTUDIO-868,3c51ae7438c434ce272d567958352340b44957d8,2013-06-14T16:38:33+00:00
DIRSTUDIO-1140,59948821d6b002ffbe47f3a4038d07610f14ceaf,2018-09-08T22:33:14+02:00
DIRSTUDIO-1140,de80519844ae49577f0c198564362e57068aa396,2017-09-03T23:34:12+00:00
DIRSTUDIO-1140,5f195b92c91286d210f20a22a5790962be947218,2017-09-03T18:22:44+00:00
DIRSTUDIO-614,e190561604b6a73eeae7e20c7ecf6b03fcb90600,2010-01-12T12:48:09+00:00
DIRSTUDIO-613,3b5d86c5649e086985eb3c1dae92a94105a1415e,2010-01-12T14:29:56+00:00
DIRSTUDIO-733,f7e720fb8a13533cd6affb7b034770d3c256ac85,2012-01-26T12:52:02+00:00
DIRSTUDIO-26,0d75b05694dcb29aa68c7070b2b3718d3d5485a2,2007-01-05T14:53:40+00:00
DIRSTUDIO-611,2cca6ff3fb97ad96690e97037da9bfdba27101b1,2010-01-12T10:14:53+00:00
DIRSTUDIO-27,8b8656896e2fee8ee709629246f76ca743b24c35,2007-01-11T23:02:14+00:00
DIRSTUDIO-27,a869c878f59d212fc28a8a784f3daaf4d02c0225,2007-01-11T16:19:24+00:00
DIRSTUDIO-731,4ddc03b10e8502e18fd6aa33f5545ad802b0b602,2011-12-07T17:55:27+00:00
DIRSTUDIO-610,6966e7524eacf712e88e5455bb5c4a9b719113c3,2010-01-29T16:14:15+00:00
DIRSTUDIO-850,b73a3da6a27d835b58d4f47a523440e0e0405b20,2012-11-20T10:24:59+00:00
DIRSTUDIO-1014,eb4b7c294e1f04e21151e69424fdc24fc30902fa,2015-05-30T13:53:58+00:00
DIRSTUDIO-1014,82a7a123cde07bf023d4c87776cea67c8d040e5d,2015-05-29T22:22:56+00:00
DIRSTUDIO-1,3f1873d420634f969af4e4384612f5de18a566db,2007-03-06T15:43:35+00:00
DIRSTUDIO-1,2e60b04e2ec61895d1f5b0fe8d445a78c6bc54bc,2007-03-06T15:31:49+00:00
DIRSTUDIO-739,45edb3551b0ab0c690270d17555b4038087e9257,2012-01-26T15:13:02+00:00
DIRSTUDIO-738,82d2ff40ca011aa1caa3c363bbc7dea28d97fd90,2016-02-22T16:26:52+00:00
DIRSTUDIO-738,15ec7dc5f854edb4804c6834bb2c7ee82021000a,2016-02-22T16:26:06+00:00
DIRSTUDIO-738,27254eaeb06f7faee7d8aaad978022289834472e,2016-02-22T16:24:57+00:00
DIRSTUDIO-617,3d3ed247bc8250b2317166f6f342b716df5fee54,2010-01-18T13:56:29+00:00
DIRSTUDIO-1133,a343b284a2eb02fc7e00216c264e4749077ba665,2016-12-25T18:36:32+00:00
DIRSTUDIO-1012,cbf972d716c09bb88bf3f63ddba81eeff3315400,2015-01-22T12:50:08+00:00
DIRSTUDIO-858,39282db535c276274c0f451bafbc848f6cb79b96,2012-12-14T16:41:59+00:00
DIRSTUDIO-616,ffbad9f47e16abc9ead917538bfa4fa733a79874,2010-01-15T12:21:19+00:00
DIRSTUDIO-616,29229dcdbb49b8f46f3940401423229a7e16c5b8,2010-01-14T14:36:23+00:00
DIRSTUDIO-616,c526cba2a90385f04c0de13237f10daefeb442ca,2010-01-14T13:58:46+00:00
DIRSTUDIO-616,c6203f70e24935fa03be951bf7c66366342ea6e0,2010-01-13T17:47:30+00:00
DIRSTUDIO-615,ccd19161bc1e466d908849cbfa8c5346a749b2cf,2010-01-12T15:23:29+00:00
DIRSTUDIO-1130,05836fccb501a141e0de9e4073ec9bbba6d3208b,2016-11-26T21:10:29+00:00
DIRSTUDIO-3,85df0e2fec2ba4b1cc48686c891f23a915e8b9b4,2006-12-12T10:01:59+00:00
DIRSTUDIO-3,a24d8e2bf92dcda48b3b4e699cc3af96d90c1073,2006-12-12T09:55:49+00:00
DIRSTUDIO-2,31b106be1d0bc0fc254c544d05379371535b0243,2006-12-08T11:08:09+00:00
DIRSTUDIO-2,6d185ec149ad07e8e2aec4c2cb431886f9d49c31,2006-12-06T16:33:02+00:00
DIRSTUDIO-966,44e7ccc782644d5fee436c93817737993a65c3d5,2014-04-29T21:01:03+00:00
DIRSTUDIO-724,797f6f432cb188e1c79adf04baab1e6c7983e1ff,2011-05-02T15:28:48+00:00
DIRSTUDIO-603,bcb4a126bc1cf2b1471228e17383d59e2754dd36,2009-12-06T16:57:42+00:00
DIRSTUDIO-601,6fd4f84e9d29c5c7122b869f965b8d8b3d2a6668,2009-12-06T18:16:51+00:00
DIRSTUDIO-601,b098511322203dd4f1c6a277036d1aaf21ecdf1a,2009-12-04T16:20:09+00:00
DIRSTUDIO-601,2ca64366a18294c4dd9e8618980302f500e3b208,2009-12-04T15:10:10+00:00
DIRSTUDIO-963,9fa890eb7b3dcfd031279b346bbcd97a6944308f,2014-05-21T21:26:10+00:00
DIRSTUDIO-1129,39b6014e2c5f21878be1a58c1b00f431cb7ad00b,2017-02-19T20:08:59+00:00
DIRSTUDIO-1129,52e67acc780dd53c439d0accaa2a2044eaafe837,2017-02-12T17:36:15+00:00
DIRSTUDIO-1129,b38364f254511c2d393dce3f8c35c07917f8bcfb,2017-02-11T22:41:43+00:00
DIRSTUDIO-1129,f52a9026f288b949fdedf3dbd41ac92d502420df,2016-11-13T01:05:07+00:00
DIRSTUDIO-1008,dcf5f08a1ea50b179d4c9ebc46a06f7ae242a2f9,2015-03-26T19:46:00+00:00
DIRSTUDIO-1008,a056e2fd180f8c27604c24658e8aa0712fb91be9,2015-03-23T19:50:50+00:00
DIRSTUDIO-840,51ead125da18b113344e23f2ca90a3330a1bc562,2012-10-30T11:17:10+00:00
DIRSTUDIO-609,1a7cfcb9c00252d27da7fd81be2630d0d7fa2a82,2010-03-29T21:18:11+00:00
DIRSTUDIO-1127,2c7130589f872c208bb74f37e9a3eb9ddb9da665,2016-11-12T22:36:24+00:00
DIRSTUDIO-608,e7fa3caceef181754206b634f0d14787656493e7,2010-01-12T10:25:08+00:00
DIRSTUDIO-1120,da54d92ed2e4e3178cc140622e56b5fb8b4c9f74,2017-08-16T12:27:49+00:00
DIRSTUDIO-1120,6fd246a3173b18ebade6fa285da58670ca5a6555,2017-03-28T14:32:43+00:00
DIRSTUDIO-1121,9139c79694c6a80aafea61646870358b86fe71e9,2016-10-11T19:55:47+00:00
DIRSTUDIO-727,cadcd4ed00c84b52a6b90d0ea416098cd4a48073,2011-12-08T17:21:24+00:00
DIRSTUDIO-727,9d071f2c95c1d208fa5b741189764a683ceeaddd,2011-12-08T16:59:56+00:00
DIRSTUDIO-726,2c2390727e01a85bd8d48db40250ee7af4f82818,2011-12-08T17:57:55+00:00
DIRSTUDIO-955,cd22c5f5f0ab4b35a824773f51e0a079fbe46d58,2013-11-06T21:01:42+00:00
DIRSTUDIO-833,3a6b49a3f6b55c553ec2037100d8a4cba3422c11,2012-10-11T12:25:02+00:00
DIRSTUDIO-950,ed1a9ef85798c538818788f6bd4677de4b113c17,2013-09-17T15:43:41+00:00
DIRSTUDIO-1114,1b6e68c1c9879806416a6cc1a43ae4c0f35fb05e,2016-09-01T22:15:01+00:00
DIRSTUDIO-1114,10c5f3ff427c2ed7f4f63a6bfb603118dade3a60,2016-09-01T21:54:59+00:00
DIRSTUDIO-1115,b13485aa857828aab249ccb7dfa4b7c9f8717544,2016-09-23T21:27:33+00:00
DIRSTUDIO-1115,dce7359eaf8d1fdea394f6caaa035217e7aa3955,2016-09-14T21:30:55+00:00
DIRSTUDIO-959,af0994c96d1c53be71726069da2f6c426511546f,2013-11-27T07:31:36+00:00
DIRSTUDIO-958,8cb08c8d2470117c6efb425109d15b2442abeb84,2013-12-03T21:06:46+00:00
DIRSTUDIO-716,541b56f54d011a77ab3040ff04ab5b8b3b94a81c,2011-12-07T13:17:55+00:00
DIRSTUDIO-836,1a7d1591637158df3011d1dbb3b4a5c8368672ca,2014-06-08T14:04:46+00:00
DIRSTUDIO-835,036b2f6ecb63a884bab47815459dd2ca496c38f4,2012-10-16T11:44:57+00:00
DIRSTUDIO-835,b4baad64b81da1952ef7010f6aef9d4308f38a65,2012-10-16T11:42:02+00:00
DIRSTUDIO-823,e4f021c96b0a89385752a073d67a82aa08ea6e5f,2012-10-12T14:32:33+00:00
DIRSTUDIO-823,93a2ac7c9552727926fad49142f90bef3b9762ad,2012-10-12T08:00:23+00:00
DIRSTUDIO-822,f1b175876df51551b88331e857064648f90a8ebd,2012-07-17T12:29:10+00:00
DIRSTUDIO-708,28bbac8cb3ecc10c51c82b72308d032d40441228,2011-12-22T14:02:17+00:00
DIRSTUDIO-948,9aa733235ff07a057cb4eea9f756e19689c0d315,2013-09-10T15:42:57+00:00
DIRSTUDIO-827,8c800fff8badbfe8b9214a6cddcd9c0b71358ce8,2012-10-16T13:14:13+00:00
DIRSTUDIO-1100,c182908e752e66ea1bc3a83212c6205b05b5f40c,2016-06-11T18:02:12+00:00
DIRSTUDIO-703,38685104419ec003f63e7e0cae00a66b9b79764a,2010-10-08T17:17:12+00:00
DIRSTUDIO-932,7f5ca9d43bdc6f4d4158809598bbee067c274d8a,2013-07-02T17:27:06+00:00
DIRSTUDIO-938,9fa890eb7b3dcfd031279b346bbcd97a6944308f,2014-05-21T21:26:10+00:00
DIRSTUDIO-815,591cd26326894cfd41d5be3de0e79ad6b51de90e,2014-06-15T23:33:53+00:00
DIRSTUDIO-934,ddec939640bca708c2d5371311788b2bd773103a,2013-07-11T08:48:16+00:00
