Bug ID,Bug Fix Commit Hash,Date of Commit
IVY-583,3dae56f75847b83067b592e538ac1643b29ca6ed,2007-07-27T15:10:24+00:00
IVY-462,2703318f46fe5496068a7c2f140b6b59d908f7e6,2007-04-03T12:29:37+00:00
IVY-462,042ab1f23e17c24dfe53b93b8be245a53f876f0d,2007-04-03T10:50:42+00:00
IVY-586,960675f49e7a6d8537d9b75d7d9f79f40aafb7bd,2007-12-03T11:12:23+00:00
IVY-586,befe5e408a220c5003f6d87e8f720bfed12cc4ac,2007-11-21T14:00:41+00:00
IVY-586,eee183a74f19d03169c6862b81c6fbfc3ad744ae,2007-11-21T08:57:26+00:00
IVY-586,6a970949e79488fb2b6b77ab892f144df5b62721,2007-11-21T08:56:33+00:00
IVY-586,5d223336597733a002d6a7a0aa423ebbed320fe3,2007-11-19T16:03:16+00:00
IVY-465,e3d906cf02833a21e7092cb2bffbb6e26d89553c,2008-04-04T15:41:36+00:00
IVY-347,a1e47595c8b70a6a4c6087b96068331262e3bad4,2007-06-28T19:04:18+00:00
IVY-105,484e1ee3f2d162a86b79bb66f7052bb3da2dee1a,2008-06-25T12:25:25+00:00
IVY-346,28704041ebe62167281d24100e3e874bf1717d04,2007-01-06T11:20:09+00:00
IVY-229,a7b86c059d0d91ed9e0d9fe2326e1a13d5232627,2006-04-27T07:02:11+00:00
IVY-229,4c7e7d5c7ceee4845ef663b14a2864b614831c5f,2006-04-26T14:38:14+00:00
IVY-229,d46a68f6940ebac2c35685398ebe702d34f044f1,2006-04-26T14:28:54+00:00
IVY-108,4857531fe0f4cd2435d1aa61661e56066d8689c8,2005-12-26T09:44:33+00:00
IVY-693,f1f9a7950e61a457a51aa9c617c99a22917b306a,2008-01-05T16:37:19+00:00
IVY-692,388a0d944f817639f9fed0b81ea185feb722e73e,2008-01-05T01:13:22+00:00
IVY-571,e537f40ecb1c07082fdf4b46b3287fefa4d76be7,2007-11-24T14:52:19+00:00
IVY-690,320a562244c9139a129f83addb7e93e8d4d0fdb0,2008-02-04T21:24:17+00:00
IVY-213,e0c1bc856a41eaf712209facb3bdf84d45ef40b8,2006-04-10T11:23:14+00:00
IVY-696,f13e910f90a138f05c3ecbd775701c6a6b51a5d5,2008-03-04T17:49:10+00:00
IVY-453,488c0c4c3d5d966480f15cd13565c882799feae9,2007-03-27T21:20:36+00:00
IVY-453,1aa7361ccca3e4663d54954c58f24704be1ba5f0,2007-03-27T20:44:23+00:00
IVY-573,2667a06a316361a0d1bed94a84e18a8920978626,2008-07-20T10:12:00+00:00
IVY-331,62df2eba9a9effc160efefc8e7f50c6fa3dc41b5,2006-10-25T10:15:10+00:00
IVY-338,b196a81fb2bfb58ae7759d85143d92934fc9dd50,2006-11-09T14:43:03+00:00
IVY-338,c9abb5f997860dab1448e21dd5152217bbe85be5,2006-11-08T20:00:05+00:00
IVY-579,18cc411f7d3427a390a6e72880ac0f6402bca43f,2008-04-03T17:14:44+00:00
IVY-458,c2207aa2f1984e5050be9ed62e8b45b27b7ed7bd,2007-04-01T17:39:19+00:00
IVY-458,fc856fc14402b8eaa975691b1a09ccf42770f178,2007-03-31T22:15:35+00:00
IVY-578,71ddda217815019e3d29b8458e9a1a05da3eee55,2008-07-09T15:30:03+00:00
IVY-457,06d01a0834070c4c0939d3ebfdcd118a3ab38150,2007-03-30T17:42:23+00:00
IVY-336,28704041ebe62167281d24100e3e874bf1717d04,2007-01-06T11:20:09+00:00
IVY-456,1a432cc1d5b32a7de405f696b4a12d8240943047,2007-03-30T07:01:06+00:00
IVY-214,044f73ee5ea8b599c584bd8f8ed81fc0e01bb266,2006-04-14T14:21:22+00:00
IVY-682,acae06553b031b258e47d585e26909fb5d05009a,2007-12-22T15:01:54+00:00
IVY-440,b1249fa0c50a9dcfde2ed296b5d478b0cce614cf,2008-08-26T11:13:23+00:00
IVY-681,8b9280c8ab2b26ca717c5aaa0b82352f8dcf130f,2008-04-05T08:56:51+00:00
IVY-681,00a8bdf9558db57503b24baa48146cbe7caa7fd1,2008-04-04T16:52:11+00:00
IVY-442,feb0d2f4d8fd3a5e50bb1769c14fc6034aefcdc0,2007-03-22T22:22:07+00:00
IVY-683,54c75983ede72a788285cf7189f4b561a0608748,2008-02-19T20:22:51+00:00
IVY-441,7fc5ead36fdc1997f8be25fbb7cd90e9b9c5f2a9,2007-03-22T23:02:07+00:00
IVY-441,d8f288a35e63d1e9682c7e188b37c0d7e8e537a7,2007-03-22T23:01:40+00:00
IVY-448,2c932d1af2182f60a8629fc8059c3681e9ede9ac,2007-03-26T09:48:54+00:00
IVY-327,51fd97589802ae98484dc77ee3cb993ef873908e,2006-10-17T09:00:59+00:00
IVY-206,9022687ce91015634e41e1c528654005df450878,2006-04-05T16:15:53+00:00
IVY-326,7f1e2538b917f4867b762a30febfabc62f2388d3,2006-11-08T19:39:42+00:00
IVY-203,f453f8c7cef4319b79bcac9d08c2296324987fa0,2006-03-30T09:48:52+00:00
IVY-207,90b32e0173a8b7eeec02f1686780ecb037edc11d,2006-04-05T17:00:32+00:00
IVY-550,152229433b57b9d97439dc4394df934f2790221f,2007-06-29T09:43:27+00:00
IVY-791,f2710413f0d9d2209d4688ceb421e700fa57a990,2008-04-04T20:56:22+00:00
IVY-312,74b150420dfc6558ce87216c2106d1f83305f635,2006-09-27T06:35:30+00:00
IVY-432,36049c224be672293fd03c8f79db5af0a0c00e79,2007-03-13T22:51:16+00:00
IVY-311,6f5090272f1f4129db2adc2d14b07150152224b3,2006-09-25T14:24:17+00:00
IVY-310,40aab4b627a26d461a9da8b2aaf50923baf0d667,2006-09-23T14:31:14+00:00
IVY-310,587c30d62b740ee751d1004cd6369183957de972,2006-09-23T14:16:12+00:00
IVY-793,734890038e0138dd907dda040179dfe4988c413d,2012-03-08T22:04:22+00:00
IVY-430,7ad46005f354f95c16000ccffd036604bf570106,2007-05-01T10:18:49+00:00
IVY-437,c39c7d93779c95108e6e8bdfdc6c5e3ac5b8c0d1,2008-04-03T20:07:41+00:00
IVY-437,af395c546ec2e331e5ad70ad7601a2711aed962f,2008-04-03T16:36:14+00:00
IVY-437,0657990e851a8d0a30236cbe0ad5b4b562cfc08d,2007-03-17T10:14:04+00:00
IVY-678,ae6d4c23378e2c2ebf9d72a88278a7e91d1be88a,2008-07-04T07:33:32+00:00
IVY-678,0a870c960df47811493019f64a628493147aa73a,2008-07-04T07:25:37+00:00
IVY-436,f5631f982122ffaceffaf623e5ae2f6883a16139,2007-03-17T10:05:03+00:00
IVY-315,3c1dedc704313c610cbd3c3431e6afc4fd6daf30,2006-10-13T19:34:23+00:00
IVY-556,2742727bf2a3a4bc10b20a54783f19f25fa81cca,2007-07-03T14:32:47+00:00
IVY-435,77680e867c18a49a1c6bdca290434b0d565dc8c0,2007-03-18T23:08:16+00:00
IVY-797,3b753d0c96420a2cc9eb966fa969d3bbee017a67,2008-05-29T19:45:24+00:00
IVY-676,719bf3bf62ff40c5428f689195ea1d5a8595b410,2007-12-18T22:29:49+00:00
IVY-676,4e1e7a93bea7e8af109c7d5fdf46b3a94aa42316,2007-12-18T22:20:56+00:00
IVY-555,1163a9a0481f34ad637b7879b9287feadb047f7a,2007-10-21T08:41:51+00:00
IVY-319,87c95a0528fef03240474d89b645ae0993d50ea2,2006-10-27T08:29:31+00:00
IVY-318,9e4c6365feca8b658be0fd2053e77577771e6d95,2006-10-26T15:53:17+00:00
IVY-264,a4304614654500570fe48843b31a685a1886d6f5,2006-07-17T21:00:11+00:00
IVY-264,b2498e0a6dc587152f5fd0d2950b9b515ab08b2c,2006-07-17T19:04:28+00:00
IVY-383,2e6870ab9ae5fa2e84dd8ea1167ad0e18c0c0196,2007-02-23T08:52:49+00:00
IVY-262,06d37eb1d79845f5a050b5deeda466771ba1c202,2006-09-03T23:31:47+00:00
IVY-261,36853987d19bf9fbc18d7eae907d7d1db285d75f,2006-08-24T00:49:51+00:00
IVY-389,2a617e6572d47292f26de86cf1ec0b4cc877e50b,2008-01-03T18:51:26+00:00
IVY-265,d67153383c17b3ad808fb8b055a643dac5c94da6,2006-07-16T13:36:13+00:00
IVY-144,a4d1940ebccda231cd3a33a4b5f6e7023111706b,2006-01-24T07:47:35+00:00
IVY-149,f36652ed2d215164537b9652ad7c2d57143bd307,2006-01-24T14:17:16+00:00
IVY-374,690af97adf76e350576032cbe221f7ee7b32e42e,2007-03-26T15:27:41+00:00
IVY-494,523be0566f25a8b12273c94deede09cf13c4967b,2007-06-11T22:22:30+00:00
IVY-493,72c729f18ec52dc616c3e8b6d43297f8aec11b8f,2007-05-30T19:44:28+00:00
IVY-130,15449c2d8975402964565b4103664bd39eb5ee41,2006-01-19T16:53:07+00:00
IVY-130,23e7c3b44ddb18eecaed97ef68aa26220a085a37,2006-01-12T10:00:06+00:00
IVY-371,8bc2bf074a3f448b17069bad07d842f40abd1ff6,2007-01-04T22:38:49+00:00
IVY-250,927f3be3cf8b0c10dea0eeadad13a5dd39a86df9,2006-06-07T18:30:22+00:00
IVY-257,c040014b63a5ccd19ce18e7f346519136d99aa60,2006-06-21T11:34:37+00:00
IVY-497,a1514c5cd6342571464ad686d14474101c97960d,2007-05-10T21:38:50+00:00
IVY-497,1b5578ac663ce35ce962dcb5e6e53559a509aa97,2007-05-10T20:44:32+00:00
IVY-376,f1a5071a59ebdb3a3f970e6ba915754f3714e6b3,2007-01-07T18:45:48+00:00
IVY-133,815513f7da72c65034e82236d3203c06d5a18772,2006-01-17T17:56:42+00:00
IVY-259,498f0d206ab6866d635037695a0b8627e0df2499,2006-06-21T12:12:00+00:00
IVY-379,7d3dd9e3aedbb664c4cbf76c1a09c963798fee6f,2007-02-23T10:09:13+00:00
IVY-258,6080f8594b3a60fd359a388149eb3f88266c7c4e,2006-06-23T09:51:36+00:00
IVY-258,e4241930b32676966aab270ba122972ec5eb71ae,2006-06-23T09:47:00+00:00
IVY-241,b61f5d2ff2487d639ae8d1a86c1acb3b6f4825c8,2006-05-04T16:15:37+00:00
IVY-240,264c88b087962db2a6d690f131e074bd609bd39d,2006-05-03T13:33:47+00:00
IVY-488,a350b89248f18096a049073e7ebe9ff84e40b63e,2007-07-05T22:17:44+00:00
IVY-246,b14efe245dad6f28721efea5be9b7c867ed06991,2006-05-30T13:03:03+00:00
IVY-487,e92a6cc8276ab8f6b379c130d6cfb673daa496ea,2007-06-20T21:59:57+00:00
IVY-245,e10ef3b1b25733068fed27ed11f8c48552104426,2006-09-08T02:40:30+00:00
IVY-245,5db318ba9454a93fc6b77154ff9623027a6268af,2006-09-08T02:17:31+00:00
IVY-486,4166ccbbb4a9a553b76148bf53380b450d444cbc,2007-04-30T18:02:12+00:00
IVY-123,e1f1aac436232d395fe8dc6444259c49fa585b55,2006-03-30T11:01:09+00:00
IVY-249,7ee0f955d9abc52c46671e66a390380d3e834bb5,2006-07-18T23:50:40+00:00
IVY-248,91ff7311935be36db522dcf782c25f5815449ed2,2006-05-30T12:05:23+00:00
IVY-489,34f4d7a7d73cbbaaf3f0a9e79036a1a8179f27d8,2007-04-30T23:07:07+00:00
IVY-126,caa9a8ed4fcd65526bd8100afee329eaabd4d56b,2006-01-11T12:19:12+00:00
IVY-590,9bf25f5b4c33634393fedc8f97d6ffd53480f548,2007-08-30T20:20:17+00:00
IVY-351,794066bd8a2666ef7fd1e1e22f4c48295a6fee9d,2007-02-23T09:30:04+00:00
IVY-230,849ca1daf5624c057cd114683a3bf38e7117a680,2006-04-25T14:47:11+00:00
IVY-592,05aad8f60f29be97aae99288775dc6240307bc5c,2008-04-03T16:45:44+00:00
IVY-471,7de83722fc38ed3456a6825ba721d38eba19f1aa,2007-12-07T23:25:36+00:00
IVY-350,ef0e3797ad9e410b445e608e7b0e7593fe68a7a5,2007-01-06T12:11:11+00:00
IVY-477,f8a3e4edbe8eb96e428c7ba647f6b14555d9d68f,2007-05-10T22:20:57+00:00
IVY-355,10b00b578d67219dea8bf6b24e37d370dfd263e8,2007-02-23T09:50:53+00:00
IVY-234,f3f8c34137e0f696be9d9341516728af6e3d1a55,2006-04-27T15:18:11+00:00
IVY-475,9d89a073b46ad7ebdfd88963d36b29e920aebcd9,2007-05-01T11:30:06+00:00
IVY-475,129c19711e8f4f9603fcf28496f3ef3a95926415,2007-04-24T17:53:20+00:00
IVY-233,c831dabc6ea286e73243a5f7f06885ab1bbebad0,2006-04-26T14:34:41+00:00
IVY-112,866ec93bfd5f6331c95c66e19178c9ffc1441ee2,2006-01-03T13:51:00+00:00
IVY-595,bc4d178e961b1b40f3f99c856d7d1168c8238f1c,2008-03-28T11:11:06+00:00
IVY-474,27170b5ef294fc8c639249d74bb5b27776a445d6,2007-12-06T23:17:05+00:00
IVY-232,32038d1bde6ac8ce2a8583264b5d419d0c32aad3,2008-08-29T16:24:03+00:00
IVY-239,64d6303154b1c85181c686d0a6e7c0437e5da770,2006-05-12T07:45:34+00:00
IVY-117,69f8b7008c804bf0bcf82d254732cf1d9171d101,2005-12-27T09:46:27+00:00
IVY-237,e602a4253164f8e7520d155ab5fd418a6110515e,2006-07-28T07:05:24+00:00
IVY-116,e26114a8fb6e6c7302a072e78dc88ad43979c17e,2006-01-03T10:50:08+00:00
IVY-599,9c2eee790198d5f57f5f64c621f56156a118ea0e,2007-11-30T02:02:03+00:00
IVY-478,1da273ff79b1776ad461763ab125e7f26439e063,2007-05-08T22:17:58+00:00
IVY-119,0b5ba610445af6ac4e7570fd6da475874ce4db01,2005-12-26T11:09:35+00:00
IVY-620,cc7dab6e43fa189dc2e62ed0425bde14fd5fc1c1,2007-10-10T21:22:05+00:00
IVY-982,18a830dbcf75dec4d404ed6a5b231b1633c67952,2018-08-07T14:27:07+02:00
IVY-982,b29a54de898c427355637e3060083255aadade17,2009-02-13T12:39:11+00:00
IVY-861,f94ef5f669830850e7b668ae150a436276fa33ee,2008-07-09T14:23:22+00:00
IVY-1419,6b610aa411df723b59d4b683baeebd5d65e356b7,2017-10-08T22:29:54+02:00
IVY-860,4f0e9a0acb4a7f647a513bff0fff11b85ec2109b,2008-07-09T07:45:23+00:00
IVY-980,db841bca384a29d5b8927ad7e8f550d2d7a22225,2008-12-03T20:50:45+00:00
IVY-987,9b5e9fdd591b6d3d628780c2af0ba428b0d6ef63,2009-03-08T21:32:52+00:00
IVY-624,d2a2deec90c5335b87376eebd68af9986cd3071e,2007-10-21T19:09:00+00:00
IVY-1539,7217b9d270e31fe1e68803c8e25b0a03869f1556,2016-11-09T01:48:48+01:00
IVY-744,c20a3dda097920b22dfac1310f44ee317f48ac15,2008-02-25T08:19:17+00:00
IVY-502,992f1dc9b3a3b8516288278216e6bba643df6a14,2007-05-12T13:11:16+00:00
IVY-864,b88e17ca8fa4eb7ba86886ed8f2a33875c55b223,2008-08-25T21:56:56+00:00
IVY-743,3e5b60de4f90c3cffc88e3df769bb4531c0dc89e,2008-03-10T21:10:48+00:00
IVY-501,9b08d0f9d1eb159322e8d456f1ff5e647925c8c7,2008-04-03T16:22:47+00:00
IVY-863,2931da346cc42a80f4df539d74df84ab8bbfd0a2,2008-07-11T08:03:23+00:00
IVY-500,1a89989477047546285718922b74d1c821e7d153,2007-05-12T10:37:26+00:00
IVY-507,2f039bd72de99f79ca8c70e40fae0a81e7c2645e,2007-05-14T10:11:09+00:00
IVY-868,d31db960ee61e50c8ea5067a6cf876b426f0e313,2008-08-06T09:39:32+00:00
IVY-868,c9b273ce69ec731fa1d9c816e0fcb3e790fb7aec,2008-08-06T09:10:07+00:00
IVY-868,2ff246110d5505e052d54a2694784367b3962f7b,2008-07-31T21:41:11+00:00
IVY-1412,8c5a4a7bafc3685d433ee277fad060e8b046e920,2013-02-28T22:50:44+00:00
IVY-867,c919633331c550f5739c9495cc83411c9269cf3c,2008-09-15T08:54:57+00:00
IVY-1531,2681600eca45ee3097bef4f8ff86b1ec5dd24555,2017-05-16T22:27:05+02:00
IVY-1531,6b5b674cdc4458794d37284de602379f6e0001c7,2017-05-16T22:26:29+02:00
IVY-1531,d19212c03ec7eb82e37e11746bac7a064738b686,2016-12-07T22:50:33+05:30
IVY-509,72c729f18ec52dc616c3e8b6d43297f8aec11b8f,2007-05-30T19:44:28+00:00
IVY-508,f4d8702f6077d745e90f4f213a236203c585c151,2007-06-06T08:26:50+00:00
IVY-851,dd5bc6c8196ea824098f5eb244a3b996405c403b,2008-07-04T10:58:09+00:00
IVY-1529,e124901cbd5afbc500eda9cd531eacbeade9d9ba,2017-05-21T19:59:24+02:00
IVY-1529,12d3f281814ad5be2d1012b9ea41781414724529,2015-08-30T17:12:32+02:00
IVY-970,7972f1ac1b85a5174c9f293ad98abc87edfe42e6,2008-11-23T22:34:35+00:00
IVY-970,cc6ce27331c5495748b4e8f57b113a84f2590fe4,2008-11-20T21:21:37+00:00
IVY-1528,0dbae4197d6694859bbba8d7d940bcf6f39c86be,2017-06-01T13:52:29+02:00
IVY-1528,1f0c99d0e012d84863e6a818facb143c9f03fac3,2017-05-30T09:43:45+05:30
IVY-975,a48f4888bb5b0a124bd2b997d0405fc59469b18e,2008-11-24T22:07:47+00:00
IVY-854,246091e9b84f897ddab6e6f548009401d3e0d5ea,2008-07-23T22:06:48+00:00
IVY-733,547691c621d6cf7c9ceab9c90d2097a35e79c1db,2008-06-25T14:40:30+00:00
IVY-1404,585a702138f1cc87df3b41509cc42ad34b6acd62,2017-07-12T10:05:15+02:00
IVY-974,40aee3954ff7fbb9db6b367ae63e6b05dfa6199c,2009-03-03T21:56:28+00:00
IVY-1526,da7d5df6de444468ebdb4b79ae0d0dc3ac90b59d,2015-08-30T15:51:44+02:00
IVY-1405,1f9af29e510af0cd1ce0f75a3863a96321e4f89a,2013-02-28T22:59:48+00:00
IVY-731,bf5d8de222878e3dc81a16cc98a28f9a9194b74b,2008-03-28T22:10:53+00:00
IVY-610,432667055624868bcf5e50f562ed79350acadc8b,2007-09-27T22:00:10+00:00
IVY-737,416bc3ab8fb1771f8d5e0acae7c7c2aa7ac3776f,2008-02-29T12:03:19+00:00
IVY-1400,64a64f5ef90dfb4b3b862d0943437f11e35db938,2013-01-31T22:38:20+00:00
IVY-736,de181c0a11248523590a634a2be841454daab004,2010-06-15T21:29:21+00:00
IVY-736,75ab5e6bca39e2785f4638365c7fa94a9875f7b6,2010-06-14T21:49:11+00:00
IVY-1522,041e9565ab8b187ad0b88780a5fc0a5ea24f29a1,2017-06-26T21:19:57+05:30
IVY-1522,a7a348910068c89b8695e3c91c61cf8222076ed1,2017-05-26T12:30:36+02:00
IVY-1522,9ea5c69bda2ed1ec0c69c081e91b72dcf6a6e81c,2017-05-26T13:25:01+05:30
IVY-614,2e053b28dc1c57c2d90a84253590d676e8d68fd3,2007-10-15T22:31:45+00:00
IVY-614,b22245181c10ec3c01e8e2c8a3d86065d0b175d5,2007-10-04T21:47:06+00:00
IVY-618,5cf21cb13943796e1241f456f0503de2ebdae3ef,2007-10-08T12:54:44+00:00
IVY-618,06d8a192e859382a7a44e847d5d0d6f9d57fb29b,2007-10-08T12:01:36+00:00
IVY-618,a9e202f2df643f315dc985f73527cf813ae19573,2007-10-08T12:00:46+00:00
IVY-961,79e8ea94db5f613b1d0d69bffb45eda968a41f04,2008-11-03T21:50:55+00:00
IVY-840,b7a091ad6cdf09a0b007e5fe2c02d811b6d70428,2008-06-13T21:11:22+00:00
IVY-960,71ea6c7ca9eef1d592312217d3c523f244b2d4a6,2008-10-29T22:33:05+00:00
IVY-602,e81026fb1adabf63ec49d0cc791409f92607bd28,2007-09-06T17:07:31+00:00
IVY-843,5a8ac6281ab6ef236a8742059aae81cfda0c87be,2008-07-04T10:53:51+00:00
IVY-601,c65f83394f69213c6f105c639a0c49c1216691fd,2007-09-21T11:14:48+00:00
IVY-962,e20dc6a9b4c38ca97beea0f2d0d977a863931ad7,2008-11-04T07:19:28+00:00
IVY-720,9a234fafba14479522a7a6b45282b41215c41a01,2008-02-07T17:50:09+00:00
IVY-968,beff2feb9d015b7e34102e378f47eaface5c7023,2009-11-30T22:35:17+00:00
IVY-726,b4bb16127df2e411e8a186b9f127b73b27a6d406,2008-02-07T17:22:12+00:00
IVY-604,58355c5579816593b2614a01267f9bb611c4b5bc,2007-09-12T06:53:03+00:00
IVY-724,02b81d84088e4f7a88fb1a85f76787585c520e0e,2008-02-07T13:58:21+00:00
IVY-603,6b79a9678736eb999c8dd694e5397cc941ad7797,2007-09-20T12:09:00+00:00
IVY-729,30d4b7bd496feaca6b37d23569fceff1738a643a,2008-02-08T17:00:10+00:00
IVY-728,474c321dfbf17395ae09889384223f0f74c74057,2008-02-08T17:17:07+00:00
IVY-950,e6037c6b99e0c15121b118ddfa526140bec28931,2008-10-20T22:57:56+00:00
IVY-950,959cb4977a82c3e597282c03a85fc7d9cce69844,2008-10-20T22:54:23+00:00
IVY-712,3c1c7dd449321c3e8951438b052bdc674e3b2d65,2008-01-26T11:37:13+00:00
IVY-711,32ad598b3b6d5d1bba723620abbafbe07f8d4793,2008-03-04T17:11:57+00:00
IVY-952,abd0b37f0a553de2b64f3d9379058e7747939228,2008-10-20T22:26:49+00:00
IVY-831,adbef440c89af0e96b5428637c77ebc8cf77a04f,2008-06-10T17:07:39+00:00
IVY-831,82e9af9c68aa353a19c2b005838458563425660e,2008-06-10T10:47:20+00:00
IVY-710,c88d4466b154dfb60b76b411761d3df79679b63b,2008-01-21T08:43:28+00:00
IVY-1504,eac813fd4d8d1dc8a7ab6c42d9891965622c5967,2014-12-26T16:37:16+01:00
IVY-951,73c4065d785fd25e363077e735b96b02fa64b810,2008-10-20T22:45:13+00:00
IVY-837,7ab2d5be0b4abda6971f50d2002c3c615c770b29,2008-06-12T10:31:27+00:00
IVY-716,66310f553103e515ab41aa573aaf2e4101efa635,2008-03-18T22:13:04+00:00
IVY-956,ac7e5e4ff9b2a2e4ece0ac348ab95465617bf078,2009-12-07T23:24:38+00:00
IVY-956,1f2132808ad4c74dfa3572119d28b101d5be5bff,2009-11-17T21:54:10+00:00
IVY-956,f7cf3d8e1bb935b0c85d646171389fbbabd17e16,2009-11-16T22:55:31+00:00
IVY-956,c4b917456801770f9ec9fe1fd6043b6245f40ac0,2009-11-16T22:49:17+00:00
IVY-956,1804ef88b289afbef3809c91c44fdc7b97a463f3,2008-10-23T23:16:10+00:00
IVY-714,0885d905ba08b85081768a58b0e1b8a6a1309e6f,2008-02-19T20:38:33+00:00
IVY-713,33e453a0dcb89751280d6008a960103be5e965db,2008-07-04T11:16:12+00:00
IVY-959,cc06ae9bf7a1fb6cee46c40d2a6388ac05d3f5d1,2008-10-29T22:51:22+00:00
IVY-838,fbc18fb917df623a64dd7a1a3a3fa53c0b94d00e,2008-06-24T02:53:25+00:00
IVY-838,51d967fddb09497e0677b835140c32caf9be1dd4,2008-06-12T22:17:39+00:00
IVY-717,b44da9ac7e91ecc9e0e2130ca7fef06c4904e68b,2008-02-29T17:32:23+00:00
IVY-780,d688056bad0f50702c89433737b3382885889929,2008-04-03T12:34:23+00:00
IVY-785,a8018c88188af22b5696777e198b9ba44e203efb,2008-03-31T09:22:01+00:00
IVY-664,702cb06790f593e854dde32d55e3c9adf2f02c0a,2007-12-07T23:54:54+00:00
IVY-422,7126e673ceb6ff1fbac0ad53f82b268685cee9ff,2007-03-08T11:14:01+00:00
IVY-663,25987cad1d8be02b4b321ce06b23ffdf36cf2f5a,2007-12-07T20:13:50+00:00
IVY-541,a08090fced6c930a3b532b5440b14ec8602a8f98,2008-06-25T13:26:03+00:00
IVY-420,0ef44fcc258f2e928532ca3af50e6b7b4a50df28,2007-03-07T22:40:38+00:00
IVY-420,0a3263276d71cc0270d4d0073976a8875e9ff047,2007-03-07T22:32:20+00:00
IVY-420,445be68f8bda57b06c632e8c0f569859f8ce72f8,2007-03-07T21:57:24+00:00
IVY-661,c208ca8d43b0c7fbd2ca517763faeadec8a6b7e3,2008-08-06T22:46:07+00:00
IVY-426,9fa08e60917280de57eab771b08eb98f149e94e0,2007-03-08T16:48:53+00:00
IVY-788,e47958e6a3c599c13fb605dd1ca0a10c42423c1e,2008-04-01T21:42:47+00:00
IVY-667,4c134d3e0a686973a511ae56bc7de4e92bc4633f,2008-08-22T15:57:54+00:00
IVY-425,bdf6cd438b812f2c333498200467bf1c62186192,2007-03-08T15:22:54+00:00
IVY-304,9f5ded018109c851760a08a4c25c96f2f0b7f039,2006-11-02T15:31:13+00:00
IVY-787,fe05cf44d3eb2f00fde5c75d60079d34743c9a48,2008-04-04T13:12:42+00:00
IVY-424,5a78e7423f4a0e75defc9ef93a706e4d0f249685,2007-03-08T13:27:12+00:00
IVY-303,b171f483a03d13286107106982dfb4b5ab1a9979,2006-09-19T03:24:08+00:00
IVY-423,e02041fba5531f64c5c899bd39445087e25d12d4,2007-03-08T13:06:16+00:00
IVY-429,3734d6da5deeda8ef852e0a3947ad436f98ce92f,2007-03-08T22:39:03+00:00
IVY-1610,400cb51d07f867ff26bc8d367dbce22d883645e4,2019-10-11T10:20:46+05:30
IVY-548,9279c08a424c5fc4401cb74effacfc70f541ee21,2007-07-09T14:32:31+00:00
IVY-427,f9190252b27cbf5700c1c35071dd980771614feb,2007-03-18T23:38:23+00:00
IVY-894,8174a5bbf55171a1add30ebdbf922074cb731b6a,2008-09-04T06:08:00+00:00
IVY-773,02cb0c1d814dfd6114f483e9c0c6899624fd951f,2008-04-03T16:56:22+00:00
IVY-773,b0d32e4b79ec06ee7d9ef1162540d7f03532fa7e,2008-03-27T16:58:52+00:00
IVY-773,ccf9d5f734dfd1485238f281aecb5476ba089f7a,2008-03-25T15:32:37+00:00
IVY-773,b08c6b0a2ca43ff00b859a2e7aaa0ccf1febbed9,2008-03-24T18:58:53+00:00
IVY-652,2e5e29dd504694426fee6138bf37c38e7510c56f,2008-09-02T20:26:20+00:00
IVY-652,e4e4441498c8955a042145b0b2357f3034add226,2008-08-05T22:45:50+00:00
IVY-410,1ae2bc5634e13ce57a68044a7f5199a811860eec,2007-02-25T10:10:21+00:00
IVY-772,47e6602457ddeca1737293fb42ad3ef9266212a7,2008-03-24T20:04:23+00:00
IVY-771,6fe336ec7baad5106530957168b0fb1a0c658a27,2008-03-26T22:44:06+00:00
IVY-771,c4af057cf8f77666b082418efc91ea201d150469,2008-03-20T22:57:59+00:00
IVY-778,47756f7570b35a1af39e44309cf2750a53beb5c5,2008-03-28T23:24:38+00:00
IVY-415,f5eae18d19c84b2bd6d775822d57dc4bd9921132,2007-03-07T10:07:00+00:00
IVY-898,eadc1e3453c249e30932f0be29dc55088eafd48f,2008-09-10T22:25:06+00:00
IVY-777,9858e60e24894824bd4450ebb9e68db0ea12c520,2008-04-03T14:26:27+00:00
IVY-656,8bbf8370c328e75d8e926fea9a114178a708db28,2008-06-25T15:16:31+00:00
IVY-414,7a04633175bde511feb9f9a552f13272c9bf4cd3,2007-11-04T21:46:39+00:00
IVY-414,552d39bf6b7c677c55336dad4ec624d17fac30b1,2007-03-01T08:41:02+00:00
IVY-1602,75d8d7980628ec8ae5b149fa49a4d8de6a14417c,2019-02-01T12:55:04+05:30
IVY-776,51219169df2367a8cc1b4a612b6c9d569c29173e,2008-03-18T22:53:31+00:00
IVY-534,39380eaaa009f1bbcef5bfc880e4cee31cd86021,2007-06-26T15:03:26+00:00
IVY-659,6e9213054338791936d7211c1049d731f9980ba8,2007-12-07T08:40:56+00:00
IVY-417,40534a46061544a33a2dbeccff4328a2c71a2898,2007-03-07T17:34:03+00:00
IVY-779,030f1a0b11b02d96991bfeeb46c8b07743186817,2008-03-31T22:15:41+00:00
IVY-537,56c3991ddafc2ec189b159cdaebabede72040ba4,2008-04-05T08:08:21+00:00
IVY-537,00a8bdf9558db57503b24baa48146cbe7caa7fd1,2008-04-04T16:52:11+00:00
IVY-880,0dc78bdf31634d91d7de227984ec41f8b097508b,2008-08-25T22:09:54+00:00
IVY-884,b506d8f19d8ec4bac1fa869c0885ad4364f4d31b,2008-08-20T22:30:44+00:00
IVY-763,6091b1a3cc0c349ae489962535582e93976d959c,2008-04-03T22:19:46+00:00
IVY-400,f69b5cbe89479333315764e56d9d658b4882c2d4,2007-05-22T22:41:55+00:00
IVY-762,6eac78a418f52049c5c5c15352a829d1f575294a,2008-05-26T22:01:29+00:00
IVY-520,3d4c5026d5ee0d3d1c5a187ceafc29555437dcdf,2007-07-05T22:04:11+00:00
IVY-882,6d6d34af69292a41f77162ab43984daeee54cac0,2008-08-22T15:32:18+00:00
IVY-888,aaa2583f35f67f2a2c8d3381cad144cc7ba39f3e,2008-09-01T21:52:35+00:00
IVY-404,070d96f02b22a2a280c9a43925a3c9cb9b18b2a9,2007-03-02T10:43:20+00:00
IVY-887,64d5ca7eb75ef1b03a2862df6ad3a8816f87647c,2008-08-30T06:49:03+00:00
IVY-524,16e09da969287a932519aefec46bef4be74f3f94,2007-06-11T21:21:01+00:00
IVY-886,cabcc7ce1d2022e9a248d3733ec7868ff6a84946,2008-08-27T12:11:12+00:00
IVY-886,b92aef4035047ad07f94de9f04b0cca2e3b2bbd3,2008-08-27T12:00:34+00:00
IVY-886,720ad4628dc5cee2f9aa19100a43e915240e24a8,2008-08-26T18:19:27+00:00
IVY-765,48eb7804340aa33c935c665b1f66f49cf7c350bd,2008-06-25T16:11:07+00:00
IVY-644,283f77d29ab46c5ae47d312455641a0317c58f58,2007-11-21T09:04:46+00:00
IVY-644,56760b9a40bbd9376dd60c11065cb9a76795b8f2,2007-11-19T07:35:09+00:00
IVY-644,b7478d6d6fbea1d4d7372829e8598ff5c018fdba,2007-11-16T16:06:37+00:00
IVY-885,2e5e29dd504694426fee6138bf37c38e7510c56f,2008-09-02T20:26:20+00:00
IVY-885,6e710a1f78a4a733020a4b2d1f07b6fe4c6684f0,2008-09-02T20:13:38+00:00
IVY-522,ceac01c25519716f321855f041a8278d79423c20,2007-06-06T21:39:14+00:00
IVY-522,ea4990ae7a919465f8906b851baa8fddbb35ecf0,2007-06-06T21:37:11+00:00
IVY-529,563e233cf21fe5fe47c77ed2b52052cfc32a8487,2007-09-21T14:42:25+00:00
IVY-407,86826f5e5927aff2b3dc73818f5f4a172119387e,2007-03-08T09:17:54+00:00
IVY-407,c50fea2488e37b02238b34b7297017f8e53ea6d6,2007-03-07T16:44:02+00:00
IVY-407,05897630ec504136fe11d08413cda628f499ddae,2007-03-07T09:31:22+00:00
IVY-407,e2fdd8576922f7784e2809e8b2b3724ffb157f91,2007-03-06T15:03:00+00:00
IVY-407,f45aa167dd803b746d8d1522c45c8a957b420654,2007-02-23T17:43:50+00:00
IVY-526,b117dc95729429b3678f8bc1556b92322eecc836,2007-06-20T21:09:17+00:00
IVY-405,7be496a1c52cb054d7be85168dc0d2a4d1fcee34,2007-03-01T13:48:30+00:00
IVY-873,28b71bd41d8724575b6ef239890682a923c2cc86,2008-08-05T21:45:49+00:00
IVY-752,31ae115b62411288a8f4cc91f93236b43042fa83,2008-04-01T21:50:42+00:00
IVY-631,556f3174c88d4b50c54d02d073c0107a7a76fc2b,2007-11-05T10:18:06+00:00
IVY-751,bb522d35e58e7ea0809c022d32137eea7c65dfcc,2008-04-01T22:03:58+00:00
IVY-630,41a824e349b48eed614b70fd66ee6c5a850c2352,2007-11-11T22:06:07+00:00
IVY-992,aeb410f6c22ccdffe0ec7bde2a1b86e7a2e4d2a2,2009-02-13T11:39:48+00:00
IVY-750,60e607819556c8a2d074916a8b60406a15208743,2008-02-29T18:44:20+00:00
IVY-635,687537331f847a0c46fc489aaebc03e4afdcc2ad,2007-11-14T20:43:15+00:00
IVY-635,1f2a18c7c18f42be59d45ccb371a8c6030e030a1,2007-11-13T21:04:30+00:00
IVY-514,2fd32cfc14b15b8d19fd97ddec47a17e39913169,2007-12-02T22:27:19+00:00
IVY-755,4ca6b16dfea23c346cf0576a4d606b77a272fef5,2008-02-29T11:52:22+00:00
IVY-633,291a576a53a0c1b4e9c3ec7c75d3a548d09847a3,2008-05-18T22:25:23+00:00
IVY-512,a88affa5d367213c0c213655fa9d22ee287d5c3d,2007-05-22T07:07:03+00:00
IVY-512,b7f625aea3e7c19b4b66351be582dbab846022d7,2007-05-21T21:36:49+00:00
IVY-995,22cbde0e563f8578c10993fe79d15024277fe39c,2009-01-12T22:37:56+00:00
IVY-874,b1cfd88a8c23302077bda847f4da7f0b5fc59ec1,2008-09-02T16:33:16+00:00
IVY-639,001e2caa07a1dbfd92fbf86a26f30aaef23be5f5,2007-12-03T01:57:37+00:00
IVY-639,420261ccd18479fffcb19dbb6388f626b42007e6,2007-11-13T23:38:55+00:00
IVY-639,7930b8cf42e1aa1b5958268dc3383bd966e28b29,2007-11-13T11:11:12+00:00
IVY-639,24f7524858704327230c6348fcd1ec99b8e59d3b,2007-11-13T10:55:27+00:00
IVY-759,675270c475e5425eddd4e528b87f88c67dbf6aec,2008-03-07T13:41:13+00:00
IVY-638,fa41eed5a752d8921076a9edaa50aa02136e798b,2008-02-29T13:05:33+00:00
IVY-517,38326aa020ae46f5cfb542dcfb138c45ef0d0469,2007-05-30T20:39:19+00:00
IVY-637,4f33cc57244ad5712a899811ed95c309091eb28b,2008-02-20T21:35:02+00:00
IVY-637,65479b478722291b54b3dd948621c72f322c1a9f,2008-02-19T21:03:21+00:00
IVY-637,f5c047c5826a717bfd356c930e3eb10629f6eca3,2007-11-30T20:38:22+00:00
IVY-999,db2ccbe53689c54303b6498eb63ad8c7d9c66777,2009-01-14T21:22:01+00:00
IVY-636,f5c047c5826a717bfd356c930e3eb10629f6eca3,2007-11-30T20:38:22+00:00
IVY-1383,f37b7c6df5ac89ead7fd44b5cb2cb2238adac2c1,2012-10-22T20:59:30+00:00
IVY-1263,dd04ce95b33f4fae88ce9ef3119de086f8300203,2012-04-09T21:50:07+00:00
IVY-1142,3ac3caed42aafd0b82e33cb172e69339bf9e071f,2009-11-22T22:18:59+00:00
IVY-75,d63734290b8384bbd22f47df353db966bb84bb6a,2005-10-03T16:21:42+00:00
IVY-65,38ecb80ecd565c3f95796e9b23ca3532a56e3e52,2007-06-14T19:36:46+00:00
IVY-1378,b426f03567cf97e14edbe53f474fa977ebe8161e,2012-10-25T21:51:28+00:00
IVY-1378,42f704c86bbc636c314bc6dd6d20947055f3a56c,2012-10-24T20:13:32+00:00
IVY-901,7376c5f6778693e74a3dc17da01ca3f40ec12e23,2008-09-12T19:58:45+00:00
IVY-1376,01ecd7c66d6965ad54e0180c822e6a5ba4731c10,2012-12-10T20:56:05+00:00
IVY-907,a23a1a64ec883102dc8a3a2860c3b0d2fffc4134,2008-09-23T19:45:00+00:00
IVY-1498,84ad767a87c69a265e9105c51efdd87ee57b8635,2017-07-26T19:31:51+05:30
IVY-1498,fff6d0f2fcaa034b7772dd1288c9222a6dcbbba0,2017-07-26T18:39:39+05:30
IVY-1498,40708bdf04dae6aa49bf8f3617f2efc16c83c5f8,2017-07-26T18:26:51+05:30
IVY-1495,368f1da7f990ce229fd1ddc7d2f5b1ea32da6611,2017-06-01T13:11:23+02:00
IVY-1495,3d30c8ca715492e11c5c7d196668d5dcec1bcbed,2017-05-30T09:50:03+05:30
IVY-1253,fd970696172c08dd024c8d607789c1252d5b08d9,2010-12-23T20:55:33+00:00
IVY-1253,a61ff9c166ca0a76b7eacec4c35fb6634de13e86,2010-12-22T22:18:32+00:00
IVY-1253,9314fbf1967f5cc50ce48ada932a9ce9f7fdb507,2010-12-21T22:49:54+00:00
IVY-905,f1c7e5c7c49c0ee8440234194aa6c68a6cff50a6,2008-09-16T19:56:48+00:00
IVY-905,e7ed0e61fcd9a53b1ee451f87d834e28e9ee5106,2008-09-16T19:25:13+00:00
IVY-1133,05712301fc723113436c12d59aafeda4097105a3,2009-10-23T18:42:40+00:00
IVY-1012,79535f59ac3f38f6d03d307c7ecac1d9bcea9fa7,2009-01-24T14:05:24+00:00
IVY-1012,0309c6333348d91761617c81f1ee757480eda7c7,2009-01-24T11:00:40+00:00
IVY-1493,b84f786db6d85cbf9973adfccdf135cb71824b87,2014-10-28T00:37:04+01:00
IVY-1373,4be08392978de39ffedf1688041bbf546d7b3a28,2012-08-20T21:48:33+00:00
IVY-1131,0d7777b3a9549cf48a7c29bb26f5f8b537897d28,2009-10-25T21:44:16+00:00
IVY-1010,fd970696172c08dd024c8d607789c1252d5b08d9,2010-12-23T20:55:33+00:00
IVY-1250,ac3c4d8080ff6bc5a760d1d3deb375b3d2cd608d,2010-11-20T09:50:58+00:00
IVY-64,b1cdd7e326a8913c7ce77d0d0ed40f89e08464aa,2005-08-17T18:11:09+00:00
IVY-61,09fd49b7d8e1a14c6d2741a1bdfa4f2b3089e199,2005-08-17T17:56:20+00:00
IVY-62,e30bbf4a37609972d7878491940e00c0bc13541f,2005-08-17T17:46:07+00:00
IVY-59,4471aa88145d8d351c607bebf31a152db3af51e2,2005-08-17T16:29:02+00:00
IVY-56,1a3a2d84a800ee298765cc6aab4acfba7f4a36a2,2005-07-21T13:24:44+00:00
IVY-57,50ef528cd5570531c529e4dc4eac11d30bcd1fea,2005-08-17T17:19:45+00:00
IVY-1009,8962bc40f7843e109f679f1cf869338566579b58,2009-02-04T21:31:05+00:00
IVY-1248,9ee47ff010d171e3634581f42ed3bcf389635531,2010-11-20T10:07:31+00:00
IVY-1006,0346981dd4a781b1324cf0648e543a7ec70e9db7,2009-02-05T23:06:40+00:00
IVY-1006,d6c20fefe00288ccaf073fb4eb8acdffe71bc6dd,2009-01-28T23:14:05+00:00
IVY-1128,9b5d693d74b3ff5612d468e29534601d0bb9c642,2009-10-02T21:16:37+00:00
IVY-1128,312c2518aaaa70bf76ccbe2b719c51e93d46bc50,2009-10-01T22:44:26+00:00
IVY-1007,ac5fc2cacdea64878aa0bb9c0c397d45caff9f63,2009-02-04T21:12:06+00:00
IVY-1486,535eee4626781ccb1805f65f844c4ba388c02bef,2018-08-14T19:33:31+02:00
IVY-1123,8e1addfc56ff9b554bfb00e28ba359db28c075fe,2009-10-01T21:43:34+00:00
IVY-1487,5f9c83bd976802eea2d940b70aa749fd58b4cb46,2014-09-28T02:10:48+02:00
IVY-1366,ee6ae79be8d0303db4bf48a948bcaee46b329fec,2012-08-30T11:03:17+00:00
IVY-1124,8b57b6e537a9f37b70b769ebd9d6d44130c5c0ad,2009-09-29T22:11:48+00:00
IVY-1363,f10279a29d47d389a31da907695673a992555adc,2012-08-13T20:41:46+00:00
IVY-1363,a57988b0e5e2a55f573cba66cf19b05031920d19,2012-07-22T19:45:18+00:00
IVY-1364,a57988b0e5e2a55f573cba66cf19b05031920d19,2012-07-22T19:45:18+00:00
IVY-1243,2ba44683bc529d53a1488ac380d06c4c691f2a52,2010-11-02T13:19:55+00:00
IVY-1482,c4bb60046de9ffdd1cf07cfcdba201df06b194dd,2016-12-13T00:48:36+01:00
IVY-1240,9cc97b92d641eafcf25ddb8b5e5a073c1997ddd5,2010-10-21T16:45:31+00:00
IVY-1483,2510c7bbd1b050f4693b3fb946425603310019d6,2018-03-15T17:46:20+01:00
IVY-1362,f11bd7cbff7ee68afa55dcc6baec97b2adaf43e1,2012-08-19T21:55:05+00:00
IVY-1362,a2d367db9446287c22821f6595217ec5180ec959,2012-08-19T15:52:13+00:00
IVY-1120,771f3bd0fcdde9bb5b7aa760adfead2d5da7a43c,2009-10-01T21:54:57+00:00
IVY-51,9672faf5de036ee5e8f874806043fed058320239,2005-07-04T18:27:51+00:00
IVY-51,8c02470fb08b4dfec9e98b29f64e844e1452e305,2005-07-04T18:27:06+00:00
IVY-49,f5a532d6065e55a1c1082579baa64c786971219d,2005-07-04T16:39:26+00:00
IVY-1118,31fd31d27c662f225c9d0045f4d34a90b4d9a3e3,2009-10-23T22:22:04+00:00
IVY-1118,f853d15e317bba494d3ec81ee4bd0414440a6161,2009-10-23T22:09:20+00:00
IVY-1119,3fef1a85b54dac28bdc63dabc84b27be78021cc4,2009-09-25T21:53:45+00:00
IVY-1237,2dc3e2207a1dc877cf6c559441dc686ee24a2240,2010-10-17T09:02:27+00:00
IVY-1359,a57988b0e5e2a55f573cba66cf19b05031920d19,2012-07-22T19:45:18+00:00
IVY-1238,6ab9d41e3e9fac941966d877e57f54b49003a8a4,2010-10-18T21:48:41+00:00
IVY-1356,d6c57d547c4c0ed26f82bb20966780a136a55ad7,2012-08-23T22:21:00+00:00
IVY-1478,4ab65afd908e8b12aca0fc26dd13720b2ff23690,2017-05-18T17:21:19+02:00
IVY-1478,850a888c546bab897542a2d89ff76ca9debce0ee,2017-05-18T11:25:24+05:30
IVY-1357,d964c73d749538ee7ec7b3cbd96a2ff1dba201b3,2012-08-19T22:16:55+00:00
IVY-1236,3222754b7da18c32492e5678a016bcb7fa8d7faf,2011-01-05T22:55:07+00:00
IVY-1115,c4b917456801770f9ec9fe1fd6043b6245f40ac0,2009-11-16T22:49:17+00:00
IVY-1115,46722e306a029ea5264004f5d2b2784757a2ddc7,2009-11-02T23:49:09+00:00
IVY-1475,96dc851eacb521ce688dbc8edc3d48ce1bec55b7,2017-06-17T17:34:43+05:30
IVY-1475,7f293a06a0b7ec9b554d51f150991efa9b7dd54e,2017-06-13T15:17:51+05:30
IVY-1233,65a2a7da3ec5a9c41a6279c55d7b8a2c239bee56,2012-03-23T22:27:47+00:00
IVY-1233,2b720c7df037fc7d9b1b83d3fb6cb12edc6e8ed2,2011-08-30T21:15:03+00:00
IVY-1355,497147e3e6ba0a50c32817e14985ca5bf1041f9d,2017-07-25T12:18:15+05:30
IVY-1234,9ea96f02662dc2f862211a0c8882daf3a59b0b90,2010-09-28T22:01:22+00:00
IVY-1594,d1d956fc2f9154e9e6452b54dd3f478d728e9fad,2018-12-06T06:22:31+05:30
IVY-1594,a7318cdb6ee5cc39a2f17847a72f999422887d28,2018-10-23T12:09:46+05:30
IVY-1594,61ceab358805dea81c0e554a4bccfd62fd30e8ae,2018-10-23T11:52:28+05:30
IVY-1594,f367ed8bd79f86bb68a56a134f11247776758176,2018-10-23T11:38:42+05:30
IVY-1594,2eede730caaa8995692c8456ef4ccad291da16ec,2018-10-23T11:33:47+05:30
IVY-1353,a3611513fc4de7234ef49ae46d646b0795ac7110,2012-08-15T11:28:22+00:00
IVY-1232,8eef77b6fed7879f76ab660adde246417dbce2c5,2010-09-23T20:27:53+00:00
IVY-1111,d3ecb70f56f0324b490e7d9dd3189c8369e48946,2009-10-01T21:31:46+00:00
IVY-1471,fe487b3336f8279d8b74eff05c5ebfe6e01281f0,2014-05-13T16:52:49+00:00
IVY-1472,3e5c9e3cfe8588f85ec8dcab879c1371901b94ba,2014-05-22T21:12:24+00:00
IVY-1230,a5be8b6c5f45be8d12e3108dfb6ff57e135ef82e,2010-09-22T20:38:39+00:00
IVY-1109,1f412f9f242a286977f3fcc44314aed4993a781f,2009-08-10T06:46:43+00:00
IVY-1229,9c7f6d421223e6f76e67729b01ecc7f356eb3a29,2011-08-11T21:32:39+00:00
IVY-1589,556022e02a34081819991e4c2e4a11e99d2c9c7c,2018-08-15T11:01:59+05:30
IVY-1105,feb22aef106d4fcc58e62767a29d96a028bc9e77,2009-07-29T22:16:58+00:00
IVY-1105,0082e0192a5b706ca2777efd7097814cf64803ee,2009-07-27T22:32:28+00:00
IVY-1227,220d2bfeee8213bde04cb339c20c22ee5abc4428,2010-10-21T23:03:32+00:00
IVY-1227,bf506d547b00e961eaa1142f4eb2bc67b94eabfa,2010-10-05T13:24:44+00:00
IVY-1227,5bcb7810fd52ee6894c47170288ccad92cf0bca9,2010-10-05T13:16:46+00:00
IVY-1227,6f2f415bced22ff908d5270e0728714cf922fd9e,2010-10-05T13:16:01+00:00
IVY-1227,71a4f580751cf216bec67cef2d3016519392be62,2010-09-16T12:19:06+00:00
IVY-1106,8af923c22d837f34834fd50d0b05eba8ed0d1a54,2009-07-29T22:15:14+00:00
IVY-1588,26b2de729617d0594e5b935b930fd7e775ba1c82,2018-08-13T15:49:05+05:30
IVY-1225,b852c5bca696b7f971b3240ec8244f4e537f90ec,2010-09-16T22:03:26+00:00
IVY-1104,9a9b720db7c282cf1d162ec5f7396f74e0090f62,2018-08-04T14:34:49+02:00
IVY-1343,18c5b2536c114c86b810bb3ee94474fec596a462,2012-04-24T12:10:43+00:00
IVY-1586,400cb51d07f867ff26bc8d367dbce22d883645e4,2019-10-11T10:20:46+05:30
IVY-1586,3fc534020f71e0f86afbc0888dec6d11265f5cb3,2019-09-21T17:45:35+05:30
IVY-1465,3076802a78f14eb1b4f23831d5a1ccec79b26554,2014-06-26T22:26:54+02:00
IVY-1465,a6a5e3033d424468cbd3a6af051aabf3b5bd4d00,2014-04-27T20:02:51+00:00
IVY-1344,d0eb1d1dd1d9aed27c433d78a76962340fcbfc1d,2012-08-15T11:33:32+00:00
IVY-1102,f7acab1f6c720cf0588fee9aa5f01f6d3000f6c3,2009-08-03T06:59:10+00:00
IVY-1340,63b85e9c1489baed177698da20ab1cead3065cee,2012-03-23T23:11:41+00:00
IVY-1580,d714d9dffbaa2c91855297a7df1c5d9ddfe6d0b0,2019-09-07T18:25:36+05:30
IVY-701,cc28a242d0042076f20e6e237fba438b572d0a89,2008-01-15T17:54:25+00:00
IVY-821,b08ebfc2aac20bd7129ebb579a5a315f6d0e9e9e,2008-05-26T19:59:30+00:00
IVY-1338,f69d1d571eaf96d789d2c65c9515b815ca3285c7,2012-03-06T22:47:49+00:00
IVY-941,143f014f4f793ca5537db577636d72a20a3a9943,2008-10-14T19:28:11+00:00
IVY-940,fcff7ed74d0482eb60791adb0b82c2ca00e1de59,2008-10-13T21:42:26+00:00
IVY-1457,8d851390736dcb916646b043a5ed7ff8f212e37c,2014-05-05T19:52:53+00:00
IVY-1457,ba8b59facf8a607641ca10fff1a2624b3f550def,2014-01-12T16:57:21+00:00
IVY-1457,5db07bdcccf727ec50d8d7c85740b52b3c5ae362,2014-01-12T16:53:40+00:00
IVY-1336,41fefde64401d2173ff019a896c4dd72b4fa5636,2017-07-25T11:28:01+05:30
IVY-1336,dd7a34143c151227fc7575db7a082708b2819fc1,2017-07-25T11:13:14+05:30
IVY-1336,c0ccd54005c0fd2e493c9faa280061b9487c5f96,2017-07-25T11:07:06+05:30
IVY-826,e3fa880da97c75d598c6a9b826c6144998727ce6,2008-06-04T21:51:27+00:00
IVY-705,3de3a5e0b406e66376c66ba93bdfffacd0c8359f,2008-01-18T15:43:02+00:00
IVY-705,229c57c53666e76339780c17468b060f5edf598e,2008-01-18T15:41:09+00:00
IVY-825,6c7c02162f1c6437cdfa98b881251827ccb696e5,2008-06-03T12:42:21+00:00
IVY-1576,075134d7d07d79ece8ec947402e8d2c3a2b4c4ac,2018-03-02T18:01:49+05:30
IVY-1576,9e88105637ac1a454479f940135804929d6329f6,2018-03-02T17:22:22+05:30
IVY-1576,3b17df0ab67a1f14794bc6c60b735f3354caec9e,2018-03-02T16:58:36+05:30
IVY-1455,b7ede187f60719aa24a52f8159a7d8a47965f0f6,2013-12-27T21:54:52+00:00
IVY-1455,5b39e092699f30553a12547b943380c6271f736b,2013-12-27T21:30:33+00:00
IVY-1213,5e0edca229ed9f54e3ca25959943c64b4b3d33f5,2012-03-06T10:25:59+00:00
IVY-1577,046623755828dc5879b8d25779bab1a297b8ada8,2018-02-26T15:56:52+05:30
IVY-1335,49ac3477d6d18eee53d40d0d0488a319f07c634b,2012-02-14T23:18:51+00:00
IVY-702,c6e9f1f953708c68c6ac666d91b250976597192d,2008-01-16T15:25:52+00:00
IVY-702,8d926b91655b06fa09c4e7739a1867103dac96a9,2008-01-16T15:23:57+00:00
IVY-709,ea33beff535a67023a743bbade1127bde66191ee,2008-01-21T08:38:41+00:00
IVY-1575,82ad5b0416b93ebd7fcc9fe6cb75417bc8540a84,2018-02-07T08:27:39+05:30
IVY-1454,a1b25b28bc9cc363f32473c8f7e3c22c880a7494,2013-12-23T21:25:04+00:00
IVY-1454,fa8f024d082998c7ae48b21f3eb6f8f2ca56a719,2013-12-19T21:14:39+00:00
IVY-1333,d00c2e57078dd602be2209a4386dd877fa139765,2012-04-01T21:37:58+00:00
IVY-1333,9fcd616fe5790778febb79d50c7b297b056877a6,2012-03-26T22:45:10+00:00
IVY-1212,2521f29eb6a72a20f339d3ae0c446bc617345eed,2010-08-01T22:33:59+00:00
IVY-708,2bc0118ad001a976dc400aea89492d196915dbfa,2008-08-26T13:05:43+00:00
IVY-1330,f48c664a0f53aaeb877378ffb1c25b6f2f3d88e3,2012-01-15T17:57:55+00:00
IVY-949,fffe2ee6cd3b67aabb36f656f47f09591bc355e2,2008-10-21T19:26:15+00:00
IVY-828,e636160cda90c4626ddbd8e0af7884327f83dd21,2008-06-08T15:23:50+00:00
IVY-707,87122f1c1d3b57310616cecf7dac05dd08632f8d,2010-09-22T20:56:13+00:00
IVY-707,a8e22c5d18eaccc539f266df5e5a8f4ae52ea1ef,2008-08-25T14:51:26+00:00
IVY-1573,68e0a9c71443738b1842e99925d37bf545f5a151,2018-01-30T15:06:58+01:00
IVY-1452,902a680951f318488a4bbe0184a3a223c5709b01,2014-10-28T00:36:39+01:00
IVY-948,1a0852ffcd26a6ed2345b82a98107c27a1cd0d2a,2008-10-17T21:55:13+00:00
IVY-809,7de1cecb80ba27488731b0676230288ab6213b75,2008-04-25T21:29:14+00:00
IVY-1329,2db4eb59d4080d28e113e6ebe679b17f91222bf4,2012-01-15T17:51:24+00:00
IVY-932,9c831fa54599e7f4465a09a60e487c4ba4127cfb,2008-10-02T20:19:59+00:00
IVY-811,c4ddef0104e5e4d5931915ff122fb8384d8c8574,2008-05-22T21:40:17+00:00
IVY-811,9a327e3180f0f765db0900fd27e22740e6d2a4ce,2008-05-22T19:24:02+00:00
IVY-811,c954cd1d77d4707d5948c4e4c7907e61a3dfd7c7,2008-05-21T23:01:47+00:00
IVY-931,4e52d16c4cf767f488d4e3265019d1fe03fda4dd,2008-10-21T21:03:57+00:00
IVY-1448,658a8d80bad3a3edb792cb5f94ef175dc14ca03f,2017-05-18T21:07:06+02:00
IVY-1448,b308d598b603056e3ff7e8d53e099b677d4e8d38,2017-05-18T12:57:01+05:30
IVY-1206,84fd1dd099e6d44cdc5a2d6718197022f257dce9,2012-01-01T14:25:49+00:00
IVY-930,cd19bdef4200a0d04edd438dafb07f0b29aa6076,2008-10-01T21:21:11+00:00
IVY-1328,899f9fd0a9690581f33a715bb5f000397f1bafef,2012-01-04T20:41:10+00:00
IVY-1207,6d4b512cb151446b90874d5046ab6833904f5bfe,2010-07-18T20:56:30+00:00
IVY-1325,e3bfbba28bd950d703b9a46d477a18bcb0cdfe7f,2011-12-29T07:29:22+00:00
IVY-936,4708138cb7de377a96fe17288a1daba43d7c8357,2008-10-06T21:02:33+00:00
IVY-815,74c9be792942b8af66c9ba5648490d36a2c0de88,2008-05-08T08:48:10+00:00
IVY-935,93f45164ce744b58e1ab9f4e05028a64742de472,2008-10-04T20:56:36+00:00
IVY-814,797d09c415c7d1feb23aac5c69c855f207e02f98,2008-05-05T21:43:23+00:00
IVY-1444,ac266c0e40b5d09f9f9f1e300f358ee1532f7aa5,2016-12-01T00:13:23+01:00
IVY-1566,0cdcb1fd8df9e9185cd3abb128d927d25d7de8b5,2017-08-28T17:17:22+05:30
IVY-1324,425c28f75c8a7b7b81cd635ce8a95df4f99cb163,2012-02-14T22:40:53+00:00
IVY-1203,98567abad2dcb89c3e428efc0696323dd0b87319,2010-07-06T21:40:30+00:00
IVY-1321,6c6b4416125c62e35c3e2a279f20180b7b3d23b9,2018-03-21T16:36:01+01:00
IVY-818,951b253fc38c09114d0fe273a3758a15c151a8b4,2008-09-06T20:32:48+00:00
IVY-817,697fb6a94b77536e7f2f6a78f688dd8c9c075a78,2008-05-19T18:50:28+00:00
IVY-817,7bc4135ce0cb1d51238f32269b0fb89672b76d8f,2008-05-16T20:42:21+00:00
IVY-1441,d7b7c8a84583937deddc1ab88c54f46ca70cfdcd,2013-10-03T16:59:02+00:00
IVY-1320,82fae244b7e1b29328557e6ad6965b54bb12e4f9,2012-01-22T23:59:40+00:00
IVY-816,a3660872d9e95162902ee8ad9baf118b67054a67,2008-05-29T12:37:52+00:00
IVY-816,7b8c036868fb2b7a02c19d518a0b8ef7a52e5ff2,2008-05-29T09:55:26+00:00
IVY-919,79f90fe233204624d8b2fd7a11a4028e2664b8df,2008-09-24T21:29:55+00:00
IVY-97,72b0e0dc4b9d3ebdf169a1d74ae2fd75de959aee,2005-10-27T07:20:46+00:00
IVY-94,02f9469044b2a5c8b87dde443839996a730cc3fc,2005-10-25T07:18:44+00:00
IVY-90,64fcdf5322bc67ae880fb042d8c7a70e4168b69c,2005-10-14T15:18:19+00:00
IVY-89,d8a7bc325189e9115526712c01586a27de6440e0,2008-07-20T09:50:36+00:00
IVY-920,a92e3e29b6d5ce11b16c0a0a6437fc246039b7e4,2008-09-26T20:16:10+00:00
IVY-87,75d346b7eef3c336a8278e76e905db98e878d4d7,2005-12-26T10:18:44+00:00
IVY-87,3d5cec1c8711244183b0e1825071f4c709d6dd48,2005-10-03T16:03:11+00:00
IVY-1438,e1fc87d2d57c2d7ee941e651f33b582fb000dd73,2013-09-08T14:48:35+00:00
IVY-925,86b9dbd0254ac20a450c8b42949020074eb8b60a,2008-10-01T21:00:57+00:00
IVY-804,9b2165894ef23247d658dd37e93161c1a59b1c65,2017-08-05T21:13:56+05:30
IVY-1557,aed63ae84f10aa758a905d5827994068edb71e0d,2017-06-18T19:38:15+05:30
IVY-1315,6b610aa411df723b59d4b683baeebd5d65e356b7,2017-10-08T22:29:54+02:00
IVY-924,1733cf35ad639ef832376c926f0a0629c4451adb,2008-10-01T21:12:02+00:00
IVY-924,f3539c7eb312b127122084279002d3fd238c9a17,2008-09-29T22:47:12+00:00
IVY-803,d1df7c94e8ae961d42ff7c6896561abc0c151af5,2008-07-28T17:33:12+00:00
IVY-923,75bca5bd4c5ebccdb2735b75b4c48d5b681d304c,2010-04-06T20:31:02+00:00
IVY-923,def1380280b9be6d166d3938ea4b0254e9b55dc9,2008-10-01T21:52:11+00:00
IVY-802,c8d9bd438d72b4c87f38465f2c34082da22c40ce,2008-04-18T19:31:48+00:00
IVY-1555,7304fb9c4d720a6cad181108c273fb5eba96272e,2017-06-01T13:37:50+02:00
IVY-1555,efa756288e712849c78c4230df05c2d1abeba91e,2017-05-30T09:46:46+05:30
IVY-1313,eb2824c4909318ad06849c1574625e66abf6ed5a,2012-03-11T23:11:00+00:00
IVY-929,c342635a4694995e4eaca74d8e5eff81a7e5d2e7,2008-10-20T21:47:15+00:00
IVY-928,42d6d4f0a8fd700b6c802ea6c0a1915444e8dd64,2008-10-01T14:50:18+00:00
IVY-927,5fe1d584d0be0dfa750259944fe81d43d8f8e095,2008-10-01T14:41:39+00:00
IVY-1430,5240c8825896997f0845e354a51b1ac725dfe06b,2015-09-06T14:14:58+02:00
IVY-926,a509b19c3387dfe98322eeca52e60811c6297113,2008-09-30T22:18:17+00:00
IVY-926,cd9f86bada5c6016badedb214c0b929ebce90271,2008-09-30T20:34:15+00:00
IVY-805,72dbe9065eb2c135519ec002f08188d83ae4a231,2008-04-21T19:21:49+00:00
IVY-85,e322b36109170fea52f6128753d61638771d0705,2005-09-29T06:33:18+00:00
IVY-86,32154c0466bcc525bbffd5dd87a73ec21128e8b7,2005-09-30T15:54:19+00:00
IVY-83,7900db0c332af6eeb1cd483a510ef4aede8c8e52,2005-10-04T11:27:02+00:00
IVY-84,9c621e90fe8691d5632d2065a732e67033a4004e,2005-09-30T13:55:01+00:00
IVY-1309,e1437fdd6182a7cbeaa7e21ff2c1cfb191a2d770,2012-04-09T14:38:19+00:00
IVY-1549,7b7b37726fb328a6d796b64f2947689c6a8eb3e9,2016-11-09T00:56:36+01:00
IVY-1305,be8e6831821a9f315de1dae8608ea6acc55b0fc9,2011-07-16T16:08:55+00:00
IVY-76,a2957640c363e2138970cf95bce17329f4c9d919,2005-09-30T14:51:53+00:00
IVY-1545,537e13241a7ffd99e5a3676e574e3cd9ea9aae03,2018-02-09T09:17:56+05:30
IVY-1424,bca350df1f52134e8543774dd5df4c5dfae357cb,2013-07-25T21:35:08+00:00
IVY-914,821a3ddf69bdbfdab5aa9f3ba9f99b30ea63dcaf,2008-09-23T20:57:13+00:00
IVY-1546,37f70ab67f9f9057a89e6a0835028ad316baab23,2017-08-31T17:20:24+05:30
IVY-1304,02efe9eb38b8eba5063a95d2edbd6bc9398db229,2011-07-13T08:52:57+00:00
IVY-913,8e5ca50b8b5f47f3fb41fab5db07b9d7805628b3,2008-09-23T20:03:04+00:00
IVY-1301,bdc6a3a7620346a2e2c15f36123fd05286dab3c9,2011-06-08T14:02:12+00:00
IVY-1301,72b9a7f37393ae20805b1c99bb95169d4354e4b9,2011-06-07T18:34:01+00:00
IVY-1423,70f4b5549622b0ccc70bd2087700c510f10fc6f0,2013-12-27T23:07:57+00:00
IVY-911,394d5493c03de50d695ca9e62220dd627e248fa0,2008-09-23T21:20:29+00:00
IVY-911,a23a1a64ec883102dc8a3a2860c3b0d2fffc4134,2008-09-23T19:45:00+00:00
IVY-1420,2074889ec495e3864813cca5cf8e92a3bc0adaa6,2017-10-21T18:53:20+02:00
IVY-1420,6b610aa411df723b59d4b683baeebd5d65e356b7,2017-10-08T22:29:54+02:00
IVY-1420,ade1bb48431ace910cb718083b39ee333f52401f,2017-09-27T06:49:16+02:00
IVY-1300,826893d6d0d663d2421fe73a544e9ac6417e362e,2012-05-25T09:43:36+00:00
IVY-1300,1e8b24f19514275042bc53d610b5ae072348c57b,2012-05-24T22:34:14+00:00
IVY-1300,c02386113b1867f37c1328c308425bc830b5fe6a,2012-05-24T22:31:21+00:00
IVY-1540,4d1551a5d6b516987fbc6a987e93b964fab40fe6,2017-06-01T14:11:14+02:00
IVY-1540,2f757454dc41f4d130234aea68b348da4f12a0fa,2017-05-30T09:48:48+05:30
IVY-182,515ce0a9394dfbb03d78080cdfdb0ba0d3b912fb,2006-03-01T11:41:18+00:00
IVY-181,64c1a69c4d5ae173e1743a96ddc2f0f42a130302,2006-02-28T13:18:19+00:00
IVY-180,ff3804849e0badfe6fee032f39dacb577be94c22,2006-02-28T09:19:06+00:00
IVY-186,f002d335494301d96ad22c428126c7b3cf15e09b,2006-03-06T15:04:01+00:00
IVY-185,ee1008f1e557715224a16d6190c9f815c8d4f9da,2006-03-06T15:16:10+00:00
IVY-185,3301b06df5f5fa693af2ac3a51677dc1074d5808,2006-03-06T15:07:45+00:00
IVY-188,f3fbd8d68cebc487dc62e8f197440ecb2844124a,2006-03-30T10:48:29+00:00
IVY-1098,c55cb82fb4b0db5de76003d4add3031746fa3a24,2009-07-02T10:03:31+00:00
IVY-1096,be37ea80c0d982f82b642ca8681c65add307cdca,2009-06-28T22:41:09+00:00
IVY-1096,feec9b7c10aa59d0ff6ab7de49edf4c2e9dcdafb,2009-06-18T22:01:53+00:00
IVY-1096,c52bbc90fbb8dc7d148237d6e600bdfd92f0852a,2009-06-18T21:58:01+00:00
IVY-1096,2d5b2326b24fc18ac3fbde0bc01ca1def85e1b29,2009-06-18T21:54:09+00:00
IVY-1091,8127d9ccf9f7aaf7234b9d3a42ec7709bafe043c,2009-07-01T23:08:13+00:00
IVY-293,4f90aabb2e16bc3ac2daf5da1356a64ab0742ebf,2006-09-13T10:55:58+00:00
IVY-292,ac7b409d4c2977e79e88d8f73e0664bded36d94d,2006-09-14T02:09:15+00:00
IVY-171,d7d9cf45fa1400bb525446708e91dd7514c455e4,2006-02-13T11:31:13+00:00
IVY-291,b922c60a5348dc1298abc783aecaea05c726fccb,2006-09-10T14:25:43+00:00
IVY-297,65f132ddb6f6b5c81dd219af25f814f83506f6f6,2008-04-03T11:28:56+00:00
IVY-297,4d0e31d567f2ec29ea5dc312b71961a8dcdaa1c0,2008-04-03T11:27:18+00:00
IVY-297,f5595672e7c7a66cee114775fe65e243ad7df17c,2008-04-03T11:26:55+00:00
IVY-296,3dda7307074c90e1d7296cf27e3d653ed27d0608,2006-09-15T12:23:34+00:00
IVY-175,b34fdc404f53efeb27725f8e2017711e0eb9255e,2006-02-28T12:07:57+00:00
IVY-173,c1b925f1fae99f9fda7e09449b9726fbac99aaa3,2006-02-28T11:06:15+00:00
IVY-179,7cb328da7dfa751bcaa99dfecafe5933fb53d4be,2006-02-28T11:50:04+00:00
IVY-299,371280dad18fd5a496f1d96d890d967f38c200ff,2006-09-25T18:26:38+00:00
IVY-178,90f1d8ff6a33739d678f71e28860e536cec50696,2006-02-20T17:09:08+00:00
IVY-177,d55ed9283104db6e145dfce0970dd6d5f2a91806,2006-02-28T14:01:01+00:00
IVY-177,f799f4e7f1ab499e3fc31cf14e00ff87989a4b0c,2006-02-20T17:20:57+00:00
IVY-1087,c585c5a536b769af24bbf68d81075c163504c2bd,2009-06-26T23:01:22+00:00
IVY-1087,d1e97bc85338c563f4f732bcf917a08b3cbf4792,2009-06-25T22:42:40+00:00
IVY-1083,a0f5b1b4394a0a1cd2fd0ed8491d138a1cff1e3b,2009-06-23T09:28:56+00:00
IVY-1083,900090e490906bcc1328e768928cfed0fec305a2,2009-05-26T15:49:48+00:00
IVY-1083,08cf1d1fb517d9778fed6e1857a2b71df5c368be,2009-05-26T15:17:04+00:00
IVY-282,6d54418d10508962e56a1f1a11042011ea24dfee,2006-08-31T02:25:30+00:00
IVY-282,7e97cea661e1ab9a13b6ffce2c48288cb74eb9b6,2006-08-31T02:07:51+00:00
IVY-280,2cda0797a5dd539e88cbb4bbf6a392ecdc63c63a,2006-09-14T02:00:04+00:00
IVY-280,226204eed59c1fc50ad97131b839e1ed513d536c,2006-09-06T16:09:19+00:00
IVY-165,9ab9779e58abf2a4b12b550a207d5e9280847c27,2006-02-07T07:25:01+00:00
IVY-164,0e7eb17fe72237e6e264d21d4d955a7843ea1d2b,2006-02-02T07:49:25+00:00
IVY-284,f2bf642c9580d9fa982e1d94e6021fc72e4bf932,2006-08-31T13:00:20+00:00
IVY-283,1c28714c8cdce0831ffa79d5c60e59ab019fff97,2006-09-06T17:22:54+00:00
IVY-283,e00a63dee360a98653d6a2cdf36a235e97cf5119,2006-09-03T19:13:34+00:00
IVY-162,4cfb2f403a078917bc4d50318f422120ab4a8c51,2007-01-08T22:16:35+00:00
IVY-169,3f8fe0e329b8765ec62540a497ce6ca3beba2250,2006-02-10T07:32:06+00:00
IVY-289,911126ddebad2b0d44dd71be4f295df968dff652,2006-09-06T20:32:07+00:00
IVY-288,1a7a3fd2c9694d301b26f7ad3005b7454b6034ee,2006-09-07T13:49:19+00:00
IVY-1079,85f579dd17160e9cf25a1c392c3e56dc2eb0e88f,2009-11-16T23:16:14+00:00
IVY-1199,0a000800ef687ed1fa87ecfae1a1c8e5d89aef81,2010-06-26T21:49:50+00:00
IVY-1075,b0caec70e581053c92e81a15d3f130a089d8471d,2009-05-27T02:04:47+00:00
IVY-1194,48c7a0cbe042a2e3d94fd30b49ecf86d68cf86da,2010-06-05T21:25:26+00:00
IVY-1194,e02facfe1a2116423c826e66ae093de0f5e241f4,2010-06-03T21:31:05+00:00
IVY-1194,c7d6d6fd0d30f0f98b87c0a2c50f653839e4e1fe,2010-06-02T21:20:49+00:00
IVY-392,33625d900186b4bce99993d22db46d9d5ae2205a,2007-01-16T22:55:44+00:00
IVY-150,343be17bd1ceaaa16b828c4c98e72abf96f13ade,2006-01-24T17:42:35+00:00
IVY-390,8a4cc1031e46f5d3537fab3bcf5ec89663372539,2007-09-21T13:06:01+00:00
IVY-390,9c85b590c1ad663b3316ad0f1926752cbda33742,2007-02-22T21:34:46+00:00
IVY-396,7a90c7ada50de5e8bf7e6587fe5d0910d3511a98,2007-04-04T21:32:26+00:00
IVY-396,cc502dfc9d48fdd01b43869903bebeb7964286d9,2007-04-04T21:13:09+00:00
IVY-153,5057a8affbea2a970419bdc24bcf556f5cfa16c7,2006-02-28T14:36:34+00:00
IVY-272,bcdf93d304e2f2af36e2e21d595b347159a56ee1,2008-04-09T22:08:49+00:00
IVY-151,ed940129bfd032da86bd2fdc75e2205ba457a2eb,2006-01-25T15:23:16+00:00
IVY-279,9f249b6f58a83219a2cabe7651fa16c9b5787c27,2006-08-30T13:36:21+00:00
IVY-158,1137b3714e64fd4d3160a42f8a4c49d4d2d94382,2006-01-27T09:25:04+00:00
IVY-157,535c0c34334862d47ad339a99d0933e5eba76ae0,2006-01-27T07:53:09+00:00
IVY-156,570057bdb5f6a8af5be000355e1ca8cd1e545770,2006-01-27T07:15:52+00:00
IVY-159,4dfab0656fe2e8739aafcdf98cdeb2d10541382c,2006-01-30T17:57:44+00:00
IVY-1069,ebb65f0dc2e7ae6099f40837bf7c78f1e12f97de,2009-06-09T21:27:58+00:00
IVY-1066,d282711600f0af14ee4b165d886d30eb3090a383,2009-04-16T21:52:30+00:00
IVY-1186,7f640b0badf5106821908fcae610400849cdccc5,2010-06-09T18:40:35+00:00
IVY-1060,d1758567765117cd395ea47319d3acde7fc663b1,2012-08-15T15:39:06+00:00
IVY-1299,bdc6a3a7620346a2e2c15f36123fd05286dab3c9,2011-06-08T14:02:12+00:00
IVY-1299,020f71e5fb37fc3ea1f547dd466190910bc78749,2011-06-05T18:24:31+00:00
IVY-1178,91cb40361e2cfc7525deb063b48db0e2e877e509,2010-03-30T20:01:55+00:00
IVY-1178,b62c3ff93e214fc7487f9bf5d56bb94c5e86c177,2010-03-30T19:59:33+00:00
IVY-1179,c4355851dbbc6c232ddd228e7e724a725783fa92,2010-04-21T21:40:59+00:00
IVY-1058,be2aa80bc371d600ab2230c545051ea6454577f5,2009-04-15T21:27:17+00:00
IVY-1177,12f7e823997bbc9c13fee3942cbee3efbbd34c96,2010-03-22T22:14:04+00:00
IVY-1177,1662de3263f7c947e83058681c34002f1215b99d,2010-03-22T21:24:51+00:00
IVY-1056,4fdee25cb29429dbec0a2523253c059df101465a,2009-04-10T21:35:34+00:00
IVY-1175,27671a8bcd25de274c664aabfff6778ebc29af52,2010-03-14T22:52:00+00:00
IVY-1054,30577116d333d6ff58eac33414879930e55b89aa,2009-07-02T21:47:44+00:00
IVY-1054,bd6056283af304a8cd69e3b96974cf1df43dcad8,2009-04-06T21:55:52+00:00
IVY-1172,989f6f664f65d5ddc537f35d990a8c228222f441,2010-02-20T21:34:50+00:00
IVY-1052,22dd74e245b5ec3a5346b8bd20f73a36f9572bb3,2012-03-06T22:20:32+00:00
IVY-1170,37f373401c3fefa832be0d52f617f0711b0bb831,2010-05-31T20:57:10+00:00
IVY-1292,e8c4036283e31256bda9773f316b8bbb1f7bd63d,2011-05-14T05:33:09+00:00
IVY-1171,46932ec5b7623acb0dc68be2516cbb7e7b33e9a7,2010-03-15T07:54:02+00:00
IVY-1171,266111a5b0ceb03392471ad1990c9ad099f4b99d,2010-02-14T22:22:54+00:00
IVY-1171,89dd7ae91821102ad909a20f125ed2ed088e38ac,2010-02-12T22:12:33+00:00
IVY-1171,8587d603c801ba22ef87c8c6414cd49ce6532da8,2010-02-12T21:16:29+00:00
IVY-1169,eac471eefed0baa2546d98a089d185b41199d9db,2010-02-10T22:01:29+00:00
IVY-1167,c819598e9fb2ce0f2e7cdfe26b084f582bbee0c6,2010-02-10T22:34:40+00:00
IVY-1168,c66246c26429180e6a1d1a92499b8d2b637790a5,2010-02-22T22:37:54+00:00
IVY-1165,33deae33c51d391f9fa1ca0a19fad921d16e93d1,2010-02-03T21:02:28+00:00
IVY-1165,34acf5690d3b1370eec91abfee0665252b1c3ec7,2010-02-02T22:28:00+00:00
IVY-1287,2e027a4d3de9f472c774ef20d9487926efe5fd88,2011-04-28T21:16:35+00:00
IVY-1282,1d3567f3051682dd0ea8406a3f605cb5c42de27f,2018-02-02T19:08:53+01:00
IVY-1162,fc939bf6838f4bf986e0b42fddee3df6712371a5,2010-01-12T10:09:16+00:00
IVY-1041,0642a6f1da5e8e6b9d0d44090eee1ee95de4e19c,2009-03-05T23:17:41+00:00
IVY-1037,2ebd474518813c065e774d831075d925f2b9b7d5,2009-03-05T21:54:26+00:00
IVY-1037,aae0d3d15f12d70aba17b99647642e1cf539b981,2009-03-04T21:38:59+00:00
IVY-1159,2e96cd40c91e1b40196d0d50a9e9c36e04b8465a,2010-06-09T21:14:51+00:00
IVY-1399,c66b23747627a2b432e0068561d457cab9f97ead,2014-04-27T18:19:50+00:00
IVY-1036,c28ed2e0cfab58bdf7c1849efd75d5ca59a830e6,2012-10-16T19:34:19+00:00
IVY-1396,33753d4afd864c8db0044420c642b8f0c3511756,2012-12-20T23:11:40+00:00
IVY-1155,944d5a7efe3ded90e2121bf1a2784d8695198f9e,2010-01-07T23:06:47+00:00
IVY-1155,38c1f13e209bb10b10e7a43a8b98196ab03819c9,2009-12-25T23:54:14+00:00
IVY-1152,d56d0309fdc03ccd3d7b05e7c32cb3d3202efab4,2009-12-22T11:28:38+00:00
IVY-1152,d800c7e47c66b6b80ed19c7fb2b27d0b8b987b40,2009-12-21T23:07:00+00:00
IVY-1150,26c458f09bc858537d02b3749868e8318b167a68,2009-12-18T20:24:48+00:00
IVY-1272,f0c59d736f1f048e78877b863e398e4a5a593128,2011-03-09T10:42:45+00:00
IVY-1391,fdb75911387f77912c37dcee0af4a2f2e0977f3c,2012-11-22T20:44:31+00:00
IVY-193,66e597b4b19e9bf55e2caf2b1ded420fc39d830e,2006-03-20T18:13:43+00:00
IVY-191,243defb4c96d911683bc5a2c2b1e630770d49121,2006-03-30T11:10:17+00:00
IVY-198,ce7e757a896bf19f3f01abb3cedb5ea3f4bcc164,2006-03-30T13:45:22+00:00
IVY-195,ea24e26fb7adbaae8cf668845946f25562386f69,2006-03-20T12:55:41+00:00
IVY-199,ba93f9a3db44fda15e4afa536701563dc4e67004,2006-03-22T11:41:02+00:00
IVY-1028,c9e19e298b4855ac4f94a140083bad67176364e6,2009-05-24T22:30:29+00:00
IVY-1028,67647ddcf1c42762dd7bc6df83ba951edad1ce93,2009-02-10T22:02:15+00:00
IVY-1268,523d0f70d18b5496008c9063b9f6e9321877d574,2011-03-15T23:11:16+00:00
IVY-1147,4bd9a6362a852d8a066c006ae3bc5a1f517ac82f,2009-12-03T20:10:23+00:00
IVY-1269,a6fa9d28add20732380326f397051cb89454c55e,2011-02-16T23:20:53+00:00
IVY-1148,002f8ec7aa01956b282ffd78062ee6fed6ab1eb9,2009-12-08T20:39:00+00:00
IVY-1148,82aa33b5464fae8a107b9c72398aad5853e62f30,2009-12-07T23:37:38+00:00
IVY-1266,8f8e4fa6f903da6b1403f4c6bbeb619852f269f4,2011-04-28T22:03:50+00:00
IVY-1145,e2330b08a64f5e91e4f6526c940b1d88586d608e,2009-12-02T21:13:21+00:00
IVY-1024,33d0ac471a8c2c2abebc6b0c938add5016c82780,2009-01-29T22:40:29+00:00
IVY-1388,fa0478f4f6fb724233dc3e00a9f8dc557ce7cdbf,2012-12-16T23:24:17+00:00
IVY-1265,7fdc9056297be79807e3c6acf92f857a81268104,2011-04-28T22:17:59+00:00
