Bug ID,Bug Fix Commit Hash,Date of Commit
JSPWIKI-191,84c0de66e80608caff860069c7c236458d71e24c,2008-06-12T20:33:18+00:00
JSPWIKI-195,d78fb1237f3c9479718dce51630772f6a911d684,2014-07-31T18:46:53+00:00
JSPWIKI-195,7064f4b473bf3f2c60a5454271b3cdfb989c9cf4,2008-02-24T18:21:25+00:00
JSPWIKI-195,e2b78c8aa4e2e59280db5ca54cbdb9fba4c64db4,2008-02-24T18:17:33+00:00
JSPWIKI-195,60691964cfeaf059b3f64a061fd78a688fba75d3,2008-02-24T18:17:04+00:00
JSPWIKI-750,3a155a8b068326e65282cd4d79c3938bd131355c,2012-10-28T22:07:55+00:00
JSPWIKI-751,b0e7d9a9c351e70a0812c589252389251392050b,2012-11-17T22:55:57+00:00
JSPWIKI-510,2082602a105792cd55b754ab23536a5329c14fbc,2010-02-20T18:03:55+00:00
JSPWIKI-874,b2d771a44990eebcd24e6fb64e628a5c21ae7dd1,2015-01-13T21:02:40+00:00
JSPWIKI-503,5844c1e3df9fc6cef1f4382349a0812d0655e5da,2009-02-15T13:28:04+00:00
JSPWIKI-505,57cbe16dcba8d1a63a9d10f89b11e426079e3d25,2009-02-25T20:49:52+00:00
JSPWIKI-869,9a6b1ff8c10794dda49dbe0cd550ed4b08a405f2,2015-01-17T13:26:46+00:00
JSPWIKI-760,6d5260ae100cf65e8135908f0fb86ac8c01dfd99,2015-01-30T12:31:30+00:00
JSPWIKI-760,afb516da115a447e49e548f6881f5441cf2088cc,2015-01-30T11:01:28+00:00
JSPWIKI-760,420ea9cd2e4432566bb952b8034f51dc6766ced3,2015-01-30T09:08:55+00:00
JSPWIKI-882,610fa2325b94195dad719109175865d04508ce29,2015-05-31T12:41:48+00:00
JSPWIKI-761,1743947169aa8fa469e385587e33092d08177bef,2013-08-02T18:37:54+00:00
JSPWIKI-885,b9b9a6367347ab687e4b32c5ab62c92538998726,2015-06-28T21:23:28+00:00
JSPWIKI-754,73c3e6019d98b30731d8a242b8aa1530242ca6a1,2012-12-08T10:44:42+00:00
JSPWIKI-876,3b8db5e3fc692a0bbd8e878454730a4d07575533,2015-01-24T10:54:30+00:00
JSPWIKI-890,9057abd95ceba8a68975eff04f28ef3520f93796,2015-06-28T13:34:04+00:00
JSPWIKI-891,b9b9a6367347ab687e4b32c5ab62c92538998726,2015-06-28T21:23:28+00:00
JSPWIKI-892,d394dc4f72587620a1262f2c1a71c4df945091b5,2015-06-30T04:54:35+00:00
JSPWIKI-893,322f3c80d06a62f7317da5f965b2bc70414dec82,2019-08-16T18:09:49+02:00
JSPWIKI-894,8d95d5f7976341c38198fa75e1bf2d494421bcd6,2015-06-30T18:07:28+00:00
JSPWIKI-895,0e7a613d0c9223171ea10f4d7f2293e718de8123,2015-07-05T17:20:06+00:00
JSPWIKI-411,cc5b82a824e0d1d9769001b65b34d97877596163,2008-11-04T18:45:27+00:00
JSPWIKI-896,f135177dab1221f22b8e29c21cda90d6d8769ba8,2015-07-11T20:47:04+00:00
JSPWIKI-775,39293781fde7eba49e77cb3c5495f61acc508201,2013-04-23T20:17:11+00:00
JSPWIKI-765,0f8f4a121e49ecde4389f1fe24703ce62acfd8c2,2013-03-17T18:26:35+00:00
JSPWIKI-887,9057abd95ceba8a68975eff04f28ef3520f93796,2015-06-28T13:34:04+00:00
JSPWIKI-766,da254735a6d604341498f8b76679111b9074377e,2013-03-20T20:04:22+00:00
JSPWIKI-403,cd295aba55fdfd1abace7a62289db60754d7bc38,2008-11-04T07:22:14+00:00
JSPWIKI-646,b2eea3798bc13aa4122fae72a3f4c4149fed6ce4,2010-05-16T12:31:24+00:00
JSPWIKI-408,cd295aba55fdfd1abace7a62289db60754d7bc38,2008-11-04T07:22:14+00:00
JSPWIKI-1107,4c4b8bf2490f7d09228120507453e49ebded6b5b,2019-04-28T21:10:32+02:00
JSPWIKI-1107,fbca81686104b50909a5a71b63ad476e39c59d56,2019-04-28T20:20:29+02:00
JSPWIKI-1107,8ccb6b2a1f1a3650159e1ddf1be885d4281309c1,2019-04-27T07:44:46+02:00
JSPWIKI-1107,59881d4c80c3c686cce582714ef6ff31956502ad,2019-04-25T22:23:37+02:00
JSPWIKI-1107,874c7e89201b50d0eb992ab42a39966767836e33,2019-04-25T21:34:50+02:00
JSPWIKI-1107,edff448e1b6f5fd35aea2d72f88e3c7a88741c0a,2019-04-23T21:16:49+02:00
JSPWIKI-1107,60a9cb84ce36a0392fa5a01afcf28c11857c2f9e,2019-04-22T22:00:38+02:00
JSPWIKI-2,c03da1c2113a09e06104aba58e7e99ece5950f64,2017-03-26T19:53:50+02:00
JSPWIKI-5,982774f960d7d3ec43a3fca50286c88393de5062,2008-04-20T15:48:45+00:00
JSPWIKI-5,3b50cc8e453f0d552b93680de6f5345fff3c5732,2008-04-20T15:47:34+00:00
JSPWIKI-784,e20148addf02a73cb8e2b0ef8988c55c17d48d91,2013-07-28T20:07:34+00:00
JSPWIKI-663,6e0eca0c628d9f6cc6c278a450a34a319489130e,2012-12-26T11:19:33+00:00
JSPWIKI-664,49ff23023c70fe7fce0faf17c5e56cac504c0c31,2012-11-13T17:50:09+00:00
JSPWIKI-664,44e4e0defd4f8263f3e81e9ffce692d0eadea4b7,2010-09-30T18:45:00+00:00
JSPWIKI-302,1d6e6b5bce632d6520e18f78ce9bc2d8bde988ed,2008-08-11T20:48:40+00:00
JSPWIKI-534,4c6797b3981778665b9663ca88649470e506e7f7,2009-05-17T14:26:00+00:00
JSPWIKI-534,3beaa620ae92d2d6f6572dc5a2df918b3adac682,2009-05-17T09:00:18+00:00
JSPWIKI-535,b4ecc94c92eccddccba3f080795fc200c142d63e,2014-05-23T05:36:16+00:00
JSPWIKI-415,3746f8bca8091e53d9761a261e01a50e21ee92cc,2008-11-09T14:23:06+00:00
JSPWIKI-659,da254735a6d604341498f8b76679111b9074377e,2013-03-20T20:04:22+00:00
JSPWIKI-659,0118a8f7f0452d471372817e121ff5f52b46042d,2013-01-14T20:02:59+00:00
JSPWIKI-391,06ca09f8a00cbe5a3d4f0ce8e0aada9a102a2ed5,2011-09-18T13:28:38+00:00
JSPWIKI-392,9499867ca0413f242a167fe04011ef99f5a2ecb5,2010-05-08T12:12:54+00:00
JSPWIKI-150,f3da87710783d84097537aa3fe4f438af290a3bd,2013-01-28T20:24:45+00:00
JSPWIKI-150,80e828d40f37d45d453a9f59715d2ffabc28c4c2,2013-01-28T19:16:21+00:00
JSPWIKI-150,84e46881b27d3fc8b99c90ae6d86098fb0514791,2013-01-28T19:13:31+00:00
JSPWIKI-150,057d9b9b52d6ffc6b0add23ecb501b517c02af59,2013-01-28T19:10:42+00:00
JSPWIKI-151,841bf9a89f5a0fb63ba5a7e12015377add7ff804,2008-05-20T20:34:00+00:00
JSPWIKI-395,65a1d67ede1e00001b89a64cdcd9058e9eea796b,2008-10-06T19:57:08+00:00
JSPWIKI-395,23aed4f5e24ff3583387decefbf68a0a9c29dad9,2008-10-05T19:02:51+00:00
JSPWIKI-153,aade975291491075c747a8c1ec674c4200d6df67,2008-01-26T17:02:01+00:00
JSPWIKI-95,23514131d26b1a2e6b24bbb70cd5077779012f8d,2008-01-07T21:08:11+00:00
JSPWIKI-396,ecd6d63ce1c939c2d301e883de652b66cfccf7d3,2016-08-18T05:38:28+00:00
JSPWIKI-396,f1ac8d03eb0f3dc6067af36b9ec1ecf0f28183b1,2014-05-29T11:36:42+00:00
JSPWIKI-396,73d9267370865e4d32b4bb5d54c931c3ea0eaac3,2013-06-01T17:12:22+00:00
JSPWIKI-396,9034a17892b55ec8b6f3ece219a71a49bab214d0,2013-04-21T16:39:21+00:00
JSPWIKI-275,56aa408f221fc5635171c1951e1f4f08a5ff7dee,2008-06-14T03:10:33+00:00
JSPWIKI-398,a3b1041393db03d72d32e4d51554941be55e07e3,2008-10-14T18:44:34+00:00
JSPWIKI-278,56aa408f221fc5635171c1951e1f4f08a5ff7dee,2008-06-14T03:10:33+00:00
JSPWIKI-97,18cf510de34a3ecb71fde6198939e659aac52423,2007-12-08T23:20:12+00:00
JSPWIKI-821,d1474fc70c987d40b030e555f4a3e749e9823606,2015-07-07T23:03:09+00:00
JSPWIKI-821,f580850e57ce792e974e151a9758520d114d769a,2014-02-20T00:00:58+00:00
JSPWIKI-821,a6dd61184804886d566f86c4937a668adeb9cb74,2014-02-19T23:51:31+00:00
JSPWIKI-822,1b5a0c3c11dd7aea448f966e96aea6fc27ea63d1,2014-04-22T18:24:31+00:00
JSPWIKI-822,459dc40992b5b79537e44019deb9dc69ed7c541b,2014-04-22T18:23:05+00:00
JSPWIKI-701,f51c0520832d4bce6f305686a7fc72cc0843e2be,2011-08-21T18:32:46+00:00
JSPWIKI-823,6c12e1dcc77eacf439483be191b5bc3bb8712647,2014-03-11T19:28:10+00:00
JSPWIKI-92,6b42688339f526a85de3c3699d65ffec0fe10586,2007-12-21T04:35:30+00:00
JSPWIKI-92,121742bd5e78f3552e4eccfa2a1b310781ce4990,2007-12-18T06:17:26+00:00
JSPWIKI-825,29d274675157ed1e915366508bb7c83c322d67bb,2015-06-25T20:59:31+00:00
JSPWIKI-826,c6ba6c549f93e36c4e124792e7bab41402d89e3d,2014-05-04T21:50:39+00:00
JSPWIKI-826,57ff871f42cc5bfad6aa916826dc76d9f9011931,2014-05-04T21:49:30+00:00
JSPWIKI-280,f98383950cbb589e20755f7a8269e7fbbefc1e7a,2008-06-17T17:40:06+00:00
JSPWIKI-280,56aa408f221fc5635171c1951e1f4f08a5ff7dee,2008-06-14T03:10:33+00:00
JSPWIKI-283,31a5addf72732881dd4ba1f07c47426fa77f22c1,2008-06-08T13:04:37+00:00
JSPWIKI-162,3e390c0d4cd6b58ab9d431762008206c8be50396,2008-03-13T20:54:31+00:00
JSPWIKI-285,6089e93690f4c686588ae3338e71a1295692ee58,2008-06-09T20:00:14+00:00
JSPWIKI-285,52fd798676fbdc92c0a83414304dcdbb628ec5a0,2008-06-09T19:59:38+00:00
JSPWIKI-286,52fd798676fbdc92c0a83414304dcdbb628ec5a0,2008-06-09T19:59:38+00:00
JSPWIKI-166,d9faf9c115154ea68251382db83a6cc10baaf167,2008-01-27T19:35:29+00:00
JSPWIKI-1090,46505f12a2e400d203d70c367e34aea2cdbad038,2019-02-09T18:38:33+01:00
JSPWIKI-1090,21cf91819358a04bd3ae6c6067ce43454e8acd70,2019-02-03T13:12:38+01:00
JSPWIKI-1091,0c86536d25e263cb3326ae4fcfd335b29c24c580,2019-02-13T20:52:49+01:00
JSPWIKI-1093,b17f699a4a099639beebb905cf4e04a8bea63b3c,2019-03-17T22:44:57+01:00
JSPWIKI-1094,f140a2a4371735ad24d04a1d78c6e1d9ceaed76f,2019-03-19T21:18:55+01:00
JSPWIKI-831,7ba29d491182a2983d4f3951f90b1d6cecd22b12,2014-04-01T18:53:37+00:00
JSPWIKI-833,051fd9964a18422227e0d53aa025725a01f4ad15,2014-03-17T20:20:10+00:00
JSPWIKI-712,3908a706d81e8aa4924f927b19854f9d43c7b0c0,2014-02-14T17:24:32+00:00
JSPWIKI-712,b5ca6360357815db8f81a7e0f0cf483b0d798b16,2013-01-27T15:33:07+00:00
JSPWIKI-712,e0a789aa431dd8b6528eb29185f1803ea71dae52,2013-01-20T20:29:54+00:00
JSPWIKI-712,40182c229dcf37802e745f73b2689bf87dc4c701,2013-01-15T20:34:08+00:00
JSPWIKI-290,346be1c4b85d1367f5dc8666fc5968e021f1fa78,2008-06-11T20:30:37+00:00
JSPWIKI-170,5a39fbe851284dc29669b4048a7c196471e7db06,2008-05-20T19:57:38+00:00
JSPWIKI-292,5afe29c6969a2f1cd769aa0e40a20a6da51067f0,2008-06-14T21:09:40+00:00
JSPWIKI-171,798703cbf3793e3712dd80a478e7e6654765b4af,2008-02-14T22:22:22+00:00
JSPWIKI-293,f98383950cbb589e20755f7a8269e7fbbefc1e7a,2008-06-17T17:40:06+00:00
JSPWIKI-294,f98383950cbb589e20755f7a8269e7fbbefc1e7a,2008-06-17T17:40:06+00:00
JSPWIKI-295,f035f48e04984aeb6303b1818b2d26bfedf7d901,2008-06-25T20:30:39+00:00
JSPWIKI-295,03bba11edb2c8e7fa730edc134a163f33f29f9c5,2008-06-19T18:25:19+00:00
JSPWIKI-299,4af7285a100a299ba5c4a51f92a904c9870b9411,2008-06-30T06:45:24+00:00
JSPWIKI-600,8a55c1528cad1aaab0aad80e5aea368919af3aa1,2009-09-26T13:25:23+00:00
JSPWIKI-722,60e64fb40cee73e7b75ea08b7920afbd85cedb61,2012-03-25T19:12:38+00:00
JSPWIKI-601,04fb2ed7185e6016cc6f0dbf49b0117152cf5d71,2009-09-16T20:38:36+00:00
JSPWIKI-847,5a2e9fcbf65041ddf3eea72b14dcdb83daea9642,2014-06-22T18:45:32+00:00
JSPWIKI-726,6f7eb04111a4dadd7ae4e09bad72b2a12bec0e41,2012-04-18T18:33:35+00:00
JSPWIKI-608,a652d8183797b0c3a3d281ea5441a18ecc4f9235,2009-11-14T18:17:12+00:00
JSPWIKI-183,b5dbd043aeb1c4a2921547f01fa725882498889f,2008-05-11T19:19:16+00:00
JSPWIKI-185,57930cf6a4b922b45d5cd00cde09f999ea07b4a1,2008-06-14T12:30:29+00:00
JSPWIKI-185,75fe691b22abb8ce599262304c6cd6188d6486a0,2008-06-14T12:30:10+00:00
JSPWIKI-185,3b3890a5f71cf184fe4e1056aa606d68bf8a4605,2008-06-14T12:28:57+00:00
JSPWIKI-82,96461c6e3083fc1b2abd0d856d7d21401ae37ca0,2007-11-29T01:13:06+00:00
JSPWIKI-742,959481fcc7530c9f56d58631dc6e09a9b118cbf6,2012-12-12T18:16:19+00:00
JSPWIKI-500,e4429fe7a98c937ddb1deaa09f54ac951d866c08,2009-02-14T17:36:47+00:00
JSPWIKI-733,bc5a3308fe32d667869b1a1ef43f12c94c922806,2012-07-07T05:32:46+00:00
JSPWIKI-612,eb3d0c5cd53d0b53a161ea562fd352c5a688b78e,2009-11-21T14:10:12+00:00
JSPWIKI-855,85297fc9cadd575b456b5dc29724e5b68cd69db3,2014-08-11T23:17:02+00:00
JSPWIKI-734,bc5a3308fe32d667869b1a1ef43f12c94c922806,2012-07-07T05:32:46+00:00
JSPWIKI-737,5b8f30a3e5f0afae9ea5172143086787ad5e6718,2012-07-05T16:00:43+00:00
JSPWIKI-737,4515347e16799c36d406cf8b1c85e72ca6628dba,2012-07-05T15:27:59+00:00
JSPWIKI-618,9cc782cc5aa42811a2937bbd362ad70b6925a17b,2009-12-15T19:26:03+00:00
JSPWIKI-59,491d53eda8a3191efd56d9589ceacb62d055e60a,2008-01-20T13:11:06+00:00
JSPWIKI-59,251d4390fe0d8f57bbf6b6baa6d0d355b3cd68a8,2008-01-20T13:10:34+00:00
JSPWIKI-57,e18adf1887c9172508c4dd4e13a4a4083549aff9,2008-06-14T20:55:53+00:00
JSPWIKI-591,6f62d3e17359f1794422fcf828178cfd3e5b630c,2009-09-26T13:36:49+00:00
JSPWIKI-350,4a1adb38b8d82f26bfa480a0d1a4a5168813ccbf,2008-08-23T19:19:44+00:00
JSPWIKI-472,4f34ddab6ed064b10370e4a864590f3b62605b29,2009-01-23T17:40:51+00:00
JSPWIKI-473,c516a89bc9a860dfa8c8e1a53690c21e52afe448,2009-04-10T13:16:16+00:00
JSPWIKI-352,5bc71c8e6e661c9c1d69a6b211895d2a816f8163,2008-08-20T20:12:29+00:00
JSPWIKI-595,5e4e494e65f2ad732c64fbd9bdc5cfa659571d6f,2009-09-13T18:06:09+00:00
JSPWIKI-353,4e23d869d1f56e016e7795beb07caf285c000627,2008-08-20T20:15:35+00:00
JSPWIKI-354,541fb507108a6a45660000866096d3ca7076952c,2008-08-30T19:55:18+00:00
JSPWIKI-233,1473b483a03e85df7dabb7a477377a4fbd313304,2008-04-09T19:26:51+00:00
JSPWIKI-233,ebac4d3b0c7f64c1bc1ad191d87f74079f57cc06,2008-04-05T17:24:13+00:00
JSPWIKI-597,ba01d4e5f1f180f535c99260b75229cf160d29d5,2009-09-06T12:10:27+00:00
JSPWIKI-355,7882f53823020faf91102381033adfd92ca86570,2008-08-24T12:37:54+00:00
JSPWIKI-55,566bbfa6e7b8e5cd662d63d1fd18388f680b6e4a,2007-12-11T21:02:25+00:00
JSPWIKI-598,5159f4f3bc2a7079923cbe3f0aa7f97c8f73cbe8,2009-09-12T16:48:05+00:00
JSPWIKI-477,dc6d7dd5ad76164e82b87ef821149049415f7364,2009-02-06T17:54:42+00:00
JSPWIKI-235,56aa408f221fc5635171c1951e1f4f08a5ff7dee,2008-06-14T03:10:33+00:00
JSPWIKI-235,9f7fe9cef1a4431ae3cca8f0031bdd5d6871a9ec,2008-04-10T13:32:23+00:00
JSPWIKI-114,1aba9698d1ecc40adc397693f9b854a615c99ba4,2008-01-19T17:25:46+00:00
JSPWIKI-599,2a8830768fdd82af33f82f9583fbf80e49e68428,2009-09-07T03:27:38+00:00
JSPWIKI-357,a83ca46ac77ef2f0cb1db440434d165d448b8536,2008-08-25T20:18:12+00:00
JSPWIKI-236,da73ca4aa276471ed301d338bcba4831031cd403,2008-05-20T19:58:45+00:00
JSPWIKI-468,062dadb3467fd4685ede4f48befff5fd9ee902b4,2009-01-13T17:52:04+00:00
JSPWIKI-348,11340de5a5a7948e8e3c0796be4f0f089e30c974,2008-09-03T20:06:01+00:00
JSPWIKI-348,99f7971b3d9cf0dec304ca4e58b4af6a4cad1aa9,2008-09-03T19:45:34+00:00
JSPWIKI-227,6cd0a45b433b7179b14dbff1f56a5f561a5785ac,2008-04-04T22:41:24+00:00
JSPWIKI-228,fa61f098b1c102e01bc5c3e09a4bb47a7b5dad5c,2008-06-09T20:02:09+00:00
JSPWIKI-228,a7cd6dad24a827c854812de74a9a8da7347e4b7a,2008-06-09T20:01:12+00:00
JSPWIKI-1042,2e3da23a887548876fa7f61303efaf1fa15fc333,2017-01-14T13:21:21+01:00
JSPWIKI-900,5c83c10525492204fa2acdab4e7525fac5a1f3b7,2015-08-04T13:13:00+00:00
JSPWIKI-900,b34ca4938c6e4fbc9d0c7ba6f8eb1c12e00657d0,2015-08-04T13:08:39+00:00
JSPWIKI-108,95aa59eea9a53802857b30cba11cd84f6228709c,2008-01-05T21:08:16+00:00
JSPWIKI-1043,2e3da23a887548876fa7f61303efaf1fa15fc333,2017-01-14T13:21:21+01:00
JSPWIKI-901,9fddd644dabc5b64d1bc50c4eee6185f15a392a4,2016-03-27T19:24:42+00:00
JSPWIKI-1044,64ffe2e49dce1bf85692d64a5b342cd2e8ac26ab,2017-03-05T14:06:34+01:00
JSPWIKI-1045,af2067a84bfc05a9f22eeca2c27560b53bd65cc6,2017-01-15T15:56:58+01:00
JSPWIKI-1046,f183523d9bf23ba2fe3c7be0c23a3f8436d7f4bc,2017-01-21T13:27:43+01:00
JSPWIKI-1047,a5d15c6954a02948d8a6c08e519800c47f4c2718,2017-01-21T17:12:15+01:00
JSPWIKI-907,79b46aa45e3e780adcbbadfcb7a3638fa689e0c1,2015-08-14T19:29:20+00:00
JSPWIKI-907,ec999ef9cab5415c1dcd1f32471ad8c2f3ec6d37,2015-08-14T18:50:29+00:00
JSPWIKI-907,968dfead1eecbf00f0d1f54610e0ed7db6d4a3de,2015-08-13T20:07:18+00:00
JSPWIKI-907,2ce946deb08e5f2a5fcaebaba67fa7ff3c55607b,2015-08-13T19:02:32+00:00
JSPWIKI-481,a0ecccad4da8459b53f49f4443ad838d7489d152,2009-08-19T06:49:45+00:00
JSPWIKI-482,42feeeefb30888d3826a01cb09b82a7bcff58221,2015-06-22T20:11:42+00:00
JSPWIKI-482,624d4190a6801a0b5c6fbc17efb4dd3bfdea597f,2014-03-02T18:27:50+00:00
JSPWIKI-62,4cb8911dd05a806ec0c9cdbc2477ec00e4ccd3cd,2007-12-11T21:02:01+00:00
JSPWIKI-364,105526809b75a1abf34d1dcce3f365d36535d22a,2008-08-31T11:44:38+00:00
JSPWIKI-487,97858e26b4eed2c49b0166bd21ed4f0fcd332eda,2009-03-29T13:00:24+00:00
JSPWIKI-366,386525dee2ece9addb69de142b9baffe90e165fb,2008-08-31T18:55:47+00:00
JSPWIKI-65,9806a280a8173492091b697e73eecbaf079f6dce,2007-12-05T21:27:37+00:00
JSPWIKI-368,72e58a9eab000d1a31396ad5b3ac1182dc3ac960,2008-09-24T10:09:51+00:00
JSPWIKI-1050,3dcd27654fa89cd9ef198e38c412827e666715eb,2017-02-04T16:36:31+01:00
JSPWIKI-358,a83ca46ac77ef2f0cb1db440434d165d448b8536,2008-08-25T20:18:12+00:00
JSPWIKI-116,1e3329514207242e1fc77a86281ce43739b5f4b5,2007-12-28T15:47:59+00:00
JSPWIKI-1051,ea5a5b7674aaa0474d31cff803cb6962ddde3d05,2017-03-03T19:54:34+01:00
JSPWIKI-359,a83ca46ac77ef2f0cb1db440434d165d448b8536,2008-08-25T20:18:12+00:00
JSPWIKI-238,dc091856765cc361f46e96d21934d1f64589a4bf,2008-08-14T19:58:01+00:00
JSPWIKI-118,860c59dbdb7966fc35a2e1d1612f4be3f2be1eed,2008-01-19T17:36:46+00:00
JSPWIKI-119,aec587170ab75e0b851178031930af62d9a60977,2008-01-05T21:09:32+00:00
JSPWIKI-119,c5886cde54d637a883dbd167b96db0e5be12d31b,2008-01-05T21:08:00+00:00
JSPWIKI-912,af3253d7ffe1c4d9ccbffbd22d951277b0b98b31,2015-08-28T19:24:58+00:00
JSPWIKI-1055,9919c6e2344035702e0e75c3b2be63cd35eb38dc,2017-03-18T17:42:36+01:00
JSPWIKI-916,f2164cd34b91b59ddce2f4e25c2397f25c3213a1,2015-09-19T16:50:56+00:00
JSPWIKI-1059,340aaea503a5643edf4d17d8c0af9fe9453e918a,2017-05-15T18:29:11+02:00
JSPWIKI-370,103b89857c4a5059a99b1bbe299f14cf989befe3,2008-09-03T19:20:59+00:00
JSPWIKI-493,06ca09f8a00cbe5a3d4f0ce8e0aada9a102a2ed5,2011-09-18T13:28:38+00:00
JSPWIKI-30,f28794b0dccc253f7d23cc7efe20d8e89ef11c2c,2008-06-07T21:44:43+00:00
JSPWIKI-373,8d4b2c10177d806fdef553acb0907734dd909736,2008-09-23T21:24:35+00:00
JSPWIKI-132,aede2ebc07da9345f2b84e2163903c3a58a33d12,2008-01-19T17:03:13+00:00
JSPWIKI-133,52de500d6d5123f4d6f63d8c520db7995cd63026,2008-01-19T16:59:29+00:00
JSPWIKI-134,0e51dfaaf6b224e5a512b669ed2c941dd3055aab,2008-01-19T16:57:53+00:00
JSPWIKI-135,878994c3c93ab6da95198f5ecf2df4da320021f9,2008-01-19T16:59:54+00:00
JSPWIKI-33,3bf9af694d29509af3c62dfa8ab99c425ada0598,2007-12-21T04:36:58+00:00
JSPWIKI-136,33805be3332aead5b53492bff655c017b50f4696,2008-01-19T17:01:01+00:00
JSPWIKI-379,b1fad1c4032c2f57b38c6841ca13c1bedb07d5c8,2008-09-21T13:55:18+00:00
JSPWIKI-369,103b89857c4a5059a99b1bbe299f14cf989befe3,2008-09-03T19:20:59+00:00
JSPWIKI-1064,3e3b53cfc71687ec5c5d147f2091e6563da8f2e8,2018-03-25T23:15:31+02:00
JSPWIKI-1064,9315fb2a2cd47b77880d8d052c79afb7b329fec7,2018-01-28T01:47:18+01:00
JSPWIKI-1064,f13a30804bd9ba88a9565c0947f1b3c968867a19,2017-12-16T20:02:45+01:00
JSPWIKI-923,56e93e947abe89dd70fa4e2f0c14b9d27e87bb70,2015-12-09T09:48:04+00:00
JSPWIKI-803,5af027a5d10fce0de4cbe587eb43865f12ce9639,2013-11-25T17:40:32+00:00
JSPWIKI-1067,28489c5c43a8cfa74fc4aa1ac669daa9b67d37b5,2018-03-30T22:20:05+02:00
JSPWIKI-1068,1336c7179b5268bd36f0ba9832ab6f1b5d5c4239,2018-04-22T21:36:13+02:00
JSPWIKI-1068,43b6f2c9b87c4636efbf48a706a5bf4903f69e71,2018-03-31T16:10:42+02:00
JSPWIKI-1069,9de699a366c419549edb0c8020a39db27dbc8e3b,2018-04-11T22:00:10+02:00
JSPWIKI-807,297ad9f3a2650cba3313f2344f09912b8226d187,2013-12-28T12:35:01+00:00
JSPWIKI-807,c7e4a8f0864d5d17d15a0a2f7f24e78d6b1acb79,2013-12-21T17:23:43+00:00
JSPWIKI-809,49963aacdd9de6a4abf9a9fcdf9d524d7a677cb0,2013-12-30T15:23:48+00:00
JSPWIKI-809,f18cc67fd5bdc3478f9f63762955f48bc341d133,2013-12-30T15:19:59+00:00
JSPWIKI-809,8fceb38b50e680255161d7182f060741c7817d37,2013-12-30T15:17:55+00:00
JSPWIKI-809,b3d5500be8751f26a9147b549f25b54f7b193df0,2013-12-30T15:16:44+00:00
JSPWIKI-46,49963aacdd9de6a4abf9a9fcdf9d524d7a677cb0,2013-12-30T15:23:48+00:00
JSPWIKI-46,d811f5d6270bef4804f08f69d7c2556cc68012c4,2013-12-30T15:22:22+00:00
JSPWIKI-380,e111870c36a88c2e96b153621f5f4a1998e15ef3,2008-09-29T20:49:25+00:00
JSPWIKI-260,8e71fca12411eb6f87d934a03bdc739ef0778588,2008-05-11T18:27:54+00:00
JSPWIKI-383,a0ecccad4da8459b53f49f4443ad838d7489d152,2009-08-19T06:49:45+00:00
JSPWIKI-263,14868b221a58027131b41e93c398ceefa5919dfe,2008-09-18T08:32:06+00:00
JSPWIKI-385,e111870c36a88c2e96b153621f5f4a1998e15ef3,2008-09-29T20:49:25+00:00
JSPWIKI-386,36deb43b04b3c51830ec93c0c32e791ca15eaca1,2008-10-02T03:43:02+00:00
JSPWIKI-265,f28794b0dccc253f7d23cc7efe20d8e89ef11c2c,2008-06-07T21:44:43+00:00
JSPWIKI-265,6801640c6ca59349d0c5ce307bb9b610b1fad779,2008-05-13T20:29:48+00:00
JSPWIKI-145,984c0184bbe7a71341b5a286a8c3a73fbbcfc89b,2008-06-15T17:39:02+00:00
JSPWIKI-1071,dbbe7f67ad0398e04cb11ad0ce5569a12eb6f911,2018-06-05T22:45:29+02:00
JSPWIKI-259,56aa408f221fc5635171c1951e1f4f08a5ff7dee,2008-06-14T03:10:33+00:00
JSPWIKI-931,0ae2f4214127b5dc5fcac2bb59bcbdaa0ecaa383,2016-03-15T18:18:01+00:00
JSPWIKI-1074,c6766ebe0d6e5483c29d0dcccb3608ff5a8cad2e,2019-02-03T13:30:17+01:00
JSPWIKI-932,df172d74925ee3cadae65ac7f7aa334a77b7eb95,2018-09-17T22:43:10+02:00
JSPWIKI-934,8b0144049126a1256f1daecbf5f2b2a7260b9214,2016-04-06T16:49:22+00:00
JSPWIKI-813,ca8eb9afed0ddc68a34e056fa7c9052878033086,2014-03-03T19:34:58+00:00
JSPWIKI-813,71fc59c856ef0a01698e948f3ee994155bd00811,2014-02-11T23:19:48+00:00
JSPWIKI-813,2c54263cac969797889d8e012ba54756cce6212e,2014-02-11T23:10:10+00:00
JSPWIKI-813,53b111efc4e7254ce396f4c75c1c9f08ce6f70f2,2014-02-09T13:15:15+00:00
JSPWIKI-935,330e1cf6592b616667d95bb8cbb80ca93c9297cf,2016-04-17T13:19:25+00:00
JSPWIKI-814,1b5a0c3c11dd7aea448f966e96aea6fc27ea63d1,2014-04-22T18:24:31+00:00
JSPWIKI-814,539c6495cb2d40eb38b815deb82ed8868d85396b,2014-04-22T18:23:55+00:00
JSPWIKI-936,e635eb75f8c71443aa521ef75e742cf0579dc881,2016-04-17T16:48:16+00:00
JSPWIKI-817,f580850e57ce792e974e151a9758520d114d769a,2014-02-20T00:00:58+00:00
JSPWIKI-817,f3537fbc13370559a03ace0bda46d6b63519c0fc,2014-02-19T23:51:59+00:00
JSPWIKI-817,5200336a55c1f434208c888a1ef51cb805d43ba3,2014-02-08T12:06:47+00:00
JSPWIKI-14,bcce5275ee0216a60d65b6d1c70631af6cba7797,2008-06-09T20:01:48+00:00
JSPWIKI-671,06c5dbf632118db6ce08e3459e6afe1375945858,2010-12-12T12:33:23+00:00
JSPWIKI-674,8ea0b1f91876920ee709507e2d12444316c5b17c,2010-12-05T10:30:29+00:00
JSPWIKI-311,fa5e3b46994a23c4048d0110688fbd85a0f3ec19,2014-06-05T19:34:15+00:00
JSPWIKI-311,e0b0640476cf65eefb54dd1affddcb53a2b6ba55,2014-06-05T19:30:22+00:00
JSPWIKI-11,58af45af7bc09e91ba8920ad74fecb80927c57ae,2007-11-07T21:08:51+00:00
JSPWIKI-796,31930653b449e742df22a858b98024681b7aa15f,2013-08-07T22:53:40+00:00
JSPWIKI-675,8ea0b1f91876920ee709507e2d12444316c5b17c,2010-12-05T10:30:29+00:00
JSPWIKI-312,394e7e04ccb9dc7efcdc3a11284d7fc1bc8b5d2b,2008-08-01T16:51:02+00:00
JSPWIKI-10,aa2f419687c13461a0c01432cf34f2310eb40d50,2008-04-13T20:52:22+00:00
JSPWIKI-313,2a4d28c499f78579ceed2185aa764d8df42e3ad6,2008-10-14T16:08:58+00:00
JSPWIKI-667,8ea0b1f91876920ee709507e2d12444316c5b17c,2010-12-05T10:30:29+00:00
JSPWIKI-306,1d6e6b5bce632d6520e18f78ce9bc2d8bde988ed,2008-08-11T20:48:40+00:00
JSPWIKI-428,405af696c45d2967c336f849c81b019fdbcde2f4,2008-11-15T11:36:41+00:00
JSPWIKI-307,8b8660841918556520d79f2d7c9ac61dae373824,2008-08-16T10:39:47+00:00
JSPWIKI-307,1d6e6b5bce632d6520e18f78ce9bc2d8bde988ed,2008-08-11T20:48:40+00:00
JSPWIKI-309,4a1adb38b8d82f26bfa480a0d1a4a5168813ccbf,2008-08-23T19:19:44+00:00
JSPWIKI-27,e9c60bf867eb0adc1b4c4c4413b65630b8ea2f2c,2008-08-30T16:01:51+00:00
JSPWIKI-27,626201ec52ff3a2b3dca7e442d9cde9c17f79142,2008-08-20T20:17:34+00:00
JSPWIKI-29,af55eccba8847bc77c8705e3f9a1ea84008982f1,2007-11-18T13:31:00+00:00
JSPWIKI-28,e2419451d43de512e0af1ed334cae599af07083a,2007-11-09T19:13:39+00:00
JSPWIKI-683,f1d1f702b6620314cc142adda332d54b249dfc1c,2012-05-02T20:35:10+00:00
JSPWIKI-320,27c9b13ae1df7f97da022d362dd718852d775a0e,2008-08-10T12:05:44+00:00
JSPWIKI-442,9499867ca0413f242a167fe04011ef99f5a2ecb5,2010-05-08T12:12:54+00:00
JSPWIKI-321,fe106ba10c23d349307f39adf16fa5f7cda077de,2008-08-01T17:08:19+00:00
JSPWIKI-564,4e9095475445a3e442989790cf31f70e523ccf70,2009-05-29T19:01:08+00:00
JSPWIKI-565,b56a82f9f53dbf9c5155f0f276c643fc7ddfd469,2009-05-30T17:16:28+00:00
JSPWIKI-444,8c9ab4118b432089ae97a6dd0fda263465148ee0,2008-12-03T19:24:22+00:00
JSPWIKI-799,b110f53d71ba107cc06d09e9ba8835b3fd031e56,2013-08-06T22:08:51+00:00
JSPWIKI-799,f673b34a508f39024b24365ea92b5302bd34b1f7,2013-08-06T22:08:07+00:00
JSPWIKI-799,fa8905ae12a8f0ef75411080977f8e7ba867a0fc,2013-08-05T20:15:50+00:00
JSPWIKI-799,39db6067fd7e0844d3efe4b9c159758c31ed5e78,2013-08-04T22:48:05+00:00
JSPWIKI-799,9463b6d5c6a4f2b7b815a4dfbbc7c2cc134e054a,2013-08-04T21:05:58+00:00
JSPWIKI-799,d3fbda310b7979bdb21736a487a69a492d80924c,2013-08-04T18:36:34+00:00
JSPWIKI-799,c6da3442e1966a969739fe1f1d0fc8a163fc0647,2013-08-04T16:42:03+00:00
JSPWIKI-799,b88068dd1fd6e5f182b8857699b4956c4e3b0187,2013-08-04T16:05:12+00:00
JSPWIKI-799,b7682034e85ca62c1c58ae60b62529321f4f6e16,2013-08-04T15:00:40+00:00
JSPWIKI-799,fba679b2902e47f717429804eaf62ce4db6f4408,2013-08-04T14:38:10+00:00
JSPWIKI-799,d1c1e5276c6158cc7a95ccbcf39c3f7e115fe6aa,2013-08-04T14:12:43+00:00
JSPWIKI-799,5b4402e7b203bcb5636bd11d025b001911a5ad12,2013-08-04T13:30:36+00:00
JSPWIKI-315,7a9ddb4c3ca00c5fa14220f33e47dad8bcfb226e,2008-08-16T10:36:35+00:00
JSPWIKI-315,99b8dd389142efaefb7fd1f80d7c702eef07d132,2008-07-16T23:34:03+00:00
JSPWIKI-316,56506842bbc8e883263d1dfdedc7e79176bfcb19,2008-08-07T03:26:09+00:00
JSPWIKI-316,40438317d8d2a307af2468f48e3d5988d4cbb7e0,2008-08-07T03:25:22+00:00
JSPWIKI-317,1093c237d2b52ef89d54033eb4568674e9cd5b27,2008-07-31T19:50:39+00:00
JSPWIKI-319,4b805ba0f7a96bd7a61cfa2a3e3cd8f09b49eb4c,2008-08-11T19:55:07+00:00
JSPWIKI-691,7e46d6300d419e5e3a1229aba0ce2035fc343262,2011-05-13T07:20:09+00:00
JSPWIKI-570,013864c76c560828b7b4fb710f6d72a34178fb80,2016-02-05T23:35:42+00:00
JSPWIKI-692,eed50d21d96f3713fce3b78d1eb619787efa8566,2011-12-30T13:58:03+00:00
JSPWIKI-693,3908a706d81e8aa4924f927b19854f9d43c7b0c0,2014-02-14T17:24:32+00:00
JSPWIKI-693,bbbcba536b6e1538ed6dd5e9e40548265099ade1,2011-12-30T14:02:28+00:00
JSPWIKI-452,7a24a129ab55caa0ebda308cff3cca39ae571efa,2009-01-03T17:17:18+00:00
JSPWIKI-695,b3b4fa6ad77fbcee372f48c6227cc40ee967cc97,2011-05-13T07:20:56+00:00
JSPWIKI-333,ee7bff0e8c97f98c96706cdd10f107ad9a109350,2008-08-30T18:44:41+00:00
JSPWIKI-333,2a66111bb295ebb6ec78318639994f674e7c2e5d,2008-08-23T20:16:03+00:00
JSPWIKI-333,c5b4c44caa14f8c5ac1b52dfd35191307d9508e4,2008-08-23T18:43:57+00:00
JSPWIKI-333,0a0f5f9f4cded26682e07cfee76d8edc712a1083,2008-08-11T20:35:10+00:00
JSPWIKI-576,a0ecccad4da8459b53f49f4443ad838d7489d152,2009-08-19T06:49:45+00:00
JSPWIKI-334,594393b9af33b275061831d7d2863e8a04e89884,2008-08-12T20:50:20+00:00
JSPWIKI-577,370ea01368f858e294f6146bf9c577645a8b8a6a,2009-08-30T08:34:14+00:00
JSPWIKI-214,4a4bcb5475cc568868447f6656ec558fc45b6165,2008-03-18T16:18:05+00:00
JSPWIKI-688,20c33b2ad545b212bc88a3dc18c7b2db38f67f2d,2011-04-03T16:53:29+00:00
JSPWIKI-689,439fdf3ae9191c888d673af52f2570b80f9ed65a,2011-05-08T15:27:09+00:00
JSPWIKI-447,e83850c92f40b42ad8e1a7eff499ce1b8dfac362,2008-11-30T14:23:12+00:00
JSPWIKI-326,2caf9ecff448a4f366c49c34630d1ad9f60b5e22,2008-07-31T04:28:34+00:00
JSPWIKI-326,d1695b71b2441b3c593cbe0e0f13f03cc2fd7205,2008-07-31T04:28:15+00:00
JSPWIKI-326,ce8237bd26cf478cbb3b1b1193400e88ec6c29cd,2008-07-31T04:27:53+00:00
JSPWIKI-327,51eff8ceb27fb44830ca196c602abd95027741a6,2008-10-01T18:04:37+00:00
JSPWIKI-327,bc9d608a740f447b47ae95c30bc5c044cfde3298,2008-09-30T20:57:34+00:00
JSPWIKI-206,224cfa541781d22b96ec8d94ad5a0ebd65488eae,2008-06-14T03:34:12+00:00
JSPWIKI-206,53052a8060a2af56664df8725b4f62ef417a3990,2008-06-12T20:32:44+00:00
JSPWIKI-329,a83ca46ac77ef2f0cb1db440434d165d448b8536,2008-08-25T20:18:12+00:00
JSPWIKI-329,4a1adb38b8d82f26bfa480a0d1a4a5168813ccbf,2008-08-23T19:19:44+00:00
JSPWIKI-329,88786da527504790564cb9fe7eb04e8dcd7dc2f7,2008-08-12T08:46:19+00:00
JSPWIKI-329,b249486a6300772f30380651839e5ca9df18ecad,2008-08-11T21:07:30+00:00
JSPWIKI-1029,9309818358cca068189c68bf12046bc8392fb718,2016-08-18T19:16:02+00:00
JSPWIKI-580,d261db7a487d5ca2f84e19834351afc011722c7b,2009-08-25T20:03:39+00:00
JSPWIKI-463,3908a706d81e8aa4924f927b19854f9d43c7b0c0,2014-02-14T17:24:32+00:00
JSPWIKI-585,a0ecccad4da8459b53f49f4443ad838d7489d152,2009-08-19T06:49:45+00:00
JSPWIKI-222,d82b305066dc7d398489ead39d344b1a90c33fa6,2008-04-09T19:14:31+00:00
JSPWIKI-101,e190599203dfe84aff81689d923713a13d1005b7,2007-12-16T11:25:12+00:00
JSPWIKI-102,7ff0e70af9815f8e8b14b0f3bdf7949f0d5d0675,2008-01-26T16:59:29+00:00
JSPWIKI-466,9a0f68bee945005ab58470dfa3f6c6d8c52d994b,2009-01-05T20:25:38+00:00
JSPWIKI-345,d66c6d84be2fdfbd1e4b6258a03f6804e6d316b4,2008-11-08T17:57:08+00:00
JSPWIKI-345,be1d2e09406a914704f2733a4c756d81ba01ae58,2008-10-14T04:34:54+00:00
JSPWIKI-346,9c8f01200644bb51ad9b8798d1a17fd025d88743,2008-08-30T09:20:12+00:00
JSPWIKI-225,6cd0a45b433b7179b14dbff1f56a5f561a5785ac,2008-04-04T22:41:24+00:00
JSPWIKI-699,14137ebd473feef6cb1c414a580661d823ed66d8,2011-08-07T17:21:58+00:00
JSPWIKI-215,c37f0b67a2a51caa527e1749d2ec7281b8ae371c,2008-03-18T22:45:50+00:00
JSPWIKI-215,a1aea6e564e428bdd2ebbd740d3d8bc2bc601f04,2008-03-18T19:43:55+00:00
JSPWIKI-337,594393b9af33b275061831d7d2863e8a04e89884,2008-08-12T20:50:20+00:00
JSPWIKI-1031,f832cfff6daca2a8d27283d3696b97a28ff95331,2016-08-25T04:56:08+00:00
JSPWIKI-1032,014dc670790bc3c1e4b5d306efa2b75be2426161,2016-12-13T22:21:13+01:00
JSPWIKI-219,34ddbb54a1ea5a10b9c7d16139ece6ebd83604d6,2008-04-09T18:26:08+00:00
JSPWIKI-1033,1ba57b3ea51e51ad3540395cc7d45f7d0e4ce3e3,2016-12-02T21:06:16+01:00
JSPWIKI-1033,d8ee0a422bf3152153bfcb70e012f761251d8cd8,2016-10-01T11:22:33+02:00
JSPWIKI-1037,4e7810ca81e2c9ee2b420895c902a9a9e21c6b40,2016-12-13T21:53:24+01:00
JSPWIKI-1039,28489c5c43a8cfa74fc4aa1ac669daa9b67d37b5,2018-03-30T22:20:05+02:00
