Bug ID,Bug Fix Commit Hash,Date of Commit
OWB-1084,8303af22503ac75f385174749628b54dd2881512,2015-06-28T20:26:47+00:00
OWB-1083,f2bfd3c63f769404109888d30d47f8d88cab7bbf,2015-06-12T16:06:05+00:00
OWB-1082,534dc01cd50f7066c0e27987dd77616403544f16,2015-06-10T17:41:30+00:00
OWB-914,f6d40c8a52f959990ed973b8f1384107d52bf046,2013-11-13T23:09:18+00:00
OWB-916,1eaba88a51696a047133e53a91db4d1b2cd7705b,2013-11-25T13:35:25+00:00
OWB-916,d10ddd8b1968dc6d6d737019f9a46b9bfbb2beb8,2013-11-25T12:50:19+00:00
OWB-918,2b07b6e41dcf1a9ec5e733c6d7a3992b4a9d5866,2013-12-17T20:33:32+00:00
OWB-917,d1d1598d32915373db69ccf2704a0541df524831,2013-12-18T18:20:42+00:00
OWB-917,2605a0fda9a5169d4c915b7e50a8d7901b82f99c,2013-12-17T22:16:36+00:00
OWB-919,836161c058f9fcfd69ae20363869d3e202f11fb1,2013-12-13T19:33:54+00:00
OWB-910,b2c4e320fbc624410e45170eb61f611b5160c071,2013-11-04T11:33:59+00:00
OWB-912,498c8609a1cdd3f1def85ba251d269f91a8ca424,2013-11-07T11:05:29+00:00
OWB-1194,a301cf5141bcb5c007b1d3264ae8ff637b78df49,2017-06-08T15:16:32+00:00
OWB-1071,ff19dad76cadb5165726b2bb3fb0707c46a33e2d,2015-05-12T07:59:05+00:00
OWB-1071,609f29fa393d3c648db86316cf76fde13e2a53f1,2015-05-11T11:46:10+00:00
OWB-1071,117e8c146b953f7aa8f1246179eb4ceb36169acd,2015-05-10T21:39:59+00:00
OWB-1071,a768a285a4202b7ae2128daeaac53d0560e8101d,2015-05-09T21:08:28+00:00
OWB-902,2732091ad157106dbee6b5a2051230a8f4c16a96,2013-10-02T10:22:49+00:00
OWB-905,639ec7a637f3fde0719b2ff3288efba9422ff2cd,2013-10-26T20:25:15+00:00
OWB-904,1fe14e00eef09489dd05dbfc8f15bc25752666b6,2013-10-11T09:45:54+00:00
OWB-909,ddaca24b8faa16b23d46689a72369965891b7d7f,2013-10-26T20:23:48+00:00
OWB-908,6e4651d70c5c1e4f11f44d8913147b04c6ab5d12,2013-10-25T16:13:55+00:00
OWB-1199,985913f9faf87a8bfb82ce5d2808583cc41ee79b,2017-07-16T10:16:43+00:00
OWB-1199,c24421c0f15967d5527a15b0cc0adc214da65d38,2017-07-15T13:17:58+00:00
OWB-1077,4d5e83faac822cb670e16b1ffc88e24318ac8c39,2015-05-30T19:32:00+00:00
OWB-1077,54dc53d46fce5875887ab2db0fb36a14e4d47e50,2015-05-28T20:38:57+00:00
OWB-1077,a1ddc7a3e1eca2a87308f3d9404ca96686b93f3b,2015-05-28T20:09:26+00:00
OWB-1077,8e0857b9ef1174bec6bc3eb9ace5a2e9edcf8139,2015-05-28T18:12:12+00:00
OWB-1077,155d310cf2fb95e7a8b6eb5c84d77f53121ce44c,2015-05-28T13:55:03+00:00
OWB-1077,2f18d21e4c1250b7abed559c9b03ce69b7146483,2015-05-28T13:51:36+00:00
OWB-1077,cee549e8ae0a781c7bb883481841cf96186a89be,2015-05-28T13:47:41+00:00
OWB-1197,0231799034dabb024016346158a6f89436fb9d29,2017-07-10T10:30:16+00:00
OWB-1076,af51b757c5e1713049c6fd8c62ffd617120fb796,2015-05-27T08:45:19+00:00
OWB-1196,151934559ec6e1fe4ca052d5b5b22d89ccc6767f,2017-07-04T07:01:14+00:00
OWB-1196,c6e33782f67640b455e72f310f0ed693bdb018a9,2017-07-04T06:59:46+00:00
OWB-1196,a3e8f73f2584b4bbceec08bd1f773db6da7198ab,2017-07-04T06:49:07+00:00
OWB-901,824706ac36dadc25d110128584e76e2cd1192ae0,2013-09-19T10:24:37+00:00
OWB-1184,7d21e784effea5acbe160ae7f34c873ae3cd22c9,2017-05-29T12:31:25+00:00
OWB-1183,b0f8a3c7f26921acc0c950be0b5fc55c9fd670fa,2017-05-27T16:11:48+00:00
OWB-1062,8ef06b968f4dcd79b8810685795011ee0a5f6436,2015-04-28T14:25:40+00:00
OWB-1061,775e3c5ba095e32d8cf507124250ea1a8cc00176,2015-05-25T22:28:16+00:00
OWB-1061,b23a2d787b57200822a513729b9b1380c0b88532,2015-04-28T20:03:17+00:00
OWB-938,b0b1c02cf08066e15a7ff40c6fbb568396708055,2014-03-07T18:47:03+00:00
OWB-817,e3a235eba8eb5d8991b97f8fe4ac69eb4da2e82b,2013-04-12T22:32:27+00:00
OWB-939,f162329d090a721167cb8b1f74b162de6fd35955,2014-03-12T22:41:49+00:00
OWB-818,2f0bf37580865cd002ba31e49236a545e8c47be0,2013-04-11T16:34:01+00:00
OWB-1066,d6ff0cad8aa6de104444877ed784d4ee4c73aa30,2015-05-25T10:16:09+00:00
OWB-1065,c80e6c5deda39a98322f67ff42a32226aa0bd2eb,2015-05-22T08:33:05+00:00
OWB-930,cb1344e365b66021604bd82ca54e3a272f92bb3b,2014-02-08T11:51:57+00:00
OWB-1064,eadab257aaaed5c736f4f2eeb45d5f50917ab1f2,2015-05-02T08:57:20+00:00
OWB-1069,5b74e69b960bebffb8ec116f740d75fe419c6c63,2015-05-07T21:03:03+00:00
OWB-934,4241480ed7faa7029d7572649e57254976136f0c,2014-09-04T05:19:35+00:00
OWB-813,9299a77f4346cfebc20cdf83d4c8fbadc1780edd,2013-04-05T12:37:18+00:00
OWB-933,d83c93a6583e5183f7e4c327d42faba97828d1fb,2015-05-27T10:41:42+00:00
OWB-812,f9b70eec5e8be858b4a869c8399b9b17c1347f23,2015-05-26T07:14:50+00:00
OWB-812,0b8444f23ec97ade6c336f92735891e551a14d54,2015-05-26T06:52:38+00:00
OWB-1294,cae8aab1a2978958070d1b6ccd2d042faeb8b5d1,2019-07-11T15:06:45+00:00
OWB-1294,8fdba18f3d5363f2b33f36e46d793659bcf7755b,2019-07-11T14:39:03+00:00
OWB-1294,f0872d8593e40ded90bf3c423dd769facca96fc3,2019-07-11T13:20:14+00:00
OWB-1173,be8b1644a8af7cfef878027fd24f57cd24b73446,2017-03-14T17:10:12+00:00
OWB-1172,dd009b7e4c4b29746cbf96ad9dd8ce3b1f37a8f6,2017-03-13T21:31:16+00:00
OWB-1292,71b04db1c9c6a66a28d681bc44515340424e70c1,2019-06-23T09:10:31+00:00
OWB-1171,dd2df6ffa97606ac9ae1db9c59fb0c69951fccc2,2017-12-06T15:59:13+00:00
OWB-1170,cfb5826f9b5762cf09988320e7b0b4cc9b04415b,2017-01-31T10:14:37+00:00
OWB-924,4e18923b962b82250ee4de0923bfe0912e49903c,2014-01-17T23:56:01+00:00
OWB-929,062708e6abba440f88b287f3480c62ae5bad043d,2014-02-03T10:02:31+00:00
OWB-807,cccac04432e543c74d8c9dfe49651de2d45800c9,2013-03-28T11:50:17+00:00
OWB-1298,eb94a3a27698471b7ebeced33d710b7f7558d131,2019-09-17T12:10:06+02:00
OWB-1298,919c48b50dab4e03300b7133c11cc5c6e50756f4,2019-09-17T11:22:08+02:00
OWB-1177,da9e48870b40784b0643033cd44aa8bdd2ccd78f,2017-04-11T08:50:57+00:00
OWB-1056,c76e9c1d6e68741269a4594184a4d2481ece6e7c,2015-05-28T13:41:40+00:00
OWB-1056,520b0aa1deb1d4791541757f69279d8ba9d13f72,2015-04-20T10:49:08+00:00
OWB-1175,878232dc4ecc1a4b25f5188a332b3a00cb5635f0,2017-04-15T09:37:57+00:00
OWB-1175,f767a2bc3c617bb2fb282ba81ff74053d262a677,2017-04-11T22:30:55+00:00
OWB-1295,c3c15d5f3884cd943fffdb088bafd9a585b2103a,2019-07-22T10:43:52+02:00
OWB-1295,7ff95a235c1a983f40a7c1f87364f52d9ea2d2a6,2019-07-22T10:40:29+02:00
OWB-1295,9006e03f9ef61524918e06f000593abec12a1e96,2019-07-22T10:34:25+02:00
OWB-1059,e17de55c82b0828334597782e38bd322ad6f9dc7,2015-04-26T20:50:54+00:00
OWB-1059,9c92630e17bb55784fd5d9e7860125e72af7f352,2015-04-26T20:13:08+00:00
OWB-920,290225643db17bdddda757d45c8a8db54f3361b9,2013-12-13T21:38:15+00:00
OWB-1179,994d193a492d4ec14b2abf732049f2db9d4a62df,2017-07-09T20:53:13+00:00
OWB-923,04f46894fa87bb1feb7d228517eeaa45d5873ef8,2014-01-12T21:53:36+00:00
OWB-802,2c4f1fc79f292af430e91a9b3d1d32f038e4aae4,2013-05-10T07:38:30+00:00
OWB-922,86445bb5bcc915902f06c560e2f8ff1e8f5f628c,2013-12-31T14:40:45+00:00
OWB-801,c9ac4d43ef7be11ba93672c828a6839f2f921ac0,2013-03-24T21:43:41+00:00
OWB-1162,cb92b6bd40fe0e6c33d0b4a9968cc8bc56669ee5,2016-12-28T10:36:08+00:00
OWB-1041,d37534730d5df0e43bb82789d7447321c0755f58,2015-03-11T13:18:16+00:00
OWB-1040,3d90f11eef62aff62d763fb1ba3985d6827ebbb7,2015-05-05T15:26:36+00:00
OWB-1160,eff95c40f3b4396abfa9afb3f9b6aa28547268f7,2016-12-08T22:31:00+00:00
OWB-1160,13023a9223d90bfb5cde6cc5d58f9cdb38bbded4,2016-12-08T22:30:29+00:00
OWB-1160,a8094929211b8c0a48070bd2f1e733d4ab143156,2016-11-20T21:33:39+00:00
OWB-958,0309da6265a77a65984704c3bc5899d01d90b2f5,2014-06-04T07:49:55+00:00
OWB-837,9c920b81ffd67c5544ddd253cb5d81b0b5cf00ed,2013-04-15T21:05:18+00:00
OWB-957,480eb23106485943c869264f95a298ca8a03a267,2014-05-15T14:21:08+00:00
OWB-957,d8817f348eda8d5128db5c60f53e01f275974dfa,2014-05-15T10:56:07+00:00
OWB-836,1d97183be12cb4f65943421a39f7307bf34dbed8,2013-04-15T16:03:50+00:00
OWB-839,4b3a691eb4e3437ada3ceac0a28bf2abfd8e96c7,2013-04-16T07:12:13+00:00
OWB-718,e6719ea31c9932686130a71cfa23ac1c97497e03,2012-11-08T20:51:48+00:00
OWB-718,24852fbc45543f11c048fbdc15faf1580b18bfe5,2012-11-08T20:50:50+00:00
OWB-838,8c88fdce46140e51c5cefa7aee7b6ffce82c9ad2,2013-04-16T06:55:44+00:00
OWB-719,d1a1211792ceedb6b65a391a4bf07a13a472c3ef,2012-11-13T17:04:55+00:00
OWB-1164,013b4552239e286064cc85ed4e049e6b83803173,2016-12-29T19:30:36+00:00
OWB-1164,78e357474553f04c36c54d67803c6ab0a75f5785,2016-12-29T07:54:54+00:00
OWB-1164,1270a7d92b0dc1b42db755f51d8c0bde01339ad3,2016-12-29T07:50:00+00:00
OWB-1043,713be830d788cf2f8e050c787d4d157e52e1573c,2015-03-18T08:23:00+00:00
OWB-952,4000d0139565c458ec0ea14a55f89c17585481e5,2014-05-01T17:50:32+00:00
OWB-831,b279fae2e25d1c29771e4962261ef8ad9931e954,2013-04-15T07:39:26+00:00
OWB-1163,c25c4c9543a5663e12512f055979aac243ac3a25,2016-12-28T14:28:40+00:00
OWB-1163,22fa44cbd193a6539d57e4e50721e214d62a34b8,2016-12-28T14:23:21+00:00
OWB-1042,9005178c3bdf0447f4432bcbf1badae999aa48b0,2015-03-10T13:10:00+00:00
OWB-833,af2362c5ee2b21363029b65bfff1b7b01acda0cd,2013-04-15T10:08:06+00:00
OWB-1169,da83b8a5013cb7e59ef8853ee4086b75b9afaeb3,2017-04-15T10:02:58+00:00
OWB-832,712ab0b2985779f06e8260c41f28678edf5b4100,2013-04-15T09:08:01+00:00
OWB-711,1db82c741628217d7e4a9bee7954f0f2de522c64,2012-11-05T12:11:39+00:00
OWB-711,e407c197d3ffbb7ade0ab9141cc314c47611cc68,2012-10-13T18:55:08+00:00
OWB-711,5810dd9105353a8bf3e17afb53ee6efba5749af1,2012-10-13T17:11:54+00:00
OWB-711,fbde791a6b8f885ba30070b4eaa99ea94035e8b4,2012-10-13T16:23:26+00:00
OWB-711,246c806a5851c884657f3b88afb155749daa8029,2012-10-13T09:18:24+00:00
OWB-711,733df3d08d960e7d31fda23d1c535e176225598a,2012-10-12T06:21:43+00:00
OWB-711,e1f807c79a6db7e759882c1ab75ec42fa29277da,2012-10-11T20:43:17+00:00
OWB-1047,6be9e3ab1ffa58f143b4d2fa488483db889e786c,2015-04-19T19:04:58+00:00
OWB-956,b17b71805f7934dcf91c49cf2b32c53c1c47ad61,2014-05-14T08:51:53+00:00
OWB-835,ac4f8e869725bff15ca9933b197395259236c8a2,2013-04-15T13:27:17+00:00
OWB-714,39bb8e5999360d6580b57caad550cd5b3d09d043,2012-10-15T18:23:29+00:00
OWB-714,6ad44aeace08825b719550ca44cbdd0b4582593a,2012-10-14T09:54:52+00:00
OWB-1046,9fa84e6d23448bfc13030db9a64386da98ca5c85,2015-04-15T14:10:27+00:00
OWB-1046,9a53218c809092f8955113bf2245e94739c3d027,2015-04-15T12:32:35+00:00
OWB-955,b6a1cc5d60d42ab0b47ed10b74884eebd0115e02,2014-05-19T10:34:04+00:00
OWB-955,941e30f0d745420ecceb9e740e26211dd75526e5,2014-05-12T21:37:47+00:00
OWB-834,af2362c5ee2b21363029b65bfff1b7b01acda0cd,2013-04-15T10:08:06+00:00
OWB-713,4e20c6d382d61a8d5db50ae8ddda18535cc512ba,2012-10-13T18:26:35+00:00
OWB-1150,684608109a0431612df22fea735df9852da1a096,2016-09-23T13:32:22+00:00
OWB-1150,3e3e0746daad967b643962cc8e8d2f2ce55c53bf,2016-09-23T08:50:10+00:00
OWB-1150,a6898930ed6a9ba281296424766c6542c895313e,2016-09-22T21:32:01+00:00
OWB-705,c678be37b0b6300f97eb35d6fa4b2c9eb64a07ec,2012-09-25T17:23:29+00:00
OWB-705,bc18e2e1207afc9ff097e86359510bef5703f791,2012-09-25T13:51:34+00:00
OWB-705,db718d328e0e0130c02a47003910437b6e0a1b5a,2012-09-25T12:10:49+00:00
OWB-705,7c249751352cb8bbdc10da0385183641fa53ff99,2012-09-25T11:58:07+00:00
OWB-705,cee162f1072d5a979934026e77c719cada45baac,2012-09-25T10:51:18+00:00
OWB-705,afec0c6ec12ea811f66cb0964ee4703b111b8093,2012-09-25T09:57:00+00:00
OWB-705,f3aaa61217feff348221965516abba09df3eb83a,2012-09-24T23:04:30+00:00
OWB-705,4280a5d5d470c317351b23d613bf0ebb29d15acc,2012-09-24T22:10:06+00:00
OWB-825,766f02933fbcea8fecdd9e07f4c558c137752b2b,2013-04-12T12:28:39+00:00
OWB-828,04f46894fa87bb1feb7d228517eeaa45d5873ef8,2014-01-12T21:53:36+00:00
OWB-828,2c3dd821a71a01ccdc9dd9011c7c51c5b08f10ce,2013-05-06T17:56:51+00:00
OWB-828,ff7ff9a30c3b0be4ff07ecd534cef2e569a33ea1,2013-04-27T14:45:45+00:00
OWB-828,9734e6fa4f15d9a52e21af698facbdc157e95c34,2013-04-24T12:34:02+00:00
OWB-828,5a5ecfa2cc5b634e94bcc06aa2926eecfe704050,2013-04-23T10:00:48+00:00
OWB-828,8d0303fc96bde864f68a7edc07012f40c2379372,2013-04-18T06:29:41+00:00
OWB-828,563db2861ecf9f9c3a554e6f6e9798cd98a1121a,2013-04-15T21:20:39+00:00
OWB-828,1ca97e8b0f165f30b5c5d81ce0aa3f45dfce90ae,2013-04-15T21:00:50+00:00
OWB-828,7b0b9c26a068279319676a86dffd8fbab730a45c,2013-04-15T07:50:02+00:00
OWB-707,1448765a38d5dbeda81bf08120014f0b53346474,2012-09-25T21:28:14+00:00
OWB-1039,14d45f4b4c8e7b99ac2af1d8b2b06ad935892073,2015-03-14T20:58:32+00:00
OWB-1039,70501e71fc5267dd3c5f665a70929c1fc856f80f,2015-03-04T19:20:47+00:00
OWB-1039,4cd9df315fdbf9fcad862ce9f1f0decc40bbae98,2015-03-04T08:38:18+00:00
OWB-948,8f90945e2a687358d727ece1619705eddda113df,2014-04-28T14:29:22+00:00
OWB-706,a34a20e367b9939778c655b8434417ac02f7062b,2013-12-17T15:39:05+00:00
OWB-706,33f5a6ad1daa77eb2d62663ac893d23ebca7dc5e,2012-09-25T19:41:14+00:00
OWB-709,bf3bda589734f6ba701ae26cae2902a7f214a047,2012-09-25T21:27:04+00:00
OWB-829,42d2af2be31e26ea9f5c6dffded557a5cd6d8395,2013-04-14T22:04:45+00:00
OWB-708,3c858879d07cea6a0570a7e43bfac1bf3f532b67,2012-09-25T21:25:08+00:00
OWB-1276,dbc48c3701353232d2ec142a7f37d625c992bfd4,2018-12-19T08:31:37+00:00
OWB-1275,3e0e6204f4eb66788a5181092937f9d44754f3cb,2018-12-18T06:58:05+00:00
OWB-1154,6b9cbf95bc86f43f57b7fe57e774c3f78b7129b4,2016-09-22T08:49:25+00:00
OWB-1033,62a465cea779f5f9d7bb5924e4dd2c496d612da9,2015-01-23T21:12:16+00:00
OWB-1274,3e0e6204f4eb66788a5181092937f9d44754f3cb,2018-12-18T06:58:05+00:00
OWB-1273,3e0e6204f4eb66788a5181092937f9d44754f3cb,2018-12-18T06:58:05+00:00
OWB-1159,0f972ce625a5958e846f0797f9cfd7f7a8fee10e,2016-10-24T14:26:15+00:00
OWB-822,54491ddd9495e24301d0cf13d003193e342bd2f2,2013-04-12T11:12:51+00:00
OWB-1158,ad4b9c229b9ae6faa29032173d20011d3806c2e4,2016-10-24T14:10:16+00:00
OWB-1157,94e43910fd2de0ef731bdda86dc8bad8876ce53a,2016-10-21T07:12:05+00:00
OWB-1036,6e549538ca6e92f25d7991ef68dec67351decbef,2015-02-13T20:49:42+00:00
OWB-1036,a896177467b68eda2d8586312daa1cc44d061bf1,2015-02-10T14:57:07+00:00
OWB-945,7ad9116dececcd3ee18e59f34487458db7b6b751,2014-04-15T23:10:43+00:00
OWB-945,839e2448a85ba195aa1a337496a40698a4edd725,2014-04-15T23:04:57+00:00
OWB-824,766f02933fbcea8fecdd9e07f4c558c137752b2b,2013-04-12T12:28:39+00:00
OWB-703,d9dd8add50d38e52de97d210de3adce8fd9ea0ad,2012-09-15T17:02:45+00:00
OWB-703,98c0d84affc57a0ac4f6d1e61bfdb3bf52dc5c22,2012-09-15T15:29:58+00:00
OWB-703,041694729b721612b02b148c1d1549a769236579,2012-09-15T15:25:03+00:00
OWB-703,12fd95d7a5e6592736812371e3ebb5a81d3b5431,2012-09-14T14:32:35+00:00
OWB-703,f772f192de6fb92506cfc4fb93f58a420dbfeb01,2012-09-12T17:44:39+00:00
OWB-1035,7ee214dcf0eb020cfc0c648da88a23d8a35fe46c,2015-05-19T20:29:38+00:00
OWB-1035,588fa05faf72973f68732af2f1ac49bdaee80fa4,2015-05-19T12:54:31+00:00
OWB-823,54491ddd9495e24301d0cf13d003193e342bd2f2,2013-04-12T11:12:51+00:00
OWB-981,9017684e7cff1cf6be00cee09e320d18d13ba066,2014-06-29T20:39:51+00:00
OWB-617,ee921f833f778f148a58189e54bbf62e2151d8b6,2011-09-24T10:48:06+00:00
OWB-617,0df99a0f47d77a38e5f4a78375528e94dc25a580,2011-09-24T10:47:31+00:00
OWB-617,90e7786ccb058721a87564a715d17f12c7c266b6,2011-09-23T08:33:54+00:00
OWB-979,bfb40726de24043c7e9bec83bf9590ad2300ce78,2014-06-28T16:58:29+00:00
OWB-858,18c2208999c561da088f3af4061c417b27262a8a,2013-05-12T17:33:03+00:00
OWB-858,fee9c9b62e02140aca143b8eef12f15debedce77,2013-05-11T21:57:16+00:00
OWB-858,fb90fb8bfd5f3296187492373a6115f54c2fa228,2013-05-11T20:48:53+00:00
OWB-858,13dce8e6197bc505b21b3f8d3ff094394eff4acb,2013-05-11T03:20:48+00:00
OWB-858,45a3c5750b5d848b5e65391fb6a7d8d0a861382e,2013-05-11T00:08:19+00:00
OWB-858,157d1852c024e96bf3dbc468fac29fc2f5b81fed,2013-05-10T22:31:04+00:00
OWB-616,856bbe7cba3da55fcedd06bbbb166f19cdbc035b,2011-10-01T18:56:18+00:00
OWB-619,526d8c97e815ecf7e77d46050b20eb3d38470b3c,2011-10-13T18:39:14+00:00
OWB-1149,aa68ae2d674387baab9d23e25eaf1476fcd27617,2016-08-31T20:24:44+00:00
OWB-618,eaf7e9a6bf9e4746b4571be60171e6e5bbe046b2,2011-09-26T21:54:58+00:00
OWB-618,0dcae1548e91da8d6caf7c5f535c170d30914171,2011-09-26T21:45:58+00:00
OWB-1023,472e160a8d0b5594493ee3686d859d8bc7046249,2014-10-08T05:20:13+00:00
OWB-730,03d1b09756de65471bb879f12b8c461d41c6327e,2012-11-26T12:30:20+00:00
OWB-730,2cff7a0aae4b8e6f5d96bbfc885af45b59e03c6c,2012-11-26T12:25:46+00:00
OWB-730,9792e35ce2e16ed1bbe9686f2239ad06553215e8,2012-11-26T12:05:46+00:00
OWB-1264,7a0ecd9e3a4773f4e6a1d08b0e8e607be2c27484,2018-10-16T12:29:37+00:00
OWB-971,7d591a85f5d570f3dc9d8ff9e6dc027bc82188b7,2014-06-15T19:33:59+00:00
OWB-850,f19e435489a4e4f94fa1138c8ecf5e53d594ab39,2013-04-30T06:28:23+00:00
OWB-850,42aa41d72fb34c3f77aa364234b6357317e75954,2013-04-29T20:21:31+00:00
OWB-850,5c96ce2875a6a5e2a43f8c6b0941aeec60e2cf2d,2013-04-29T17:13:20+00:00
OWB-974,80fc7723d6ff4bcd125e72ec4c661987ec848bb6,2014-06-27T20:36:35+00:00
OWB-1269,e6b9f65533e63a8a37c23f38d1f3529f4ae21c7f,2018-11-06T13:12:38+00:00
OWB-976,e0ff745939acd7a067ce1026bdea1c53a3a9eb32,2014-06-27T22:18:40+00:00
OWB-855,c8266dde6d24af4ed055a56c8eb62bb4fb0824b7,2013-05-07T10:02:25+00:00
OWB-975,39f33fb9391a84a9f062fb2f671ade7d8434a259,2014-06-27T20:35:04+00:00
OWB-733,19947d76298c29736e22d6cdc7b1da165e59e3e0,2013-01-20T04:17:49+00:00
OWB-857,6bcee5e02a9316140ae7b9605a489a9499c0c6a3,2013-05-09T19:49:48+00:00
OWB-736,18f5b7f7fba0d182fbcd5966b4f97727c5851725,2012-12-14T14:22:45+00:00
OWB-615,24b8f434b7d2de816435e28b2a7aff47ef350dc8,2011-10-13T13:41:50+00:00
OWB-615,c913654ece45889ced3b5c401b19b3916e463926,2011-10-13T13:31:37+00:00
OWB-615,55e7d71e6ccdf3752fd51739008a834a8a733b07,2011-10-13T11:11:03+00:00
OWB-1024,f6a33e761d868d45a3b8c19cea4f09985ffeb419,2014-11-17T17:10:24+00:00
OWB-856,4db71e5650df0cce1ab7b73905f0474bf0cf8e23,2013-05-09T19:30:06+00:00
OWB-614,69c86edcbf4f6413749e5282d78aecbabc270532,2011-08-31T20:39:50+00:00
OWB-614,c1ddc059c7e1bded1b3fb44b8fcb3a2479974d58,2011-08-31T20:37:55+00:00
OWB-970,eed6e86c464e97e7e67ca3ce014cb035ddf5d6ab,2014-06-15T18:21:33+00:00
OWB-970,d8a8ba855a12485c7ca9dc76828ae582d1a83a42,2014-06-15T18:20:34+00:00
OWB-969,b6c08db35c66162b86a2336b481dcfed5df988a4,2014-06-07T05:31:36+00:00
OWB-969,4e111a99c2b4af43c70a135fea1a50c798ad1926,2014-06-06T22:00:00+00:00
OWB-848,9c6e555bc9e7db48219b054a66443ccaac3a507b,2013-04-29T16:18:24+00:00
OWB-1019,58f3c52a0bcdfe4623854550d27eacf5f1c80a21,2014-10-03T16:42:24+00:00
OWB-968,4130ea3114c275c9899261e47df847270ddd6112,2014-06-06T20:28:54+00:00
OWB-1139,9c2a3ac15e3a2b8bd0fc5a0ed7b90ca1dc03bffd,2016-08-23T06:32:37+00:00
OWB-1018,3e0312a7aea7594ade4c115c2ba3eac5b0e9c697,2014-10-03T08:29:42+00:00
OWB-608,5b951fb5c58ef6d16b3ed5d5be58026b0bb72865,2011-08-28T12:44:48+00:00
OWB-608,2d98ff6448ca0ebc82396ff54c2efd579ae2d376,2011-08-28T12:43:30+00:00
OWB-1017,7ce2501c906299fa06785956a80d725fcd891f18,2014-10-06T20:59:58+00:00
OWB-1017,c3eb96f9d9f133bc0ebc833769673a0ce0c1685c,2014-10-04T08:19:10+00:00
OWB-1017,261b02f5a8ae6d51aaa148289c5b15af8f20df89,2014-10-03T16:03:12+00:00
OWB-849,c2fb4e32c336cc087fb549b93b72cf2a9ff52ea6,2013-04-29T16:45:23+00:00
OWB-849,8a6c074a2a8241d09f0219a836c094f3dddb79b4,2013-04-29T16:44:38+00:00
OWB-849,c7eeeff9264a6b3d1c8a3136826b3bcfad6f4395,2013-04-29T16:32:01+00:00
OWB-728,4209f7f530a9a44f8981d423ebb59d53c97be7fb,2012-11-26T00:29:52+00:00
OWB-1012,caef1ca901e957c2aee56eb1eec9782c6b490084,2014-09-29T08:45:43+00:00
OWB-1012,55f810363646bba3907261ce41fa62881531ed13,2014-09-29T08:35:01+00:00
OWB-961,c4b9ffa22ea4675f303b143572eb35781c031194,2014-06-15T15:44:55+00:00
OWB-961,bf388e719d4eaee2253ac04e9d3df7d9f6932325,2014-06-01T10:53:41+00:00
OWB-961,c92865316feb4599d8b121fbe127ebe3d51c6e32,2014-06-01T07:34:20+00:00
OWB-840,aca14f94774248f0dbf756708e26ef0843d4560f,2013-04-16T07:44:40+00:00
OWB-1011,30e6eb6ba0be5d88786219e4c35d510347d4e09b,2014-09-29T11:36:27+00:00
OWB-960,531b39afd817e8d745dcf52b21e0ec9a06adc9a5,2014-06-01T11:05:42+00:00
OWB-1131,735d05ce4385e2c82875b1e2f27f1678d7a07298,2016-05-10T17:15:13+00:00
OWB-1010,6023303827255a5701859827c03b23711c594b71,2014-09-19T09:37:26+00:00
OWB-842,332c282c7860fa2b64ab0e8322063cbcff2cf59d,2013-04-16T09:28:55+00:00
OWB-600,8d3490992445bcc09f560e0a3b920f821b0b4829,2011-08-09T11:28:37+00:00
OWB-600,63039add717494ad3336c198e61a3f242e5b5fdc,2011-08-02T10:38:00+00:00
OWB-1251,0022b690291486398a2402c1130aa0939754aa61,2018-08-14T12:30:51+00:00
OWB-1130,4b8fcb60732ba7c37425fd3e537dacdc08030eff,2016-05-20T21:00:48+00:00
OWB-962,76140381eccab2cadc05066b81d9d953f7ec9243,2014-05-31T19:00:14+00:00
OWB-841,4c40acfea69d1fdd1617b4e0963163bc96cb661c,2013-05-06T17:22:41+00:00
OWB-720,2e81f3169e7e8f388f69763cb32e3d7eb527c648,2012-11-13T16:25:55+00:00
OWB-1016,61443dd83c2fc6ef4858e996e52e8f0bb16d9c0f,2014-10-02T11:08:37+00:00
OWB-1257,231e4f2046cc2c15c0e0aad692f547207359f894,2018-09-17T16:54:23+00:00
OWB-1136,249001426c9001cbfe7e7f94a8b533d287e72499,2016-07-22T07:34:56+00:00
OWB-1136,d17f0841ceba0057c1edf95dce752d28ebcada79,2016-07-22T07:34:43+00:00
OWB-722,01074984ab55cbbb2773e91a6feba3ccc745d725,2013-04-10T21:30:51+00:00
OWB-722,17a7617c0074eeaf29c55311327880f4ef6837f6,2012-11-19T07:33:04+00:00
OWB-601,52827c82fc2ce9973ec50e352c713d4650ed4d93,2011-08-16T11:13:13+00:00
OWB-601,da84ac0d96d3b42f79a314adf1d1271778e4bc6f,2011-08-12T12:35:10+00:00
OWB-601,ce0f89c07599144c9baa5f68aacba90601c7d874,2011-08-09T14:04:49+00:00
OWB-601,f57dd1dbfc3b080c4e08021143d17b6e4d4893fb,2011-08-08T09:16:37+00:00
OWB-1014,79663c76331fc1fd8d8725b5c605f6ad198b7b7b,2014-09-29T13:13:37+00:00
OWB-725,ec723e2d5974bbe4a81f32be178fbc2454482df6,2012-11-25T20:02:38+00:00
OWB-1013,a635ff597c30e8b1aba3623aa76c908ead4118a2,2014-12-09T14:07:52+00:00
OWB-1013,8afe4108813c933b589201d7d983d44a79c05439,2014-12-09T13:53:41+00:00
OWB-966,70259acd895662b6968ef49a8616e5f2bc60e698,2014-06-06T15:29:19+00:00
OWB-966,90eb0d81bb01941d1695bfafbdafe05b3bcef649,2014-06-06T15:24:22+00:00
OWB-966,85e56ef51c4a54d20a824b38abe84a171ac477f2,2014-06-05T20:20:26+00:00
OWB-845,35bea9e6648b81bd9a5dec1860a65a015314846e,2014-06-15T20:30:22+00:00
OWB-845,22d904c3fe557d6e87b336ef6ac6ab0d83729322,2013-04-23T21:40:35+00:00
OWB-724,c8aca7d033bf3c30dcf8073929495b26f6acbd75,2012-11-22T11:28:57+00:00
OWB-1009,9ddec832b2af597187d659a23085101125e7cea9,2014-09-19T09:32:23+00:00
OWB-1129,7fefd4adacbf32bc18a893c5e1e3ce836a2931cf,2016-04-14T16:55:07+00:00
OWB-1008,29496c3f42172f4554d5864e0cc7597ab2f3b874,2014-09-17T17:20:20+00:00
OWB-1007,46821e01c6f77a1fd65115bcc7a07dc50641d60c,2014-09-16T14:41:43+00:00
OWB-1248,92f94b68ae125d171ac26e6a3cbf26b6a3f54513,2018-07-12T12:40:40+00:00
OWB-1006,38e730860cd8f9129ebf865b4bc5ff92afd082aa,2014-09-15T12:48:05+00:00
OWB-1122,0c41118a281c292ef854e9e07debd7ca900bf6ff,2016-02-24T11:46:02+00:00
OWB-1001,44c48e3f00074cc98a59a8c8e91856e5a07a75dc,2014-09-06T19:13:51+00:00
OWB-1241,a1bef28a1735469b1e8f4dc6038ca39d58d94227,2018-04-21T20:59:25+00:00
OWB-1247,da24eea06f5b1ba6e21699bf1c0d9b9c810aae52,2018-07-02T19:17:41+00:00
OWB-1005,9cb4ddf49fd81c1e0f316705b920a70e69145426,2014-09-12T06:02:56+00:00
OWB-1124,7211608c4d685dc919781c976a2f6df3f7ada066,2016-03-03T12:33:30+00:00
OWB-1124,71d3d31d32ac5f0ca0c016f0bc777ca6a1e5c9e3,2016-03-03T11:18:55+00:00
OWB-1003,4f8006d945d1d7a81c40707786fa0f2d5d8689f1,2014-09-09T18:40:49+00:00
OWB-1003,1b8dc22a8363b2c386e9ec1d6ace4b4fd2dcd9ff,2014-09-09T18:17:54+00:00
OWB-1123,f0ad05f5bc6dd6ef7aaeb83c0713852a6f79d834,2016-08-25T07:11:55+00:00
OWB-1123,18fc03e8c77e13ee878076a1cac2983ca0a5ee5a,2016-07-12T18:36:20+00:00
OWB-1123,1fb40c4552e6d31c0e6e7e721251478c0a0fd12c,2016-06-30T14:01:09+00:00
OWB-1002,aeb5284cb21de6636fc6bcd1cc6a907db271f2ee,2014-09-08T10:58:21+00:00
OWB-199,59e3ecfafbcdc105215e5dd6f6a6d35e2511ca2b,2009-12-17T22:19:38+00:00
OWB-192,6000db4bcdb03a4f72e2cd8be1def597454401d3,2009-12-17T20:56:24+00:00
OWB-1118,45965bf64a7bab414ee389f00311f8f04efac74c,2016-02-11T17:27:42+00:00
OWB-1117,fbfa930b35e7460c455a190bd934c71b59f92550,2016-02-10T09:16:53+00:00
OWB-1116,3bd8b508e5a122646bde0f926a7a200b940be5ca,2016-02-13T11:12:20+00:00
OWB-1116,f98ff294ead9d1f230122086fe9b6e871f4ce3fc,2016-02-11T10:41:43+00:00
OWB-1111,f51330aa9dfe190ddbe9c55c9b3765a9e950346d,2016-01-23T09:52:03+00:00
OWB-1111,ef8950056c8d47a0686453f606637aa1686bf8c9,2016-01-22T20:20:00+00:00
OWB-1231,e95ca9e3102e986455c00eceb0911d28264dc735,2018-02-16T10:38:29+00:00
OWB-1230,de3514466c04d259eb0d150e7f96c0c2a947cd8e,2018-02-11T13:04:52+00:00
OWB-1235,f0800c30d7b9b7370ac7898b40a351ae16101727,2018-04-13T20:25:34+00:00
OWB-1235,9159147b2f612adab2dc2f56216b2f7dd4e960af,2018-04-13T19:40:29+00:00
OWB-1235,1c6caed6a3c6e0480d9380e904a52c6d55869a50,2018-04-13T12:33:09+00:00
OWB-1113,2f9880dbe2072f6e872bb5a6abdd9e682a989923,2016-02-02T21:52:05+00:00
OWB-1233,31810e97cd43068f9f8cf2806d83119a963d051e,2018-04-12T09:46:04+00:00
OWB-1229,a290792f4f7370f8e9646293d3118e171d81725c,2018-02-07T22:32:18+00:00
OWB-1228,6a81ebfb0ac09c4a08d1cf87a41edd566b38e6e6,2018-02-07T10:56:38+00:00
OWB-1226,9f992af3e2bfd7212156db590e0ed51b5c5f41df,2018-02-01T10:45:21+00:00
OWB-1100,e5d71ad0b28d89ecf2273360f3ed9e65d41181ad,2015-11-27T11:52:55+00:00
OWB-1220,a298fe92e0e01c50634bf3e441f28ccfdae0b404,2017-12-06T08:21:14+00:00
OWB-1225,29dd325f1aee6493c973eaddccb07a7ee7d31da0,2018-01-30T23:38:38+00:00
OWB-1224,03ebafd942a955628557d11da669d335d1353c4d,2018-01-30T21:07:20+00:00
OWB-1103,d6d8c45928f8b4ed92ac26a5042891fe468af96a,2016-01-14T07:39:56+00:00
OWB-1103,25c570c905cd722b4d176c23260b50ed016b6e0e,2016-01-11T10:44:21+00:00
OWB-1223,432ced2c015c5a6b4fc404a538d53ee23cba6e6c,2018-01-30T08:19:26+00:00
OWB-1223,56f696e97728532584c367905b3e0d2d35295460,2018-01-29T14:04:55+00:00
OWB-1102,f98ff294ead9d1f230122086fe9b6e871f4ce3fc,2016-02-11T10:41:43+00:00
OWB-1102,2d7ccd2fb0915ee4c7ef28e63196a1bb01d39843,2016-01-08T11:05:02+00:00
OWB-1222,8e6daa153187b672420ed8aa7606a92e0f413274,2017-12-05T20:50:37+00:00
OWB-1215,35cc632137568a87669b24cbab4ed2b3f2dc5021,2017-12-19T21:11:58+00:00
OWB-1215,140e873015e278c1c5cdfe8b88ee9e3b19b9cf7a,2017-12-19T14:37:36+00:00
OWB-1215,26a23603f3f59e4c76dfac3ae00d070c886bcced,2017-12-11T10:28:26+00:00
OWB-1219,5dbaec43a74138085d72dbc4285091fbb7eda833,2017-12-06T12:12:03+00:00
OWB-1210,a5a6a30e103a46174536f07757fbbfc37080ba4e,2017-08-16T14:50:03+00:00
OWB-1210,8beef6d2d5b27dad1e2577a814fdd9da98a8acb7,2017-08-13T22:22:10+00:00
OWB-1210,7376b92fb0ac3b1abebd26de94d6b810592f85ed,2017-08-13T08:59:29+00:00
OWB-1213,5905c8bc4ac4541ee66147d15177c2d4d05456ef,2017-08-16T21:22:05+00:00
OWB-1211,590cc8c60bf22f14c054d3f3d6b045c38d3cc585,2017-08-26T21:41:36+00:00
OWB-79,be33ae834b99faaf0975a70193dfb943456bd61a,2009-02-26T13:16:40+00:00
OWB-78,943647e1fab203031ac2293b76ff90e82023072f,2009-02-17T12:49:57+00:00
OWB-1207,40c91af5a9d78ee0b6a2d3a83f81c6c7fedfe4ca,2017-08-29T07:52:59+00:00
OWB-1205,fb5791dc4415d0ac5737a7db2099eb6b4409ea5b,2017-07-29T18:27:06+00:00
OWB-1204,bf671114b8faa348ea170918b5392ffb2e6b162a,2017-07-23T16:06:28+00:00
OWB-1209,80ad143817a7c2a2c3eece7a5f28f26ccde0ead2,2017-08-26T20:58:52+00:00
OWB-1203,dea335630267faf1d8a2342b6a9996a6aef03ee9,2017-07-19T07:42:46+00:00
OWB-62,fe13269131c21fe55bfbf3790401197fa9c47692,2009-01-27T22:07:40+00:00
OWB-61,103b024092b3fb86d94abad0f0966962f493fe40,2009-01-27T20:14:07+00:00
OWB-94,8592739ae6e981c243eef7b85c7286afc909ebb3,2009-04-22T16:12:58+00:00
OWB-94,fcae7ead0bbf116c105f72bdcb700abdd89e7149,2009-04-22T16:04:47+00:00
OWB-90,15c4738c83cebcf6147fc776416e392df5aafe60,2009-04-19T23:12:12+00:00
OWB-90,8b3b8db0d2c182f1e73658a43d3e19d92ebf5482,2009-04-18T05:43:05+00:00
OWB-85,306f5fc84a6e176e965f49d538c9bf85baf7e0f4,2009-03-23T10:21:07+00:00
OWB-84,667edf0bfabd0f41e207e30818000318b63cb85a,2009-03-13T19:07:25+00:00
OWB-83,e2569033fd23200e3c274c6a9e6aefe4b923fa0e,2009-03-13T19:23:43+00:00
OWB-83,4b889b5affab6cc0ef573d9d75cd28919cc76ed9,2009-03-13T17:51:22+00:00
OWB-83,4f974aecfe3b5f1c119f6e64053afbbe964cd4a9,2009-03-13T07:46:41+00:00
OWB-82,88c9fbbae297f8b9143b3e69d6d00c25d01cfcc2,2009-02-26T16:43:50+00:00
OWB-82,31c07d27e1a34301cbcbdc49b68378cae5c76efd,2009-02-26T16:29:37+00:00
OWB-81,1b40e6936bae41b770879e56d0cd06dd15eb086f,2009-02-26T14:54:47+00:00
OWB-80,3252d2c47494971897462593679250d7eb7f3c0d,2009-02-26T14:49:21+00:00
OWB-480,24745d39317b93445313635d59260624fce9c91e,2010-10-28T08:54:44+00:00
OWB-482,3a0baaa5841f11a8d532bdaee1ae1cf2146d603c,2010-11-01T06:49:03+00:00
OWB-361,3038b04c428a54b54f15801c952fd270e290f702,2010-04-23T21:24:55+00:00
OWB-34,eac3e2e86de166770ec840919dc1e5d1d4291fbb,2009-01-08T20:26:39+00:00
OWB-363,b5d2a24101f06073ed3c277104654f1d8f1279fc,2010-04-28T07:44:51+00:00
OWB-121,8a1f0ceb663ec9411ba291352b9f880c25abbe6e,2009-06-25T20:50:30+00:00
OWB-121,87f61d23b7fba3e38c74519660c75ccf135d604b,2009-06-25T20:48:28+00:00
OWB-33,b421e62ccd2fb0a23fc9a5629d3be49a2e6a1b92,2009-01-08T20:12:00+00:00
OWB-241,12e846ce0d66c7ace160c25051bb63419b82b0cb,2010-01-20T19:03:07+00:00
OWB-486,e8fe23eae809f2b62b5114c52c4c5cb411dc0c6b,2010-11-12T01:35:45+00:00
OWB-486,c1172e8bde0b0905c741a5223b1d936a79d6c02c,2010-10-28T08:40:28+00:00
OWB-244,08c8bb26a6c06410977a3c05ab5438629cb6e3ab,2010-01-30T12:58:21+00:00
OWB-123,208efc71d7e692ef9ffa5ca5671c6696906ca158,2009-07-20T21:37:00+00:00
OWB-123,7fa7069312f84b43601c5dfb0dd655822a13695d,2009-07-20T21:35:40+00:00
OWB-122,4cbf1d876518362e28b7a8c6d4cd3d3de4cfffa6,2009-08-09T20:43:12+00:00
OWB-122,a2388769829d1536d37b5f9b1ab3c23de11e34d5,2009-08-01T23:50:09+00:00
OWB-38,da701c190e6f22c490c1df636d788d474e6a60bc,2009-01-27T22:03:11+00:00
OWB-598,2ac828cc71c811f90586a0f615293647feb73ee4,2011-07-27T22:04:13+00:00
OWB-476,e0728af14563edc8c3ed6fc26dbaed45a726bc23,2010-10-20T14:41:16+00:00
OWB-599,9fc9a3ec8fca6aadca2e9af8dac13d9e939998a2,2011-07-28T09:32:34+00:00
OWB-359,f69de1a077f2c88ac8105b15cbb0ae117a98dd18,2010-04-21T16:14:57+00:00
OWB-590,e2e7990cf5a7a929f254e79c7e93dcd2a70c6e10,2011-07-10T23:10:35+00:00
OWB-471,5de7058194b99044e35b991f29485f5ed8c28cbc,2010-10-12T18:20:19+00:00
OWB-591,d3804375ef4b8f1dbe723ff636aab05fc6ae5970,2011-07-07T03:51:40+00:00
OWB-470,6882f5175497d4547a5177e84004fe3915543440,2010-10-11T14:11:39+00:00
OWB-473,93b80ffb2bc03bc7c78aa1e076f3d238b52fa3f6,2010-11-01T06:42:00+00:00
OWB-352,c84d05d6ba12f8934b2d262c2eca61260c79b395,2010-04-14T19:56:22+00:00
OWB-352,e57c6424b6d98ec8745367dd157d6956c784e09e,2010-04-13T09:07:26+00:00
OWB-231,57e961cc9c74b648bf3db6d5603cb5d610f4324c,2010-05-19T17:49:58+00:00
OWB-593,262e99277595c73df7011811f8cf73a6b5e855a9,2011-07-21T18:09:12+00:00
OWB-593,2f880f96c6323c2e42fbf9251da0948ac88fba50,2011-07-21T18:07:24+00:00
OWB-593,9d6a8421044cf5b4c6aa0e152392c25b53ce9f2c,2011-07-19T15:10:35+00:00
OWB-351,f69de1a077f2c88ac8105b15cbb0ae117a98dd18,2010-04-21T16:14:57+00:00
OWB-351,6cb673364c4623c220a67cf9d6ab82d4072abf38,2010-04-13T06:42:01+00:00
OWB-351,0f28e3c9398b218fef486a7585440a1935a8f44b,2010-04-12T18:20:06+00:00
OWB-351,5f976b76c6e337e3f6df9813ccf8f2ea7ddf3847,2010-04-12T15:50:43+00:00
OWB-351,34161d91bbada0cb9624c0fffe72c5f2b4e0a61a,2010-04-12T14:56:16+00:00
OWB-351,17aa3ae4e4d343aaec6808300ac6070ea41076df,2010-04-12T14:52:42+00:00
OWB-351,a096906912069b333ca8ed4a18fb1e85f58933e4,2010-04-12T11:44:22+00:00
OWB-354,372f9ebb4be5ba697bde28c85169bbff153769b4,2010-04-14T20:44:54+00:00
OWB-233,23120c1f6470eb6bdcbcb56d77c0837128ffe217,2013-01-18T12:46:30+00:00
OWB-233,96b576f20e94f91783cdb7a59eaa7d8b78db2372,2010-01-15T22:02:34+00:00
OWB-595,b0a316819a0d86742440302ace741bac1ea2f271,2011-08-28T17:20:47+00:00
OWB-474,6373bb3797a4b105dfefd3e92819e6c304cf8970,2010-11-29T11:05:03+00:00
OWB-353,a4fbeef833b90f82921fd9114dc2462935dc17a2,2010-04-13T16:30:15+00:00
OWB-232,2fbb6aa0f7bb76786790e1291ba8f8bbf47c0af6,2010-01-15T16:56:58+00:00
OWB-587,0380ea545b9569833763a0e9eb593a09e9487d68,2011-06-19T10:02:59+00:00
OWB-466,34d525365639b4c0feb952068723329cdced9f34,2010-09-30T16:20:23+00:00
OWB-345,3f4a740438d27c01ca9839f7abf2b76595ad5d71,2010-04-07T15:22:56+00:00
OWB-224,432c86c7ed32e6c44c797e7ec23b74bcedd3a966,2010-01-12T17:48:47+00:00
OWB-586,05db18ee6832daad855998f59157d9b8993af6c8,2011-06-21T00:01:49+00:00
OWB-589,a0f1a5373f79badd9544ee63bb9836c520ce4cc5,2011-10-12T13:47:38+00:00
OWB-589,85750dd7e3b70835857334307fa17b935ca75a88,2011-07-10T15:56:03+00:00
OWB-588,1fb6cd184fedce01a2fda3e7ddb3d5ed6e54a5b0,2011-06-22T01:09:03+00:00
OWB-225,7bb5420c4e094be766158737a63ce4ceae8887c8,2010-01-31T14:13:36+00:00
OWB-225,ab71989a4a6ec7fe4a820292bc88c1e0fd6bf9ce,2010-01-12T17:09:44+00:00
OWB-228,b745b424672aac5eb74f4560a8ec195ae39a4d4e,2010-01-12T17:42:38+00:00
OWB-469,540d73495ef5db840b88ae3237ed99757238d439,2010-10-08T19:07:49+00:00
OWB-469,779ff767fdd3f95185e7e0e50532a24c842af7af,2010-10-08T14:28:22+00:00
OWB-381,82d296b5ec6189d1faed1484aa7da46dd762798f,2010-06-02T20:32:16+00:00
OWB-260,8132fc8fbe353dd9b5d765844210ca828f578a8e,2010-02-16T15:35:18+00:00
OWB-380,112685239bb169a541f9e54578b998791465de1c,2010-05-19T18:40:40+00:00
OWB-262,e32e6039ab0813c33efd199d17b7a51ea931c899,2010-02-04T11:29:21+00:00
OWB-382,60c0fecd2c0031860e74a12cac8bf24c2f614b7d,2010-05-20T22:18:29+00:00
OWB-382,6681c189592507690f86212b66ad13de8d378c52,2010-05-20T21:45:26+00:00
OWB-261,e32e6039ab0813c33efd199d17b7a51ea931c899,2010-02-04T11:29:21+00:00
OWB-385,be2e913be5d2545e6c808622048f724e02fb8473,2010-08-12T17:07:16+00:00
OWB-385,80dab102e09a8e350d9a2c16ff8ae579d012c73c,2010-08-06T15:54:13+00:00
OWB-385,1f0bab88f2226d2a3c892c763373f7d88528f605,2010-08-06T15:50:13+00:00
OWB-143,e162805845ea93a42074bab7a8a63c23be74912d,2009-10-21T20:22:54+00:00
OWB-143,bb886092a594a2d9cc5e64b75b2a95c0b67be17e,2009-10-16T22:33:19+00:00
OWB-384,20c3256348e77d61bcf30da8f77bfbd9c36127ab,2010-07-25T17:10:36+00:00
OWB-263,ee91e8aea0f483ef7ef50f8296891b612f06c917,2010-02-10T12:12:12+00:00
OWB-263,689a84dea533ce8296614ac670a899e1f610b9ea,2010-02-04T12:51:25+00:00
OWB-142,2aeb364425836d384692a6f9e64758ced5b69b61,2009-10-15T20:24:32+00:00
OWB-54,a594850a221567a5059f5d951d0a908255d577bc,2009-01-27T21:46:52+00:00
OWB-387,7c1a02dcb01deb8d55e4436a1a7bbbbfe17f8f63,2010-05-27T16:12:18+00:00
OWB-266,d453f43f006ed43732af76889835b0a97ed3f10f,2010-02-16T21:53:17+00:00
OWB-378,c571c8f6c273e277e40f10dc36ef35381f80a553,2010-05-19T16:08:23+00:00
OWB-377,73b61ad276df7fe8776844d7e2e239cb2ec3e6da,2010-05-18T13:02:34+00:00
OWB-377,bf9f91a5612bed054c68798504c0f8ae74f32eae,2010-05-18T13:00:42+00:00
OWB-377,6880815ff91a8af9766b81c23045c27994c27445,2010-05-18T12:46:12+00:00
OWB-377,b8597cdf4983b0f8df444d86363219e08f213c65,2010-05-18T12:35:34+00:00
OWB-258,a90c7aef3fb8f02c10d7c856045616e3cceec9c3,2010-01-31T00:44:30+00:00
OWB-491,703c41f056052f83b47fc45d6c3b1a30b576bad1,2010-11-15T00:40:54+00:00
OWB-370,be874d2b2e1bba90b1092ccea5287a5eeb403440,2010-05-12T23:53:41+00:00
OWB-490,46c2f9ccd244915604791a20eada07dcd5163041,2010-12-20T23:48:55+00:00
OWB-490,12a2c31816b3745a072ae47da2c02677b011106f,2010-12-17T08:06:46+00:00
OWB-490,aabee2b29830ed80528e07c7994ff910709a6657,2010-12-14T18:51:54+00:00
OWB-490,95431d1509d3d15732db4817c9c420e9e67c53db,2010-11-14T08:45:17+00:00
OWB-493,dcf2b5ac3f675e053d6245a1463956a386fe5000,2011-01-09T21:39:12+00:00
OWB-372,9682618176e0d37b31c46dfe48d1d66bbdcc8a31,2010-05-14T04:39:17+00:00
OWB-492,3d85337f60b86017a159f20a3bb3f38a51707217,2010-11-15T20:59:31+00:00
OWB-371,e9d95b612521bd16725c3f18d41b759651b6fcb4,2010-05-18T15:01:19+00:00
OWB-371,81c3f00cf20cf5224ca09fddfdbeaf93bff6460d,2010-05-14T04:16:41+00:00
OWB-374,f30a57fedb3680a8cb0a2c0fc82adb11671b087d,2010-05-17T12:28:07+00:00
OWB-253,4f563c945e44becc6d3c8a042375cb2d7028dfb9,2010-01-26T22:21:44+00:00
OWB-132,f1f9e7a206d7711c9c5a1cc966445bf2bde78a16,2009-08-22T07:55:23+00:00
OWB-132,7c1956377c3d18315196d7690aa12646f6881bb2,2009-08-22T07:24:30+00:00
OWB-373,14cd17174f8ef44925f6948c1dec200a2cc0aad8,2010-05-17T11:25:56+00:00
OWB-252,42986a98efb19b2a7ad9666bc28a3c46bcaa05ac,2010-01-25T22:31:56+00:00
OWB-42,42811b4adf46969610c67e9719fd177b36cc32b4,2009-01-26T08:23:22+00:00
OWB-42,8d0fe090ef7e89b6a965c2a539fc03a7331c4391,2009-01-26T08:13:37+00:00
OWB-496,dbd233985a9473e09eb193faf33ef493fb18f9bd,2011-02-23T18:03:49+00:00
OWB-496,63950034852aba664244e0a8d6ab043173372b8f,2011-01-06T09:42:14+00:00
OWB-496,f7e2638785e59b8913f1629eea7049f67d807966,2010-11-22T07:29:41+00:00
OWB-366,11321cd578252d09bcd78b062fa54f1036dac71f,2010-04-30T18:57:12+00:00
OWB-124,d8ef5bf3acc6adbfe32eca662348344f8147037b,2009-07-25T19:59:21+00:00
OWB-369,44ae138c285e50306bc36ba0b3702b83d1527b6a,2010-07-01T20:51:44+00:00
OWB-369,660c62f746aad595aed87b01c945394b6efac6cc,2010-07-01T13:30:54+00:00
OWB-369,71f647042bf3eebf761dfcb45291100c7b7132eb,2010-07-01T10:45:05+00:00
OWB-369,25df7664d70262102c90c1f92a92fc4f8cb61083,2010-05-13T04:06:16+00:00
OWB-369,54b7272f7c58bb44deb15c669dd3a8854560bd8d,2010-05-11T16:36:39+00:00
OWB-369,e6eee114340dfb5acbe42785e51564e2d3e08435,2010-05-07T20:56:47+00:00
OWB-127,de625708922580fff28003228491aafddd481f8a,2009-12-02T10:48:43+00:00
OWB-127,a5819cc0d7413cd7b40c6ab0120ad318d4662f9f,2009-08-30T15:10:39+00:00
OWB-489,716ec4348394b90740d2b017961f3a78d007aac7,2010-11-11T18:31:20+00:00
OWB-247,8c2fb05a2a2095377388d0e2f1ab85eca72f0fe4,2010-01-22T15:27:26+00:00
OWB-126,a663c326adc155045aeca8f5e18cae369622f6ad,2009-08-09T20:40:43+00:00
OWB-129,3979cace0438e1e909c77e537231f8ee25512724,2009-08-09T22:59:27+00:00
OWB-249,46ea0db12ccd5ec9b83e33453908301ab8cf8d09,2010-01-22T21:17:31+00:00
OWB-128,6bb4299c4ba0ab364b9f7661e7c7517362c9ba46,2009-08-09T21:14:36+00:00
OWB-161,63b8e004635581076574235cbd30d6e9b259bf33,2009-11-10T23:18:11+00:00
OWB-284,60d453f8e39cb26f26a75541b8a0e214803f581c,2010-02-18T18:36:19+00:00
OWB-283,2328c72733cb329ac8f4bc864307528ac6f0847c,2010-02-15T20:36:35+00:00
OWB-165,fb7fec64229cbf9e07c5139eb978035ca5be0d93,2009-11-15T08:50:41+00:00
OWB-285,b24d2b0c6d0705c011c32254e4bf62575a8d5413,2010-02-18T22:58:07+00:00
OWB-285,eb98da5d7848a3dbfa2362c27253cd62d69903de,2010-02-18T22:57:37+00:00
OWB-166,407d6b901b94ffbb54dbd0522f37652a5d3d0c35,2009-11-16T05:43:46+00:00
OWB-158,9c0d71ceef293265d6f6e3921339f0336f7de8f1,2009-12-08T19:46:33+00:00
OWB-157,ac744683e70d44aa66f97e24c3eb5e52ab3624fa,2009-11-03T18:37:07+00:00
OWB-392,a973eb0363bd1399f00e51bdaccc4f73805e6c25,2012-11-25T20:05:57+00:00
OWB-271,d453f43f006ed43732af76889835b0a97ed3f10f,2010-02-16T21:53:17+00:00
OWB-150,cdd0698a24647f36a2fa62d2aa22ed88adc4956e,2009-11-20T23:44:52+00:00
OWB-270,df743ba1cf61b54fa1f9915d69aa9e5aa4456bb7,2010-02-08T11:04:53+00:00
OWB-273,afccb03f91fa0afa16df93a659d11751b542f20a,2012-04-01T11:33:43+00:00
OWB-273,ca5f5a6f62f0d4401e1a16c922a4c5eb81adcec8,2010-02-11T20:58:15+00:00
OWB-152,95fd4840d9facf78ba02b65e3856b20f81bb2f62,2009-10-30T11:52:50+00:00
OWB-272,145204b2b34e02ac8e437123bbba72dcfb997c6a,2010-02-09T18:18:54+00:00
OWB-272,b85a19659b5a4bae1e582bb8f19d3c28479a26ed,2010-02-09T18:11:38+00:00
OWB-151,e27e3066f9ee528c326520b3ab9c1f706c6c222a,2013-01-20T04:22:06+00:00
OWB-151,4c57aaabcf2674d7f41edd76f9c6a8fb2a5471bd,2010-01-09T13:34:35+00:00
OWB-396,5ad7c5f9db0d9b281d13ba8e5a6c50517293cf04,2010-06-14T09:57:06+00:00
OWB-154,b2752d4787c66fb1a6e71ff55201da1ac64bc954,2009-11-22T17:05:57+00:00
OWB-154,667bb65217640a875c38681a7e98f4f5426c9387,2009-11-22T15:45:00+00:00
OWB-154,4efc3cb6b5313ea0554c829d95be02518977af7d,2009-10-30T13:15:25+00:00
OWB-274,4191af391e5ccd623d0aa88985aabd2e64572a92,2010-02-12T23:00:52+00:00
OWB-153,fba62ff95c73fca3c5c2f2598b586a50948ebda2,2009-10-30T12:18:48+00:00
OWB-398,1988f4f41e137470c054f38a5ee3d225604a641e,2010-07-01T09:54:03+00:00
OWB-398,a4365077f7aa17d3ce3c5f34d85bb350430809f3,2010-06-18T00:36:58+00:00
OWB-156,e808927bd826e8a78ba534dd0ece6b747fcce41a,2009-10-30T19:08:45+00:00
OWB-155,bd8c6fb8b473816584b917779e4563f811b4710e,2009-10-30T13:19:45+00:00
OWB-390,d6d563ea01cab6a0cc21533041b912fca99ca2fe,2010-06-04T20:58:14+00:00
OWB-390,5935a9dfbe20ff280076e3bc998693d8498f2bc5,2010-06-04T11:50:30+00:00
OWB-390,0d69e3dfef40bb26bf71b74da4a50cc4a7171182,2010-06-03T22:39:38+00:00
OWB-390,afc0de85340aa7fb53206131b72b0311e9dfd162,2010-06-03T20:11:31+00:00
OWB-147,5877e7c692a93c1441f686672ed947ec75346b11,2009-10-28T07:28:23+00:00
OWB-267,d453f43f006ed43732af76889835b0a97ed3f10f,2010-02-16T21:53:17+00:00
OWB-149,40109dd9fc668038736bf22c80db5aa3554ca3ff,2009-10-28T19:12:15+00:00
OWB-269,a9bea2bf953ccdf980c3fad3d446646d29c09a82,2010-02-08T10:07:38+00:00
OWB-148,ff3aed336048fd6f5190af38c54cfce1d1ae45f9,2009-11-18T22:20:05+00:00
OWB-148,1add2e3ef2ba99ec63a9870bcd2cca54ac030c2b,2009-10-29T08:17:26+00:00
OWB-182,b0aa1b99fbcc9244681404a417d3d1e69b6ae8eb,2009-12-02T09:57:16+00:00
OWB-182,59ca41ae060fc6cebbe4bf27743f9bee453a4414,2009-11-29T23:33:44+00:00
OWB-184,bd7e25e7a743dec49ea39940fa1c21cf66c7b1db,2009-12-03T00:47:59+00:00
OWB-189,f9fd5afbc084905f89181b53d8f767d4ae9a4709,2009-12-15T21:57:06+00:00
OWB-181,01181fcc7c56d226cf0ed5cf80354bde6c8b609e,2009-11-29T22:46:05+00:00
OWB-180,63dbc770294adf9545954d1a10430e8ce454328a,2010-01-15T21:37:23+00:00
OWB-179,1f4ac05cfb634060634f3b6b9e9ea1010ccfbf65,2009-11-29T14:33:18+00:00
OWB-172,a069d8dacc2a594f5a65e7dd0e406ff30bdb292d,2009-11-18T19:23:11+00:00
OWB-292,bdc16cfb2df76fa38d452868d2ef811b3a720a9a,2010-02-19T17:45:53+00:00
OWB-171,b47cc023114c868086f403cdadcc1f718d499c57,2009-12-20T13:20:41+00:00
OWB-171,231c2eb122502f8ebbe9abfde17082b4596fa837,2009-12-20T13:20:19+00:00
OWB-294,58a55fc90405f7bb44b701fd23899fb992cdc7c1,2010-02-21T10:38:21+00:00
OWB-173,ee6f58f03f084289d95cb072b493f3eb3254a629,2009-11-20T17:45:29+00:00
OWB-297,79b10bd4568c18139173bb3e968fd231a5b61c84,2010-02-23T18:21:38+00:00
OWB-176,d356f0df4c08861f0da27d9b571ffa2e9102b654,2009-11-22T12:53:40+00:00
OWB-175,ee6f58f03f084289d95cb072b493f3eb3254a629,2009-11-20T17:45:29+00:00
OWB-299,967ea06f343645bb5904b5437bcc6aab24fdc794,2010-02-23T23:17:38+00:00
OWB-298,01e27905beb49b65da3d0de9ae4ea063a628686b,2010-02-23T21:46:22+00:00
OWB-291,be05e56c4ae83f8b76cbce008cd8fa3d29545eb0,2010-02-19T16:56:39+00:00
OWB-169,52fae3352f62aa0ae632ece1e7bfbb6f01ea88a4,2009-11-16T23:49:42+00:00
OWB-289,82378d66c01ccf809354459cc8ac14911b449c5f,2010-02-24T07:33:40+00:00
OWB-881,2f66f1764adeaf0d7e28cd9fdea2f1aff71d9601,2013-07-17T07:27:44+00:00
OWB-759,5e0e180a055812484797ae208c69d972f63186c8,2013-01-16T16:34:10+00:00
OWB-519,9bd2e663ec4b00b3ad4b7efce034b185b9a040c1,2011-03-23T18:09:17+00:00
OWB-519,cf21ad2a06822e2b758cf5947cc22b54f30035e9,2011-01-19T19:05:03+00:00
OWB-994,723eddc6b5a48b96e5bdebc55c086fd41788ef8a,2014-08-29T19:39:14+00:00
OWB-631,47ff95329b4a321206789b5937c1f7e775b5c572,2011-12-03T00:48:43+00:00
OWB-510,7f8686c8925f637d9dcf6d0770c32d2225f2e6cd,2010-12-30T00:00:50+00:00
OWB-993,6ab0f56f06ac4196bf39a060fae79645f74d8a0d,2014-08-29T09:20:36+00:00
OWB-993,679bd700194c06aea4ae80c468a45c2bc3f04ee2,2014-08-28T07:15:38+00:00
OWB-872,b80c50084554d8cef3e14c5dc37149e9a644499e,2013-09-19T07:11:18+00:00
OWB-751,7fcb556ba9a5a0bb0dbef102b160d697c2038e3c,2013-01-05T18:04:06+00:00
OWB-630,bea5c7af13c86f017938504d61c81d223c3a480b,2011-11-18T21:35:50+00:00
OWB-633,3b1dea27dede8fbe3880557387d93b464a1961f7,2011-12-27T19:51:50+00:00
OWB-995,013fb974b7b82feee18fd41c89cc11063ffccb05,2014-09-05T22:20:41+00:00
OWB-511,cbdeea9af7481098d7ae6582342c7099130c90d6,2011-01-05T15:02:47+00:00
OWB-998,069c7659768170c096f937e4a313a117d7561296,2014-09-12T18:51:37+00:00
OWB-998,491e0fb9fe58c26f92a3cbc3d96680a122d83e5d,2014-09-03T15:29:25+00:00
OWB-998,4da138e12ecf84b51116b5168380e4811542569c,2014-09-03T10:09:19+00:00
OWB-877,bf0142b0a15b141c37ca548369361556c700144b,2013-06-30T22:07:45+00:00
OWB-514,3a908b6ddad724ae259a8d95ccde04860d81afcd,2011-03-21T18:08:43+00:00
OWB-514,6b88abd44f80ad7d349ee0ad64bd18100c6afbc7,2011-02-25T12:29:36+00:00
OWB-514,36dba2f114f35cbcc7f9f08917e3daebf355526b,2011-01-11T11:41:10+00:00
OWB-514,73f848364e4cd68a466287fe9eae32749503ebcb,2011-01-09T14:40:22+00:00
OWB-514,48319c1d0c67f97e3a9405af6b2791d81e9aa35d,2011-01-09T11:26:13+00:00
OWB-514,edbd532ca9422645c9a4b6e9c0700ec53c93e255,2011-01-07T19:36:58+00:00
OWB-514,006c25d46f32827d5c315651b8ae754434a28fa0,2011-01-07T12:38:23+00:00
OWB-997,7181a283cd02762e851187e3acacfc5b08be3656,2014-09-05T17:54:52+00:00
OWB-997,a32720451abc068cfac85a1008d721173d7e4c46,2014-09-04T16:26:36+00:00
OWB-997,e9b2756d470e7c075521dbffba48e256c8427743,2014-09-02T22:05:49+00:00
OWB-997,f92bfef9eebf7cf3d8ecc18b288ae729471dba2f,2014-09-02T21:50:13+00:00
OWB-997,d05d15d8f8d0d1ce93a00806988cede451d4d677,2014-09-02T21:49:14+00:00
OWB-876,e8915e0edab16306ffb952730ab353d46ec9d343,2013-07-05T06:13:18+00:00
OWB-876,da7c11827ab0b36a630033693fe46be473cc629f,2013-06-28T08:14:13+00:00
OWB-876,5cac468927b90a39056ed3c74a1ece9155338f63,2013-06-26T13:43:24+00:00
OWB-876,003be3d16603778b1a7833aa216a61adcbd744fc,2013-06-18T15:30:05+00:00
OWB-876,d8c8f0e64328d463b0c51e6392a3a3857321f1da,2013-06-18T15:14:16+00:00
OWB-876,c7dc1268cb65ac55675af757fa1c7677bf4f4853,2013-06-18T11:21:20+00:00
OWB-876,2cc8ca921a331aed07678749cd55128e43c8c4f2,2013-06-18T09:30:43+00:00
OWB-634,fd5ff0945f9a916cec78f73ecc3f5a74b6c2da4e,2011-12-27T18:30:00+00:00
OWB-634,7786eabc3f15fb10a9e1b7e1f279a1b0dbbbebd4,2011-12-22T23:20:12+00:00
OWB-634,9bba37d736bfd523399fd9383eb17e151bfc1e50,2011-12-15T21:45:58+00:00
OWB-878,134407bbb06c7c809dac39402afebd9507a4228d,2013-07-14T19:08:13+00:00
OWB-878,ba1c2b9cfa8d44f14061b1ee7574d0fdbb5805f3,2013-07-10T22:56:35+00:00
OWB-878,a16b1d5c1a08972370c6459f1dc455cc13f8d9e3,2013-07-10T22:53:25+00:00
OWB-878,79884c46b3cd1251a66267d3f4ddb02153c1cb7e,2013-07-10T22:48:58+00:00
OWB-636,490d240634332309bc5b290729910f5829f132dc,2012-04-02T21:54:18+00:00
OWB-636,0526acaf5de75efa11e55cfb0e7784aea782e196,2012-04-02T21:50:13+00:00
OWB-636,5df143222216cebaa51833b8b2435aed3fcb58bc,2012-04-02T21:20:04+00:00
OWB-515,af6d5d5a3446abe29389934c4440694b780b8a80,2011-12-03T11:26:55+00:00
OWB-992,5231dffd2e74f73852248168d8188d8a83f70ff8,2014-10-07T12:57:35+00:00
OWB-992,f29be6f6981c8c702061ee7fbe2aa9950032ae6a,2014-10-06T12:35:47+00:00
OWB-992,e0cbdb8996e07e871b3bb0634c0e6b7a19e2bbb1,2014-10-04T11:28:07+00:00
OWB-750,6b02b1fa0ad09e18138f6f2d42e8b8cc8998c92b,2013-01-05T17:52:58+00:00
OWB-991,88374e0ae0a03a9b8145faedece1c5099d9f0485,2014-08-25T18:31:09+00:00
OWB-870,2ab227d4e53624e82a55a219ce4d7da63a384f3d,2013-06-10T22:27:29+00:00
OWB-749,ca4ca8dae358d44b2cd9863b36f11b1970e5a63a,2013-01-04T22:39:17+00:00
OWB-749,ac6aa21f869add25c8a612547fe50cf5eb4dd5a5,2013-01-04T22:15:04+00:00
OWB-628,f0c16de9c3b6af6d63757baa0791ab954228bf5c,2012-03-03T01:36:34+00:00
OWB-628,e6a2feb192139eec73e85840ebed70c7bf65a6dd,2012-03-02T23:07:23+00:00
OWB-748,c1adc6777dffa619f3cbe8201506ff0e19678a18,2013-01-12T20:44:40+00:00
OWB-748,a02ce4d581f7418319fe6580f519c7bf003caaed,2013-01-07T11:10:44+00:00
OWB-748,be181e5d2ef545b276eb291df185feacd74562b2,2013-01-05T20:49:07+00:00
OWB-748,ebd288a1e6e15194d8b7537f1b3e79a9f371c841,2013-01-05T18:51:52+00:00
OWB-748,186c059cd13966163d9c41f7f0ae41113d76e2e1,2013-01-05T18:37:12+00:00
OWB-748,4782a87be0549a208bae26722cc7477c086dbd91,2013-01-05T17:52:08+00:00
OWB-748,12e7edfded12c82527eac32b1348aa9dba456940,2013-01-02T23:20:30+00:00
OWB-509,3f466a6afe9a3d78d464384ccadd6b72129b738c,2010-12-27T07:18:56+00:00
OWB-629,1705d3f867d928439cb96ec65b6dbebed11483ba,2011-12-03T00:50:28+00:00
OWB-983,2f8447e528f80db34d2f6a0c51cd20abb88bc8ff,2014-08-05T08:14:40+00:00
OWB-620,d319eed0fcc61e48bc07d156068fb3f7201400b5,2011-10-06T14:07:24+00:00
OWB-620,ec5e5245ee324a6f637287b971e0e46178547a2a,2011-10-06T11:41:35+00:00
OWB-982,1abcf6e778504af8c7245fc85a2a065d473905b1,2014-06-30T15:33:43+00:00
OWB-861,d5b6b857ce03618ff05ae1f7ffe8cd410ddfe500,2013-05-13T08:25:40+00:00
OWB-985,f08190e199f4d46f0f8f80520b7b595a14ab36e8,2014-07-15T17:48:41+00:00
OWB-985,d06853684c3a9be051d901c545a5d886a3bd7322,2014-07-15T17:20:32+00:00
OWB-743,7a55d0e75ed821be5fe0603c9df61c82b4d28706,2012-12-29T10:49:45+00:00
OWB-742,bc7f771633d6257e798db33057cf8b924933a21f,2012-12-28T20:30:44+00:00
OWB-745,d5d764525b2e3e03d40332fc4a041a1f45e963d3,2013-01-07T08:22:01+00:00
OWB-745,f4a4ab362d22cecef7115f074ccb3742e3acd5a2,2013-01-07T08:14:34+00:00
OWB-745,70fb087270ef836c536ff70ae6c647dd7fe3f9e3,2013-01-07T07:40:24+00:00
OWB-745,738ac0e19e4ea40aafea408c2f8b385ce84d2830,2013-01-06T19:38:25+00:00
OWB-745,da053b3489b06fd1fba14bad5563dccf02eac5cd,2013-01-06T19:26:23+00:00
OWB-745,4c9d8d0fa9b3268df137ea3e4715453d6ba84a46,2013-01-06T17:18:10+00:00
OWB-745,75e4ee57d977d63829b0682e3999a5a24feaccc6,2013-01-06T15:46:11+00:00
OWB-745,0316d098ed7268e1c782866597a711543fceb192,2013-01-06T15:07:55+00:00
OWB-745,1e25bad15110854b4bca9ffc6ee5dd898555b86b,2013-01-06T15:00:13+00:00
OWB-745,82c91056e6039c9c10f82a9a37f62aa5831dd716,2013-01-06T14:53:13+00:00
OWB-745,f3626666c5bcae0f46c7a7091ecca2790affc75b,2013-01-06T12:22:18+00:00
OWB-745,bb02ae093f30fdad568393fb2c5d9cbbf0ab8c35,2013-01-06T11:57:33+00:00
OWB-745,c29b4c380ff0d543868db6eb0f194c62b5bed302,2013-01-06T11:49:19+00:00
OWB-745,259964bcb0935dd9a975414b417f2b31a20f6142,2013-01-06T10:32:34+00:00
OWB-745,e54e894ba9c435d194cfc1e1e5be4f57de11b18c,2013-01-06T10:27:40+00:00
OWB-745,8f21f4e56a933b72766ddb80c090217d51dbd74a,2013-01-06T10:16:35+00:00
OWB-745,dbf9183147078a8b3a054b3198b9cbad9cfe0d52,2013-01-06T09:50:45+00:00
OWB-745,8bb7dab3e3c09c9865d25c2fc192aa02ee92bb44,2013-01-06T09:09:46+00:00
OWB-745,d94017813074fd7084d8848b55e2b1761587a0af,2013-01-05T22:11:41+00:00
OWB-745,ea21e56e39dcec1e731123b51a4f77863618ad50,2013-01-05T18:00:21+00:00
OWB-745,2aa7284040e3d9818a6e0d67cf40a1865996824f,2013-01-05T17:27:43+00:00
OWB-745,f40a3dbe5b84dfc03e29d1117871e27e97bb9d04,2013-01-05T16:27:10+00:00
OWB-745,eb349e4fe212c712193ea2d24273871c176c1010,2013-01-05T16:14:16+00:00
OWB-745,6e302b3b658f5ef7a695fb3b355e6658d320d7a7,2013-01-05T16:04:08+00:00
OWB-745,df34dbbf181656cb949aec521d2e488d951979e8,2013-01-05T12:54:44+00:00
OWB-745,78ccfdc5bc7ded2745f2a217904634ee323f6c1e,2013-01-05T11:43:18+00:00
OWB-745,1db70a57a93f724e2b77fd8f4b9712c48775db46,2013-01-05T11:23:29+00:00
OWB-745,24f36240aade9e751e8a20dd1d0bb9dc2ed31884,2013-01-04T18:16:32+00:00
OWB-745,02dd39229619deee1e961d69c0bc5f3a6dc1371d,2013-01-04T18:05:03+00:00
OWB-745,1d6266c8efce9aff5f63db8f29685ca3449f6795,2013-01-04T17:38:40+00:00
OWB-745,396e5afbc44d05ea47bdfb8d5c6279ea1f56604d,2013-01-04T16:27:29+00:00
OWB-745,fbccda16e676314eb0628cd76e6bec6cb852e344,2013-01-04T13:14:03+00:00
OWB-745,41a0ab43776106d90fd04b533d0fdf9274a590d3,2013-01-04T11:46:57+00:00
OWB-745,3766aba2432e2727ca2fe644e362885533d8296c,2013-01-04T11:37:12+00:00
OWB-745,68d36bac9ce14401ade47e83499100a9db206065,2013-01-04T08:10:30+00:00
OWB-745,6ffe20a9726fe5606b8e93f787062a3dfb0d9f70,2013-01-04T07:24:50+00:00
OWB-745,733ff7e620750dd9f9d11ba678d597417c1fc513,2013-01-04T07:09:40+00:00
OWB-624,4743691742b2f331b7ad913e398c80a398e817c8,2011-10-16T13:48:43+00:00
OWB-986,26622325fa5b9a33a9d86ca1b616ffa02a00db14,2014-07-21T12:44:17+00:00
OWB-502,cd672bcc21b5b5590520babf5d23cef42e090cf2,2010-11-30T08:20:03+00:00
OWB-502,37470f68aadcd5f0d328928e713887a883c44adb,2010-11-30T00:43:07+00:00
OWB-989,ff761bfc0ce8c9202ceb144c94756cf968a17c57,2015-05-29T07:36:49+00:00
OWB-989,37424db47587609670c393ddee998f34ac91ee39,2015-05-29T07:35:02+00:00
OWB-989,4640aa29f99646e80b06e852399d1cbf730e1a1a,2015-05-29T07:10:20+00:00
OWB-989,28418ad94c56b7c04b14c1227cc7b6fc13e3dcf6,2015-05-29T07:05:50+00:00
OWB-989,414d3cd9b49bf863c3e77bcfd7b404d3b9ad9446,2015-05-29T06:52:38+00:00
OWB-989,fa0ff1561592b39ff103b37d66c803bb2be4a4a5,2015-05-27T11:29:36+00:00
OWB-989,69ef83927e0a345be13bc3e8ade38f31490d8c7e,2015-05-27T11:20:03+00:00
OWB-989,a46272917d8b4670e8135be981f5fa3242ddced4,2015-05-27T11:15:41+00:00
OWB-989,4e18ad736e884202bf82b9bc8a6d9ff59a81b1ef,2015-05-27T11:08:30+00:00
OWB-989,d881ea504f50b8d7247a5211115a4819d9d2ebd2,2015-05-27T11:06:03+00:00
OWB-989,663d9d03056baa875097886051882a44943f1d40,2015-05-27T11:03:36+00:00
OWB-989,d92ad1bd7626b802bc6723bd9982881a4f906b34,2015-05-27T10:58:23+00:00
OWB-989,187f78e88e267eb6a12b72714af9d47434671a41,2015-05-27T10:55:36+00:00
OWB-989,7473454b320408af90d8d876966534ac522792a5,2015-05-25T17:20:52+00:00
OWB-868,304ff1ad279831ee32abcb5e7fca5a5826f48e1d,2013-12-17T16:25:56+00:00
OWB-747,600877ecb88806bf5bb63d5d52669d75fa7c8811,2013-01-14T07:22:38+00:00
OWB-747,c3dd3698a76a679c374b8c45bb4903f7af8cd473,2013-01-13T23:54:17+00:00
OWB-747,3c503e4c56c243abd314c583594932937822bf90,2013-01-13T23:39:55+00:00
OWB-747,f8efacf54ca2489fbca85627483ffaf0ff8705b1,2013-01-13T22:46:11+00:00
OWB-747,1d512564dc15083e0f0b1d612a57678a99b83a74,2013-01-07T09:12:31+00:00
OWB-747,8e005721ad3585c99430420725e512989c11df5c,2013-01-04T00:11:22+00:00
OWB-505,16e1d0ca61b86603e01d45ca2bd291d7eec85dbc,2011-01-07T00:51:45+00:00
OWB-505,4525b33ec9be43205ea7d5f28bbca231c40b6b9c,2010-12-06T18:19:24+00:00
OWB-988,8babcd22463aec3aa96349d4f8fc75adbe781b2c,2014-08-05T09:24:32+00:00
OWB-625,32382efd8d761d4ff7013623dae96ede74f73f38,2011-10-21T20:22:31+00:00
OWB-504,38dfa650cd75b3652a06d5c1331c4b29498f783d,2010-12-06T18:14:03+00:00
OWB-660,b0274fa9eec902920efb0854bed49c22781c2142,2012-03-29T18:06:46+00:00
OWB-541,773b8437148f751cdf508ad30e33bc19442eece3,2011-03-07T18:10:20+00:00
OWB-420,3aac0c73177965a289316f34ffcfc560297d724d,2010-07-23T11:52:23+00:00
OWB-419,647c0129bd89850f1aa28e025ea880e9c7c9dbfa,2010-07-23T09:58:45+00:00
OWB-419,b08d04e06545bacc47fe812454d6049866cafd19,2010-07-23T01:30:54+00:00
OWB-419,9567cca23d03d72d9149e53b2421c7882e857920,2010-07-23T01:26:53+00:00
OWB-418,bfa3d5f45a9eaea51c58d7ad510d3c150882e59f,2010-07-22T17:04:40+00:00
OWB-418,9e73a5b634face73017f282f8842226f3e72f446,2010-07-22T17:00:57+00:00
OWB-774,66f47a7997f9722353933062514061a9cc770e24,2013-05-21T21:08:16+00:00
OWB-774,ff64c1c4bf55b437530f473cee49fb43d9ea088b,2013-05-21T19:02:31+00:00
OWB-894,8a4ed3b8683fec913dad0233b5a87b5cace9a68d,2013-10-09T14:48:22+00:00
OWB-894,60abeb76ffd69dd428f98d24a6169563f2de2863,2013-10-09T14:44:22+00:00
OWB-894,2bfa9a5fb7d664a3d387d6807f4fc8b3663f5f4d,2013-10-09T14:19:57+00:00
OWB-776,1bebe4f78f167bb931df2b0720910a9d5852dc9d,2013-04-10T21:28:54+00:00
OWB-896,bf05f20b0cd627aeedfef9d6768e3c5d60dcdbf5,2013-09-07T19:10:34+00:00
OWB-896,3b12aefe16219a400ab0e14b7b71f52aefbcbcf5,2013-09-04T20:21:19+00:00
OWB-654,bc91edf4549a8e2e03e5328876d894840b678971,2015-05-31T07:55:14+00:00
OWB-654,66694f3ef937783d2589a4bcc0e17d5116c994f1,2015-05-30T21:27:41+00:00
OWB-533,cd5bb4e35f40f545eb3fcba938afed2c444bced5,2011-02-25T13:42:12+00:00
OWB-778,4f5827db5a511b2ec3ae1454fc08112b3178c55b,2013-02-10T08:32:12+00:00
OWB-415,9ad4de38c00b266efd05fc8dc7abfaa64286aebe,2010-07-22T13:54:29+00:00
OWB-898,378d018eb9efa92e3c7d89b6e20ca02f65a92850,2013-09-11T19:05:50+00:00
OWB-898,f9ee99bce74f2a7649922c831170ea5dda7869e4,2013-09-11T18:08:05+00:00
OWB-777,d2e28ee7dd4ede5913b019e219bcef07c94d4bcf,2013-02-09T22:16:04+00:00
OWB-659,ffaac8675b7e89aee42e92f435f4971c1e2f5fa9,2012-04-02T21:05:28+00:00
OWB-417,d03e52d92d94dcc354fabea38ebdf0720f87f278,2010-07-22T20:06:49+00:00
OWB-658,0cbec1845cad67ce6f29bfda2801367590c38309,2012-04-01T16:30:57+00:00
OWB-658,5dee50765e40d9d8fc043a137e31a60741fcab50,2012-04-01T16:17:27+00:00
OWB-658,089bffb10d9800e0a246f5c88442be0901661655,2012-04-01T14:24:32+00:00
OWB-658,8fbc906047225f3b003cf09b3a0cc08ef327d419,2012-04-01T12:58:41+00:00
OWB-658,afccb03f91fa0afa16df93a659d11751b542f20a,2012-04-01T11:33:43+00:00
OWB-658,4ef3f6cfc9ae47aef151c4ff29c14210ae56373b,2012-04-01T11:03:26+00:00
OWB-658,6976c3695799aff5848348735a76ab851b014464,2012-04-01T10:51:56+00:00
OWB-658,db7f189f86b6fc65e79f5f15f9ff0dd4a1fefc6b,2012-04-01T08:24:21+00:00
OWB-416,d03e52d92d94dcc354fabea38ebdf0720f87f278,2010-07-22T20:06:49+00:00
OWB-891,e50c1aea48eeefaa1f84e452af2b02787c37ad7a,2013-08-11T10:38:12+00:00
OWB-890,a994a0cb4de27e2cc75ba8a1ae96908aaf68af67,2013-08-10T20:53:00+00:00
OWB-893,2be8e27002c9316200ab3fe0012c534d727417d3,2013-09-07T21:06:02+00:00
OWB-893,60d8d78e484bd95f70c09c1139297bd6673d84f1,2013-09-07T18:16:52+00:00
OWB-893,3354d939b66b6b839d61edac810d57a6282f532e,2013-09-04T19:42:14+00:00
OWB-530,ccfd974ad070bd1728188e9c67cc20d262be725b,2011-03-22T18:36:59+00:00
OWB-530,fcdcaed5d3da78bfd13b1b505fe840bcb91b80ed,2011-03-11T21:47:40+00:00
OWB-530,94b95b4eeca8153a3c668a0bf5ad6ba57753a313,2011-03-08T00:07:16+00:00
OWB-530,f43afc83da8ff51309c499c4fa035fd30c5c414d,2011-03-08T00:05:56+00:00
OWB-530,695b22d7330b329186cf022da72c6e8928f195c8,2011-03-07T23:36:47+00:00
OWB-530,4357f8448a0c9173a3a1dea6d71622d65542f502,2011-03-07T23:20:07+00:00
OWB-530,ee12efe2bbd1f5d790c903547d5f9926b8aaa400,2011-03-07T20:36:14+00:00
OWB-530,b90c4b08ac2f8131b8f22629da1d9ba42185236f,2011-03-07T18:21:27+00:00
OWB-530,7527442c8473016e7808bf2bd3f812e50b431389,2011-02-25T12:34:23+00:00
OWB-771,ba40b29b9901a6b022df5ec2934a5a35caa06b71,2013-02-15T15:21:42+00:00
OWB-529,d8cfaf9c3d3ea6eb24dbf180e1c1be0ad54bd8fe,2011-02-24T12:23:40+00:00
OWB-649,a631367f21028d0448d4b9fa288beed8a772d2bc,2012-02-23T21:07:57+00:00
OWB-521,ba29689239ead99c6aad7de6e56160f0f5995874,2011-02-02T22:51:22+00:00
OWB-400,3edb6c52d2a341d2c31aea4059ff30cc24effc12,2010-06-26T06:37:38+00:00
OWB-400,660cde5351987c3136bdc3dc443e299e4338e29b,2010-06-24T12:23:26+00:00
OWB-886,d665cee75495154853dcea61f6c99e46cf693681,2013-07-21T12:40:52+00:00
OWB-644,8ccdb110618d6cf4ee3f6a52dc16d4f8a4ee6476,2012-02-07T14:32:42+00:00
OWB-523,808075cfa05ae2724a20dab76ad1e642dbf3ed30,2011-03-09T18:33:39+00:00
OWB-885,e540d18ceec7b600c11e8f7abeabc6ebc9e8bbc2,2013-07-18T06:50:03+00:00
OWB-764,78bd9d1ea8d6daba6417ccd8768efe3579fd4619,2013-01-20T16:24:49+00:00
OWB-764,9c03a89cc99648ceceabd2b35878b88c37a9cfbe,2013-01-20T16:08:56+00:00
OWB-643,33665c4256f5c2dc6c60086902004269da4bed41,2012-03-09T21:36:59+00:00
OWB-522,da1517e77303594efa6f1a94f7d13472dfa32f6c,2011-02-15T16:58:23+00:00
OWB-888,00d3e587adfa1c0325eb7a1d52ee8a1d47b05f5b,2013-07-24T14:32:04+00:00
OWB-767,16d9fa25774fc3d3d266b37324e6e7580edb8adb,2013-01-24T07:19:21+00:00
OWB-404,2b61297089f7db42a54eedf11fa7e1410f68353f,2010-07-08T20:26:15+00:00
OWB-645,c22e7a19d6a1a53e8d08e9c5d9435038f2dcbb5f,2012-02-16T15:27:34+00:00
OWB-645,17325e7fad4d9a00a9d140fa308dadfa7ea55f7b,2012-02-15T03:58:26+00:00
OWB-524,877ee3efb45bd796c89c9c2c5a0fa47092204cea,2011-03-21T14:57:41+00:00
OWB-769,a7fc1e079f3f4449953a1601a6e4b768217b4ede,2013-01-25T10:27:14+00:00
OWB-648,cdf88920c61e768e7de82e1565131e42dd7b01a3,2012-02-24T22:31:49+00:00
OWB-406,d03e52d92d94dcc354fabea38ebdf0720f87f278,2010-07-22T20:06:49+00:00
OWB-889,711e5e0d2eee777897efdb2b542772cf606b1a36,2013-08-06T14:09:01+00:00
OWB-405,bcf8b9a1ca39d813960064673ea71ce8a151e40b,2010-07-11T10:08:13+00:00
OWB-405,062d4612a335cf7ca94e066d4d1db6b771ed57ec,2010-07-11T00:24:20+00:00
OWB-405,43c3257c86493199b107e2cc46ce16e96c451d37,2010-07-08T21:32:12+00:00
OWB-680,159200af651e631163aaaad2d582500f396afc0a,2012-07-18T18:04:35+00:00
OWB-680,9ec65ddbd96bd45eebb851bd7b3fa2a498a1e287,2012-07-18T17:47:53+00:00
OWB-682,01b7ea3a9efad7f7e1a7ed17210e7ab780ec820d,2012-07-18T19:46:15+00:00
OWB-561,142efaea60b592ced9a22dbceb4e5cc4d4008f6c,2011-04-10T00:14:20+00:00
OWB-440,f385c20033341ffb23f35c76707b685c390288dd,2010-08-16T22:02:17+00:00
OWB-681,111599f8b3d30e07bffbb5bfd635abfe993fc251,2012-07-18T19:27:21+00:00
OWB-681,c4aa788037337a08b2cca7b49127603cd9441dee,2012-07-18T19:18:11+00:00
OWB-681,3c445f53778d20e0b65381879b9678e7a8fe5119,2012-07-18T19:12:10+00:00
OWB-681,94df656259ad25c5e803387bf340450a1eebadbf,2012-07-18T19:09:11+00:00
OWB-681,fb6e15651cf6cfa937224c4772a32b48856848a5,2012-07-18T18:37:44+00:00
OWB-681,9dcc2e0307a7f87d7ce6e0cec7321f56817fc1a6,2012-07-18T18:03:42+00:00
OWB-442,82639f79c2759ce97a4608831886c9cc7f3412a9,2010-08-19T12:50:40+00:00
OWB-200,e9033b6c5f086e43859c7a405cd0a4d3c483d7e9,2009-12-17T23:30:51+00:00
OWB-683,9943387c640f6c4ef0a87ec09380a027d1b613ce,2012-07-18T22:04:36+00:00
OWB-683,eeae4d0e121910395eb48e788973ba7b300e5780,2012-07-18T21:55:23+00:00
OWB-683,867d2b9c8a891aaccc1a1ee94cb1c7c2a3ec42b3,2012-07-18T21:39:39+00:00
OWB-683,b8c0e748778d197351c1518d90955ea0f5a8e427,2012-07-18T20:26:13+00:00
OWB-683,fbc016e8855ab82427c6be559ef048c20ccba88a,2012-07-18T20:21:05+00:00
OWB-683,b6dd1a1e1379d9eb640aeba51157ecb09aa3866c,2012-07-18T20:15:55+00:00
OWB-683,8ec524b491a66b23ef7187b46ee8b2909f747f3d,2012-07-18T20:00:44+00:00
OWB-683,feb1b2d0f4ab9d3fc7cab932fc60b0cca913aa12,2012-07-18T19:53:39+00:00
OWB-675,37bb19fa9a9b7e7fa7a5bd9ca87d769de0237dc1,2012-07-11T14:14:39+00:00
OWB-675,7887a8de2a33d9d5b1a7deeeb3a6d731f01e8334,2012-07-11T09:12:26+00:00
OWB-675,6dc02c3830d6dceced39814f73cffb2c5f1665ff,2012-07-11T09:10:26+00:00
OWB-554,d3cc202cf3277da1c80432d159bb76e1e191f800,2011-04-06T20:57:35+00:00
OWB-312,e82e4eb2e5bbe681a252a147955fc47398bd1536,2010-04-21T19:46:46+00:00
OWB-312,ae1af037ceec7397dc0c2b29f0aa76a5dfa6179f,2010-04-21T19:13:32+00:00
OWB-312,b14fa6f8e209dc0114bdee42cf84c2e0368efe8e,2010-04-21T19:04:33+00:00
OWB-312,da5f05f56b894482e4689b3fb64ed6841fde2b41,2010-04-21T19:01:09+00:00
OWB-312,502d7dd869d11e632112c24961470f034a71f51d,2010-04-21T18:52:16+00:00
OWB-312,5333dd26913f7d2e8f887906a81eaa934b079ae5,2010-04-21T18:47:44+00:00
OWB-311,59568943ff5e21801e54a5b4f2f0cf073b14ecaa,2010-02-26T20:20:17+00:00
OWB-677,20df2220598cfb5a7a5c74c6f57433a115e8da09,2012-07-11T14:17:09+00:00
OWB-677,5fa4c7721ca846d625bae36e188aeffa1621592d,2012-07-11T10:59:01+00:00
OWB-434,c381b4fb97b0f86f79082d798e51716c3def227e,2010-08-09T07:49:52+00:00
OWB-679,41b9bdd3d3a2b664300eb7b3f8493ef40fb26004,2012-07-18T17:41:01+00:00
OWB-558,dbbce278ededdab35ee8185704946536997f9b24,2011-04-06T20:52:33+00:00
OWB-437,81f80316a523de5d1b2a7da8e25481ac5a1fd93a,2010-08-11T22:51:26+00:00
OWB-436,1dc8bf2c1193d1b1ef1de161312b53c27a500a15,2010-08-11T21:14:17+00:00
OWB-436,ea241ecc2dfdf402309f25018524717a3822c946,2010-08-11T21:06:58+00:00
OWB-439,3f23a12fcb152e83ed252190fa660e4119140d31,2010-08-15T20:25:31+00:00
OWB-318,9e7f6362932402ec6a340adbc606c7217ed4dd46,2010-09-10T18:23:44+00:00
OWB-318,e1f40ea4e2e5bd5d808e023b5ece864db4265830,2010-03-08T19:19:31+00:00
OWB-438,a9b244dfa1292c3f7f496dcf29ae55334bab0ca3,2010-08-14T07:37:23+00:00
OWB-317,bc0d8ef279dcff04e796241ace309a505c2a68db,2010-03-04T14:10:21+00:00
OWB-550,0001fdde3b2cc94f8798af8d457eec134b3e1959,2011-03-23T17:10:05+00:00
OWB-791,6b37a9963de3e8ea18a9ed9dafcfd1b7c7e901b5,2013-03-19T10:33:56+00:00
OWB-794,f4bfeaef681e08bab8a36089533b3644e0e4bbd1,2013-03-19T16:32:45+00:00
OWB-794,544327d811ec71b3c8ff85d78c88e92e2582d591,2013-03-19T16:31:34+00:00
OWB-673,283de59dbf39a26772e95a0352ebf24e031fdaa8,2012-07-15T16:01:51+00:00
OWB-673,25f51c34e00f30e5b4dfa45dfc8e8eb0db48c8bb,2012-06-05T09:17:16+00:00
OWB-793,295a4988a6bad83398b17f4a698f1c8aee168d56,2013-03-19T16:20:50+00:00
OWB-672,abd41275eb2a780af1051b737cd3743e6aca8eb1,2012-07-28T10:01:21+00:00
OWB-672,79118b5eeddd2bc53885c13c158601b38c5bcc92,2012-07-28T00:13:40+00:00
OWB-672,26fc42d4828cfedcd15366efa34277cb94f6a8d1,2012-07-15T10:30:32+00:00
OWB-672,9997859926a1d8d9ee263c9e69383e47edcea46c,2012-07-15T10:29:12+00:00
OWB-672,52133c572dcb98679e50efb1a8940764eb358f3f,2012-07-15T10:26:34+00:00
OWB-309,bcf5c476654fe8dced7059e56eff06aa72f5babe,2010-02-26T20:24:03+00:00
OWB-429,a25ea1404ab38cc40bcdccd73da84e0b26e83645,2010-08-15T20:27:35+00:00
OWB-308,6d27f39dc4f2d6d88d9d12c0134b9b7f3d45f0b5,2010-02-26T00:15:05+00:00
OWB-785,78897bc71b0798f14f48ee76b05e28264f139168,2013-02-23T23:32:28+00:00
OWB-664,83c0fe13c7c97e7fc3777a93463cc0703c9d11c0,2012-07-11T15:35:59+00:00
OWB-543,35c72bc9a7ef665fe8233669faf31a6d2c6bf081,2011-03-09T21:13:18+00:00
OWB-543,9c31d198217367ec790b48602cccc07c4e0dd47a,2011-03-09T16:48:59+00:00
OWB-543,2037f5e75d86557ad79d511f364eb3b82cb7c250,2011-03-09T14:31:52+00:00
OWB-422,01f4b1947c120fef76444ea3e1e7a5dd65f2b156,2010-10-11T15:59:54+00:00
OWB-422,c16a9d2f13de96ac68a4820607715979290077db,2010-10-08T18:26:26+00:00
OWB-422,c327ac050ccb8dde31356569a06a62cb7bb03148,2010-10-08T16:18:05+00:00
OWB-422,7267e3ec77a535164df6e4929b9d0b3f94dd3587,2010-10-08T16:03:26+00:00
OWB-422,bc48a0ca5e253f368cc0d49977a96f90fec702e3,2010-10-07T22:12:53+00:00
OWB-422,5d3a734c91e501919771077da450050577369238,2010-09-27T21:14:48+00:00
OWB-422,20c3256348e77d61bcf30da8f77bfbd9c36127ab,2010-07-25T17:10:36+00:00
OWB-663,8c42942484056c8c81d6f23f246f2c3ed3cfcc6a,2012-07-11T15:06:58+00:00
OWB-542,fcdb86d092a79049ff26b32a682a54cfc9b6d745,2011-03-09T18:44:04+00:00
OWB-542,6c7c77f30d2be5297eb298c1bd862f6c94c6e7ac,2011-03-09T11:55:07+00:00
OWB-542,f01b3b1cb04987c79831ab14409f81910c9d819b,2011-03-08T18:12:40+00:00
OWB-421,b30abf40feec33caeacd32b33973ae72166d3183,2010-07-23T17:36:15+00:00
OWB-666,ef5110ee5dabb905be20f5de703f8928ee1b54b8,2012-07-18T17:10:59+00:00
OWB-545,d1474f1d3114cec27fa51f1ab469b4a3c94801cd,2011-03-23T13:00:16+00:00
OWB-545,d40b73fc10d6b4a3c4f129f7954059128da847a1,2011-03-23T11:10:30+00:00
OWB-545,27714e63663834af675df1017eace8fc27b93600,2011-03-22T13:28:07+00:00
OWB-545,1523fc55f147f8b90c64daad38887d407f15e667,2011-03-22T12:55:31+00:00
OWB-545,6f41a8ffb59daabd58f49716cdc605e14190b3f1,2011-03-22T11:58:54+00:00
OWB-545,68dcea5855106b555e8aa104d42654659d239fb1,2011-03-22T10:08:34+00:00
OWB-545,963466b60a61998fea5aa2e0df65541812556d74,2011-03-21T22:39:52+00:00
OWB-545,e9d82375b98ac3de08d5f8d1a31790b6126d5de7,2011-03-21T21:47:17+00:00
OWB-545,5ad6a6d39255ef13c0208dea65cf3d0befcb3bf5,2011-03-15T13:15:06+00:00
OWB-545,85b1ba5de85b2e2b193715d47b7287c04e958f9e,2011-03-15T12:46:47+00:00
OWB-545,95b5ea27d38814907140809af4c48cac17b1e001,2011-03-15T12:40:14+00:00
OWB-545,c060d0cb4f43df23b77f36c6e8f469aa8f30c194,2011-03-15T12:38:36+00:00
OWB-545,13b1d62f8e18b22621d6031fb8116701298f2261,2011-03-15T12:34:23+00:00
OWB-545,718c2392ce4f58820af2e957ec8e5d3982b8f9a7,2011-03-15T11:57:49+00:00
OWB-545,a292290385885e6df772e27926e9673b8cc059a8,2011-03-15T11:56:09+00:00
OWB-545,4d5d9abcc289a7649be552c38b8d7995a99f65a5,2011-03-15T11:33:06+00:00
OWB-545,b158b7f799a2b10c017b95f7d75adc77d5f1b8de,2011-03-15T11:11:15+00:00
OWB-545,96d4048611a7b5a8dcb58a78dfe4c34c17cf21a7,2011-03-15T08:27:37+00:00
OWB-545,10a160a3691e59c136d883b880245f57c683fda5,2011-03-14T22:42:32+00:00
OWB-303,26bbb249cf4c47e04abd222dc8ae5657e08895b5,2010-02-25T10:14:04+00:00
OWB-547,9a11a5f707da5375f64b08a6dc77d27fd751a8c2,2011-03-21T12:31:19+00:00
OWB-547,ff55dfedd624cac07a3349b2f198a32ca519e388,2011-03-21T09:44:17+00:00
OWB-426,c7c021e09d60ae3f6b93919eb1a82159e72c8631,2010-07-26T13:51:01+00:00
OWB-426,772fc35e38ba6a714a1555ca2ee38161cad28013,2010-07-26T12:58:01+00:00
OWB-426,30de40eaf2b675b56259e41ff376a2d64837152f,2010-07-26T08:37:23+00:00
OWB-426,d07c39a4053c02efd9f3bad6f5f1ee4b360b1499,2010-07-26T08:36:50+00:00
OWB-305,d61406238054155b1c59dfb4a82e4aebfaf85eac,2010-02-26T20:29:37+00:00
OWB-788,d70b07df45e55a88cfd8592a5f3268902e84b1ae,2013-03-12T18:12:27+00:00
OWB-788,d9f2e7abb305557e23c6d8934b869a49dac792c4,2013-03-12T14:30:33+00:00
OWB-667,64324f0d3245b3ac7116c5b3526aedb9a8f6b1f2,2012-07-18T11:25:49+00:00
OWB-667,edea3c912216c7513ff87f9c7a2a6dd3c71624ac,2012-07-18T10:08:38+00:00
OWB-546,94cab2c05db706c61b8e1cc331b81011fa6c9912,2011-03-18T22:41:56+00:00
OWB-549,23b1a541c64776c9212d34173a6a34a46cdd3854,2012-12-31T16:21:03+00:00
OWB-549,a0ad97678c844202587dff039a66cd3b9c89590d,2012-12-31T16:12:00+00:00
OWB-549,8cebe3ac517e3ad4a361fddb768e4cf36591ee89,2012-12-31T16:03:50+00:00
OWB-549,62d35a6cc04aa76b5a6d8698260aae0b8a7c544b,2012-12-31T15:37:08+00:00
OWB-549,e11db6c7cc8030dac7f20b88016ca373db56e13b,2012-12-31T15:16:41+00:00
OWB-549,6d6a6522923c767cba1120cf1f56394c186c0460,2012-07-11T15:20:24+00:00
OWB-549,bdeb1d187dc230934cad6669bd6784373c5017ad,2011-07-28T09:29:19+00:00
OWB-549,29ebdc6c209e0e4acd2aecd465af94b561405638,2011-07-25T22:53:25+00:00
OWB-307,f8dc5d277fb0f1331bbbedee8c1daeba647bfb0b,2010-02-27T11:36:38+00:00
OWB-669,1202743f53077b6215d417b7bdc7fcb5ea55d93f,2012-07-11T20:32:03+00:00
OWB-669,ddae96fbf982aa6b4f0ced2468e809cbb798427d,2012-05-22T11:13:17+00:00
OWB-548,ac2342bb92a63ac3bc9f555ac99e1c16e81f377c,2011-03-21T16:49:38+00:00
OWB-306,e9ef0d10559099276670c0e4426984fe0175e674,2013-04-29T18:05:48+00:00
OWB-581,c220ae63a4033728ae2e81eef95c23092c022b41,2011-06-05T21:51:23+00:00
OWB-581,ac5faf96b77621c14c101105da36dea475c2953a,2011-06-04T01:19:58+00:00
OWB-460,0c1c41a5500bc5a12fc4da66b909e27dcc21cdf9,2010-09-28T14:58:19+00:00
OWB-460,9e3bc0248e69cc02ab13ea4f0e14b3a2f86dcf67,2010-09-28T14:23:42+00:00
OWB-580,30a56f186639c764ed1d3480c772fda51a764789,2011-06-22T17:29:42+00:00
OWB-340,bd0bacb6fc0920b200149385f25a539a28ba3b20,2010-03-30T20:13:00+00:00
OWB-464,5e7455262a8a42f19720d4bef24ddb8bc023170a,2010-09-30T06:18:10+00:00
OWB-343,72cd3c2430b9322f3eeee8203d05aaff93ed100d,2010-04-06T14:14:52+00:00
OWB-342,50ee0885c58cb7e11fd238cc5a4c286992678881,2010-04-06T14:03:13+00:00
OWB-697,53f6acfa55534b295344d107b9631b3e2247bd0e,2012-09-03T21:46:26+00:00
OWB-455,672fb000acb9594447a26a0ab9453b930f6772ae,2010-09-19T22:03:46+00:00
OWB-334,516e99055a062005594a9a175d93335441d98188,2010-03-25T20:28:26+00:00
OWB-696,59bdb3429a0fc376cd01f566be262db398d09eca,2012-08-24T09:25:08+00:00
OWB-454,742c22da2f40f925d2d3986dd861938444153cfe,2010-09-19T21:20:48+00:00
OWB-333,c4f57ceb849fd37461fc7945b52daf8da4d4fdec,2010-03-21T17:03:28+00:00
OWB-578,1d38c8cef212708f9d9f8883c8d5f9e31b6e4c13,2011-06-01T02:07:52+00:00
OWB-457,304aace57e1a61c303250b83ec0f662fdb93c3c7,2010-09-27T19:40:20+00:00
OWB-457,51663baed75d79a7c6e42712b7ce298569cc1ba7,2010-09-23T23:09:42+00:00
OWB-336,8456254816f62ee0c96bdbf19c0ec0e2d9569d08,2010-03-25T12:55:14+00:00
OWB-336,25150d123bb8d5d3a9826fadb47c8e454e868d6e,2010-03-25T12:53:54+00:00
OWB-336,039f1b1fdde909a19d4eadbf752f6e236c748719,2010-03-25T12:36:37+00:00
OWB-215,d2c2f55afe853c9dc6eff4281b823b625c103425,2010-01-05T12:19:30+00:00
OWB-698,d85dc2d5e0282df429317d7ae80429c8b72959d7,2012-09-03T21:21:03+00:00
OWB-577,cee7efbaa56d603ea7a5733f016a80b65bab10c5,2011-05-31T10:46:12+00:00
OWB-456,725ffc13433302463eb0b58f34e1582f96cb1e1c,2010-09-28T14:36:44+00:00
OWB-217,2a24b95ab6912ef5e00348920c1d4100e620d7f7,2010-01-05T20:23:28+00:00
OWB-579,ae8c54829b5bc36ee5d7312680ebc0cb7a9d3775,2011-06-20T23:32:39+00:00
OWB-579,7cf897954faf88b06c973563796269c77f6cd674,2011-06-05T21:49:26+00:00
OWB-579,76dca424f7ddcd83a773b42739be6b0256e9c198,2011-06-04T01:10:54+00:00
OWB-579,ec6bc61126595cd235aae1a39ec62d6e11ea219e,2011-06-03T06:46:07+00:00
OWB-579,af1b1778d51d246239d2760200de270d9bd5cae7,2011-06-02T03:15:36+00:00
OWB-337,eb3c731b19c4b231688cb1aee9e2d5e7c84a093c,2010-03-25T17:23:22+00:00
OWB-216,69449af3b8cd72148833c5d1fdd4a6f098a79c60,2010-01-05T17:24:01+00:00
OWB-339,592af6fca8e6d707942b38de993ceb684c2c5d1e,2010-03-28T08:22:09+00:00
OWB-690,b76870e41178b55635b2d9d78736bcac45e7df59,2012-08-04T08:45:50+00:00
OWB-690,b2420c1086b60e273827835d6bc00c3463b8383e,2012-08-03T21:11:02+00:00
OWB-690,045ee673097b17f6ac6a457077d3e7ff2e794c45,2012-08-03T15:00:52+00:00
OWB-690,81214d1b4adbf1ee1f7346ebd5c06f64b0a889b0,2012-08-03T13:26:46+00:00
OWB-690,de489606628d5b0f04fb2cdb57cd83b619ee756a,2012-08-02T21:00:36+00:00
OWB-693,2526acf487af7ffeba5f1ba272d983fb0fb39a82,2012-08-06T02:06:25+00:00
OWB-1095,a6d22d2abf6d6d5a02a14be1367daacca450359d,2015-10-27T10:49:42+00:00
OWB-571,b1d34828459709c76a72b44ef5b1b7e1d5c02f0d,2011-08-29T15:30:34+00:00
OWB-571,3b119c9c8027c0680c95694eca86fdd8cf641ff4,2011-08-29T15:27:19+00:00
OWB-571,67aaf56a6c027e9fd906dfdf2bcd2aa776a3a678,2011-08-29T14:41:30+00:00
OWB-571,d6d3a203f1c947c6d13b6ac687ff9fd1e956ed7e,2011-08-29T14:07:46+00:00
OWB-571,dedcd5b7c73b7090df5ee6aceabfbb797b38996d,2011-08-29T13:37:52+00:00
OWB-571,821ff5190c994fa02310d039476df88dd666b230,2011-08-29T12:36:14+00:00
OWB-571,2aee339616d34793a7400382b5b90f09813d402d,2011-08-29T12:33:26+00:00
OWB-571,4dd9cf73c8e6f55080427fa6a016bd7f5bd84557,2011-08-29T12:31:33+00:00
OWB-571,d94daacf9e0ba479dfb6ff0d8abcc2f9bab62ea9,2011-08-29T10:02:38+00:00
OWB-571,55d3c5d7c309137ae326d9d31959ec5af1ae0eee,2011-08-29T08:46:37+00:00
OWB-571,5c4fac8f03198c5fae1269c3eeaa248fd12db47b,2011-08-29T08:45:23+00:00
OWB-571,8bdcdda791bc435feb798e8eea58813a813bdfa1,2011-08-29T08:44:50+00:00
OWB-571,58c2cc7731221047becb28f1f84e77882f769276,2011-08-29T08:44:18+00:00
OWB-571,180b465316ed716b77692fe643ae7b36295130d2,2011-08-29T08:23:46+00:00
OWB-571,5d44c33321683c890bc5171b18640d8b62b54e04,2011-08-28T16:11:52+00:00
OWB-571,49d4c20028370e845e1d4661686d965985752bc5,2011-08-28T15:59:55+00:00
OWB-450,3ea9c912503d95958063edc3b770c576cb5d2e67,2010-09-13T18:23:59+00:00
OWB-574,24509d753d439db7da71f06737b6718326d62d4b,2011-06-15T00:20:44+00:00
OWB-574,2354afece35e73b3f51e8ee117785f6b7e3ebbb6,2011-06-14T23:55:54+00:00
OWB-574,e3decbfea5d18cba002b8edb6c5ffdb9c56abe66,2011-06-14T23:47:40+00:00
OWB-574,1c798fea0df4a5d91f2ac7d642829fe743f8e0d2,2011-06-14T23:45:55+00:00
OWB-332,14f788aeca2826a6dacb98983774b9e9a3ba66ef,2010-03-19T22:11:51+00:00
OWB-211,003a7803371d415fb30e877ef90b46e28eeaf570,2009-12-28T23:31:32+00:00
OWB-694,30a6b193efae894f651a47f1a7e3cfc343f99f92,2012-09-25T21:45:55+00:00
OWB-573,db6936420daf4170039919ad7d5adfcb564d93f9,2011-07-17T20:48:17+00:00
OWB-573,0380ea545b9569833763a0e9eb593a09e9487d68,2011-06-19T10:02:59+00:00
OWB-573,0011e1c48b46537d11cf3e0ba2e5cc901eaf7cfb,2011-05-28T01:39:23+00:00
OWB-573,ffdbf7d2bdc657adfb0ea2b3384b530a5cf4cfd5,2011-05-24T02:20:09+00:00
OWB-210,feac3b424b9e4f261116f931abbdf2bd28d65718,2009-12-28T18:39:33+00:00
OWB-210,d8c86f03544d68b996880f9ef6902a675e678f06,2009-12-28T18:33:36+00:00
OWB-686,04f20746d46a1fa461cb199b0cce3f5c08107d22,2012-07-19T21:14:03+00:00
OWB-444,da59b4357112d926aad767058784b83086d33008,2010-08-21T14:18:11+00:00
OWB-444,2675901367b3409defdeef87aae8bd5f545b37f6,2010-08-21T13:49:53+00:00
OWB-443,ea3d002b407d2c4ee9b021280c978dea50555c5a,2010-08-19T16:59:40+00:00
OWB-443,1b69e97864f8fd3c0e7ebb65272bf67b85df4640,2010-08-19T13:08:48+00:00
OWB-201,f4d8451dea77a0dafa3284027fbf7a62a4121083,2009-12-19T00:13:32+00:00
OWB-688,9152189e9f88c8fc72f8d17ac2e1596d048b9d3b,2012-07-28T13:04:05+00:00
OWB-567,73ec77ebb66cf06eb36e8a67c89ea6ccd9fed0d0,2012-03-09T20:29:54+00:00
OWB-446,07ac2808ea3c6763644ff19f01bf04c6ed59a0c1,2010-09-21T21:31:41+00:00
OWB-446,29dcb25d2703180fa3046d30474d39e07d893a39,2010-09-06T22:07:27+00:00
OWB-687,d10bb99c39233bf0d4cf9a0dbd9e8d160aaf26cb,2012-07-28T11:49:07+00:00
OWB-687,8a630ef1a2fa16e25b4bffea16bb5a120e23c896,2012-07-28T11:34:13+00:00
OWB-687,99b8c0310cd6c20ecdcf5fa1814fe5b76aef7197,2012-07-28T11:27:23+00:00
OWB-687,6c6538cb20ab12caeaa559779bcb19d0b6fd2e61,2012-07-28T11:24:18+00:00
OWB-566,435e5bc396d5f4270cb0395334a9c138400f9835,2011-04-18T11:56:43+00:00
OWB-566,4eb031a2ba7411631229f6c7cff482b2bcea3468,2011-04-18T11:47:35+00:00
OWB-445,9f1019eb71df2b1052ae5cdd207449b8bf1f28da,2010-09-13T19:06:00+00:00
OWB-445,bb2224c42316c43244ceb5a6ba1f2aa0addae09b,2010-09-06T20:31:15+00:00
OWB-569,de1acc6de7a541f39c1c60bca144927d46e99ffb,2011-05-16T08:59:06+00:00
OWB-206,ccb17eb150b4cfda7ce1f806188703e91409955e,2009-12-21T18:16:10+00:00
OWB-206,1a5b29721ad694495f8fd608ce32fc7db468bb00,2009-12-21T17:42:43+00:00
OWB-206,cb75453559131abd217e8e14910baa45ff54ec26,2009-12-21T17:31:33+00:00
OWB-206,6e5201bc32026083a44e4b80ab75cab75836f208,2009-12-21T16:13:27+00:00
OWB-689,eae43b64146ba34f8293c4833957fdab20a5b5cd,2012-07-28T21:16:26+00:00
OWB-689,64dc1a937bc0c775323efa220e4a8cd5b9748167,2012-07-28T16:12:29+00:00
OWB-689,4626d334a1fd4fb4bc2ae1dd3c43abde6842d865,2012-07-28T16:07:31+00:00
OWB-689,300dfa18df49a2b8c33027442009bea1e2052416,2012-07-28T15:52:37+00:00
OWB-568,52dc2039e6b9231e5ed5f9d3d11f98f7daee7d41,2013-01-08T18:09:31+00:00
OWB-568,334fb11a96203331d7eedc2c150bdb2111793c90,2011-05-19T15:06:35+00:00
OWB-447,07ac2808ea3c6763644ff19f01bf04c6ed59a0c1,2010-09-21T21:31:41+00:00
OWB-329,93d35b73307b13488333a94cd9a139b45efed9dc,2010-04-08T22:54:38+00:00
OWB-329,bc7bc3f34c2ce1d869c536faacea1367ff31ff0d,2010-04-07T20:36:28+00:00
OWB-329,381500234590a82aeafb8c4aab4a754eb35e3919,2010-03-24T18:57:45+00:00
OWB-329,44001060b7c6e31c4d4d2ba58ca0f6746d457225,2010-03-24T18:54:09+00:00
OWB-329,dba36ced46da05bff289f599cbfabd3cfd48cdd5,2010-03-24T18:48:00+00:00
OWB-329,601166c621e32b3a9ff9943269d44fade5ea40db,2010-03-23T16:58:42+00:00
OWB-329,22d17a1a7f17f162eca1ab5e351fe2ee979e4686,2010-03-23T11:30:10+00:00
OWB-329,5ef38646e8dea29e9d803e0f6bfdddf70206820c,2010-03-23T11:10:26+00:00
OWB-329,c174e2c58e2835ec5ddfd0e81d4cd32989d04b40,2010-03-17T20:30:35+00:00
OWB-329,2e987abb20ff4783663916c813ee84ecc19ee509,2010-03-17T20:17:45+00:00
OWB-208,b61f518eff94ebaec23398d3ec641646c621df66,2009-12-28T17:23:30+00:00
OWB-449,d905735bb8d8ebff6ff03279ae05e4a8050c9570,2010-09-07T20:36:43+00:00
OWB-207,88e8434ea21695decbd65b573f23ed36f60c42f4,2010-01-20T13:15:40+00:00
