Bug ID,Bug Fix Commit Hash,Date of Commit
SYNCOPE-1440,8b348db262d4e77285c88df9fe41a93dfabdeb35,2019-03-04T11:55:18+01:00
SYNCOPE-560,36425c3974541f8c4b5a6398e272e55ffc638c3b,2014-10-07T08:35:25+00:00
SYNCOPE-560,b8715c76ae4c59847a59d52faef9b8c2e3be4a4d,2014-10-07T08:34:47+00:00
SYNCOPE-682,f5df7f5cb3f5dfde39c90cbb85fe0971345a8728,2015-07-13T11:57:49+02:00
SYNCOPE-561,1f9af45636a7b2b147d82b9acb374340a9f694ec,2014-10-07T09:40:27+00:00
SYNCOPE-561,e078b845e82a0b3b9a4a91748ca3b6bbadc47cc4,2014-10-07T09:39:34+00:00
SYNCOPE-440,81a069506a0a2607961b4d112575dcf9300aae4b,2013-11-21T10:08:37+00:00
SYNCOPE-440,361b589a9b408c0e1032517d2924c6352cc3b415,2013-11-21T09:51:46+00:00
SYNCOPE-1443,4ce9519705ec1654feff660b4992aac9ad6c90d5,2019-03-04T12:58:36+01:00
SYNCOPE-683,81a66445f1e7db024a602146e9eb51f44752ea64,2015-07-13T12:02:23+02:00
SYNCOPE-562,3400ae9c746b2c6678e9dbfa5bd9ddb509d49dad,2014-10-09T09:49:24+00:00
SYNCOPE-562,2d05ff5bacca2c95463ecf5d0752f94665503b5f,2014-10-09T09:48:42+00:00
SYNCOPE-320,474f4f6ec2fc7177119014dffdc2c6d0b78ce083,2013-02-20T14:44:21+00:00
SYNCOPE-1442,141edff18d7bca4ca681bd0c5bb0fd52f79b7f7a,2019-03-04T08:57:48+01:00
SYNCOPE-1321,f888913d14f8c1dd82d2ef553a07015c77a14770,2018-06-20T14:54:28+02:00
SYNCOPE-684,fe7fa1324dd1ae2815c0161a0c39cfc4e9c8ba97,2015-07-23T10:55:40+02:00
SYNCOPE-684,660b0ce88b22152e816b7c7812eb6e1bdfdc496b,2015-07-23T10:53:04+02:00
SYNCOPE-321,6d4731d943f02d60565a98be1713bfadf9799898,2013-02-21T16:26:16+00:00
SYNCOPE-1320,17830e5aa09660be4949589d2c196670a4d57ff7,2018-06-01T17:22:06+02:00
SYNCOPE-564,7c714f31c2367a899454b21b121377da5a5874cb,2014-10-23T17:58:56+02:00
SYNCOPE-322,15202675bb8f5642b23cc02b647ab4f89382a1a8,2013-02-22T15:43:15+00:00
SYNCOPE-1448,50469a15b51b99e6b1e52a05626f96e0b9ce6cdd,2019-03-25T14:43:27+01:00
SYNCOPE-1206,5295039bb5443114822d288635589f8b24b43609,2017-09-08T15:41:54+02:00
SYNCOPE-1447,2bae7c4f54afa85ef3c4c151ba1106fc986f26c4,2019-03-11T15:56:06+01:00
SYNCOPE-1326,6a9d557545eb9e35910af4cc32668f649b61cdbe,2018-06-22T17:21:54+02:00
SYNCOPE-1205,252285a8c9a0abef28338db22208d0ef79739d77,2017-09-29T14:43:53+02:00
SYNCOPE-1446,480ea47befd1b651b373658960bd0beee9f6a9d7,2019-03-12T12:58:04+01:00
SYNCOPE-1203,faba42e2ff3fb725bd05205e5c8b22930e8af7a1,2017-09-05T10:04:33+02:00
SYNCOPE-1207,220a9464233cd9872ba6763fdf6f4fdf867d2581,2017-09-18T12:42:41+02:00
SYNCOPE-1207,928b90c934a11329e741306b50e83520290b9c80,2017-09-14T18:22:46+02:00
SYNCOPE-686,8338f8fa4586f9f87368772ab060c39cd18352df,2015-08-28T13:00:35+02:00
SYNCOPE-686,054ea9ca212911475b6d8b0bd16011c9f831c980,2015-08-26T16:53:57+02:00
SYNCOPE-686,a1737d35ad33c426e89a48259f0655ba3736ac6c,2015-08-26T16:26:23+02:00
SYNCOPE-565,f7d2058876237027edb5e34b9f2512796448d7cd,2014-10-14T13:14:57+00:00
SYNCOPE-565,8d41124a4a4185d2c1b3c77ac1368e78fc760577,2014-10-14T13:12:40+00:00
SYNCOPE-323,da93d10e824868d652dbbd647253e60e4cf4e07e,2013-02-22T16:31:19+00:00
SYNCOPE-566,05eb51deb03130506f9b96358b6ee564e8d93957,2014-10-16T07:20:10+00:00
SYNCOPE-566,14b9753b5853da28d0f74617dc94cc5eec4497cc,2014-10-16T07:19:25+00:00
SYNCOPE-688,f29fd4eb86d112c724f02d457abec124c46142ae,2015-09-04T14:51:28+02:00
SYNCOPE-688,716e2ed6a0614cf4b9e1882a80b7bb2496b83343,2015-08-28T13:15:48+02:00
SYNCOPE-567,f99657a2a66abfd68c115d9c1b083dc9b86a3105,2014-10-17T12:07:50+02:00
SYNCOPE-325,10182b41907082966302880aacb9350d0d957566,2013-02-25T10:07:56+00:00
SYNCOPE-689,8a1abd4e7c8dd70b01dbbc050f6b5fe680ae7554,2015-09-02T12:51:26+02:00
SYNCOPE-689,9658f8c384543889779cd2c398c8fcc115b43778,2015-08-28T16:27:30+02:00
SYNCOPE-568,2820eb2544e2bb31bcd623847a2aac746f8dfae6,2014-10-17T14:03:38+02:00
SYNCOPE-568,9cddacdf1a985806f1ee7cef6b93fa7144b93548,2014-10-17T12:03:14+02:00
SYNCOPE-568,6bbfc329759404bb2774280acafe6073d4167ed5,2014-10-17T12:01:54+02:00
SYNCOPE-569,abfb80507484e0de6815a04e4a84e9e060888b72,2014-10-17T11:25:49+02:00
SYNCOPE-327,a6aca3dfe827658d99523012c3c35ac13d4c5d11,2013-03-01T16:22:16+00:00
SYNCOPE-327,af601327fde094928d9e3d0f99e65030822d237c,2013-03-01T11:00:32+00:00
SYNCOPE-327,0b7fef8e539073a334e66f0b8ba8bb0e22f6301c,2013-02-28T16:43:10+00:00
SYNCOPE-327,bb9033956c9f5948628d4e2f2776fc0409533166,2013-02-28T12:32:17+00:00
SYNCOPE-327,5de9702f07815f52b1adda625e8d68139cecf295,2013-02-27T17:06:13+00:00
SYNCOPE-328,621b948de0f62a2f55b7d8275ebf967931146d6a,2013-03-05T15:34:56+00:00
SYNCOPE-329,4f0cb18b7c777dd41aa8205211a72b6cc217b8d6,2013-03-15T13:14:59+00:00
SYNCOPE-670,22a9e12e5e001de4926deb9052ba28bd98a85d62,2015-05-22T12:24:30+02:00
SYNCOPE-670,15cca152d4abdfa42fe31a5f00f9c848cf31548b,2015-05-22T11:42:16+02:00
SYNCOPE-1312,21bb4dc3cac6365d2823a8b7fab0aea11103ea03,2018-05-28T13:09:12+02:00
SYNCOPE-792,e90fa814e8df525d1d4c0323f1f543610c9149d2,2016-04-01T16:33:48+02:00
SYNCOPE-671,4cd6f5dc673497b83c56873f007f61e405f40f2a,2015-05-24T19:07:20+02:00
SYNCOPE-671,4c90ea872d43831e4ee593cb7b39306232b477cf,2015-05-24T18:27:31+02:00
SYNCOPE-1432,d00eec5890038e9f766b8e9e03563cb57ff4779e,2019-03-04T11:48:37+01:00
SYNCOPE-793,74e57f1f732728ab0ca622239960207b948fe879,2016-04-04T14:46:02+02:00
SYNCOPE-672,55d846eee3ded55ac9bcda2aec21b3bb4ce53fcd,2015-05-25T17:28:03+02:00
SYNCOPE-672,13abc83310e7d204ccc47d39d5d7513392648006,2015-05-25T17:16:09+02:00
SYNCOPE-551,35219f85e88dc597ed1accca9d410c9f8a4de29e,2014-09-23T14:32:49+00:00
SYNCOPE-551,e18fe26f8830d6c4709671369a2d97213b095690,2014-09-23T14:32:02+00:00
SYNCOPE-1431,58976e0280a4e47584d0f9cb8235676c92851d02,2019-02-05T17:26:08+01:00
SYNCOPE-673,c608b58540b1f6089e466096522042fd244b5368,2015-05-27T12:20:38+02:00
SYNCOPE-673,8ea1e6acc0972628aaf7a011e04370fc1cbd87df,2015-05-27T12:17:51+02:00
SYNCOPE-673,f672ce4925667fd80582878bdd55b9b0d644af0d,2015-05-27T11:58:25+02:00
SYNCOPE-310,9ffda20d58ceac302d130634602a4fcd8a1cc9be,2013-02-20T15:25:44+00:00
SYNCOPE-310,3ef7baf73e3d9e83e3fb3b27aa5152ffc2a63931,2013-02-08T12:18:34+00:00
SYNCOPE-1430,0e45c389c7c7f5108a62efafe36ded422fc664bd,2019-01-30T08:09:30+01:00
SYNCOPE-1430,dae2c2a442a928c351bbe25a9bc3b652a706e36c,2019-01-29T17:43:07+01:00
SYNCOPE-553,ce54c5975d93d896668c45a9315dcd24f22638da,2014-09-29T14:25:40+00:00
SYNCOPE-553,8c7ccb6dce5d4a1cb7729716b0a44acaae25b013,2014-09-29T14:19:38+00:00
SYNCOPE-1437,f3db2f09a6c3814e2b797856f25664a59bfbed34,2019-02-20T11:41:51+01:00
SYNCOPE-1315,6d38f3c50119f2fb7c2da6a7717e38250e5dd178,2018-05-29T10:51:50+02:00
SYNCOPE-1315,e1515673509aac06d818e025ff05b821ab0d7798,2018-05-28T15:17:07+02:00
SYNCOPE-1314,ba2f7fbdcf64cd826dfbc28b91b3282d7c83dc69,2018-05-24T12:27:35+02:00
SYNCOPE-1319,37bea639c8ee45716734c6cd8116df4cd5afb590,2018-05-29T14:48:44+02:00
SYNCOPE-1439,431c351342e06aaf21a2984488b0259c891ff612,2019-03-07T14:35:27+01:00
SYNCOPE-1439,950e11d101b690daf30c6927bb793d0b159d01ed,2019-03-07T12:21:16+01:00
SYNCOPE-1318,26e2b9dd3c7f01eb0572883ae0877d29fbdf53fa,2018-06-11T09:13:18+02:00
SYNCOPE-1318,3ee0535c5208b9268cf4fffbb4700fcb49a5ddd0,2018-05-29T13:55:08+02:00
SYNCOPE-1318,65d63c3b4a467b11e9a4acddb3d9d45ae020b6fb,2018-05-29T12:27:54+02:00
SYNCOPE-1318,d9c58a831337be619ebdf2bfd88b5f84fd884519,2018-05-29T12:18:56+02:00
SYNCOPE-1438,bb33bd185e5fef973942e3254839f4a83257dfa3,2019-02-20T11:51:06+01:00
SYNCOPE-554,54f129513b898df2261f25a5b57e636d0604be90,2014-10-23T11:19:41+02:00
SYNCOPE-433,1fa232ccb536915f1b37c30325392000bf666f95,2013-11-07T15:21:53+00:00
SYNCOPE-433,133c6b04971522d2123e5a394089e3fdd8cd7495,2013-11-07T15:12:44+00:00
SYNCOPE-312,a9b3526e9de3e27baee367bfb7986f96f976e940,2013-02-15T16:41:31+00:00
SYNCOPE-312,e233932c16d6174d5ca056a8190a925337f46954,2013-02-15T15:35:34+00:00
SYNCOPE-434,3d0363f62bd3e7bad37bcd8dea70385dce7fa99f,2013-11-07T16:40:03+00:00
SYNCOPE-434,3736919b3e7fc2b0824faa710bcec7d3868d8617,2013-11-07T16:35:55+00:00
SYNCOPE-798,edb0cb33d4ca6ac6b993dfc2f8ee536752f17e02,2016-05-02T17:33:21+02:00
SYNCOPE-677,22c91a79422831acd8007a2a17c85f7d27c9445c,2015-07-08T10:00:25+02:00
SYNCOPE-556,67a56d0a76d99301c10180ec4d0e08c263b976b0,2014-10-02T18:36:43+00:00
SYNCOPE-556,4353bd397c2f41f7d1302b64e39b0c2a58f92ac8,2014-10-02T15:53:00+00:00
SYNCOPE-435,3ff71d74363f119a4378a152d5125348dc79060f,2013-11-12T08:55:31+00:00
SYNCOPE-435,c490cf6fa52bf0cce6574b074af60e441b599f95,2013-11-11T16:56:53+00:00
SYNCOPE-314,0ac6d26283df96e40312dcb61d5320679cb658bc,2013-02-14T17:22:52+00:00
SYNCOPE-799,5472a323db374e96d1949c5c5ea86431faee7af9,2016-05-04T15:49:33+02:00
SYNCOPE-799,94b6a75ffef5c38d6868f58cf10b7928da843c87,2016-05-04T15:34:12+02:00
SYNCOPE-678,f45f2d9bf1ff5d7e2eb177fc07660916fbfe4ca6,2015-07-13T11:17:16+02:00
SYNCOPE-678,73d0975b015308a673767cb5aa890782a75afde5,2015-07-13T10:47:41+02:00
SYNCOPE-557,421a4e01a311343dd43ee41d81fdcdf7cdd36104,2014-10-07T08:14:11+00:00
SYNCOPE-557,8ac72fadc5a47246a9f1fc7d231e36d116698b20,2014-10-03T15:53:51+00:00
SYNCOPE-436,1ac7ccc16f2210c5552bc2c2ac97d85545400cf6,2013-11-18T16:40:25+00:00
SYNCOPE-436,dab16ce325b527a03ed2347cf7c54d45691674c7,2013-11-18T16:35:55+00:00
SYNCOPE-436,25d8c0d6b7c76bacf4c229ae4cba1b393a9c38c1,2013-11-18T08:13:31+00:00
SYNCOPE-315,ec16475054bf7292a62909df7863ca44dffa62e1,2013-02-18T15:24:12+00:00
SYNCOPE-315,db73f1018ec4a4645c45c3a0fcf6c69f8a7cafd8,2013-02-18T10:14:07+00:00
SYNCOPE-315,4bd52c2e5ad478e7359be8549bdd5c43537864ed,2013-02-18T09:19:25+00:00
SYNCOPE-437,43ffb320a49416a2a052536bebb52f4ebb646619,2013-11-13T12:05:38+00:00
SYNCOPE-437,6fc66e149196d80cf614c9d845596493e4fcd491,2013-11-13T11:49:09+00:00
SYNCOPE-316,dd81cbff9f7a25f11b26c5c2c43b9c2d2ff4a13b,2013-02-18T11:13:25+00:00
SYNCOPE-317,9db99c23000bea004cdd8d4bf424683cd33c2132,2013-02-18T14:44:40+00:00
SYNCOPE-318,3fb90f478fbc16b061f078d94b8ae028d87b084b,2013-02-27T14:38:30+00:00
SYNCOPE-1340,e6cd20ed36666743b878a87185f87fec79826ff8,2018-07-20T18:01:32+02:00
SYNCOPE-780,45c76fb0878f23d95a123185b897deae41c234d4,2016-03-21T14:23:50+01:00
SYNCOPE-1224,fdc991aa67cb9d3093948d7bb87f6b70317aa825,2017-10-16T11:14:32+02:00
SYNCOPE-1224,a799dbc0bbcce4635ab41cd8e6867431aa434702,2017-10-16T10:40:21+02:00
SYNCOPE-781,49533dcead2543d298dce9b825c6fb7792c71c12,2016-04-20T15:51:29+02:00
SYNCOPE-1344,65fe5336441000fb608783e6348da0acff52de64,2018-07-24T17:59:37+02:00
SYNCOPE-1223,761d1045e5d0ce147271f1780b15d635117e056a,2017-10-12T14:27:18+02:00
SYNCOPE-782,db624157e24fa58e0c870b8c1fce456e891ad9e7,2016-03-19T12:07:20+01:00
SYNCOPE-782,282a19baac7a21127c6c3c86bed5c8a4e8018aa0,2016-03-19T11:59:31+01:00
SYNCOPE-540,6cb13879bb499ca546e0f9a7c85551acc8d1678b,2014-08-05T17:39:29+00:00
SYNCOPE-540,f579d388c20e2d3827ccbfd569c22cf688da3293,2014-08-05T17:37:59+00:00
SYNCOPE-540,8138e3c4bde85510190673bbbce1823b91ea799d,2014-08-05T11:55:58+00:00
SYNCOPE-540,a1db33fa8f3833fdad6b069232a0490555766973,2014-08-05T11:55:03+00:00
SYNCOPE-1343,0895017a2447e915eb17c822cad865bab368c2ed,2018-07-26T09:27:01+02:00
SYNCOPE-1343,0bb9d9d5645d14da525003a88439c55ee32d0860,2018-07-25T17:38:35+02:00
SYNCOPE-1222,df35f9ca9009a3a51f43d9d8643c73b80162cfde,2017-10-11T14:04:27+02:00
SYNCOPE-1101,2748d00bb3150b4fffdd0a85e081b7d39e3b1978,2017-06-01T11:53:24+02:00
SYNCOPE-783,af21e80106538f12c0c0ed2e2b94bf3344823f9c,2016-05-13T17:02:38+02:00
SYNCOPE-1342,ae5a7ff2079610452bc64e7b05519cbfec87839b,2018-07-23T10:20:51+02:00
SYNCOPE-1107,fc8a30b8573573b108208e459d92a45797fdf3c3,2017-06-12T16:16:10+01:00
SYNCOPE-1469,4cf2d5c306e1a89350294821924365fe587be16c,2019-05-07T08:45:32+02:00
SYNCOPE-1469,27f3aba37e780ae3852072a1be65d48ed0118c53,2019-05-07T08:41:55+02:00
SYNCOPE-1227,e7f03f43dbe72d036a6df1da56dc0db26045dcae,2017-11-13T12:44:52+01:00
SYNCOPE-1347,d2ff6e4a44c660c9c9c91524c91eaad5dfe2d473,2018-07-31T17:17:06+02:00
SYNCOPE-1226,c6847708ca13e94c5b0b9f9d974c380fc2cd7e90,2017-11-27T11:45:08+01:00
SYNCOPE-1467,bb7c2ba5d2cb60abe7e8f4aeb48615e8c2e79647,2019-05-07T15:03:28+02:00
SYNCOPE-1346,ae058846238567128f1ff4969e5f8709750c35ae,2018-07-27T09:39:55+02:00
SYNCOPE-1104,4f6c1dac9579ff8d697b609742821c310849ba85,2017-06-12T17:50:47+02:00
SYNCOPE-1109,06f3fdd73e6b08f400d6551b4607d9527b70ef0d,2017-06-13T15:32:08+02:00
SYNCOPE-1229,4434d414511f9b730616dca0384d71321df971f5,2017-11-15T09:29:13+01:00
SYNCOPE-1108,9f979f6aa9f98b7fb79fd4bbf300f55aff661ff3,2017-06-13T16:02:03+02:00
SYNCOPE-309,eb4f73b6ba5b4b96a26e06b65ad7930b641ac94c,2013-02-25T13:56:00+00:00
SYNCOPE-309,81501d869d318bcffa2f11aad2896becfdad2f24,2013-02-25T12:02:57+00:00
SYNCOPE-664,496a02a51547f2ba4a48d54bee7a8a4de48df076,2015-05-04T17:57:09+02:00
SYNCOPE-664,b81cea711945ea7e5133371d9f06c42c398650b2,2015-05-04T17:50:01+02:00
SYNCOPE-543,4dee80310a37e111aa27b61f980881e3baf50eb7,2014-09-08T12:04:30+00:00
SYNCOPE-543,dace282e2c26851928e9b81bab423e74a3f277ed,2014-09-08T10:59:22+00:00
SYNCOPE-543,3903b84ed72cfc05c276761c3b03737d4b925709,2014-09-08T09:09:23+00:00
SYNCOPE-543,83a805a463c2cabaa53d217f7bed9361dd42e208,2014-09-08T08:41:20+00:00
SYNCOPE-301,e522014cc19b53d6dca57e6f80f2c7335a81590e,2013-01-30T17:56:47+00:00
SYNCOPE-423,92373efd005c3906f57a2900b3612e3b1a8183f8,2013-11-20T11:37:34+00:00
SYNCOPE-423,95b6bb4da47a31a89ca35998d648896da5ff8cf0,2013-11-19T11:12:24+00:00
SYNCOPE-423,e8af6c4a9f66d6389b5163fc9f79f7c4c9c7e251,2013-11-12T10:24:24+00:00
SYNCOPE-423,861bf57bbc50139a9cbc967e2634d1c3f36b9f3a,2013-11-08T16:06:17+00:00
SYNCOPE-423,95b449081f306574823de95598e61db572992fb6,2013-11-06T16:09:41+00:00
SYNCOPE-423,8494fc73f911d4e3f18c8d00bc15a1f40ae06450,2013-11-05T16:31:02+00:00
SYNCOPE-423,0ead583e574e126e4363b46a3ce391f9d9fa9ca1,2013-11-05T08:22:31+00:00
SYNCOPE-302,45b4f6318db61bb78c105695ba2423b58714c4b4,2013-01-31T10:40:46+00:00
SYNCOPE-545,b98b4a961b2d4da8e9b633e623fd7ac69a426ca7,2014-09-05T08:44:14+00:00
SYNCOPE-545,e760b9ce9af18e61003717823626a5aa3b670b24,2014-09-05T08:39:18+00:00
SYNCOPE-545,504fb159aab341bd4052817168d7c7b3943523c4,2014-09-05T08:16:13+00:00
SYNCOPE-546,e5f684671e0685e7708c419b447e3899dab9bbc4,2014-09-04T15:43:10+00:00
SYNCOPE-668,1d6451b5c4178e7d5a368d10af6df82055d95386,2015-05-20T12:41:53+02:00
SYNCOPE-547,73dad882dc2a457b3faa7a86f5839904d9aafd43,2014-09-15T10:23:25+00:00
SYNCOPE-547,e81f7d6d364703757004349706a2f7e9a80e1b27,2014-09-15T10:23:04+00:00
SYNCOPE-547,4cc9738c9263c75857b1ea80b7b2c3e51494512a,2014-09-15T08:24:57+00:00
SYNCOPE-547,38d4aadb6cfe50a541a0a302b9c899769b883045,2014-09-15T08:24:30+00:00
SYNCOPE-547,0b5a345533f6a6a41f1725a61ab826173d4f5bd7,2014-09-15T08:21:44+00:00
SYNCOPE-547,20a338c2b9153202e006ffde7001eeca5f55dc03,2014-09-15T08:20:52+00:00
SYNCOPE-547,3549ea69dbc395951064e50d92dea4fb9bbf5717,2014-09-15T08:06:35+00:00
SYNCOPE-426,43485c73714d1d17f4fc0b124197214a86c41902,2013-10-25T08:40:09+00:00
SYNCOPE-426,fcba4ceb069085f6aa7bb33050d7d77ef476be94,2013-10-25T08:27:12+00:00
SYNCOPE-669,d19133ef55221978395a1a933c03a8ba91018f12,2015-05-21T17:09:57+02:00
SYNCOPE-669,b68778e3482ac4cfae11112d897d8c56333ef4fe,2015-05-21T17:06:00+02:00
SYNCOPE-548,b818af2a107e69f9fb6404a24816b6fb9e6d7b35,2014-09-15T15:06:49+00:00
SYNCOPE-548,70376d1aa2937f114d8b406f06639715a0944c08,2014-09-15T15:05:31+00:00
SYNCOPE-306,9778213812636ed23c2785d320cd6416b85d2fbb,2013-02-01T14:16:08+00:00
SYNCOPE-549,0edddeafc46e7e52d85685a2f2486b0d9a95ab1f,2014-09-16T15:35:05+00:00
SYNCOPE-549,5f9f13650187b5e89f2f848f06c6fb4b434d876f,2014-09-16T15:33:34+00:00
SYNCOPE-307,480bf39866537034c13eb7bc524a2baa1ba33898,2013-02-14T14:24:17+00:00
SYNCOPE-307,60c21d72a62fb78c2b3a91c2ec0724dfe225827e,2013-02-13T18:41:32+00:00
SYNCOPE-308,cb073867742100bc01254f4aa8e190b0248b4df3,2013-02-11T17:01:30+00:00
SYNCOPE-1330,c09def901e2eef9dfe6cd598c3c561c839814f42,2018-07-02T11:46:16+02:00
SYNCOPE-1450,b723ee53ebeeabd4e510ff7593b87cf167e5aaf9,2019-03-12T14:18:03+01:00
SYNCOPE-1334,75c84ce15e480b1874925d6d9a90cb8668454cbf,2018-07-10T17:38:04+02:00
SYNCOPE-1213,a23abdf3eae907839a64ce7f9f82d6296626f38a,2017-10-03T08:46:40+02:00
SYNCOPE-1213,cf9a1881eac25e0e24c516faed1ce3df66d73596,2017-10-02T16:10:21+02:00
SYNCOPE-1213,79d51b332855de2d07bbfc2afb639d74bd1cb27e,2017-09-28T17:43:33+02:00
SYNCOPE-891,5d95efacd81771a64c6d530f3403cb7b0f8d914d,2016-07-11T16:11:24+02:00
SYNCOPE-1454,289aeb35eed92e2cd5e9ce1b20af52d8a6620609,2019-04-02T12:21:41+02:00
SYNCOPE-1333,2c3754b2c195e414dd1c6c28604a6a94b635fed2,2018-07-10T12:24:28+02:00
SYNCOPE-1333,2d233d197ce9e5bac10b2c0f422221c6c36ed343,2018-07-10T11:00:36+02:00
SYNCOPE-1333,3a0afb47b4ef81fae1f8e208e720cc5880b9063e,2018-07-10T10:52:24+02:00
SYNCOPE-892,8cad5aad7629d36fbddb3730531392b76e57d7f4,2016-07-06T09:59:31+02:00
SYNCOPE-1453,5f13c73f2132fd0413c84aed0855da49711eee7d,2019-03-28T11:59:03+01:00
SYNCOPE-1453,37c6aacd0dbfccdea7e98c95c94aea882b563d1b,2019-03-27T17:34:26+01:00
SYNCOPE-1211,d4e098a2916d37824174b026ee7ae9f3004ba833,2017-09-22T06:26:37+02:00
SYNCOPE-893,a9bd3ce15ab684befa28024fd25c1f10e763ff4c,2016-07-06T16:58:11+02:00
SYNCOPE-1452,202337abbaf23aaed17f4f06aff2c618a11117d7,2019-03-26T14:34:53+01:00
SYNCOPE-1331,241fee756f19a0a02bb331b0755764e3af692b56,2018-07-06T15:15:11+02:00
SYNCOPE-1210,f292d86ab845a7d0a50327a4eaf1179352ce2f95,2017-09-20T13:12:08+02:00
SYNCOPE-531,81ad48c8301c89576d7e04e945ed1b8939626067,2014-07-07T08:54:30+00:00
SYNCOPE-531,e79714f872be17953ab35f303958980514f6fdfe,2014-07-07T08:40:23+00:00
SYNCOPE-531,a56e63ac3b44448c25eccc093ead8c94d2ef8966,2014-07-05T18:52:54+00:00
SYNCOPE-531,ce6eaaf18b1ceae57e37033a4e1a6a503e0a5ee4,2014-07-05T18:28:52+00:00
SYNCOPE-1338,6fc42652b2bd0844e9fbd4410143c746c6c038b1,2018-07-16T11:48:50+02:00
SYNCOPE-1217,436153b3a0c3d4421b33288263c09521e51eee71,2017-10-04T14:06:15+02:00
SYNCOPE-1337,d6d8da66b3a604ecd518c986c580c56a0273ab1e,2018-07-13T16:57:53+02:00
SYNCOPE-1216,17a8eb5d99a84608a64927b00e7d9352d640517e,2017-10-02T10:54:36+02:00
SYNCOPE-1457,43aafa5b5c0afb64a46f3c9ecd806c8ce1607c0c,2019-04-08T14:11:34+02:00
SYNCOPE-1457,4d623ddf02bd8b048947c06a47c2adc8090a6f4d,2019-04-08T12:13:43+02:00
SYNCOPE-1215,e7656e11b4125f33d7fb9cde0db31288b653582f,2017-09-28T11:41:40+02:00
SYNCOPE-1335,cf95a35fabffebd73adde14a481508e31b7d29a1,2018-07-31T16:37:31+02:00
SYNCOPE-1335,e03d47ef56fbbaf2ff1e2f95b24a877ed040d52a,2018-07-11T12:15:16+02:00
SYNCOPE-1214,4fe8d084a6aa51fbf7fbfbf025b100df162bd27a,2017-09-27T15:05:56+02:00
SYNCOPE-1339,0dcef9eb4dd040eddad846d8bc8b9b5d578d20b4,2018-08-08T17:36:56+02:00
SYNCOPE-419,1cf3bb8914d365aa35cd253385ea51709538cb8e,2013-10-01T14:49:23+00:00
SYNCOPE-419,751cf78a522213d1af8d616492a223a32f37cbf8,2013-10-01T14:35:11+00:00
SYNCOPE-774,3c19e35153170af40169fd1d42bcc2551dc73190,2016-03-11T17:11:53+01:00
SYNCOPE-532,0b237956bdf5d49f83ea8a6f9c7a079d2a562101,2014-07-07T10:02:21+00:00
SYNCOPE-532,04d3aa3af4b110843ec06ded7656bf578ee54064,2014-07-07T09:39:48+00:00
SYNCOPE-532,736f0e17429104e89cfd23f0491a82611d4a2926,2014-07-07T09:38:18+00:00
SYNCOPE-775,855c909156532b71f5df6fb0cb7266c0cf60c1d4,2016-03-09T15:04:15+01:00
SYNCOPE-654,eb9ea2a279000f8c52780404e410efc888078dee,2015-04-21T11:29:57+02:00
SYNCOPE-654,8187e7fbece3e5ecc4e7dbdb6ceace42785c1cbe,2015-04-15T10:32:26+02:00
SYNCOPE-654,6a343e959303cf9bd1a5121fb7ee85205751309c,2015-04-15T10:13:15+02:00
SYNCOPE-654,adc2f7f5229d716e282b71ad3f6d987dc9f32423,2015-04-14T17:56:28+02:00
SYNCOPE-654,d2cc18c3518a534499c0b6737f096df251f976ab,2015-04-14T17:53:27+02:00
SYNCOPE-654,c040d9e4e475ed6741aa6575bca0b94acfc5ae88,2015-04-14T16:33:45+02:00
SYNCOPE-412,ab494d7fa8987a9c073207679f52399a7c670a6d,2013-09-18T12:11:04+00:00
SYNCOPE-776,d72befc59157c17da6d05f67d4c84e233fbb413e,2016-03-17T09:48:25+01:00
SYNCOPE-655,35b974c77973c525172db37acd06b1c0fb5982d7,2015-03-27T10:52:15+01:00
SYNCOPE-898,46e642eaf3a3375f2d51f422e0f91ded5cf74e19,2016-07-08T13:20:23+02:00
SYNCOPE-898,f8212ae2b290acadbc47e5b737b057b33dda5654,2016-07-07T12:02:00+02:00
SYNCOPE-656,f76826f6e521aa7ca227fdbe135f3a6771161eab,2015-04-02T09:48:33+02:00
SYNCOPE-656,aea1c879b78630956d5a54fdb7b0449a2df3fcfc,2015-04-02T09:44:05+02:00
SYNCOPE-414,bbe1419b837ac95b841c62588a388f321d4a9fbd,2013-09-18T08:26:40+00:00
SYNCOPE-899,03c47ef4189163bd6acf0d4f030252d0e6ac1373,2016-07-18T11:26:54+02:00
SYNCOPE-658,5cb056fe994910f5ced31c57e6e14987dbaac795,2015-04-14T11:46:29+02:00
SYNCOPE-658,3202846298bfd44060f7a417c9102e05cbe81ecf,2015-04-14T11:21:48+02:00
SYNCOPE-658,6896c460fb3f6149221307fa2c27021141b03ad2,2015-04-13T10:01:57+02:00
SYNCOPE-659,945158788e094be5a0a6b2a25113465b54940999,2015-04-16T08:57:17+02:00
SYNCOPE-417,65d40b7bf12cd0592479eeab46654a7caef370c7,2013-09-20T08:26:37+00:00
SYNCOPE-417,b20e8370f55cdfdc09b0a295720562e64fd265a5,2013-09-20T08:25:54+00:00
SYNCOPE-539,35a8dbef89f0099c0d20614e3295bd6d32b51c57,2014-08-06T09:52:40+00:00
SYNCOPE-539,d7e1ea1e6935261416ec119f7c1181b1b9d92690,2014-08-06T09:20:30+00:00
SYNCOPE-418,f6bbf957ab7f69d35785ee7dd4a3e3a6ccb42be9,2013-09-20T13:54:58+00:00
SYNCOPE-418,34c180e0184d9257d42e0f457674ef3defd0fc2c,2013-09-20T13:29:10+00:00
SYNCOPE-418,7df0dce62a55b82d7f1d637ba61cd69f418c3b2a,2013-09-20T13:10:25+00:00
SYNCOPE-1484,ac69701ffa8de228575349c28396f6113849ffeb,2019-09-03T13:34:02+02:00
SYNCOPE-1363,63371f7b9fe483dc60c3aaf29c9dde9eb15ecf74,2018-09-05T09:33:17+02:00
SYNCOPE-1121,00617f7b9ad3ed540c8a1d4e22ab84b63f4a1158,2017-06-26T17:00:18+02:00
SYNCOPE-1000,7899b4d9cced869450c0c69e85249b7710e718c5,2017-01-23T16:56:32+01:00
SYNCOPE-1483,344c511e9a9096b63b5976fbe56c71dc8969c1c1,2019-09-03T10:23:44+02:00
SYNCOPE-1362,d5e73caeebdf5c772ebfd5da958b380c1ec6fd5c,2018-09-05T08:36:55+02:00
SYNCOPE-1241,f0018fe490d54397643edaa52a8d524472fca344,2017-12-01T14:56:35+01:00
SYNCOPE-1361,12330a37dc7311cbfdc9dac47029ace56947e4f1,2018-09-05T16:17:38+02:00
SYNCOPE-1481,bd70d14885d5f03fca33f49558db49774a78e15d,2019-08-13T13:04:38+02:00
SYNCOPE-1360,4fec32be0708252585f4cbfbc9dd25b5670d37ff,2018-09-03T17:28:14+02:00
SYNCOPE-1488,b8a1d39ae8fdd12a76a9a68695092b4ecb25c282,2019-09-10T14:55:49+02:00
SYNCOPE-1246,76c1140167e59386ad2854ffc7f5ba00fc21e503,2017-12-14T16:41:05+01:00
SYNCOPE-1125,b4713c15f9ea28bb108ee2e82d986a8011586c43,2017-06-28T16:40:01+02:00
SYNCOPE-1125,26fb9bdae50088dc69338b300d045212fe1d7d98,2017-06-28T11:22:10+02:00
SYNCOPE-1004,8df515ecf485aa342b5b3098a78e23ea8a2c18f3,2017-01-31T17:29:12+01:00
SYNCOPE-1487,b8a1d39ae8fdd12a76a9a68695092b4ecb25c282,2019-09-10T14:55:49+02:00
SYNCOPE-1366,d5ac346976dfbfacb2d0e5aa4d6c604c11e90995,2018-09-05T15:28:47+02:00
SYNCOPE-1003,d80e02334de47b7b1c9bb738f1f66b70d2826780,2017-01-31T17:29:16+01:00
SYNCOPE-881,629d18f2c62e72894676d9106aabea31954ca2e8,2016-06-27T21:34:48+02:00
SYNCOPE-1365,1068667e90c41cb75d5a508d43f953294646c1b6,2018-09-05T14:49:02+02:00
SYNCOPE-1244,068e696967fdfb81ba1c025dd5fd8b2a01835960,2017-12-06T12:06:19+01:00
SYNCOPE-1244,597a57f1ae4e36f93ed2fd9258d901a171f4f81a,2017-12-05T15:15:47+01:00
SYNCOPE-1123,c50ee317670571c7e56e1066536ba99313327166,2017-06-29T10:53:27+02:00
SYNCOPE-1123,11ab8cb9a824efa48d5c98613b174ec2633dfa29,2017-06-27T16:07:00+02:00
SYNCOPE-1002,e06281c09a294275ead6dbd3a0c3775094df860c,2017-01-25T18:19:30+01:00
SYNCOPE-1485,052d10c4dc38163a488b395ceb7ebd3dd971aa4e,2019-09-04T14:23:56+02:00
SYNCOPE-1001,b709acfafe6228a63fef698f0f8f9fa237afec7b,2017-01-24T11:08:39+01:00
SYNCOPE-883,6f5bd3724d7fc0d81f5eb828e923302598bdd2a6,2016-06-30T17:02:14+02:00
SYNCOPE-762,5c53413463eb19c2f7fe128d58bcaebf5de1d57f,2016-02-02T14:31:13+01:00
SYNCOPE-641,8671ee51e7ab2abe77208725c8cadca936f3ea18,2015-02-13T16:12:15+01:00
SYNCOPE-641,223c0cda4ad43581860df1a892de1d2191222856,2015-02-13T16:11:09+01:00
SYNCOPE-641,ce43e69504e23ce9d73f907a9944671d8b5bb6f0,2015-02-13T16:03:36+01:00
SYNCOPE-641,0a1b3e90e0035baaf1eb37e9ab36d6cf0f548eff,2015-02-13T15:45:21+01:00
SYNCOPE-641,7321d79015e036b8bb5829eb33ac6a9f5be5c723,2015-02-13T15:41:20+01:00
SYNCOPE-1008,24a71aa96c452c60f64fb58efc76b5ba171cfec9,2017-03-14T12:37:14+01:00
SYNCOPE-1128,c12106de4480d03c9b331ef72f5fa4a0bb65c246,2017-06-27T16:22:24+02:00
SYNCOPE-1007,deac686f90acd387486824d0402bebdf72defd00,2017-02-03T17:28:57+01:00
SYNCOPE-1248,87041307148d79b78a81ba0819f16bdc8a2401de,2017-12-12T01:21:28+01:00
SYNCOPE-1247,814fe4ae659b7c30137d87c83ac5cc2a50fae8fb,2017-12-15T14:52:49+01:00
SYNCOPE-84,fab375d42e6503624fd412f29cf0b8a9a0ebb2ef,2012-05-22T14:06:14+00:00
SYNCOPE-86,f5bea20150bbe32a60bd88d222a0f5d9b806909f,2012-05-22T13:38:33+00:00
SYNCOPE-92,1969e756c44b3eb2d876e9dfa349962274bdb42c,2012-06-08T15:15:53+00:00
SYNCOPE-92,70dfd086dc579e532b4cc7e5343cb88ff8afd854,2012-06-08T13:34:27+00:00
SYNCOPE-94,fcdf9425cb7167bd17b41833a2883c723779d6f8,2012-06-12T14:53:59+00:00
SYNCOPE-90,2bc256d8012b08a8fe559fd50c798719347136f4,2012-05-31T14:52:59+00:00
SYNCOPE-884,a0fa197bc9190a1d640bc87aa1263dd4a3637cdd,2016-06-30T15:54:04+02:00
SYNCOPE-884,4f6818b103ece7f4b4f10d2fe4c10ddbff33b49e,2016-06-30T15:17:47+02:00
SYNCOPE-400,2275dca97b42c7b7e3b0c8bd52934268c10650c5,2013-07-11T11:23:41+00:00
SYNCOPE-400,ac1ef5831d010bd782eca6a3936169d3776f4b5f,2013-07-11T11:22:38+00:00
SYNCOPE-643,c981971c97e06bbdbb83584585650b34eebe5f36,2015-02-16T14:55:52+01:00
SYNCOPE-643,d01ed120bbf99c92bdbeece7986ccf466785f5de,2015-02-16T14:54:12+01:00
SYNCOPE-886,c54adf5ce25d7a4de93a0805b639b25ba83eb34b,2016-07-01T17:33:55+02:00
SYNCOPE-644,4b8b58b867572dbadf2240e337e62f7a6ce9f554,2015-02-18T14:56:53+01:00
SYNCOPE-644,2f7fc8993042ee816eb5d24fbb29d7ab7de7091a,2015-02-18T14:09:48+01:00
SYNCOPE-887,2119e3923feabf84e2b1c939cae0d609b8cf4eac,2016-07-01T08:55:48+02:00
SYNCOPE-1370,65cc0891cd052b6b74f25ccc80a2eb734a1b8450,2018-09-12T17:43:00+02:00
SYNCOPE-888,5b4cf31e55e2fe245f18f08e2e5e085a7463a004,2016-07-18T11:06:35+02:00
SYNCOPE-404,5bc5444d4197f9a2cadc73282430885d89860a8b,2013-07-22T07:37:47+00:00
SYNCOPE-404,d662963a4d863f886eeac214507e9764f1ba1645,2013-07-22T07:36:46+00:00
SYNCOPE-768,915f3c325d3dde66f8c8a891b3b0a04a165f7e54,2016-02-19T16:32:26+01:00
SYNCOPE-647,9f6dc6c28eb79839d62948055074789c925cc03a,2015-02-24T14:06:46+01:00
SYNCOPE-647,c1e6b586445237da5e2e1eb75f2f12c0c591e852,2015-02-24T09:38:14+01:00
SYNCOPE-769,757608a7c7577b157aa6f2593a4f1ef782cc2ffd,2016-02-18T17:09:59+01:00
SYNCOPE-527,e1c6977bcb861365d8dbd56215d22c5338373461,2014-07-03T13:13:43+00:00
SYNCOPE-1352,05f70d9d1f2b95f103b1ad7b89ed18ee20aab911,2018-08-10T15:47:36+02:00
SYNCOPE-1231,33daf27daa55a3dac382f811f916b4d9e5679b65,2017-11-15T17:02:37+01:00
SYNCOPE-1110,c50ee317670571c7e56e1066536ba99313327166,2017-06-29T10:53:27+02:00
SYNCOPE-1110,11ab8cb9a824efa48d5c98613b174ec2633dfa29,2017-06-27T16:07:00+02:00
SYNCOPE-1472,4589bf1deec0b6408bf4cb26c60be923c66f782a,2019-05-21T17:09:59+02:00
SYNCOPE-1230,5e83b3787c374893ccbe5ab8dab30b450d2a2a42,2017-11-15T15:02:24+01:00
SYNCOPE-1350,8b8e9336baa5470a457c90e158b8ec9a1402525d,2018-08-09T15:56:05+02:00
SYNCOPE-1350,4ea63a376e01ba629446bea13ff77cfb14409048,2018-08-09T12:12:17+02:00
SYNCOPE-1470,3419d9eddfe0bf74e3a8b108f43242b6aa654e19,2019-05-07T09:29:14+02:00
SYNCOPE-1477,0ec02b209814446e8e254a3222649de5c1111097,2019-06-05T15:44:33+02:00
SYNCOPE-1356,842a0fb9d8a1c8f5a1dd4e5259b56dc8af3cf7a3,2018-08-16T13:26:39+02:00
SYNCOPE-1235,9574ada8c2893ebe4ffd87e9e4832df1cd534f05,2018-02-20T12:54:33+01:00
SYNCOPE-1235,37c709727e8f4833e38580404c0145d1472b91ef,2017-11-15T12:06:52+01:00
SYNCOPE-1235,16f955516f3320ab96771952210b84e7f059586b,2017-11-15T11:31:55+01:00
SYNCOPE-1114,16096f6d8a84aa55e49f76d91c6e453f84d28fb8,2017-06-22T07:09:05+02:00
SYNCOPE-990,e44e5534009b8da9f7bda899b16a11340cff8293,2017-01-10T11:50:21+01:00
SYNCOPE-1476,225e32f9244e70d4b3bef2fef29e412a01493aad,2019-06-04T17:20:53+02:00
SYNCOPE-1476,5e26a2feacc7672c40e2e40b28a9b8e3af427574,2019-06-04T11:07:17+02:00
SYNCOPE-1354,fa27b90c5d180d27fcea60020ca55f729dab2b9e,2018-08-13T15:13:12+02:00
SYNCOPE-1233,3e7fe07fa39e497353d030debe6eb5a7fe1dee11,2017-11-10T17:20:08+01:00
SYNCOPE-1112,71e676b3869f646805c8595ec00c96ebb59f16b6,2017-06-19T16:17:47+02:00
SYNCOPE-1112,d4ecdf6bd7ee5a718b148c2b510bbf319b3b04a3,2017-06-19T15:55:04+02:00
SYNCOPE-992,b30099b68ca105d097c261651b1a255de184556e,2017-01-13T11:51:24+01:00
SYNCOPE-1474,21d43a3014db1403c6486bb66748f9204c5a2ad9,2019-09-11T11:36:48+02:00
SYNCOPE-1353,271a2e77c4f123582d3623922e09f0abc3b83a34,2018-08-11T13:36:54+02:00
SYNCOPE-1232,cd731aa1b81664539bc7f818d6e111ad4e697d1a,2017-11-02T15:36:21+01:00
SYNCOPE-1111,3ff021421d2d4a24d39cafc3f227063e941ac1a2,2017-06-30T10:19:36+02:00
SYNCOPE-993,c12a546007c48616a304c110fbd25d9ff0527118,2017-01-16T16:39:51+01:00
SYNCOPE-872,9cc78981f944546ee32e5968def5b0bb1e2f5241,2016-08-05T14:06:28+02:00
SYNCOPE-872,343b3d400fd2457e2458c52eacd03af17c51dbac,2016-08-03T18:19:38+02:00
SYNCOPE-1239,6b0423630a9bec2f7c393a4a196a063bfd07aeb2,2017-11-25T11:50:59+01:00
SYNCOPE-99,d5ca7e9a2357377821e09a4cb361541a2c171dbe,2012-06-21T10:37:07+00:00
SYNCOPE-1358,ae8fef040c02836b442212bef8f59ecdeed90da5,2018-08-16T15:11:31+02:00
SYNCOPE-1478,3d9fa5874a30a947d22f91bd897c908f2d9f71a2,2019-09-11T12:14:03+02:00
SYNCOPE-1357,ea6054a89245ebbe6c26e4ffbf2744800166e977,2018-08-16T13:26:36+02:00
SYNCOPE-1236,30d90566dfe89adbeae9266ad0368b643a806087,2017-11-20T08:54:52+01:00
SYNCOPE-1236,a6cf810946f8f6073bf072af15673c24db6bca9d,2017-11-17T11:42:44+01:00
SYNCOPE-96,29db8d4e6ef19ff1d61bc6e03ec431bfdda86d45,2012-06-20T13:49:59+00:00
SYNCOPE-95,47460136628e329bba21c4435acef27a64681026,2012-06-14T15:34:33+00:00
SYNCOPE-97,034b1aa52174d1f3dc371f69bf640f057e740ded,2012-06-21T08:24:33+00:00
SYNCOPE-639,21ada50208145c4561978dfdaf82158a6ad2b793,2015-02-13T16:23:31+01:00
SYNCOPE-639,070c0770d814517e1c8ed772d98797b24de3fcd9,2015-02-13T16:19:55+01:00
SYNCOPE-994,ef65d83cf867044f0b859e8691728cefcd3f651f,2017-01-20T12:38:06+01:00
SYNCOPE-994,f11b63cf9498d6259c7d8f58d54389cf2fa18edc,2017-01-20T12:22:04+01:00
SYNCOPE-510,050cf08297a71d6eb0105b94cd07551909ea6755,2014-06-19T12:11:05+00:00
SYNCOPE-632,64fa513e11e28f8f24ddacf803e6036edaf78895,2015-01-29T17:50:57+01:00
SYNCOPE-632,3237d26dfcba2b8d00d6b7d71b47853207ed5270,2015-01-29T17:15:41+01:00
SYNCOPE-875,9042203d7f2c976596d271c73cf9765f17a498a0,2016-06-23T12:47:39+02:00
SYNCOPE-512,a79e1f3d38f5d308ba86c75028546d1ee30c484c,2014-06-20T14:37:27+00:00
SYNCOPE-997,9c15f643a4f38cd86b6a4852896721d9d72ed824,2017-01-13T17:31:19+01:00
SYNCOPE-997,9f7e0ac15813fb50f34992bc413729c8943cd6e5,2017-01-13T17:03:30+01:00
SYNCOPE-876,ddc2f3a18034b50ea84c0349f52570bc5885eaf3,2016-06-23T11:47:05+02:00
SYNCOPE-1480,ff9cb07abf411cfdaa7ba3fe020062e75cf4cc8f,2019-09-11T16:40:13+02:00
SYNCOPE-756,02abafa83422c5b657129dd587610556a0d8623a,2016-01-22T17:16:30+01:00
SYNCOPE-514,59ba01e7a9873228605dcb68335fb2a00a752398,2014-06-25T15:03:47+00:00
SYNCOPE-999,319fff45d0197e5d139180c9ddde675ce7bd9882,2017-01-24T10:17:57+01:00
SYNCOPE-999,58520329104ba3ae93a34b879c9a8d60edb8e7a7,2017-01-23T16:27:22+01:00
SYNCOPE-999,e2567e459bc0eeb8065f0f2fcdcbd17ad4dcb0c3,2017-01-20T18:06:07+01:00
SYNCOPE-878,21658a50f6668c1d0c4f2afa3190123e8091d073,2016-06-24T15:53:55+02:00
SYNCOPE-515,56c18fe7854e83c6d64c7c938a49793c1419cd59,2014-06-25T12:05:42+00:00
SYNCOPE-515,cbe082a2ebf17cb5ebf0f4be93cca1eda5b80446,2014-06-24T13:17:33+00:00
SYNCOPE-879,835588b5fe34d65b7834884633ad13c19088f38e,2016-06-30T11:17:17+02:00
SYNCOPE-879,6a5fa8416222ff60fb627a748fc9be9f948339e2,2016-06-24T16:31:12+02:00
SYNCOPE-758,2b8a6481b3ea229d3c1ba4af88f6fc35fad9ca3e,2016-02-12T16:25:54+01:00
SYNCOPE-759,95709c9bd23e28e0564f93d663de313c4c35caf1,2016-01-22T17:44:25+01:00
SYNCOPE-638,4dc90d7d06722ad5651293178a0eb8eb613be489,2015-02-16T14:43:39+01:00
SYNCOPE-638,4e35b35f484b126b55cf1c2a703969d0a6544fbf,2015-02-13T15:20:19+01:00
SYNCOPE-1022,d7c848cee63695dbf0f63dee6dcc53f52e838b11,2017-03-07T16:03:03+01:00
SYNCOPE-1263,520cdca7cd744dc6919c8d28acabe58fc5b19491,2018-01-22T11:43:05+01:00
SYNCOPE-1263,227f085161f3027d1ab200a07d8460f3a644b75f,2018-01-22T11:36:39+01:00
SYNCOPE-1383,4f797206318fc00f6b0e31f30c98c0da7ea838c0,2018-10-12T09:19:16+02:00
SYNCOPE-1383,4492950f380214122eb03308c608ac7167f2be78,2018-10-11T17:19:34+02:00
SYNCOPE-1383,7de2d08eb3ea65a17d3598ef12ea7c654f9b6f6e,2018-10-11T10:33:00+02:00
SYNCOPE-1141,bbcfc41e012796023b4920151529abffaa942812,2017-07-04T09:55:21+02:00
SYNCOPE-1141,631740d6f18037c3d2438f938bcff9000d089e95,2017-07-04T09:51:51+02:00
SYNCOPE-1261,e153982e45918bfb3454c193c87d1a784ee415cb,2018-01-04T08:15:32+01:00
SYNCOPE-1140,a7b54fa78606005a469f98758199f82212bb41bc,2017-07-11T16:13:44+02:00
SYNCOPE-1389,6d285b20104369f1afcb85f162386b1eae827038,2018-10-24T16:46:22+02:00
SYNCOPE-1026,6d81b69ac52a5a7773f600e5168f32ffb0dde79c,2017-02-27T17:47:46+01:00
SYNCOPE-1388,01e32d2d0ad7a9f171440dcf369da6a8f72a7d4b,2018-10-30T17:57:57+01:00
SYNCOPE-1025,2fb13a27fbd2c716c583458ca19168820022bdb8,2017-02-23T17:06:20+01:00
SYNCOPE-980,f1d294d6fe23b03ade5f59f9d1b94959c518cb86,2016-12-07T13:27:36+01:00
SYNCOPE-1387,e851b2818d72137f5e049d4b810504f51d6a0d70,2018-10-23T14:27:01+02:00
SYNCOPE-1266,f278a97a2935bcc982881483aa3cba005d94de88,2018-01-30T16:52:04+01:00
SYNCOPE-1266,847167650d22669f0e254752c4fecf3525512631,2018-01-30T16:45:43+01:00
SYNCOPE-1024,027b6bdfed8666f0d1a1225d3e27a3047e93acf2,2018-07-05T12:43:01+02:00
SYNCOPE-1024,b08bc1c4a2ea9a552810f899ab4c25d0ddb5901c,2017-03-01T10:28:51+01:00
SYNCOPE-981,367bf616046d9a31bb32529653560926832dbf1d,2016-12-12T10:44:21+00:00
SYNCOPE-1265,78af1481312217b78cb41bd1dc292c6e25324c23,2018-01-29T16:39:41+01:00
SYNCOPE-1023,e4947c909e4cf18713653a4e4977489331c5fb45,2017-02-22T19:01:15+01:00
SYNCOPE-982,18ac4512cbda7a1b58a185fc866887ff753d7932,2016-12-20T11:19:38+01:00
SYNCOPE-1149,d4cd448427ea2a147296159fd70712ead0a42a69,2017-07-06T10:32:52+02:00
SYNCOPE-1149,ffb78c0871ca6b99b39d67c6998438b3e9f832fb,2017-07-05T12:20:06+02:00
SYNCOPE-1149,0f5116c2fc4fa175ed0b7062dad000fa8c9f46d6,2017-07-05T09:17:16+01:00
SYNCOPE-1269,ccca7072caaa538c28818195e6d744fc61ac1a6e,2018-02-22T17:50:23+01:00
SYNCOPE-1027,f46891466bc516551b62e284108af357012b7052,2017-02-28T12:44:27+01:00
SYNCOPE-68,749d1774c7979e962ac3894ef94c37b41a6a4962,2012-05-23T13:33:37+00:00
SYNCOPE-63,73f5734def2a0501f157357e3499798e7e53bd6b,2012-04-24T10:44:03+00:00
SYNCOPE-65,2eb202c9e0bebcfb64083d05104608f136bc9b38,2012-05-02T10:21:38+00:00
SYNCOPE-70,98649493b44e9a94c14c6f7eebaa7f3c5c7aa11a,2012-04-30T16:01:56+00:00
SYNCOPE-629,4efca7c3ec3973ab4b774a1f43e4403daf3354b7,2015-01-21T06:54:34+01:00
SYNCOPE-629,7b1c5ebeb85c2b27aaf1177e931431fa1da68be0,2015-01-20T17:29:09+01:00
SYNCOPE-509,4fd7a195fd35d91bd3a6e7de4d8c504bd0be16fd,2014-06-19T12:34:20+00:00
SYNCOPE-509,1bd086af5f873b9e4d221b2eb899dcc8a9733cae,2014-06-19T10:32:44+00:00
SYNCOPE-72,f342461ada5db3cd86d444ce755a8f5ad5dc7d11,2012-04-30T15:42:02+00:00
SYNCOPE-71,e55959c62ac89e395c4c47ff2f24358438a4f15b,2012-04-30T10:27:08+00:00
SYNCOPE-741,930db341fc53b0c71ada1b9300979cbd8ac791e5,2015-12-11T09:42:22+01:00
SYNCOPE-863,e9d42f4ab157538001c90ab15df6416ba38f7538,2016-06-23T17:52:39+02:00
SYNCOPE-500,aceaf25fdc38d26e5885a78ac2e775352eca1715,2014-06-06T15:50:29+00:00
SYNCOPE-500,7acc8d151365691add5854c0120b1459f07de2e8,2014-06-06T15:39:53+00:00
SYNCOPE-500,e1c0b2c001ba273b16fab62f5d8d59492b8b303f,2014-06-06T15:22:16+00:00
SYNCOPE-501,e62398514bb634138aab4a18d62efe36dcaca2ff,2014-06-17T09:22:49+00:00
SYNCOPE-501,856eafa6924a37948697b93333dc011900290f3b,2014-06-16T09:38:40+00:00
SYNCOPE-501,92ba1e4acd2fbddf39f0edbf532a5f429c180b97,2014-06-12T07:15:00+00:00
SYNCOPE-865,bb0be0902e8a81d8c8896ef4aa55e1515bfc0559,2016-06-20T09:33:47+02:00
SYNCOPE-865,636a136389d8a9334fdbbbddba1e0ef83426f99d,2016-06-17T18:58:14+02:00
SYNCOPE-1150,bd5c1af88ab99432577cfa826b2a3ea6dc655418,2017-07-11T10:03:51+02:00
SYNCOPE-987,5b00c8c8cd59df96ac34f3a7495b9b396891a1cc,2016-12-30T12:58:25+01:00
SYNCOPE-987,c47be3b59cf9778012fab5863c2d0c54eb46d19b,2016-12-29T17:07:00+01:00
SYNCOPE-987,0aba812830b9b29314e4221fe4a5cc0f3c997be4,2016-12-29T17:06:20+01:00
SYNCOPE-1391,65756405fe897eb8c0a35db2e1473bd7fb0cecdf,2018-11-12T16:49:28+01:00
SYNCOPE-867,1389a93766e99f473704719b0e6c03353626fcb2,2016-06-06T14:22:35+02:00
SYNCOPE-625,069b56f92aee2cfc79c326993ac8bf894bb07b04,2015-01-05T11:07:36+01:00
SYNCOPE-504,56c18fe7854e83c6d64c7c938a49793c1419cd59,2014-06-25T12:05:42+00:00
SYNCOPE-504,bc9ec67d1f0d2fe8f7aabedfc1b9b32b19c0f224,2014-06-23T15:26:52+00:00
SYNCOPE-1390,2a5ebc988df1d1717835f0195e479736791abf91,2018-11-02T11:03:27+01:00
SYNCOPE-868,bee58eabedf163d145b41fd44528975235a54bbc,2016-06-06T14:22:35+02:00
SYNCOPE-869,3d7159e7b089d012e9b86c8499ae283859678c29,2016-06-23T13:28:10+02:00
SYNCOPE-506,7450a07e98f0ee3f197d277701c1d60e09b1dc73,2014-06-13T09:38:42+00:00
SYNCOPE-1374,7c94b93a6755f06ece72ac052f156ab7e1d1c46d,2018-09-20T14:21:41+02:00
SYNCOPE-1374,23daf200a657dec48530be35b470a055da253c52,2018-09-20T10:23:48+02:00
SYNCOPE-1253,d783a23de5f2d4f13f9922d11518c9e31f520f1c,2017-12-18T11:44:48+01:00
SYNCOPE-1373,382f3f4b9f00a14f66ca52c7ae73f318b151fe4e,2018-09-20T12:58:28+02:00
SYNCOPE-1252,9c381eb19761b7f768c1c7c06f529794c15e72ec,2017-12-18T20:26:03+01:00
SYNCOPE-1131,cfb6c638d570536233743cca16a5498dcceea6ce,2017-06-27T17:16:27+02:00
SYNCOPE-1010,f3795a8d55b2dea57a5fd0e67f7d08de0fb9828c,2017-02-12T07:52:51+01:00
SYNCOPE-1493,9d79fa626884c4e0c21f70ad0e4459965026abd9,2019-09-10T13:57:38+02:00
SYNCOPE-1372,3e0c00355bec768d3c798b44111b57dfc709ea16,2018-09-17T12:11:50+02:00
SYNCOPE-1251,265b2a7d7b72634716c58be8d9890a0244888367,2017-12-14T14:08:23+01:00
SYNCOPE-1130,53c54d7f13f2a60a5f44519bcc251bad097b0c28,2017-06-27T17:38:13+02:00
SYNCOPE-1492,c98d2d7861827d7d03f6cf7c8d0e93ef462f9eef,2019-09-10T16:34:52+02:00
SYNCOPE-1371,b8d40101e6b7db1e52c1fe60fae1cca5bfefbbc3,2018-09-13T13:18:47+02:00
SYNCOPE-1250,3df09968936118ce9a36ac438a8d0a6bf498990b,2017-12-13T12:38:27+01:00
SYNCOPE-1250,a69afb927da75431d4963fbf62ee124da4f0aa3f,2017-12-13T10:28:55+01:00
SYNCOPE-1257,92f4d703850002f9ead3c91d0f05dbf2f889c865,2017-12-28T14:19:00+01:00
SYNCOPE-1377,da91868697e61412ef53cdee717bc82b6db405bc,2018-10-01T17:04:33+02:00
SYNCOPE-1135,fedae9c765091c278026e84fa998c029578ab674,2017-06-29T17:26:37+02:00
SYNCOPE-1014,9ad62a3447449c5d3a735bbb5154d2ed7347e689,2017-02-12T14:41:58+01:00
SYNCOPE-1014,560000847f8eb31b2964c32cf83224df5d9188ea,2017-02-12T14:24:47+01:00
SYNCOPE-1376,887349382d460e1fb3096650e5a56317cdd82c1e,2018-10-05T16:24:00+02:00
SYNCOPE-1134,4e8680b3f11064035d7a2038e7d50d085145c78b,2017-06-29T15:58:28+02:00
SYNCOPE-1013,6a46d3a3f350a630a1d664bdb117304c6d249db3,2017-02-12T14:15:43+01:00
SYNCOPE-1013,f4ffc3b568792da1d91f4ebb66be78a0066b4bda,2017-02-12T14:02:29+01:00
SYNCOPE-970,6a59c3311e8b160e6ea9851c65def972a76e730e,2016-11-18T12:57:16+01:00
SYNCOPE-1375,7811bdb2d352ecd4f09b971ea38320814c03d0e8,2018-09-26T12:00:14+02:00
SYNCOPE-1254,8ef021e23f67027dda842559029fd65788beb865,2018-04-03T13:13:07+02:00
SYNCOPE-1133,653afac686cc10a13bdd191b807b8f90e0b84e25,2017-06-28T16:24:19+02:00
SYNCOPE-1012,93cbe3fb003f938ba8fd6227cf780b8ae593422f,2017-02-12T09:06:15+01:00
SYNCOPE-850,fa5e27ff30cc98bd5194082ef080087193a92b19,2016-05-27T18:17:53+02:00
SYNCOPE-1139,c86fb4e637120f7c3b71d9f70d29935eb55807e8,2017-07-04T14:03:55+02:00
SYNCOPE-77,15ec3af5c91ac2a1d809cec87424f32b33bc25d6,2012-05-02T14:49:19+00:00
SYNCOPE-1016,ffc490175cb789d6f6d78341f5078e8942bfca04,2017-02-16T09:30:43+01:00
SYNCOPE-1016,223f29a9547eac2c615bc4f18120ebc0cad0bd0d,2017-02-15T19:05:01+01:00
SYNCOPE-75,f58fd03305b91bd434e3a7c85a70b3eab470be3f,2012-05-03T12:33:29+00:00
SYNCOPE-738,35e35661e594900a66a83e8e47e5b010fe26b8a1,2016-09-05T15:41:09+02:00
SYNCOPE-738,a634f7c75a53bf341e6479db44a01927dd1bafdb,2016-09-05T15:40:21+02:00
SYNCOPE-738,18179de19556f4d2235a5264fe40a45dee149f3c,2015-12-03T08:45:33+01:00
SYNCOPE-738,d6c211774586de3f66e6ec3087c8b2f98e0e9a31,2015-12-02T17:21:03+01:00
SYNCOPE-617,7c0a5efc146035b5fb75a653d744b097f4ff3712,2014-12-22T15:31:23+01:00
SYNCOPE-81,77bd6fd653702bbd4ab5f24247a66bd28bf6317e,2013-01-30T13:28:03+00:00
SYNCOPE-81,f4c5098908e5a8cad438d4ee42fcc041274dda9c,2012-05-04T10:29:14+00:00
SYNCOPE-739,141f96956f35c85543b2cea3ffb728d4dcf7b692,2015-12-07T09:05:55+01:00
SYNCOPE-739,dde2a124c809e5fb97447680192453493faa43a6,2015-12-07T09:05:55+01:00
SYNCOPE-80,811278f3e65a7c6a897a5c7e0aa9b7456a844c11,2012-05-08T08:13:02+00:00
SYNCOPE-83,cae9834cccaf1f40372ae40cc60404b041e025ba,2012-05-30T12:27:43+00:00
SYNCOPE-82,e0f9eb0a0f8a61bd8c64af9aa9f844c60a1c16bc,2012-05-08T11:31:13+00:00
SYNCOPE-730,8cee98bc2e6c548558ae71723a714222f0511a31,2016-03-15T16:31:16+01:00
SYNCOPE-973,4371ae7874de87781ef180df9c310e38c95a46db,2016-09-27T15:35:29+02:00
SYNCOPE-974,fba91e145593bd8ac44af74dd5fa2820ea509a8e,2016-11-25T16:55:02+01:00
SYNCOPE-611,e414b79bead9bfc4044a8a8dde6a95b1855cf354,2014-11-28T18:18:04+01:00
SYNCOPE-975,d4b49cd95f6caf2710fd54dfba475795b0924311,2016-11-26T07:52:30+01:00
SYNCOPE-733,7b1cb89bba9b91df3a9153e9bceec5a53a2deec9,2015-11-25T11:43:30+01:00
SYNCOPE-976,16b3f89a6dec0831f9098a62b9a033f749dcb401,2016-11-28T13:10:38+01:00
SYNCOPE-734,073e29a16c6885163c94d7f5d3a9a5553a3ae231,2015-11-27T17:32:11+01:00
SYNCOPE-613,9b429b287604e6bf6763dc6c65a61502ad333116,2014-12-11T14:39:53+01:00
SYNCOPE-1380,2c48533389ee654602effc6deb78ae4587d0c3e1,2018-10-10T08:52:23+02:00
SYNCOPE-977,e7e8e92da2ac89cc7ee698cc589e28dfb1c06de3,2016-11-30T16:03:20+01:00
SYNCOPE-735,757608a7c7577b157aa6f2593a4f1ef782cc2ffd,2016-02-18T17:09:59+01:00
SYNCOPE-735,614695f9a8558068f37374f25fc8149243b50cca,2016-01-14T11:48:57+01:00
SYNCOPE-735,e9ff5c73ed144337bf9dc44cbb96bbe01ea3e1d7,2015-11-25T12:25:46+01:00
SYNCOPE-735,5ad760bd5fdeb62bd695fcc6b888ef5e9fa3a8a8,2015-11-25T12:08:21+01:00
SYNCOPE-614,9d1607734850b852ada7a803c3f11a1bbf48273a,2014-12-10T15:55:05+01:00
SYNCOPE-615,20bfa942ab1b07bef4002a160742ee5b47617204,2014-12-12T12:15:18+01:00
SYNCOPE-979,db06951074ce82882bdc6bab9829f8bc60de221f,2016-12-02T16:17:06+01:00
SYNCOPE-737,b0417d7c3d45f2e0e2752ac4acb26af42f0e6b31,2016-04-27T14:25:53+02:00
SYNCOPE-49,7b2b2cfbe871e6e89467466cb112b2271d506be3,2012-03-30T13:20:41+00:00
SYNCOPE-49,941a5c62233d13f4d0a27cf2408f7a32be0f42e5,2012-03-28T13:35:45+00:00
SYNCOPE-48,787e8f01382c65fa151f1b1590591b83dc333c5d,2012-04-03T12:47:28+00:00
SYNCOPE-8,206e754bec8169cc6c77e98f1535c499717634e0,2012-02-27T11:46:50+00:00
SYNCOPE-47,04979883e34a962b8497cfecd5643d648043c27e,2012-03-23T14:35:31+00:00
SYNCOPE-46,c8197acdfd385c92771ae0386acf5a8bef5d97ba,2012-03-22T16:24:17+00:00
SYNCOPE-46,8b38ff49391f0330fe8a1539fb3b58cd6dcca4b7,2012-03-22T15:58:30+00:00
SYNCOPE-41,dec2bc9922d02612f5777f63068d6b72219d4a3e,2012-04-03T15:57:20+00:00
SYNCOPE-41,e8c80ab9ffe0b717a178fed74a181ae733e15a26,2012-03-28T15:29:47+00:00
SYNCOPE-40,648bac6f385e91bc18f8663fb31897aba451d1e9,2012-03-19T09:06:37+00:00
SYNCOPE-43,798658d69465569a74eed6c727b9d05fde136c28,2012-03-19T10:39:48+00:00
SYNCOPE-849,fa5e27ff30cc98bd5194082ef080087193a92b19,2016-05-27T18:17:53+02:00
SYNCOPE-607,cd2d63984e6825427730babbee1e6d6b65a3835a,2014-11-19T10:12:11+01:00
SYNCOPE-729,9da95172a5eadfe9ffcd021ccc4ba8b00a0a9ace,2015-11-10T19:03:48+01:00
SYNCOPE-729,c6e008125fb08e9b939acb73e233742ad0c3824f,2015-11-10T18:54:51+01:00
SYNCOPE-608,577f98e498a21fcaa355b65754ce5428d5e3db21,2014-11-19T12:04:02+01:00
SYNCOPE-600,76b35a7870eee368d8b78e71d39bd9ecc2de5934,2014-11-05T11:07:41+01:00
SYNCOPE-601,68991ba9e4d0c15c628c431727fda4ed436de5ce,2014-11-10T12:15:22+01:00
SYNCOPE-601,3d5a3706c5c5bfff149d1244a5221a77659dc757,2014-11-10T11:48:08+01:00
SYNCOPE-965,31699b0c3d81a7fff781be8ed2deb72f22e8125c,2016-11-09T09:04:12+01:00
SYNCOPE-844,ecc062ca56d9875b2869f35a9917f52295f65ea5,2016-05-13T17:55:40+02:00
SYNCOPE-1,2a8d0486d0388ea83e88775aaaa5980d55668e92,2012-02-21T16:36:26+00:00
SYNCOPE-966,047c00d4b7f2b63245fbbf03080f719b9af3a44e,2016-11-10T17:58:22+01:00
SYNCOPE-845,9df34b024b535af48c7db879139ec9d91fab98d0,2016-06-17T16:05:04+02:00
SYNCOPE-845,4c053fd24a45e7a8a8b00cd5bc30d98f6d6900b8,2016-06-17T16:05:04+02:00
SYNCOPE-603,972f5dba12c00012cd1fb23b0f3900c2a742cee5,2014-11-07T09:35:03+01:00
SYNCOPE-846,514cbf435f246f3271e3d4d2d0e8386b6c54ac5f,2016-05-31T18:01:25+02:00
SYNCOPE-3,2c0ca3967173acbce785f8c95d72a5c2e7ead472,2012-02-24T16:25:52+00:00
SYNCOPE-847,4c2269e519f61f3bae0bff346872b9a96180883a,2016-05-16T16:38:43+02:00
SYNCOPE-605,3fb39a46b7c33aacb2c42c9b79da07b025a718b9,2014-11-12T16:22:15+01:00
SYNCOPE-58,345a73dba31e26d016d1a5f591205f906a963216,2012-04-17T08:26:36+00:00
SYNCOPE-52,074201c7afdcbf7f2f11ba45aa5310da3eb25195,2012-04-04T11:34:15+00:00
SYNCOPE-54,e04fb9c83775c2437612bd442849f57139cadc9f,2012-07-30T12:25:28+00:00
SYNCOPE-54,4305a1a0e41d29a0251e09eb6880cc5c4a1a4efb,2012-04-04T13:51:56+00:00
SYNCOPE-837,a8758327731ffc6b30e0fb8246a9f8834e57a1e5,2016-04-27T11:16:23+02:00
SYNCOPE-716,893d88901513100e3daf5d4d5b4b47a3f72f9aea,2015-10-27T10:09:15+01:00
SYNCOPE-717,381dfde35a27c1d1447ad40941ddabf4dbf9268c,2015-10-30T10:04:42+01:00
SYNCOPE-717,e486aaf3a1ac1b5a3281a2c93598cc38cca4073e,2015-10-29T10:39:43+01:00
SYNCOPE-717,d404b400ad4b37d5bb4e2b6aa9f0d9c164822250,2015-10-29T10:19:31+01:00
SYNCOPE-717,5954e2e7d44878c0f87d594140f6cc42146ad5c3,2015-10-28T14:13:40+01:00
SYNCOPE-839,4f44042cb609d21618e35493ef825eed38dfe880,2016-05-09T09:34:03+02:00
SYNCOPE-950,a247cc51f7f4964d04dfd61d4042967e2ec99ee3,2016-09-23T11:25:38+02:00
SYNCOPE-710,2011671c93ac23a2397bcc8be39a1ca191ed035f,2015-10-15T12:05:33+02:00
SYNCOPE-710,2524280ebeaff46bc351f4692fb4f966148bc87e,2015-10-14T17:39:02+02:00
SYNCOPE-953,8f59258cc3b740ae4c67d4840916958e4de351a6,2016-09-29T17:26:57+02:00
SYNCOPE-712,fb577531bd39cb80b8ab81eefc344e04e5672af4,2015-10-19T16:23:08+02:00
SYNCOPE-836,1bebcdad67bc84099da101957aae1cd978b1db8f,2016-05-05T16:58:22+02:00
SYNCOPE-27,dd02660c060fac2fe5b668394c34a73f9714452d,2012-03-07T14:57:57+00:00
SYNCOPE-29,db5a12d124c58af82a1622c9ecd5e062ebc713b9,2012-04-02T16:17:38+00:00
SYNCOPE-29,d5a2478c8e103ccc3c6f4dac1301993a3ad3b27d,2012-03-08T13:35:28+00:00
SYNCOPE-23,e797a8c4ba8e04129e25713db98520105283e58f,2012-03-02T10:00:10+00:00
SYNCOPE-21,606e32ec4f8c3e184dc58702862516705a71a0ad,2012-03-16T14:17:10+00:00
SYNCOPE-21,3d40c0df5751f8b9aa82c97fe89a5e826557106c,2012-03-02T16:10:28+00:00
SYNCOPE-1504,352bd60131f0cb10526108b54167ffbbab93e731,2019-10-15T14:35:51+02:00
SYNCOPE-947,228bf3ed54cfd1ebff45bf0433e08bd84e3197b5,2016-09-19T16:54:33+02:00
SYNCOPE-706,a3e23c1f175dbdda338c4cf01d8acf6fc3c4f365,2015-10-13T09:53:12+02:00
SYNCOPE-707,876fde9aa6abe7501a6cfdd53e32be0828ecdf03,2015-10-13T16:22:05+02:00
SYNCOPE-707,6852628030c6492a85fbaeaa81d9001315f5d985,2015-10-13T16:17:45+02:00
SYNCOPE-707,091b0662c8d77b84bc96e7e4047a36da8c12643b,2015-10-13T15:50:08+02:00
SYNCOPE-707,fcd85f6c4f9225919c1a55e4535cf0c151aab8e9,2015-10-13T15:38:14+02:00
SYNCOPE-940,7b9f9758fa4e2ece4d3cd4be6bc18dde684a91a4,2016-09-30T10:52:38+02:00
SYNCOPE-942,8d55cbe430f2a272f6838bd1a1a7edfad87e3ab2,2016-10-03T09:26:42+02:00
SYNCOPE-944,fc7ddd9bcb271fee036129173028a42840af6125,2016-09-19T09:52:35+02:00
SYNCOPE-944,1c1db2405b431e4782b15195dee83732754f64e8,2016-09-16T16:53:21+02:00
SYNCOPE-823,f126c48419a2dba75bdd5ef413cc2326dedff442,2016-04-07T10:56:59+02:00
SYNCOPE-702,4a57705c3f182e40b4210874d97769939aa94e17,2015-10-06T11:03:56+02:00
SYNCOPE-702,a1e4daefa809f56023c4e61d3a50ab4681d1a5f0,2015-10-06T11:01:03+02:00
SYNCOPE-703,4cd1c1ea653d3a3cc23f042825452dc7f735738e,2015-10-07T11:53:32+02:00
SYNCOPE-946,ba07ea78a933b7c316511b1512b534730405a468,2016-10-03T13:56:18+02:00
SYNCOPE-946,b244c6144dd73d26b89e50461f0785d2040df214,2016-10-03T12:51:51+02:00
SYNCOPE-946,cca8951728520dfbcf6d3992f12443a939eda9c5,2016-10-03T12:51:45+02:00
SYNCOPE-946,74d8abec6c245fc1ed763f190886cd76c2b6b52f,2016-09-30T17:28:09+02:00
SYNCOPE-825,826065f0610ea485b6d3bb91634e6e3dcb93e966,2016-04-27T12:45:20+02:00
SYNCOPE-37,3073ce6c89130e336e887435e1b2e2f1e7c73411,2012-03-16T17:50:07+00:00
SYNCOPE-39,304d2afba91fc7f82bc084a592c5c3b62cf89982,2012-03-22T12:41:13+00:00
SYNCOPE-34,e92e325bb93fbb2a2f46050bde0b323893c8df4e,2012-03-09T15:37:49+00:00
SYNCOPE-33,f67a07273731bf1314932834b72cee587584a1c7,2012-03-09T13:55:56+00:00
SYNCOPE-30,28477954869e9513477f6b2ebdd262d3ca1b9c6a,2012-03-08T14:33:39+00:00
SYNCOPE-32,651f968c7a7cbd18828749eda15000b3a72f689e,2012-03-13T10:15:55+00:00
SYNCOPE-32,53e6f4b87e9d6bd1983c0bed221356f3c522e06e,2012-03-09T09:02:32+00:00
SYNCOPE-31,75f497793d3ac0d46af2c607a9fd7450169b7d5c,2012-03-09T09:07:50+00:00
SYNCOPE-936,a9c4d58380f1d4ef0f98fd00c388f31c51a34135,2016-09-08T10:40:31+02:00
SYNCOPE-937,f8c0d716220eb01b08f56c3277bc60f34b51f9a2,2016-09-27T15:28:36+02:00
SYNCOPE-937,8e7db68e141b276e0ad5b41be113cea5b66452e4,2016-09-23T17:32:07+02:00
SYNCOPE-937,e821d5fd4d83f81bb5912e9b52bf90eb815f69ad,2016-09-23T16:46:31+02:00
SYNCOPE-937,144da88e87987c70f6ee52b24b31ba92eee1898c,2016-09-12T12:22:09+02:00
SYNCOPE-817,0139df76876234e593b8592502bcd476db50b407,2016-04-21T18:06:54+02:00
SYNCOPE-817,1735c44c19226d4f2351befa1efec60d9796d98a,2016-04-18T10:05:28+02:00
SYNCOPE-930,b69e4cf5ed70d7f058a6213cfb409a705f8b74a8,2016-09-05T10:05:09+02:00
SYNCOPE-931,a29cc80615e8f066232c5cdf43dc5d25be8487c6,2016-09-07T14:56:41+01:00
SYNCOPE-931,7a7d415cdb8df78f78ee4fcd73b0d5b392022d86,2016-09-07T15:14:41+02:00
SYNCOPE-931,aa90d840817101847626fed6e1388779d51d631a,2016-09-06T17:08:44+01:00
SYNCOPE-811,45bfdf7de9e7d0a17d2d59ce43be05ca3c94b968,2016-04-04T13:51:09+02:00
SYNCOPE-933,35ae16a9cd8d1bb890a274e9190bfc66cec81105,2016-09-08T15:18:00+02:00
SYNCOPE-812,d9ec96b7c5d0c0dee206781e2c76f60eedcfe620,2016-03-24T17:19:54+01:00
SYNCOPE-812,6dd1757b3ef536f56016693a320c5898084a9e1e,2016-03-24T17:19:54+01:00
SYNCOPE-934,f6ba895c233d256674074bed3a727cad579c25f9,2016-09-07T17:17:35+02:00
SYNCOPE-813,762178b15fb3555c58813ede0caa87d9740f9064,2016-03-24T17:19:54+01:00
SYNCOPE-935,bbee3af7676bf566554bfb429191002890d1b577,2016-09-07T12:55:45+02:00
SYNCOPE-814,6a432b9a48a07c3a698c3c7c63b7218d8a848606,2016-03-29T17:49:07+02:00
SYNCOPE-814,75900f2d8f3e91586b918fd3386784680ef6978f,2016-03-25T15:44:12+01:00
SYNCOPE-1404,cb6ca74b20e7a80a80d033a0c32e4b9bdfb33861,2018-11-28T10:20:48+01:00
SYNCOPE-1408,eaf70b1fbec40958ab917da88ff0797bd4abe09f,2019-01-14T14:40:55+01:00
SYNCOPE-1408,cc1119af3585f1023494f1741a073d1b3bc5ab5b,2019-01-14T11:32:31+01:00
SYNCOPE-1408,ae0ee6c4694d6810618d4ea67f72dece518ada5c,2018-12-05T13:25:50+01:00
SYNCOPE-1407,5308afcda55cc0ecf4c41e5cecd92d9e2d6fc2e3,2018-12-05T13:25:46+01:00
SYNCOPE-1407,e4a6d350373fcde0b0937238badd82c901e0a67a,2018-12-04T16:56:57+01:00
SYNCOPE-1406,34de818e2d7b55c3a50150283cbe320df307d526,2018-12-03T13:01:02+01:00
SYNCOPE-1405,569b1b322f0364bc865902d595846a613f393b7a,2018-12-03T13:01:09+01:00
SYNCOPE-927,8150cf84b2f34eac46ba3c193c2c138259baec23,2016-08-31T16:51:55+02:00
SYNCOPE-928,9a7332af592d596149ae86570b31e4d0add52ab9,2016-09-01T16:01:29+02:00
SYNCOPE-929,7e66e3d5abd7709c04d1abde3af119159f3de961,2016-09-05T14:02:16+01:00
SYNCOPE-921,577d0577447c341362fcce075c492b5be4e18e3a,2016-08-12T15:36:39+02:00
SYNCOPE-800,5c4181fcbe77ca2e57654b415ef5777f66f32fcd,2016-03-29T11:45:44+02:00
SYNCOPE-801,daecdbbc02f6b9011b8b3e721d6c8ec89abf9169,2016-04-22T11:20:45+02:00
SYNCOPE-923,85807bc5f8fe07f0ead635c1e1afc2b11708ef15,2016-08-23T12:30:52+02:00
SYNCOPE-16,0a5bb7c528e9a8caf6df78834d259c8c7275add2,2012-03-01T15:09:24+00:00
SYNCOPE-18,9ba31b2eefd37f1055020ea38cd58551a5303990,2012-03-13T16:37:26+00:00
SYNCOPE-17,17f7f5a0b91d696499d6570b3e7f53904be1e25d,2012-03-01T14:53:21+00:00
SYNCOPE-12,651ed51aa27b0813788940083c28a3c06a612e44,2012-02-29T18:08:43+00:00
SYNCOPE-11,88e7f6e1ea6eaa7bc9e65a784860ae83165110dd,2012-02-29T13:36:41+00:00
SYNCOPE-10,5b42ee2cf1e6489193876b1fd26205a571f733fc,2012-02-28T15:36:04+00:00
SYNCOPE-915,0910230d04aaf0ba69be675b29d5c1d2cd3390ba,2016-08-10T14:59:18+02:00
SYNCOPE-916,ef7fc474457444f822bfb29842e7767a20356a36,2016-08-04T14:01:35+02:00
SYNCOPE-918,729de516b9dd0c86fb1b481a37e6b11c0492abf0,2016-08-08T15:48:07+02:00
SYNCOPE-911,51275d6192fed391dcbdc871d130b6eb2d50e0d9,2016-08-01T14:44:39+02:00
SYNCOPE-911,aa5da972be00beac028e0ab0c8fb88d96fdf2c20,2016-08-01T14:37:33+02:00
SYNCOPE-912,873a1b93aa00226c43ce4d427786559c3ff36fa3,2016-08-01T16:42:21+02:00
SYNCOPE-1301,24f789932141ee05fa12d81eca9d43178953f508,2018-04-13T09:25:23+02:00
SYNCOPE-1420,10f5c397dcc40e98e09ef025fd6a3de92a30f2f4,2018-12-21T11:55:16+01:00
SYNCOPE-1425,39b760fa11d662951ddbdf78e5d9836e7fe3cfb0,2019-01-17T15:18:51+01:00
SYNCOPE-1304,9e9002f4b2ae437b4c10f32d3dab513f2e3d9bb5,2018-04-23T16:29:00+02:00
SYNCOPE-1303,909af68081e1efdfc04fd19e1a298cb621477e08,2018-06-25T10:39:39+02:00
SYNCOPE-1303,a2dfa8f01ec6de9a2e81d9ccf0b47a3dd7162b5e,2018-04-23T12:11:51+02:00
SYNCOPE-1309,057d13fb694c3e2178f2d960e9f33d3eb4ef2196,2018-05-29T11:40:34+02:00
SYNCOPE-1429,c7349473e7eca5fbedab9567edef17c48c3ae2cf,2019-01-30T16:02:24+01:00
SYNCOPE-1308,7cdeb5fa8aaae5e39e2453e7bd9fe057afc886b4,2018-05-07T17:23:10+02:00
SYNCOPE-1428,9f3b3e39f820d6d1445206e77323b5140d744179,2019-01-25T16:25:00+01:00
SYNCOPE-1307,761399c46b69b5e27e5ff0e47a7ed5ddb6489f3b,2018-04-26T14:13:06+02:00
SYNCOPE-1306,c0e2aedef5360101a78fb0932c7ea16fc2ae3c8b,2018-04-26T13:30:28+02:00
SYNCOPE-905,3f279cd7b836c5d786ed21f5f400ab5d315a55f2,2016-08-09T11:14:50+02:00
SYNCOPE-907,aeb3aac81cd1d8a5a12f9fc74050228d380233e0,2016-07-25T10:49:55+02:00
SYNCOPE-908,c533ba9f882bb3fba6171c4a807582cbfc39d5ff,2016-08-01T11:39:01+02:00
SYNCOPE-900,b1f7576868c528093c8d28168bedda8ba92738f9,2016-07-11T14:50:10+02:00
SYNCOPE-901,c1c7cede8c464bfc29d0209350664ea9266eaec4,2016-07-18T16:00:05+02:00
SYNCOPE-1411,0377b6b1c39fae4878ed2b77e19d290fe62797da,2018-12-10T15:40:17+01:00
SYNCOPE-1411,c1879cc2023a32e7d7b60d8389165ea17024b2e2,2018-12-10T15:39:56+01:00
SYNCOPE-1419,4a293350217a4c065781be22d8f8067729ab4df9,2018-12-21T08:51:10+01:00
SYNCOPE-1419,deb442998b579a3855940b26c16a5aedcdc6ab05,2018-12-21T00:20:32+01:00
SYNCOPE-1419,f4adfd2fc6e11ac33c556356db4bc066f4895565,2018-12-21T00:09:43+01:00
SYNCOPE-1419,b8114cf1cfadd6a9730adca4301663b4dd86db19,2018-12-21T00:07:31+01:00
SYNCOPE-1417,6583c746d7418b992c0615d57f1228d37fece5ce,2018-12-14T12:36:19+01:00
SYNCOPE-196,6bfba4254122878669ca1ec969152c00732769ab,2012-09-04T10:42:24+00:00
SYNCOPE-197,9479176170aaf3b98f83cd3502552a04d27e3ec4,2012-09-05T09:58:50+00:00
SYNCOPE-183,f95ad4f11d6d9880d2dd44799c7880402bc50a36,2012-08-15T12:53:27+00:00
SYNCOPE-187,945a21ed1a2e43f80ae49c5b72bc3f251536a9f2,2012-08-14T14:13:40+00:00
SYNCOPE-294,968bd6258d62fd307fbd5c222ba8f8c98302dcd7,2013-02-01T09:35:21+00:00
SYNCOPE-297,e5daefcf7860440e81fba965d1e92671fb6b09d9,2013-01-31T16:07:47+00:00
SYNCOPE-292,dc2a9e22ea07f92f32a10b2b3413fc845b28af21,2013-01-28T16:05:56+00:00
SYNCOPE-292,6b84a05aef688f0190f55097732f3d72777e4455,2013-01-28T12:19:41+00:00
SYNCOPE-1044,a0ffad75eeb166590f05f2d80d043c56b620023c,2017-03-13T16:49:24+01:00
SYNCOPE-1285,2dfefb487d3e4b2fd59595a4e696b1dbcf78e318,2018-03-22T11:44:52+01:00
SYNCOPE-1043,d5f925f48b431cbd36ed32dc119501361b8b7c94,2017-03-14T12:21:51+01:00
SYNCOPE-1043,aa8e9f1e6e3797d40665855ee7cf13ab64c11e2c,2017-03-10T13:51:18+01:00
SYNCOPE-1043,98e27bfe1e46643d58fe649aab52d3597d914267,2017-03-10T13:51:12+01:00
SYNCOPE-1163,020a35c64aecb0afcda336bae815c4d3605aed22,2017-07-14T09:07:43+02:00
SYNCOPE-1042,d268c1ec5c281d105e2d257e60d0677362733e0b,2017-03-07T16:31:29+01:00
SYNCOPE-284,36a2b0bd551954d0364b279ddf50c541142904ee,2013-02-04T16:57:42+00:00
SYNCOPE-1162,715745275b0c8993f48d206231aaf0935f94d17b,2017-07-13T16:22:54+02:00
SYNCOPE-285,23a34b4bcbd8aae74ad25e710b1d4654f22a0e65,2013-07-26T11:03:19+00:00
SYNCOPE-285,76a4861d322120ac8e6a9ba21416c858243c0d55,2013-07-25T14:26:38+00:00
SYNCOPE-285,c63fa3e474e4ab9bbd3dc6426daab10749fab885,2013-05-24T08:03:03+00:00
SYNCOPE-1048,9fe5a756115a1caafee3261d914c6b3d4788503c,2017-03-17T16:59:49+01:00
SYNCOPE-1168,4214a38925ea07d6ab2a9d8bbf32fcd3fe0841d0,2017-07-18T11:36:21+01:00
SYNCOPE-1288,51c60a7a134f7680b7f604f34b1a9c4acc5ddab6,2018-04-05T16:39:18+02:00
SYNCOPE-1046,af37b2ba93809d61fd0b65ef6f106c4e5f281ecf,2017-03-14T12:21:58+01:00
SYNCOPE-1166,aa85d990087bc16c3496f273629fb187a488bcfe,2017-07-28T18:03:02+02:00
SYNCOPE-1045,750c789aa2e79559ce0f5f875082473c11be8153,2017-03-14T09:20:23+01:00
SYNCOPE-1049,2a7358f452a3a8d65353a4d04bf445caabf39a73,2017-03-21T14:48:40+01:00
SYNCOPE-1293,a8ae113d902e33ba27e03dd5d250187868f45c41,2018-04-05T10:17:26+02:00
SYNCOPE-1051,b980a496e59371b19903bf5d9a0bacec874c10b4,2017-03-28T16:15:01+02:00
SYNCOPE-1051,5e79f86b5fa6ad6c155a0e234a7b6808ce69b3cf,2017-03-28T09:31:05+02:00
SYNCOPE-1291,a8eff1cc21d4dd6768472dde169836793080f7a1,2018-04-03T11:49:58+02:00
SYNCOPE-1170,b88a7565f964d476f4626efc722b49d551c2eaaf,2017-07-31T17:02:03+02:00
SYNCOPE-1275,0ee44d88c519da839d0310bc6c1d74d9376054fc,2018-02-21T12:57:34+01:00
SYNCOPE-1033,2d4aee40f67069f0ef6254dcb98dea0fd2d22074,2017-02-24T11:24:50+01:00
SYNCOPE-1032,2fbe7fb200aae36f5a1d1935ece0b3921018377b,2017-02-27T16:14:59+01:00
SYNCOPE-272,0ccbe2f7b2ec04660740b885c590deda6874d130,2013-01-14T14:31:14+00:00
SYNCOPE-394,b4254c8c2ae1051b8d1a295592cfc2b59404f480,2013-06-12T14:24:11+00:00
SYNCOPE-394,9bd4a33024c080dfd62848fd887d39d62335931a,2013-06-12T14:20:13+00:00
SYNCOPE-394,5af121463d1f29cf2fc4d0b38510492099f70fd8,2013-06-12T14:02:38+00:00
SYNCOPE-1393,92207203968241d23d5d81fdf43c4923abddbffc,2018-11-05T14:55:26+01:00
SYNCOPE-1272,be4f145f917117f9d69e084433d90ca56691d870,2018-02-12T11:40:29+01:00
SYNCOPE-1151,8d2d9edc5af8b1017731c1c711f9e3b934f2896f,2017-07-14T13:05:35+02:00
SYNCOPE-1151,d7fbfe4862851bc5d7833dbb293c6b3f4b5185d5,2017-07-13T15:23:48+02:00
SYNCOPE-1030,d0dc9b35f8e901c692c6df8b3016fd2384d94d62,2017-02-27T15:19:05+01:00
SYNCOPE-274,72e4d9d7ee46bbe48411b22f7776f4cec128abf4,2013-01-15T12:47:39+00:00
SYNCOPE-1158,3e90e38fd6519ac3b94a6ca3c4db9eab9434f1bd,2017-07-12T15:42:46+02:00
SYNCOPE-1037,16020a557ad314d9034712f4bed8d13b90921166,2017-03-03T14:00:42+01:00
SYNCOPE-396,dfcb2632e95583dc35cb99f4cac19a363bff4b82,2013-06-24T14:29:45+00:00
SYNCOPE-1399,ec294925415c9fc58e81c74551d28176245e76e0,2018-11-20T18:09:10+01:00
SYNCOPE-1399,85fe179ec541685e28b83cea55cec2b9341a50c3,2018-11-20T18:06:10+01:00
SYNCOPE-1036,b2b8ee1998cb60d5fc31e2c11283fdbfaeb7cc73,2017-03-03T14:00:46+01:00
SYNCOPE-397,00166b51c13ddafa7a38919a636e24f436d29d26,2013-06-27T11:43:39+00:00
SYNCOPE-397,8e7e89fe62a2874b18a7e6cdd02b26232ec11ca8,2013-06-27T11:24:22+00:00
SYNCOPE-398,c8bdd8534794b955632fcf61bb46dbf9ee9bbcb0,2013-07-01T13:49:56+00:00
SYNCOPE-398,5cca15db54f476bdf1039d884455c6a8927c09b9,2013-07-01T13:49:13+00:00
SYNCOPE-1276,9574ada8c2893ebe4ffd87e9e4832df1cd534f05,2018-02-20T12:54:33+01:00
SYNCOPE-1034,c6e10f92ffb37391c6509725838e8d61aaac7fab,2017-03-07T15:01:20+01:00
SYNCOPE-399,9d01f95ffdf2ce861b5b8c166d210fea0329b5c9,2013-07-04T14:22:02+00:00
SYNCOPE-399,0b3ca4a98291be7bb1e2ff00b953438401d06cb3,2013-07-04T14:19:50+00:00
SYNCOPE-1039,bfcac4bbd4a8007ee2df3bf4c61e667c2d1215b2,2017-03-07T12:15:39+01:00
SYNCOPE-1038,72f1b3e1a0a239c042548a2da7c7fac142dab55d,2017-03-07T16:56:48+01:00
SYNCOPE-1282,d52636ba8e64426a32e23a88d2072c29e4ec1307,2018-03-15T15:01:11+01:00
SYNCOPE-1040,58fa8e7bf50eab0c156b5a3cbda3a0a93c2e9d7d,2017-03-01T12:24:41+01:00
SYNCOPE-1066,aa36e2ab5f5e9a14cca5f851588de01c190ce2ff,2017-04-18T10:43:01+02:00
SYNCOPE-381,25ad33a77ed4d3114260546f21c9dac36f1208e1,2013-05-31T16:07:14+00:00
SYNCOPE-381,b28b5843654e8b4c8975b7f8fb1491aba5f92412,2013-05-31T16:06:05+00:00
SYNCOPE-260,2ef8a0656d6b0b12a331aed8efe6a7a9acd75314,2013-01-07T09:03:56+00:00
SYNCOPE-260,1a96e856a2d14441c4f4d802360a440b3d57a601,2013-01-03T17:38:35+00:00
SYNCOPE-260,bc0f5e7a6e0907900fa9af6f8bf24faee7dc5f61,2013-01-03T17:34:01+00:00
SYNCOPE-383,b97d26cb2fe86c99e9ac6dff60d177074009c7f2,2013-05-31T14:49:16+00:00
SYNCOPE-383,fbd31cd5dd2022c37d9cedff58898d9c9218bdc1,2013-05-31T14:46:14+00:00
SYNCOPE-262,c050cfe4cc6c4123517bc0fbcbc4eaf4a195f5ac,2013-01-07T16:54:01+00:00
SYNCOPE-262,26f7ba0cdac007fc34ae82fab0d1d928963b38cb,2013-01-07T16:30:17+00:00
SYNCOPE-384,6930e5c48beb2e2719062a12e0f66ae62bf01016,2013-05-31T13:48:50+00:00
SYNCOPE-384,1bcba4409333e831648a227459c38dfde5ab12de,2013-05-31T13:47:10+00:00
SYNCOPE-385,e9b32c5564805a386e89eee8e97516f5753fd2b3,2013-06-03T07:03:07+00:00
SYNCOPE-385,ff5e5547d5f8463566fa9dc3e70100fe590ecf0e,2013-06-03T07:02:06+00:00
SYNCOPE-1069,51ae1d5ef0e1055f9789cc36bd85bbf28cd6413f,2017-04-20T16:55:47+02:00
SYNCOPE-1069,dd034efbed63740853de1335a12a17de73547ea9,2017-04-20T16:44:41+02:00
SYNCOPE-386,0e33853a83ee61548d055928e2f8b2e688eb0773,2013-06-03T09:01:57+00:00
SYNCOPE-386,8ba9c866b3176e2d3729f0f9000dc4e2d241e6eb,2013-06-03T09:00:53+00:00
SYNCOPE-1189,b7458d070f88a18ea098dc0196177a502f0623ac,2017-08-08T12:40:45+02:00
SYNCOPE-387,21e8da23ee598d65af23213bc68e18f194f7ae05,2013-06-07T10:42:01+00:00
SYNCOPE-387,e742da5f3172cd914420d4a40fc1ea78932bbbbb,2013-06-07T10:41:39+00:00
SYNCOPE-1188,0d93a3a5bba32a9a544eaea12df72b2d165c51f8,2017-08-08T12:40:42+02:00
SYNCOPE-267,5d58e023a63a8e25d87225aa7547d24d733a2065,2013-01-08T11:48:07+00:00
SYNCOPE-267,415c57efa1eb3849945fe85c6ac80a9a027ae924,2013-01-08T11:34:23+00:00
SYNCOPE-1190,228e10e28da14362733e9ad3901756526d0e5e5d,2017-12-05T10:19:56+01:00
SYNCOPE-1190,4f7cb969c55acf9b154923490279701984e17459,2017-08-17T16:51:43+02:00
SYNCOPE-1190,d91e41e12e5fcb0fef9c10649fc09c568e944e74,2017-08-11T11:51:14+02:00
SYNCOPE-1190,97744afe7fe103101ceca95294af51ed48333be3,2017-08-10T10:45:39+02:00
SYNCOPE-269,4fefb4d544415014b4451ff2872eb745cb7909eb,2013-01-11T16:00:20+00:00
SYNCOPE-1193,81515d7e243e8116409e2be2cb6bf036a305f988,2017-08-11T16:06:54+02:00
SYNCOPE-1071,cad371cec6676b68cc82bc0aa5c44e5bbeb8aeab,2017-04-26T14:13:29+02:00
SYNCOPE-1070,16029366613c0534ea77828bec02c7cd607fb223,2017-04-21T13:04:25+02:00
SYNCOPE-1297,d5cfe764bf8853c4f87d74e7b5772da4f9083338,2018-06-08T15:36:36+02:00
SYNCOPE-370,561a8c64f6810a81e941342106ac8b4afc51404c,2013-07-02T07:13:37+00:00
SYNCOPE-370,a636677ea268cbc7d259c4de0013db0715985b08,2013-07-02T07:12:56+00:00
SYNCOPE-1296,2dbd5993a0678da0b606dea4099bd493006d6cf3,2018-04-09T08:19:57+02:00
SYNCOPE-1175,0e4eed03e565107d7aa2801bc892aa099926fd82,2017-07-28T13:22:25+02:00
SYNCOPE-371,727fb9dece0d7aa789663a5acc762cbc80623e2f,2013-05-21T10:32:22+00:00
SYNCOPE-371,6321f920b4658c2c01a98d39a8dc3890544a02e8,2013-05-21T10:31:09+00:00
SYNCOPE-1174,b41675a335a7d6b4d297f0cd332738c21a6c29ba,2017-07-28T13:22:44+02:00
SYNCOPE-1174,64ef5bf1800f699168f59fbd27be113c76cd0baa,2017-07-27T16:47:35+01:00
SYNCOPE-372,b15e4ed00543966b0d20e8886f78ac5b9146af8b,2013-05-28T08:18:40+00:00
SYNCOPE-372,f8ecef1fcfb758822771f41afa9907a8715ba372,2013-05-28T08:13:57+00:00
SYNCOPE-1294,95ee2ffe810336f3bf785e2d231fa15e71630919,2018-04-04T17:48:02+02:00
SYNCOPE-1052,4ba66c335f5ab7bc7f51ea2ef1568ad03b299eda,2017-04-03T14:08:48+02:00
SYNCOPE-373,223db7ba16cd8413d1e6ab5a4ac5f06e30cb1307,2013-05-28T07:53:43+00:00
SYNCOPE-373,c057c0eb98c093d76663aae7f7ac43bf0efa18dd,2013-05-28T07:36:19+00:00
SYNCOPE-495,ffc61f0e328a2ec702f0e9ca72cae31ed38d9b53,2014-06-03T12:14:39+00:00
SYNCOPE-495,963cc3105fa8e15862c2f0b45d41e4e630cf5d6a,2014-05-27T12:52:03+00:00
SYNCOPE-1179,2b4053df14d74e47c55ced76b713fc1baba0abda,2017-07-28T14:50:03+01:00
SYNCOPE-375,f1a6ec238161db4f3637bc1bf9fb894ee8167b17,2013-05-29T06:53:34+00:00
SYNCOPE-375,bdcc744f427d20bf35a574e6266b754e233be651,2013-05-29T06:52:48+00:00
SYNCOPE-1178,89fe8311579a2079c33a17cadbdb9be8e172972f,2017-08-02T09:32:06+02:00
SYNCOPE-1057,c8cef3d92dda92a3c8f81e1740928789d1641d89,2017-04-05T13:10:32+02:00
SYNCOPE-1057,4a82fb302b08e05360adc30e56780f180e97f8cd,2017-04-05T12:03:34+02:00
SYNCOPE-497,a01f0bae81494750cc3f9914abc58301d7effffe,2014-06-06T11:46:03+00:00
SYNCOPE-376,357ef239cff44078b63d5e576843f26b41a0f64d,2013-05-30T12:53:40+00:00
SYNCOPE-376,21221c19c5d9021beb2c3393e5110e25f3ff8b33,2013-05-30T12:52:44+00:00
SYNCOPE-1298,e8e189aaf32fd8526469d3528c6c38efe38d372f,2018-04-10T16:10:08+02:00
SYNCOPE-498,316eca74d0fc08548d1199fbe2f49325ca84d866,2014-06-03T14:48:51+00:00
SYNCOPE-490,067b6ba262293b6f58a7340e9cac17d6e7109682,2014-05-08T12:49:21+00:00
SYNCOPE-499,3ddffc0364ccd183793701359dc77e6125943e9a,2014-06-05T13:31:55+00:00
SYNCOPE-499,435cf91cda4887ee8305ceaee9dfb3f85635ea9a,2014-06-05T13:18:41+00:00
SYNCOPE-1062,f0e0199fc70774bcab8e2bfb0304cf0a05d15728,2017-04-06T14:32:01+02:00
SYNCOPE-1060,fad07ef43d271a302f1b3fb5c99ee6dc68cfdbff,2017-04-10T09:02:22+02:00
SYNCOPE-1060,dbf07add3dbca0b3a99993e9153bfbfa72b417ea,2017-04-07T16:57:54+02:00
SYNCOPE-1180,13c046a29287b814c68b6620963bc850c9ce6f6c,2017-08-01T09:28:48+02:00
SYNCOPE-1180,7ad5d19b91e01544f076b980c1b26deae0184a79,2017-07-31T16:49:10+02:00
SYNCOPE-360,9bcc552c2593011fe9157a76adc5f7e9329f93c7,2013-04-19T09:35:54+00:00
SYNCOPE-482,eddd08e933a50e2ee8a60288318d240059480324,2014-02-27T16:14:41+00:00
SYNCOPE-361,aa1a7c6f90bc09bca2463649a944c8797a63cc7d,2013-04-19T09:34:32+00:00
SYNCOPE-361,9ab4a6fd4fc65670110170617ade40aa3a443480,2013-04-19T08:28:41+00:00
SYNCOPE-361,672cebff2fdee71d150721d522cfd4b537d8e724,2013-04-19T08:28:09+00:00
SYNCOPE-1085,0171cbc096fe474723ff4f70f4136a63f4e3377b,2017-05-19T15:11:23+02:00
SYNCOPE-483,7cd4b43de678e9545fd191d6f6b102eddd674141,2014-05-13T13:59:46+00:00
SYNCOPE-483,a0976793c6e5f6e05ef8e0c0d25613b9f42a7e12,2014-05-13T11:41:43+00:00
SYNCOPE-484,8cd8508cfe7b858c049acadd4c789abbd44640f7,2014-03-13T07:11:21+00:00
SYNCOPE-363,71550a66e999af49729687fd90e72b39c186ba0b,2013-04-19T14:00:15+00:00
SYNCOPE-363,f4b36e580aa875b8384f6ad10abf53813f6be8fb,2013-04-19T13:59:38+00:00
SYNCOPE-364,87a4c00cfb48fa7b22ca89449cfcdaaeefaec5c7,2013-04-19T15:14:03+00:00
SYNCOPE-364,41f8139113d1077feb667f6b33290d23c04a2279,2013-04-19T15:10:25+00:00
SYNCOPE-365,062d95c120c7ae0e3b727558e307dc462c22866c,2013-04-24T15:41:29+00:00
SYNCOPE-1089,5d1a0f00edc651d4a37e80ddd9a1bc1b24736e50,2017-05-22T19:36:21+02:00
SYNCOPE-1091,73c7704002f96a8732a34e664049d24e704e88b7,2017-05-24T15:40:42+02:00
SYNCOPE-1090,87ac9bccbb9fab9003f36c1301ac72fade05ab16,2017-05-24T11:16:23+02:00
SYNCOPE-489,efb1ab7252cd55f1a983b220c64f247591094eb0,2014-05-08T07:29:55+00:00
SYNCOPE-368,79dd23cfc384ebbc5fc656206d1aa583a82aaf05,2013-04-29T11:22:10+00:00
SYNCOPE-368,cfd67bed4cfbe194dd11bb15e72c1c72c7d2ca3f,2013-04-29T11:07:08+00:00
SYNCOPE-369,4c4876ec440e826afbcb2f7c54b0b50d330b60c0,2013-05-09T09:06:44+00:00
SYNCOPE-369,9e710da83f0217367bb7052c320e3928f4038781,2013-05-09T09:05:54+00:00
SYNCOPE-1094,5b2ce7178634958a889ae27eb2cef371c1f14d5d,2017-05-24T16:55:52+02:00
SYNCOPE-1076,2f65c14fcd681d1e2e798e4563c6eaa07b5def9f,2017-05-08T15:54:02+02:00
SYNCOPE-1075,018fa9771adee2788be0ba3357c31cdc5da17cba,2017-05-05T15:48:37+02:00
SYNCOPE-351,f632f56dd8786299ac4d2ef1bf22799bd0d84ecd,2013-04-09T12:16:02+00:00
SYNCOPE-351,c6e7ac002b60ac457751b00a5bc9d683541aab0d,2013-04-09T12:15:26+00:00
SYNCOPE-352,cefea78d6a7a5da3c5e9450afc63ff9c5969dc0b,2013-04-09T14:17:17+00:00
SYNCOPE-352,e988ecdbb2c5129743add2c1ad95fe9781949361,2013-04-09T14:16:19+00:00
SYNCOPE-474,b63ce558de2acc5577e643c944fca79f11ae3b12,2014-01-09T15:57:14+00:00
SYNCOPE-353,f9c5e26ef08dc852ac861835b3bdd7e983a55cd0,2013-04-09T12:53:03+00:00
SYNCOPE-353,d0701a9260409b740169bf1a98be0ba641d8bc81,2013-04-09T12:52:34+00:00
SYNCOPE-111,2596621a12928f0553c70408afa7eea0dc1108ef,2012-07-16T14:09:52+00:00
SYNCOPE-1079,c1cd3fe9ad12227d58de5adac666d569c9c29876,2017-05-09T18:49:00+02:00
SYNCOPE-596,a23ef02f2c672c009eb664e8fe91f9ae07e82adb,2014-10-28T14:32:37+01:00
SYNCOPE-475,6cba7826c7d7866179237c1236d5eae8e7652828,2014-01-09T15:21:55+00:00
SYNCOPE-475,907983e586194622e921dbf9d24f70ce07cc8dda,2014-01-09T15:20:45+00:00
SYNCOPE-354,adad7f32f34e4747a4da4545bf043b5ae7dcd456,2013-04-24T13:30:44+00:00
SYNCOPE-354,e717dc4d620c88df13831e36b263d6c97f82ce3e,2013-04-24T13:29:39+00:00
SYNCOPE-112,66bfdf75f78725c9c1c8add77c250c180ad300d3,2012-07-17T10:57:46+00:00
SYNCOPE-1199,df4bd83c9d4c8374991a57e33a496e93aeaa0f12,2017-09-05T09:34:41+02:00
SYNCOPE-1078,b34ff3f7e52567eb5a8506e500ed38e8bd1592cb,2017-05-09T15:16:52+02:00
SYNCOPE-597,15ac9a5c72788335d4079ea5302fcaf7be8345bf,2014-10-29T18:06:26+01:00
SYNCOPE-476,1e5f2a67f6036f5379dcd740d4b1c4799dee7b90,2014-01-15T09:57:17+00:00
SYNCOPE-476,af58a6e90bb05888763e3e5422efd235719d7f9b,2014-01-15T09:51:13+00:00
SYNCOPE-476,fcc7059ef14f5c935385c6959e272b2d133e968f,2014-01-15T08:33:00+00:00
SYNCOPE-234,9f733f56df217d091b9902d3973b6e08e8922720,2012-11-05T20:51:50+00:00
SYNCOPE-113,ae758caa603d335634503d0703bb0e402253f08f,2012-07-20T08:46:39+00:00
SYNCOPE-598,4d264368ed1df29e13690e9c6b05b651a366f273,2014-11-06T09:46:13+01:00
SYNCOPE-477,1e5f2a67f6036f5379dcd740d4b1c4799dee7b90,2014-01-15T09:57:17+00:00
SYNCOPE-477,af58a6e90bb05888763e3e5422efd235719d7f9b,2014-01-15T09:51:13+00:00
SYNCOPE-356,8bb662cbdafd618e1f9536b01afcd141c73862be,2013-04-15T09:43:45+00:00
SYNCOPE-356,5156537301a5905b543a09c9b6f5ef4d37b2c0fa,2013-04-15T09:43:06+00:00
SYNCOPE-114,7c8c6cba48023dc2c56d4d9412d45b0ae27aca63,2012-07-20T10:20:36+00:00
SYNCOPE-357,26ab48865ae7cdbf5860130d76c1fe7391bb72d4,2013-04-24T15:20:13+00:00
SYNCOPE-357,800371ddec3f68603ed54f60bf72a2792ec4821c,2013-04-24T15:19:22+00:00
SYNCOPE-115,9e3ad215f6ea8ed698bf31005d2f831d766368c2,2012-07-26T09:28:24+00:00
SYNCOPE-358,132365ba6bac7c91df5100952a029325b19e78d8,2013-04-15T12:05:49+00:00
SYNCOPE-358,7f70d538778252a5f4b9706299305e59124c0acb,2013-04-15T12:03:30+00:00
SYNCOPE-358,a9ce3f6a4598436a72e02cc5ba2b2c26550e13a9,2013-04-15T11:56:08+00:00
SYNCOPE-117,49bf4b8f3db79de56f35888048066f6345eba04a,2012-07-30T11:30:31+00:00
SYNCOPE-118,08b92d5d83f387f31db37b48d622b29d71dfa84c,2012-07-30T07:49:08+00:00
SYNCOPE-1082,36b786c041523de3779c7bb64fad1679e7c8db7e,2017-05-25T15:53:06+02:00
SYNCOPE-1082,9fc62b668a300567cb3e3d6c468187226e387663,2017-05-16T11:03:04+02:00
SYNCOPE-1081,7e0d6775047d2bf66fa9978f4a5385ab3f5b45fb,2017-05-26T16:04:13+02:00
SYNCOPE-1081,67568240f72b2bbadf151818f7aa20de24266d80,2017-05-23T11:50:58+02:00
SYNCOPE-1081,66f665191a0ee64f1fe87693d66bb23a23e6184d,2017-05-15T17:57:17+02:00
SYNCOPE-462,9dfcc57a1d33b0bb8be888050d42cac877d2e412,2014-01-30T12:59:20+00:00
SYNCOPE-462,e9c813556781360223a8a7f8c2ddb8074470ee75,2014-01-30T11:37:52+00:00
SYNCOPE-341,0438111af1088172eeb05c61d571dae2b80406b1,2013-03-22T13:55:04+00:00
SYNCOPE-342,972812f69d456c13320e02618c03f0f7a77c0dd7,2013-03-22T11:13:29+00:00
SYNCOPE-343,3272f8bd60a97678bd73f51111d8e033f34f3169,2013-03-22T17:05:41+00:00
SYNCOPE-101,8e85c2ae4ab142307eb646714c53deeb6f7f68ea,2012-06-27T13:58:02+00:00
SYNCOPE-465,6afd2ce9bf994e4fdab2426d9e113aae478e0d4c,2013-12-31T11:58:55+00:00
SYNCOPE-465,f285d526ffde53fb323ea66705283e77c8fe85d4,2013-12-31T10:31:14+00:00
SYNCOPE-465,8bd972c47de9d8659c9e57cefd30b7c702fc3d33,2013-12-31T07:45:14+00:00
SYNCOPE-465,822302c158dc907454835b54d69c811cfed3fdd0,2013-12-30T14:28:15+00:00
SYNCOPE-102,8948088ddca0eef141d06ddbd9459fa073f67158,2012-07-13T16:34:31+00:00
SYNCOPE-466,2940e5fc1a1efaeac5b75bd232cae744de01b2f4,2013-12-30T11:26:03+00:00
SYNCOPE-466,b33f2ca563ebd70b1df0dcd8820264ca4b05a79b,2013-12-30T11:13:03+00:00
SYNCOPE-103,87a99779601bf0a417a5abf944a3530f6eaefa2d,2012-07-03T10:19:46+00:00
SYNCOPE-104,0acf6a7f7f448ab4ffe3930aa179e47c120b3920,2012-07-04T10:07:37+00:00
SYNCOPE-106,561ba1cd2ef872895a64c9f6909ccee04c33568b,2012-07-06T13:55:33+00:00
SYNCOPE-349,b41540a30aef6db0dfec2dbb36fc77b1f50ab73d,2013-12-20T08:33:42+00:00
SYNCOPE-349,dc9a5a8594e7b6dc377c9b42bfa4fbaea449fd7d,2013-12-20T08:31:14+00:00
SYNCOPE-349,90e89addb59464ed5eb311ba9a8c698788eaef46,2013-12-17T15:00:07+00:00
SYNCOPE-108,9af846542fd2c69cf46a9b21d5672eff8b271ed0,2012-07-13T08:11:22+00:00
SYNCOPE-1099,ca0fcf1b728c9c6937b55fd0a8bead1d91d3edb4,2017-05-26T14:38:15+02:00
SYNCOPE-1098,be35817fe645f4142c2d80be0ee55e36c156324f,2017-05-25T14:45:56+02:00
SYNCOPE-691,76e38c59664f39245e6877c5853f5eae79835af4,2015-09-07T16:37:32+02:00
SYNCOPE-691,87e75438173ff19b8589af7347bcf0a8b560710b,2015-09-07T15:39:01+02:00
SYNCOPE-571,ad6f31b29bb59d717262932b4ba0712684bb496a,2014-10-22T17:54:44+02:00
SYNCOPE-572,9329c54fd62180df3727a4f72bbddd41c9fa1b50,2014-10-31T11:32:51+01:00
SYNCOPE-330,edfb9edcaf52be6d5e2f1d616a861f85eb05d415,2013-03-05T14:42:42+00:00
SYNCOPE-452,1f4059be5aff6d8023baa519840eee4eb5ff6ea2,2013-12-03T13:40:22+00:00
SYNCOPE-452,7568625dd9de4c9bff6b1a7a908e85546d5b22db,2013-12-03T13:27:06+00:00
SYNCOPE-574,4e29d42fd4d0f6b9dbc623527164b0d373216d53,2014-10-22T22:02:35+02:00
SYNCOPE-453,452ec8e6e6e83f29aa4bd4c4c54dbfc172b28130,2013-12-03T14:54:09+00:00
SYNCOPE-332,2a53b46e56df3010c68334846bb8323a7d5d4e94,2013-03-04T15:52:51+00:00
SYNCOPE-454,8c4a227edd50fa0e35dbc77038a7ca2a6a35b3ee,2013-12-04T15:34:14+00:00
SYNCOPE-454,8beb540ecfc37e38778d6aab24b185a30395f9ff,2013-12-04T14:43:48+00:00
SYNCOPE-576,8fc6e9e542266dbdcf04d8db5bcbbe6ea7d9385e,2014-10-30T16:45:55+01:00
SYNCOPE-455,0e2dfae7c29c375e22427df4655bc102a0808f0a,2013-12-04T11:46:48+00:00
SYNCOPE-455,f2648c51c3f6168095fb67007618e8eff59f38c7,2013-12-04T11:29:09+00:00
SYNCOPE-334,14ec17ba6b6f84021606a027737aef2a60d1159f,2013-03-04T13:16:19+00:00
SYNCOPE-456,f9aef233e493e3ed47f9011ede1b94441272c9f9,2013-12-03T07:53:10+00:00
SYNCOPE-578,f44df5bfdf83112b5ecfa033a3710495e03df151,2014-10-30T17:20:47+01:00
SYNCOPE-457,48798d615bba77ccbdd6f8857ad101ccf7cde9bd,2013-12-04T08:12:14+00:00
SYNCOPE-336,4cabd59ef5a9b4c73e910ba926e11cf360f4deee,2013-04-26T16:00:43+00:00
SYNCOPE-336,e8a50c9ed1fa2e4638e6e2ca38fb0eba461676af,2013-03-19T14:30:32+00:00
SYNCOPE-458,9fcaab6afb4f253937f65c2b470ce37b775e6e24,2014-06-10T09:45:54+00:00
SYNCOPE-459,e917514b4d73425a8da26567d3746da42ca64921,2014-06-16T10:40:39+00:00
SYNCOPE-459,db01dd93e91964bdcc54954c25b38509a320aef1,2013-12-14T09:38:34+00:00
SYNCOPE-459,e16d3b9d6209b6081873a85493839447b332f469,2013-12-14T09:01:12+00:00
SYNCOPE-338,dc893d8eee1231ae1832017e7eb3f963b6862138,2013-03-19T15:06:51+00:00
SYNCOPE-339,aa9cd6b9da825787821443345ff58fc2182fa2f6,2013-03-19T15:20:42+00:00
