Bug ID,Bug Fix Commit Hash,Date of Commit
TOBAGO-1350,28cbc3bad817c088cf2e815e6fe5c2d89d241340,2014-01-03T15:22:23+00:00
TOBAGO-1230,e5bd9636fca4882ae3e0d3e27ceb68564aa51aff,2013-03-01T11:48:35+00:00
TOBAGO-1230,fd0fead0c2d6efa99cc791ce078269f7c81e51a8,2013-02-26T15:04:15+00:00
TOBAGO-1110,cc53292a3c2911683f13dd8bdfa513134f2b9700,2012-04-24T12:54:41+00:00
TOBAGO-1354,d5f5b978012204cfeba30d93b8957f71e74430ca,2014-01-06T14:35:04+00:00
TOBAGO-1233,2c1042f10cc04c85c602a05b1dda116a24f2ba19,2013-02-27T13:31:09+00:00
TOBAGO-1112,39a6a041e9d46c4d81dce827357b6365f130e79c,2012-05-03T08:58:01+00:00
TOBAGO-1112,d6b36a54e61c656372db12589512f5f4e4e6663b,2012-04-25T18:44:06+00:00
TOBAGO-1112,456e16dcb3d245b26dc4a5365e9fa879ee4905a5,2012-04-25T18:43:47+00:00
TOBAGO-1234,aeda8d853a8aee9153d9bc657ae8376e377a633f,2013-03-01T08:24:24+00:00
TOBAGO-1598,8dd4f07c2036c205974b6de62855b9bf8faadea0,2016-09-09T11:59:25+00:00
TOBAGO-1356,fa3b7e9359566bd1d94265f73b83d2b97b96a408,2014-02-17T12:31:40+00:00
TOBAGO-1356,efcec8e4c2034305510b8d075d2ce671d5cae15a,2014-02-17T12:30:09+00:00
TOBAGO-1235,024fc59fd81f7008d0e3e6e5ff3827e8e7bb8559,2013-03-01T08:26:58+00:00
TOBAGO-1114,00443fbd24d972626d059e8ff2cbc49f96d25d38,2012-04-30T08:41:47+00:00
TOBAGO-1116,80223ccfa170fa8dbb63d1e53b44374642b55d15,2012-05-02T12:51:28+00:00
TOBAGO-1359,0a58dc8f91776a2789bc6a3016a79001ebf842af,2014-03-12T13:32:00+00:00
TOBAGO-1359,629b92c75658a8ed70257880ad601790bcf87cf8,2014-03-12T13:17:54+00:00
TOBAGO-1359,6d3126df3c263b235e6ebcb20946213ec1ad765c,2014-03-11T14:13:18+00:00
TOBAGO-1239,1e4589c46672597aa2e23765a208a2a554c14e02,2013-03-08T10:40:58+00:00
TOBAGO-1240,0ca3dc5329aad539e54ae7eaff9f2f5816d05302,2013-03-12T15:31:29+00:00
TOBAGO-1240,35a5404586e64a7b05e61fbb9a52a2fb112be77e,2013-03-12T13:39:42+00:00
TOBAGO-1241,79485c9f7269af861a6efec5b9e1bd2b05aec25f,2013-03-15T10:48:22+00:00
TOBAGO-1484,0dfce6e6dd478ad1b2a306b1e44ca4245b968965,2015-08-28T12:29:10+00:00
TOBAGO-1484,92d0911fc6acfa50dc2ded2d5a05a569af3d41f5,2015-08-27T15:06:35+00:00
TOBAGO-1121,9415353776388bd92efe78c46df2f1d829528d87,2012-05-04T17:52:42+00:00
TOBAGO-1121,477f612ea582bbc43f009faf92ba7b3d85f77cdd,2012-05-04T17:39:09+00:00
TOBAGO-1364,36479f7714e26ef3d25c4bece063c324eaf935c8,2014-02-10T18:21:18+00:00
TOBAGO-1364,d1738cab9cb487293d92f8b84f9c79be1c5bbfe9,2014-02-10T17:37:23+00:00
TOBAGO-1243,49a81e8e87d043c2b9ca0b108e7360a431e4faad,2013-04-02T11:12:27+00:00
TOBAGO-1365,68207bedaa285818b1eff515a39707c073c31747,2014-02-17T08:11:34+00:00
TOBAGO-1365,8305acbc6ddf708691b582bbedb96cee68221549,2014-02-17T08:09:15+00:00
TOBAGO-1245,2d28d98effd6ebd80fea749b500c064929a02669,2013-04-09T09:39:52+00:00
TOBAGO-1245,13619ba028cad7399aafa836be4afdf387891cc2,2013-04-09T09:38:41+00:00
TOBAGO-1124,c0287dc6d928ad56007b44023b0eb3c4c8bbabe1,2012-05-08T13:24:33+00:00
TOBAGO-1124,45c475ad72c29d7ed00ec431d2359cedb77750ef,2012-05-08T13:15:30+00:00
TOBAGO-1246,645db6d8ac466ec54b51edc2d5c9777b340063b9,2013-04-10T13:03:14+00:00
TOBAGO-1126,b122287432d113365f12528e7c65b52cddb64dfa,2012-05-15T06:52:28+00:00
TOBAGO-1249,d3a6203348e8c1f94d0bb36292d4de1e0b82993d,2013-04-16T09:32:31+00:00
TOBAGO-1570,916642ead35dacc965dfc70e0f50ecd745bf1091,2016-07-06T08:08:21+00:00
TOBAGO-1450,0d3717501d75ff86c760d6042fd65d7858b288dd,2015-03-21T12:07:43+00:00
TOBAGO-1450,da2a25099afab78afa2579eb63171e79c524bf3f,2015-03-20T20:57:09+00:00
TOBAGO-1572,25b38d7b7fd240bce548107d8c78ee17c71fae96,2016-11-18T11:42:06+00:00
TOBAGO-1572,6d66a3b4fb235b56b9b5d847a4e799c5a4647913,2016-11-18T11:40:02+00:00
TOBAGO-1451,0d3717501d75ff86c760d6042fd65d7858b288dd,2015-03-21T12:07:43+00:00
TOBAGO-1451,f976a5efecf679417371adf10be9475795d99f95,2015-03-21T12:03:02+00:00
TOBAGO-1451,4f49ca5f934501e3f264a9528b9abc0278bf572a,2015-03-20T21:22:31+00:00
TOBAGO-1210,aed32a6b748812b72fd527b9e669ffab14e507d3,2012-11-06T16:11:51+00:00
TOBAGO-1574,567fc1fbb6a5c3542dba9be8fae74fdacbb7a956,2016-10-05T11:40:34+00:00
TOBAGO-1574,aa6f1980661a9b6d755c76fa30432dc60a87c2df,2016-08-17T07:58:03+00:00
TOBAGO-1574,ddcb48552cdc28189fd4c5efb08ba9fbd8870dc0,2016-08-15T13:37:23+00:00
TOBAGO-1574,53fe7d85621c83608cb8536d996c76fce448f20d,2016-08-15T13:35:49+00:00
TOBAGO-1574,a281aa674047ff7a0c8d846520f4bacfe1357886,2016-08-10T16:50:00+00:00
TOBAGO-1574,981c278a748c66e4c37923f846ef1413df053453,2016-07-31T10:11:06+00:00
TOBAGO-1574,1062a3aaa48f40a95aa9f62d509a9be5bd44c046,2016-07-24T15:45:08+00:00
TOBAGO-1574,fb97804824fb5c33483ebcc9f0b398b617183c2a,2016-07-24T11:52:23+00:00
TOBAGO-1453,47332db8169b3bbd6b6fc920930e64ce7334633d,2015-06-10T07:21:02+00:00
TOBAGO-1453,08f5a4ddd787ab64fa137c913c3021ffbcd845fe,2015-06-05T06:34:05+00:00
TOBAGO-1453,eb7d12ff9bc1aec4c6012b56e5b6da59916b46c2,2015-05-29T21:02:31+00:00
TOBAGO-1453,abcb94bae7acf2dc1138c4c5a5aa732a4a1dcb1f,2015-05-29T21:01:05+00:00
TOBAGO-1453,b7d49ed321c79e7be91c55c088555e5f6101afdf,2015-05-28T09:41:21+00:00
TOBAGO-1453,5b302d484de6bdf1db996984ce0b8fd21269c95a,2015-04-25T20:42:19+00:00
TOBAGO-1453,b274b5ee57b29770c1ec70b09c66401d7b6016c7,2015-04-25T16:49:15+00:00
TOBAGO-1453,23db1bd48ed3d899d10f15ff220cc14cd35d9799,2015-04-25T16:35:40+00:00
TOBAGO-1453,c0f34c8c0f5c9d4126f2dcbcb181711e4185142f,2015-04-25T16:08:01+00:00
TOBAGO-1211,4029a10833a95fd041bd40b4e6247052fc390378,2012-11-12T15:23:10+00:00
TOBAGO-1575,6a826412d0d624163f0873bb347dad25e35a3668,2016-08-03T11:47:48+00:00
TOBAGO-191,94eb1356460d825673c154bdf4e1b5c2db0f8b63,2006-11-20T10:00:06+00:00
TOBAGO-1006,7cd9a2b08472d9c3ddd52f4a390b99c54f1cbe3b,2011-06-23T17:35:51+00:00
TOBAGO-192,97849e17cba0a9a0e4462510e784a9aaf2f12c2c,2006-11-20T09:37:24+00:00
TOBAGO-1578,17ca825eb003b60f45c9d31366e9f7e6da6211d2,2016-10-21T20:13:18+00:00
TOBAGO-1578,e050f8e93ed265e3a299ccb6dc7133a0c8756e30,2016-10-21T20:04:23+00:00
TOBAGO-1578,93adb7f16aacec3272a69337965640e601302646,2016-08-10T08:40:15+00:00
TOBAGO-1457,9ec45a94a431ced48fa47a7b4c398b22a2a60a10,2015-04-23T15:36:48+00:00
TOBAGO-1457,5f3bfbaf48240c08d3bcd16993f244a49bad6f1e,2015-04-23T15:34:21+00:00
TOBAGO-1215,5c3552a62f1a00ca438b9d0cfb2f66cee662b4f4,2012-11-14T07:07:07+00:00
TOBAGO-1005,3256289cab81bf6040a7a9ac2cca182855885f1f,2011-06-23T12:39:05+00:00
TOBAGO-1458,cbd73e69c187e3bd779c6843bb4a16c2c18588a7,2015-05-13T07:38:59+00:00
TOBAGO-1458,026b9170616bdd99a224b1aecad9e2158c4a1a99,2015-05-12T18:56:08+00:00
TOBAGO-1459,d4abbfa61d416f24abea1a42cb7625526d012ebd,2015-04-25T20:44:55+00:00
TOBAGO-1459,419fd8a500b8fe6155c7c0938ea86b41e0382c68,2015-04-25T17:01:19+00:00
TOBAGO-1339,deaa4f83ce190dac9237b0f6c3ff123de19b9b5d,2013-11-04T10:59:00+00:00
TOBAGO-1218,b0897a737c40910b286b386ff133ca363f0e8feb,2012-12-04T10:22:46+00:00
TOBAGO-1002,0e84ca679e08fc06b24925dc9e8ac8971e363c6b,2011-06-22T14:16:31+00:00
TOBAGO-1002,bb5c850d2f208d8770b429b2e86c7ffc6a86109c,2011-06-22T12:44:27+00:00
TOBAGO-1002,89b701a1ebc0cbc6bc1c460dc67bc2a439b67667,2011-06-22T09:16:36+00:00
TOBAGO-1002,b889db7c7e5299709d2260cc5578f3521b168b64,2011-06-15T13:28:54+00:00
TOBAGO-1002,a2cef6864ca1193da3d4dc5c8b4b164f83789700,2011-06-12T21:11:08+00:00
TOBAGO-186,f9bc560133ae7bcfa38b56434dde95e97f67bedd,2006-11-10T13:10:43+00:00
TOBAGO-1000,16b7e00b10bf4f6790fc6a5426e3de10f64ed62a,2011-05-19T12:07:37+00:00
TOBAGO-1581,64da7822ed5aecb74dbc6056e2abbbbd1a431bec,2016-08-11T11:48:01+00:00
TOBAGO-1460,f00e84f3c49bd4dbe57a851db3e3ebd54789cf7c,2015-06-10T07:17:35+00:00
TOBAGO-1460,77a646bcb28837b986b0f15a3445b8ded4f793ea,2015-06-05T20:31:29+00:00
TOBAGO-1460,8c2ef2b9bfac76885c8dd4fcebf1d5e8e7e46bc9,2015-06-05T17:53:27+00:00
TOBAGO-1460,1bf77d92e89cdf81b9c22a5ecf1d77b86199c0a0,2015-06-01T15:33:48+00:00
TOBAGO-1460,c0358223b809a495a70725be28047f98e09af219,2015-06-01T15:32:21+00:00
TOBAGO-1460,08da7dca7ed2ee4e2f4631b0526d67524f83bf1d,2015-06-01T15:11:36+00:00
TOBAGO-1460,343ce4d6b2fef808e6a32ee22e7d387619d974ff,2015-05-20T08:42:36+00:00
TOBAGO-1460,7ca80737db6a2caa676e285bd91923881f35eaa8,2015-05-20T08:41:49+00:00
TOBAGO-1460,97f24a53f9afa4bbc05b5218b13fe48706f36445,2015-05-20T08:20:09+00:00
TOBAGO-1460,1ab34401587f5de24e85daff397ce9a93df80101,2015-05-17T17:09:24+00:00
TOBAGO-1460,b319f90be1df897a0bb22fce51256c75b1e0316a,2015-05-15T14:43:54+00:00
TOBAGO-1460,d6948b1380f9d97c52e6bde33a67a07e53c793cf,2015-05-15T14:36:17+00:00
TOBAGO-1582,a2a98020c87e881b1f534b4e548201be63f8648c,2016-08-05T08:10:50+00:00
TOBAGO-1461,c7962b3fb215e6528f97001e2aa2746c803cadef,2015-05-29T21:03:37+00:00
TOBAGO-1461,94974c215c0dd3a3d19022f016b2775747d44f70,2015-05-29T20:16:15+00:00
TOBAGO-1461,a8a70ab68a88dfdf4f4b124d7db5ff31cd45c31a,2015-05-29T20:11:30+00:00
TOBAGO-1583,71297f0258cbb222107efb2752d9af6d60f95307,2016-08-10T21:07:05+00:00
TOBAGO-1223,15abd6b05cd24ab5e5f021f785bb13a9777202cd,2012-12-05T14:57:28+00:00
TOBAGO-1102,1b536fc845c0d7949dda9f689a631175e8617021,2012-03-20T15:48:09+00:00
TOBAGO-1466,5a0c03cf59453e6def95dc06df8199ff8d3d3213,2015-05-19T07:48:23+00:00
TOBAGO-1466,c405d5dfdc5f91400d1a2203ff7d8450af6e9c83,2015-05-19T07:47:49+00:00
TOBAGO-1103,eb37fd9e29619f397d72d4ea65789fde31666ba2,2012-03-23T15:37:42+00:00
TOBAGO-1103,e0762dacde60f9b4c27df75ca0a19bcd269b9774,2012-03-21T15:09:48+00:00
TOBAGO-1103,9148756052b4ea343205b4ffe5fa12f0e329e579,2012-03-21T14:44:03+00:00
TOBAGO-1467,9bd65f01120ef0f6b13a8226d00ef0f441e474bb,2015-05-29T12:45:29+00:00
TOBAGO-1467,106c413e0c63d8a0acfd9ac88f6d2536ee37c1fc,2015-05-29T12:42:10+00:00
TOBAGO-1225,a175c95b08774e39d60e8c8e4446646847fd34b8,2013-01-21T12:27:01+00:00
TOBAGO-1589,89c06a8e3836f574f6089acdadca3d951ac0ba3b,2018-02-28T20:24:54+01:00
TOBAGO-1589,08b34be623cdae2811ae140b8a5c4e92a897e402,2018-02-28T17:26:30+01:00
TOBAGO-1589,a6bb8531b9ec1c9eb44e3255b921d14faf0478db,2018-02-28T17:03:50+01:00
TOBAGO-1589,84df8f7a48d7f46dcd7c4427f514c43341f0bccb,2018-02-28T10:08:52+01:00
TOBAGO-1589,36c414463c017578284388a1f61658725bf47968,2018-02-28T09:56:26+01:00
TOBAGO-1468,9a77fe21ae13d5417459bf2cf57ab6fd87abe3c6,2015-06-03T05:12:05+00:00
TOBAGO-1468,77e01bbca86bf59c1b743b3b98071b1aa13e864c,2015-06-03T05:09:19+00:00
TOBAGO-1468,0286ae4466d20faf369b5643af3b5e8ebcf9b240,2015-05-27T11:29:26+00:00
TOBAGO-1468,b5653e0ef3ffea18e4516da8b294d04aa5747f71,2015-05-27T11:27:36+00:00
TOBAGO-1226,fa5081a498e887f6bcf4ba8fa8b4dffd45e653e9,2013-02-06T07:58:46+00:00
TOBAGO-1105,ac0be7cc8639d64c4498ad61f0bc688df71d9d06,2012-04-25T15:51:54+00:00
TOBAGO-1105,5667b19b703625c1e226885d5dbce8e31cd657eb,2012-04-25T12:20:30+00:00
TOBAGO-1105,c038bac58e760e5b3fb52753ebf178ec44a2e41a,2012-04-24T15:22:44+00:00
TOBAGO-1105,f0ddf88ad41ae0600887c18a21d2c2a7f44157c2,2012-04-24T14:07:59+00:00
TOBAGO-193,81ce756a0b502a13bd58afb3e5610efefce58599,2006-11-21T10:48:10+00:00
TOBAGO-1469,16a2fe6bdf809f825893639a021737289cb330f6,2015-06-05T09:21:49+00:00
TOBAGO-1348,82102bd65e870efd4a3f569d7047fb66fe274900,2013-12-19T17:17:08+00:00
TOBAGO-1227,eb802160f5ab7b078a9cb62c18ec76453f88833b,2013-02-06T07:43:03+00:00
TOBAGO-1227,378b9b556135c03d461ca12cbacaffe09c593679,2013-02-05T17:22:00+00:00
TOBAGO-1349,fd3de56ca2639ea42f84d5206d4c3a2398f0a709,2014-01-03T11:56:54+00:00
TOBAGO-1108,0529a5138cc50aec6840d1105d13bd4d75c7350d,2012-04-24T11:32:59+00:00
TOBAGO-1108,ebe7261208a4d2cb5d93b4ef7bcfd4b5d6f93038,2012-04-24T11:23:26+00:00
TOBAGO-197,54325ea108be3ce708ad83a041c35dff964618f3,2006-11-24T10:57:42+00:00
TOBAGO-1670,6203c637baa8f90132c1927760c54399eb22f9dd,2016-12-22T13:52:17+00:00
TOBAGO-1670,8e649ad75b8ba3b5847e050569cec41f757f30b9,2016-12-22T13:18:43+00:00
TOBAGO-1671,952f604bd782903890f63113dd886454afa60d0e,2017-01-26T21:00:46+00:00
TOBAGO-1671,ddca9f2a5701a121fc441e47795cd89b570fa8ae,2017-01-26T10:13:20+00:00
TOBAGO-1672,ddca9f2a5701a121fc441e47795cd89b570fa8ae,2017-01-26T10:13:20+00:00
TOBAGO-1431,159dad39440512748fec128841eca3a845807d08,2014-12-15T11:07:16+00:00
TOBAGO-1431,7291aa08f7bd72c5b13a4c4894e45404e1b7e472,2014-12-15T11:05:25+00:00
TOBAGO-1312,ec97d2402e4b3b083494396d17cff8c2cd0db60a,2013-09-13T09:37:09+00:00
TOBAGO-1797,fa90faf42d2e2c66fe5fcf7724a507bf9deae112,2017-09-08T17:29:40+02:00
TOBAGO-1676,bd9e44d6569dd5164c4d230095aaf5a839e3296e,2017-01-19T10:44:43+00:00
TOBAGO-1676,9435c2cefe70947c1613a73ba92f94e41b9f2bad,2017-01-18T15:43:09+00:00
TOBAGO-1798,b03af6d27fd0fde29f3eb265bc9324b4d969647e,2017-09-13T13:51:12+02:00
TOBAGO-1677,967f69bed2008c86637fca38be74dd9ff2e04ad8,2017-01-11T10:15:17+00:00
TOBAGO-1314,1b8a87593c3c4e5bed8b05fb16ad88ffe5037982,2013-09-18T06:28:11+00:00
TOBAGO-1314,b860f63893e8fba7d3b59b3e0d19abcf5f4b3b7f,2013-09-17T19:34:43+00:00
TOBAGO-1436,360fa6705c0935e897c753ff716eb718a2434884,2015-01-07T16:21:26+00:00
TOBAGO-1436,b7182ab5ed4b080776a5ae5a4b9c33d58d20489a,2015-01-07T16:20:20+00:00
TOBAGO-1315,1feb883ff740a189e1ad345fbec351639b54e553,2013-09-23T09:07:33+00:00
TOBAGO-1679,ca678691782b3386f97f16e215d77cc5c3ea24ce,2017-02-01T10:14:39+00:00
TOBAGO-1679,a82efb738c2ff5c58dc4bd2d00e8303662190dcc,2017-02-01T09:10:13+00:00
TOBAGO-1679,1b56caf4ee006b81953fe8e6cbaec4a26a156170,2017-01-26T13:51:56+00:00
TOBAGO-1679,a6f78ebae4cefc6a08717eab976d4dcc5946de08,2017-01-25T17:59:02+00:00
TOBAGO-1437,a05a1d3a43aa05861e56c9619e2970d49f2a106a,2015-01-16T14:31:46+00:00
TOBAGO-1316,e3479a982c8604ca2c9ab94206da5b101dfe8f9e,2014-01-03T15:06:50+00:00
TOBAGO-1316,49456fa485b84822d3ed09577082d425a1258d1a,2013-10-02T06:54:57+00:00
TOBAGO-1316,3f2225524e5292c703562e90dc28776ebff18a80,2013-09-27T08:45:20+00:00
TOBAGO-1559,43d933893ae4e578545d315b84448cd0de5ebaed,2016-05-03T06:56:58+00:00
TOBAGO-1317,9443abeee7c5453e646047c38dca5b112a343d8d,2013-10-07T09:41:50+00:00
TOBAGO-1318,535cfd4443f3271a490172b17fa873faf5520851,2013-10-08T07:47:43+00:00
TOBAGO-1319,ee6fc1adafe3550c82a74c92ce759222065b45af,2013-10-08T14:04:04+00:00
TOBAGO-1680,a5014633885cb848ef32a890e2bbfbe2469ce47a,2017-01-12T21:43:22+00:00
TOBAGO-1560,34afa8e58199141df612165351a495d479faf1d3,2016-05-10T07:10:47+00:00
TOBAGO-1682,4a62b6d28b991f350db6ddac4781a984320eeae9,2017-01-18T13:14:52+00:00
TOBAGO-1320,034a80d75a243855299f5b27e91d33ebd882cc0c,2013-10-08T11:46:41+00:00
TOBAGO-1320,f16962ad1c3650e446e29c699b5c1b8335a37246,2013-10-08T11:37:58+00:00
TOBAGO-1684,392038e23cf349e21d1ff28066660ba284b41edb,2017-01-26T09:56:37+00:00
TOBAGO-1321,6f8c8dc557b8e63d583c0caa38708e650fee6d79,2013-10-15T07:23:34+00:00
TOBAGO-1321,f98d25b2a3804ef693a1331461cd17e8ff851e37,2013-10-14T15:59:29+00:00
TOBAGO-1322,464f06c0a1e32d0c5183c16b38f92a8f87c2f754,2013-10-14T16:02:10+00:00
TOBAGO-1201,fa4c86809a8c87fc3b8bebc30a2ce73803ff9fd2,2012-09-18T12:44:45+00:00
TOBAGO-1444,b2f0f8e1ddae4be59670cd1298c0b72a835e97d3,2015-06-10T06:40:06+00:00
TOBAGO-1444,b7cd389c7d431085f6e9bb9824cf60b40ea21a68,2015-03-17T13:45:03+00:00
TOBAGO-1323,aa06a6b23f4296fc935e511e3db16966b794f561,2013-10-15T13:15:21+00:00
TOBAGO-1687,f4a26cb6ca5af488ca443b58d7af64453f7d8328,2017-02-01T17:06:07+00:00
TOBAGO-1687,244bf6f0818714b0cccaebbca0c3d299280c4296,2017-02-01T13:23:55+00:00
TOBAGO-1687,ff04a1bb6838a2158f687f81c08bfecbdf094509,2017-01-26T16:24:21+00:00
TOBAGO-1687,d82825562bf85c642d90bdf2cc0af0c8d430a368,2017-01-26T16:15:06+00:00
TOBAGO-1445,a60a80c223b3a76cef43c255f13c6598241907e6,2015-06-10T06:39:13+00:00
TOBAGO-1445,067beecff9bce8ef9265f9d669ea385ea4c97ee3,2015-03-17T13:39:29+00:00
TOBAGO-1324,296585637ffed6284d2a46b9e03cba8d51bb6aa3,2013-10-15T15:36:37+00:00
TOBAGO-1446,dae6d8001f85bde547d8a1ef9a3a88efc1016743,2015-06-10T06:38:17+00:00
TOBAGO-1446,8a20bfd70c79db5ee525abdf866d0a6bfc856ae5,2015-06-10T06:36:12+00:00
TOBAGO-1446,22f7d866b733e6d11cecd8406d077a9a719bd7c5,2015-03-10T14:37:44+00:00
TOBAGO-1446,0847cc3f5dfcc9eadf7ff2bafc65613c08a124cb,2015-03-10T13:49:28+00:00
TOBAGO-1446,e5a41935e2280343bcabd21e272b122e22e3d687,2015-03-10T13:09:07+00:00
TOBAGO-1446,54aa2044e60eab90fe32a6169fed6f55d7af4aa8,2015-03-10T11:40:16+00:00
TOBAGO-1689,d49e573dc87086a9f6795c2fd9ea55f37bb3f931,2017-02-13T12:57:33+00:00
TOBAGO-1689,62872471acfe734e6c6203e5858a1e409393cc44,2017-02-10T10:53:31+00:00
TOBAGO-1568,6c4c5677b09943332696a51860c4542ab5a242bd,2016-09-08T15:32:20+00:00
TOBAGO-1568,93c4f5c1911c38b4e599dd624aa15f6d290c9684,2016-09-08T14:24:56+00:00
TOBAGO-1568,ca98f88fcf4f7071897023ed2c02febab2c8ed37,2016-06-10T15:37:06+00:00
TOBAGO-1447,c872d3e4865f01d015fa9f809cd02c735abc35a3,2015-03-13T14:35:04+00:00
TOBAGO-1447,a9d1740105553a79803a7d9aefbe299f1af4c0e4,2015-03-10T14:36:09+00:00
TOBAGO-1205,e040d265bc6c3b6036892f5374a65cc94c7fee1b,2012-10-05T12:13:58+00:00
TOBAGO-1206,4daa1b30854b9f1f9b0a654c59ec55357bf5cf79,2012-10-08T14:58:31+00:00
TOBAGO-1206,b7a99083294c2d4e5a0d6ad56af0dde37c1f75f6,2012-10-08T14:56:05+00:00
TOBAGO-1449,de00b6d90b459f5c07a54c5c10636873369a6f19,2015-06-10T06:42:09+00:00
TOBAGO-1449,8e4711fdfc767c2902b87defca50813904dd9851,2015-03-17T13:51:00+00:00
TOBAGO-1449,f70111475c9f84ad122e7429d3b556cf638d8803,2015-03-17T13:46:36+00:00
TOBAGO-1890,596e638f238faebbad5ac2eb423df56dad99f11d,2018-04-18T14:33:51+02:00
TOBAGO-1891,45bc077be87110f1add118185ba9f2545d311484,2018-04-19T12:10:03+02:00
TOBAGO-1892,596e638f238faebbad5ac2eb423df56dad99f11d,2018-04-18T14:33:51+02:00
TOBAGO-1892,88f4f04c67508c10d491c5c475d0b9eef0270e14,2018-04-18T14:28:17+02:00
TOBAGO-1650,a0f55f7c28f699e9191396ec9856fa381f7ceabf,2016-12-02T15:23:44+00:00
TOBAGO-1651,08955481e90010ecf71ef05a7a61d2bc654f3c62,2018-02-09T17:32:39+01:00
TOBAGO-1410,baf9db0b12e1e82d3408a413177c5d4f4be57e6a,2014-08-04T15:48:04+00:00
TOBAGO-1410,cbc1041aba3bcf233e0821d1a766b74dfc954194,2014-08-04T15:40:47+00:00
TOBAGO-1410,5b5872f441e7f3e082bafeab67cdc7ed08854a83,2014-07-09T14:05:39+00:00
TOBAGO-1410,577e785ac9c2d80fb5ea88ce0c7898cee4d5672f,2014-07-09T14:02:02+00:00
TOBAGO-1895,353cfc5b64463780f9b8da3867c8278e932918ef,2018-04-27T10:30:26+02:00
TOBAGO-1774,701452d6e808a663af75822f418a0b4972137d43,2017-08-03T12:27:17+00:00
TOBAGO-1411,b283b952d5be30b33d2e8a1e936a4877e9a0306d,2014-07-11T08:35:57+00:00
TOBAGO-1411,2f3590a8d691b9e8a0dc45f08bd1f263c71be823,2014-07-11T08:24:17+00:00
TOBAGO-1896,08826a2e52634293e02cde668324016fcad3862e,2018-05-03T15:10:32+02:00
TOBAGO-1896,b6d0c8bc648f652d653361411fd0de8ae10f2d35,2018-05-03T11:51:30+02:00
TOBAGO-1896,98294c6ebd11f1ef5e7d0cf523884a72b95966b8,2018-05-02T18:46:38+02:00
TOBAGO-1775,38703a7bfdaf3594978ca277e2b3d6e41117b87f,2017-08-08T17:51:35+00:00
TOBAGO-1655,0d5e14a1b11efd4dc46527306d17bcc85db45e05,2016-12-12T21:22:50+00:00
TOBAGO-1534,6fe37ab2836c21653ba610159259c08602d9357c,2016-08-18T09:07:03+00:00
TOBAGO-1534,f2e009aa259d6537cf44ea1ee07bb6c026e49aad,2016-08-17T09:15:13+00:00
TOBAGO-1534,2b2cb77865fe2bcada9843f84d2392fd675c67f3,2016-06-29T17:16:45+00:00
TOBAGO-1534,5ee24980c7a850c1aad26af2626663b30f82fb38,2016-02-19T09:57:31+00:00
TOBAGO-1413,4ed7a9b1b5a06cc1058fdfd718a20b09d12136c0,2014-07-11T10:07:45+00:00
TOBAGO-1413,05d54fd5704ae586d3ae81e5d50d73171673b887,2014-07-11T10:06:13+00:00
TOBAGO-1899,3e8aa65efeb50654634d8c20258e2a6c826b8b88,2018-05-18T10:09:17+02:00
TOBAGO-1899,279b25a4b8f8acd121650373d52faa860177d3d2,2018-05-18T09:48:32+02:00
TOBAGO-1657,93412fe33d2a8cc6fca612733deae3e119a1f05f,2016-12-07T17:04:08+00:00
TOBAGO-1416,e856acea5547ffcda27e93d1d10e6628f9d8c742,2014-08-01T12:16:36+00:00
TOBAGO-1416,c8a56c89cd188c040d43507e85ab7c26a1cc3f05,2014-08-01T08:55:39+00:00
TOBAGO-1417,89c452c6b26c0b8c8cc7510d7636003f1fcac5b0,2014-08-22T12:03:37+00:00
TOBAGO-1417,e6d82d09f2231e0ab1b4e6196b3ca6239c659722,2014-08-11T15:41:42+00:00
TOBAGO-1660,330dd809b4a9b87f82f663b07cf122f8de9f3a79,2016-12-12T10:08:56+00:00
TOBAGO-1660,ce951e8ee0f2aa532eff5e4001c82abab804034a,2016-12-08T13:32:55+00:00
TOBAGO-1783,517e783564ac852850210525a707197a7a5b01bd,2017-08-17T14:17:01+00:00
TOBAGO-1662,21ed999dfbc3c013de665eef003e81be59c63cc9,2016-12-09T13:12:50+00:00
TOBAGO-1784,fe279a307930631feaa4159b0111c6ddb4ff44af,2017-08-17T14:48:25+00:00
TOBAGO-1422,8fe828e1d1cbe2444b2927d320b4eae8b3b3a303,2014-11-19T23:17:45+00:00
TOBAGO-1422,a575417f300784e1c1ef4802f342319f108d9b9d,2014-11-19T23:01:41+00:00
TOBAGO-1423,d58a813cd3510e5058d36695fa4715dc211f35f2,2015-01-06T09:22:07+00:00
TOBAGO-1423,fdecafe56521acef218d37de49be2f68cd3d09fc,2014-12-16T18:14:16+00:00
TOBAGO-1423,239b09f1587dd868eeca3ea561e7100bee69ac26,2014-11-30T22:18:34+00:00
TOBAGO-1423,3f86a4961740fde7a5c8f965ac983f0e28f53925,2014-11-30T22:17:39+00:00
TOBAGO-1423,900a6c7e025ddda4b5cf58a754f07bd5cc2f4e35,2014-11-30T22:13:19+00:00
TOBAGO-1423,d7c99cc682f26a0cbe9ae57e65112f9a626eb5c7,2014-11-28T12:52:58+00:00
TOBAGO-1423,566260e60059ea48317cc9bcf320eb9f204b97e3,2014-11-13T11:23:27+00:00
TOBAGO-1423,4289e58b86d0524e5ff90b35a89080b40d76cc43,2014-11-13T11:20:21+00:00
TOBAGO-1423,27681a3bbb6902366cc082bcc5a8c4b711a27476,2014-11-12T08:49:43+00:00
TOBAGO-1423,2cbfb501c7e987109d19646adeb193afced865de,2014-11-05T16:11:38+00:00
TOBAGO-1423,08a092c740c7549630a46f345504fd5935e15b0b,2014-11-05T09:54:15+00:00
TOBAGO-1424,342325ff4ddb750519c293ac8352ae434a51696a,2014-11-17T12:24:05+00:00
TOBAGO-1424,fc0baf1de5cad4ef11092b727a7260ba8a4bc328,2014-11-17T12:22:53+00:00
TOBAGO-1303,d898a45c19b23bfa44b2968bc72d88988b646449,2013-08-26T08:12:16+00:00
TOBAGO-1667,9ef7f28a326e840ddf02d3859c195897c3bfe2b4,2016-12-16T13:36:36+00:00
TOBAGO-1425,55a180dfb81a6df494d526a35b67a8b14bb8fcda,2014-11-26T15:10:33+00:00
TOBAGO-1425,31260aecb538bf1156afc036dbc71b5df8f8fe77,2014-11-26T08:38:03+00:00
TOBAGO-1425,7bc929596896a4b0a423dd1430ceef09b939d0f6,2014-11-26T08:13:31+00:00
TOBAGO-1425,3691ed0909f90a6648f03d624765a6614537be94,2014-11-25T15:36:11+00:00
TOBAGO-1425,4fec09fa276d30f2c17dc87e46ff3459ceb37835,2014-11-25T11:17:46+00:00
TOBAGO-1304,7378f5bd1bdde8e34563a671b449a40aa6458cc6,2014-06-04T13:10:01+00:00
TOBAGO-1304,87d9966a2cbe30d5eb00f33b8ba3d3515b113967,2014-06-04T13:07:38+00:00
TOBAGO-1304,90fa560c2149a4faaa108bb3b51d0ee2cf566038,2013-08-26T09:51:21+00:00
TOBAGO-1304,9e04270474982bc4a4aa64a30c1d9587d32c2e23,2013-08-26T09:50:13+00:00
TOBAGO-1668,e76b86480be672cb9ab9bcac18ee7b7840d256db,2017-01-06T10:12:57+00:00
TOBAGO-1668,6aafd6233ca022aa7ab74b9d99faaebc034c39fd,2016-12-22T10:39:27+00:00
TOBAGO-1668,0cf977a2c37fdd4ab9fc23092765293528b016ac,2016-12-21T13:54:22+00:00
TOBAGO-1426,47e734bfc180167ac7d266789cbef43b430280c7,2015-01-06T09:11:32+00:00
TOBAGO-1426,cf0d93db03b4ad642422baf4f1f75e5642fce57b,2014-12-01T09:21:47+00:00
TOBAGO-1305,ba04b1e3badfb5901938efc28ead57e96d4d9a89,2013-08-27T13:50:08+00:00
TOBAGO-1669,e3bb3b1104a36dbd0dc3655ab265ae66924a4c20,2016-12-22T08:38:53+00:00
TOBAGO-1548,55da722daebd9080b843d57c708b631a619e2b91,2016-03-23T09:12:49+00:00
TOBAGO-1548,39b821dd4aa30b902abb0033ae02f7cc92a78d8e,2016-03-23T09:11:16+00:00
TOBAGO-1427,859dacbd6982b39020bac57cc007c1a516e14cdd,2014-12-09T18:13:07+00:00
TOBAGO-1427,2b961bab263c0323f4ca0ef1d48ff20dc7b1d0f6,2014-12-09T17:53:44+00:00
TOBAGO-1427,59a37defba21e5533ac1b2300c827926d11abacc,2014-12-09T16:41:12+00:00
TOBAGO-1549,e7f9afb21b99e77345d3a3cdaaad7ed970583a91,2016-05-11T13:28:28+00:00
TOBAGO-1549,0dbeb02eca2b5151b8a177a3488ec899ee4ea726,2016-05-11T13:25:33+00:00
TOBAGO-1309,1375ae443db13fd38c6adf4582c7c2235f2b704a,2013-08-30T09:43:22+00:00
TOBAGO-81,e5f6d369459556dd54725296289731d3f247504e,2006-06-15T09:40:42+00:00
TOBAGO-1191,8b1ea51f80a620a9e7afcfddebcab0a78db8432e,2012-08-03T11:15:52+00:00
TOBAGO-1192,4a804c5fd7891fad46016f3cab1303d9a73ea69b,2014-04-23T14:23:05+00:00
TOBAGO-1192,dfc99a7d30f3aa78aeafea2c27a1cc6af1e63fbe,2014-04-23T14:22:22+00:00
TOBAGO-1192,63b3c332ca76b81c4ab2915eaa3ffd9dec0815d1,2013-06-25T13:18:58+00:00
TOBAGO-1192,8383bbb57665c6292b764e9c45bb0bdfbe871ac2,2013-04-10T16:39:21+00:00
TOBAGO-1192,0295453a83bd5d1555b2edc684ad161ddbf810e0,2013-04-10T16:36:42+00:00
TOBAGO-1192,f3b4c285257ae994f3fde35e33bcee54e4bdae32,2013-04-10T16:31:59+00:00
TOBAGO-1192,895a2b2d2605a0e2bafae6de4855c526744db62a,2013-04-10T15:42:22+00:00
TOBAGO-1192,575f7e8e0ef48364d70d534c46af166b90f05306,2013-04-10T15:36:16+00:00
TOBAGO-1192,775f69bbe856edc2b04fadc236086af3205ff77b,2013-04-10T13:44:04+00:00
TOBAGO-1192,06f60e49ff1da053938dc094161b6199600db15f,2013-04-10T13:40:08+00:00
TOBAGO-1192,bd99ac2caad951236e786123730a4bf10b7d3390,2012-11-27T10:12:07+00:00
TOBAGO-1192,2a525a46627accd8992386165572d85182b1b703,2012-10-17T07:46:33+00:00
TOBAGO-1192,3123d1c382ef32ac5e418b8101065cc8abf19192,2012-10-05T13:31:00+00:00
TOBAGO-1192,a09554b2982f80a7da7e50c345a48675fd82d23d,2012-10-05T07:30:34+00:00
TOBAGO-1192,bf4304cc98f393b8fb9dee049b5167d68ab53945,2012-09-05T08:03:23+00:00
TOBAGO-1192,d699204aa768686500f28795a8d44fe8aac31cb2,2012-09-05T07:22:47+00:00
TOBAGO-1192,c4c6cbd6f4655ff2ebbc287d3a150b9bdccb532f,2012-09-04T15:38:59+00:00
TOBAGO-1192,2118ec786aa3576a854be62ab1fb256c3e2c492c,2012-08-29T15:38:46+00:00
TOBAGO-1192,24f96c319424748afa77c1c36c13c2c717d5a9be,2012-08-03T16:16:32+00:00
TOBAGO-1193,8cb1b4c147e481bc932cefbe44504723a545e57e,2012-08-23T16:09:13+00:00
TOBAGO-1194,c65e7c89a695937b21df41145621daab048befbc,2012-09-10T10:51:42+00:00
TOBAGO-1194,7daa72e75b406e9a9eddf5f88c452a9f9fdb84db,2012-09-07T16:13:49+00:00
TOBAGO-1195,0e7ddee2e822df4467d2d57059d33726f376a781,2012-09-17T20:19:30+00:00
TOBAGO-1195,e6790e448c9b552f07c1c420aa86a0894b7ec18f,2012-09-17T16:05:53+00:00
TOBAGO-1195,33a792ed324541dc207cd597a038e7c61c94de3a,2012-09-17T16:05:13+00:00
TOBAGO-1196,33a792ed324541dc207cd597a038e7c61c94de3a,2012-09-17T16:05:13+00:00
TOBAGO-1196,127f6ddb1aaf9d852dac1d0d5efc022516cee60c,2012-09-17T13:12:11+00:00
TOBAGO-1197,4c1acee48424b2186e098f69967122ae07f23116,2012-09-17T11:28:08+00:00
TOBAGO-85,3b8570e8c094e985ea130a5ba584052daf5ac33c,2006-07-02T17:18:33+00:00
TOBAGO-86,f1396c853859175096bb12fcf28f3eb3c188dc93,2006-06-30T11:10:08+00:00
TOBAGO-87,e10bcfd24bdebe6ccb3fa24daa775845da286869,2006-06-30T11:11:04+00:00
TOBAGO-88,65e7d9fb148d27f9f0afd9810eb639293109ee8f,2006-06-30T11:12:25+00:00
TOBAGO-1068,065712aebdb4097a69073880dcef063699af328e,2011-12-07T15:49:01+00:00
TOBAGO-482,b5419fc121e41649cd9972537315b05d7f4ff004,2007-09-10T09:06:24+00:00
TOBAGO-482,790c94cdef14ccb7d81f1415908ebe9f088e9116,2007-09-10T08:32:24+00:00
TOBAGO-1067,d7aceeeeffec3ae531ae53e3653923fa65ae61b5,2011-12-06T09:54:28+00:00
TOBAGO-483,e41ca5f8968955c031d5a04883fc46421b09cd35,2007-09-10T13:04:13+00:00
TOBAGO-1066,797f253da8fb91d20de62bc294e0daa60e7f3fb0,2011-12-06T11:39:16+00:00
TOBAGO-484,334e3d8c875e70b4ff221069863cd5094796db77,2007-09-12T11:04:38+00:00
TOBAGO-122,02adfa4cfd5ea7a681c8c55ae0654d1ce6be143e,2006-09-08T09:15:28+00:00
TOBAGO-122,a817ebc0adfc144c6c99f17d06d766f6d9d3bf8b,2006-09-08T09:05:55+00:00
TOBAGO-123,6a58507ffc6c08dcd54c4558db97bc421423f460,2006-09-08T10:36:45+00:00
TOBAGO-124,233a8006de7b3b679902bc0c84bc9b2a985b5e07,2006-09-13T13:01:49+00:00
TOBAGO-489,012d311f4005d333911cf4f9dd0dc71c6f7d7acd,2007-09-18T10:35:24+00:00
TOBAGO-489,3d33701b4041ecbbcff756194e5d1c9588462944,2007-09-17T19:45:48+00:00
TOBAGO-1060,3be380625e27de19ec40f40e8e2a459119eae00e,2011-12-05T16:00:32+00:00
TOBAGO-1060,40e2ccc1e84aacffa207dcab45bd6b82d428bc23,2011-12-05T16:00:07+00:00
TOBAGO-94,9cd4ef2291fa1259bca6193cb972e2d18bc0b721,2006-07-08T06:37:27+00:00
TOBAGO-91,0c415180f6790908473e459ac2f5988f1c8e5daa,2006-07-03T18:25:42+00:00
TOBAGO-1059,4dc403bac3fe41918d2285005b2db9efb2991bea,2011-12-02T10:46:33+00:00
TOBAGO-1058,0105eb1f0660128ac257a9e0b484904fddf6d03e,2011-12-05T10:48:49+00:00
TOBAGO-250,ff0948f39216b769bf45b7423f48d69012363719,2007-02-21T21:54:47+00:00
TOBAGO-250,3560bd9978f6ab127723a005c6a76736bbbedede,2007-01-19T20:25:18+00:00
TOBAGO-1056,68c35dcf0aeef74b902ce63e9ddcd749f5c511b3,2011-11-29T14:36:18+00:00
TOBAGO-252,de5bf525103e4167316dc5c542bfd33f0a06727e,2007-02-05T14:45:10+00:00
TOBAGO-252,258d8a18a9567b50a03b59c030b875458f873683,2007-01-22T10:48:50+00:00
TOBAGO-252,e8401abd63b6f7ae8d89b2bd82008ee96a4a3d9a,2007-01-21T20:47:16+00:00
TOBAGO-1055,a12088118e04e71a39dc512abdc1ba59a9404ac0,2011-12-08T15:09:02+00:00
TOBAGO-1055,060608e7442c374f3f2941d1a70dfbec791884ce,2011-12-08T14:57:08+00:00
TOBAGO-1055,4b8d1a538ac0f54cd0ad70c11eb08d4a1bfd2634,2011-12-08T14:52:23+00:00
TOBAGO-1055,66ee533ef68597330d2ddc3a10ce4106ff005cd8,2011-12-08T14:45:38+00:00
TOBAGO-1055,747f97d52b6fe572cdb9c30122eeeef4db455812,2011-12-08T13:42:11+00:00
TOBAGO-495,74661e7ef146ed5587196923f68b3bc7852b8a19,2007-09-21T14:27:39+00:00
TOBAGO-132,437b706321d2689a9dc02383d28ea59cbdcae6f0,2006-09-21T12:24:30+00:00
TOBAGO-132,2d02d919559d7da310de4a40b3da0a8e9780ba20,2006-09-21T12:21:55+00:00
TOBAGO-1054,c21d217254bb962fc50f94594ac483ca80b41f89,2011-12-01T16:28:57+00:00
TOBAGO-375,d115b990fdf32d3c5a2b2860a33f0ba5ae84c737,2007-05-02T17:57:09+00:00
TOBAGO-133,c88b7f4af9c621fd13baddf43eadec5687c037a0,2008-02-08T16:41:01+00:00
TOBAGO-1053,b512bb64efbf95fc365b108ae2d049efb0dc4d0e,2011-11-24T16:19:46+00:00
TOBAGO-497,ddc2fc70ce5a945c2944c9d3596cd028e6e515da,2007-09-25T21:01:36+00:00
TOBAGO-255,53d0c23753b0c3bcf33701b0236a52d68dfb6c10,2007-01-24T19:50:32+00:00
TOBAGO-134,fa2de3a3b73a135a47bc7777dfaf4fe19b257003,2010-03-29T16:46:07+00:00
TOBAGO-134,1b03d64b948fd6f07e8511b6451dd7c3070e02f4,2010-03-26T15:21:39+00:00
TOBAGO-134,b3a778d8199294de094e080568342d662a27d234,2010-03-25T20:18:47+00:00
TOBAGO-1052,11572e72e324572a833a753c163b454d907a2f1e,2011-11-22T18:17:02+00:00
TOBAGO-136,b38a88a365ba96d15497c0242595a8ae6a526396,2006-12-27T11:18:19+00:00
TOBAGO-258,f007a54ab26f0a064c054c382b59c7e7818297cf,2007-01-25T19:21:57+00:00
TOBAGO-60,f9fe3528efd1007da9a98b1f1e5a839459a6a028,2006-05-04T18:09:43+00:00
TOBAGO-61,05aa598dbc9f1bc35b655540b4edcef64a89c271,2006-04-29T11:26:18+00:00
TOBAGO-62,2d7357e963ba137c0734119d1b81c31ac53e5ddc,2006-04-29T09:53:44+00:00
TOBAGO-1291,a36a2e03c48d3d990886f6f4980fbf016b4e4b94,2013-08-05T11:51:54+00:00
TOBAGO-1170,de391fe54aa020f59856e6a0e1406adceca403e7,2012-07-04T10:30:41+00:00
TOBAGO-1170,8a527ae2b2deee7415e41e7893f370ad56edb8e5,2012-07-04T10:28:57+00:00
TOBAGO-1293,a32aad6206b651371a83385155a269e233219de3,2013-08-09T09:14:25+00:00
TOBAGO-1294,014f165bd09b41b54773c52175b089a47f8952c9,2013-08-08T14:40:27+00:00
TOBAGO-1295,9ef65729b770b2c88553797e71f365a77b29d887,2013-08-29T12:13:17+00:00
TOBAGO-1295,2832c1ea003cf38dc8cbffc0051f92f9e56d7dca,2013-08-28T20:24:21+00:00
TOBAGO-1296,0bf6686fbb90dbfe351dd7655236b10544801eeb,2013-08-16T14:01:48+00:00
TOBAGO-68,75be1af80111f47c7f8172c1d4385bf995661de1,2006-05-18T16:21:20+00:00
TOBAGO-68,a411d353ed686024992ab818f5bdd5c2d6631c51,2006-05-16T11:28:37+00:00
TOBAGO-69,128f9dc872733769f41e46105514570d1784ff98,2012-03-13T16:41:22+00:00
TOBAGO-1299,5f0073a44a8f41866dcdd4f9c6f948c9a18156b2,2013-08-19T13:27:00+00:00
TOBAGO-64,647da23c6e3ba463d7b74a14e2f39cd2f2664e55,2006-05-03T22:28:04+00:00
TOBAGO-65,49c00548d0f691c03c1f36984fa426b83ed2ebbf,2006-11-28T20:50:08+00:00
TOBAGO-580,4126cab614d7f92b770462526127412771871625,2008-10-29T13:51:34+00:00
TOBAGO-582,694c6d9d6c3f9ba2464cecc26e9b8533b39f1474,2008-01-07T15:08:56+00:00
TOBAGO-582,85db34bd77f970450aed5633b632600b3512fe49,2008-01-07T11:09:46+00:00
TOBAGO-461,5e60aa521f5e7343550cbaf0b3deca1cb3ee9fa9,2007-08-13T15:03:57+00:00
TOBAGO-1088,2eb451ff2186e556cf8291ab872f7d025c51e8be,2012-02-01T16:14:18+00:00
TOBAGO-583,35fa45f5d7cc970843a0f56dcef1ee29466a7e72,2008-01-07T10:54:02+00:00
TOBAGO-1087,a773f8a9d538f5532c05f1ad12de441f94798f10,2012-01-31T14:59:20+00:00
TOBAGO-463,554ae8654bd8ace77fe4a999fc6c00100862c30a,2007-08-09T16:52:07+00:00
TOBAGO-463,b8603babaf3407f00a602af352e58b3d22bc63e6,2007-08-09T15:52:57+00:00
TOBAGO-222,2bcad629ac45791d06444108541bd124ace51e16,2006-12-19T16:20:53+00:00
TOBAGO-223,742f2d74707685655d4dd303b3fc9f913cb0f37c,2006-12-19T18:33:02+00:00
TOBAGO-345,93d3a1ae17fc729f8aa560710d02ffadec1aff6d,2007-04-05T13:36:06+00:00
TOBAGO-345,b7e596efb9c9cdca7913491d85c6c2b1cdf6acc3,2007-04-05T12:58:25+00:00
TOBAGO-224,3495e1c6385734ba57fe92894f55983aeaec78f7,2006-12-20T15:38:17+00:00
TOBAGO-346,1d306a5ee081791c0c35d361e8f000629db3afc0,2007-04-07T16:21:45+00:00
TOBAGO-1082,67325337d3efdcc9c8b356494cd7ab9de5a7ea9f,2012-01-24T16:12:08+00:00
TOBAGO-468,44e2f19e5396ffc3e036dfd66a632f26d98618c4,2007-08-22T10:45:42+00:00
TOBAGO-468,30c07a0ed1cb68f5ab8f68eb582b64ce606e20a4,2007-08-14T10:35:43+00:00
TOBAGO-468,340a8e5e24f0fa9b1db3847ae9bb819989a9e866,2007-08-14T10:14:57+00:00
TOBAGO-347,9745085229520ed2f6743d8cf180eee22ac9bbe6,2007-04-12T08:38:28+00:00
TOBAGO-347,b36c81c3fdd6f6a64187cfd8a869f779b7d90a01,2007-04-09T18:48:03+00:00
TOBAGO-469,30c07a0ed1cb68f5ab8f68eb582b64ce606e20a4,2007-08-14T10:35:43+00:00
TOBAGO-469,340a8e5e24f0fa9b1db3847ae9bb819989a9e866,2007-08-14T10:14:57+00:00
TOBAGO-227,8eee9975ddbb51bab465d4c3f2ec055da559d511,2007-01-03T10:51:56+00:00
TOBAGO-349,9be36299fc3e92344f24ff678472929a166a548a,2007-04-10T18:48:29+00:00
TOBAGO-228,dc79225429720b9577d631b3cf50ebb9380822e4,2007-01-04T11:01:38+00:00
TOBAGO-229,17cc733f2e30230674b98d9b165779d5d3091fe2,2007-01-14T12:44:06+00:00
TOBAGO-70,8699a12d6804e762f5a9772646d9920c4acd06c3,2006-05-17T15:26:40+00:00
TOBAGO-71,da54ff29cfd58996fdeacaa8c3c9353cb599a936,2006-05-21T19:27:38+00:00
TOBAGO-72,53b61ec3e9bc4309f6f740e813ef0c77e448b8b8,2006-06-17T11:04:58+00:00
TOBAGO-73,10130f4152457e2508026c3a875c874e3618d419,2006-05-20T08:43:11+00:00
TOBAGO-1186,6f42aabfac66b8334a092b07f96f86ca3e31596e,2012-07-25T12:13:28+00:00
TOBAGO-1186,11a41acd8a272a7563d4bb2d25acf8fd91f96d1a,2012-07-25T11:35:49+00:00
TOBAGO-75,8646f3384f37dbb7d0b00be3ac05ba9f39ec7260,2006-05-21T19:29:37+00:00
TOBAGO-75,51a51d0fde0c00233b1cfe1de001b9922ed25abf,2006-05-20T18:09:08+00:00
TOBAGO-76,da8851d32d556c63d423c47bfa431a23b6b87235,2006-05-21T19:34:17+00:00
TOBAGO-1079,fd8c6d20daf849dbd03b3665acad6c0743b94bf9,2012-01-27T23:38:36+00:00
TOBAGO-350,165bac68cb928eda85448d0db736327f55732d79,2007-04-11T10:16:24+00:00
TOBAGO-351,3ef8c28a103f88890ff137be04819ee88a3beb44,2007-04-11T09:33:11+00:00
TOBAGO-230,da5a85cefb0ca6634b400e218098c11faeb42168,2007-01-04T13:39:41+00:00
TOBAGO-1077,f195c01ac2ddf0c09fdc7c882f2efc0691550ab8,2012-01-06T12:30:56+00:00
TOBAGO-473,fb065b3487c7632379c1347b4c0baad1b30de6f3,2007-08-30T05:49:23+00:00
TOBAGO-473,0c86e8c9c98e74a430a48163a9a4dafa0864f516,2007-08-23T18:20:12+00:00
TOBAGO-473,5b49cbf1f67e43839ddccb8349adc298d4f38b1e,2007-08-19T20:53:35+00:00
TOBAGO-231,8110c16598a6c1bfe3e7d421a2923babed3530dc,2007-01-06T10:03:37+00:00
TOBAGO-474,b2568911a5992b494202aa97e2328293ab6f1648,2007-08-23T18:34:59+00:00
TOBAGO-232,8110c16598a6c1bfe3e7d421a2923babed3530dc,2007-01-06T10:03:37+00:00
TOBAGO-596,8e8eb7b8c2cb3d0758fba45d445ef5b7f7f0a158,2008-02-06T19:36:42+00:00
TOBAGO-596,6845071d57db855f6ad926a70c2c82782ed4734d,2008-01-21T17:14:54+00:00
TOBAGO-596,a5ac6789a283adab078780a2895003ca80b45731,2008-01-19T21:23:51+00:00
TOBAGO-596,09e1db48b7b978a292508860323e122e1219f20b,2008-01-15T22:56:16+00:00
TOBAGO-596,213cda3cebd315743cedd90aa0891791b9835dc9,2008-01-15T22:21:55+00:00
TOBAGO-596,1cb1cd1211b4ea7f22610fe0848c8b3730ffb566,2008-01-15T22:21:33+00:00
TOBAGO-475,0e3a8afd3836669dd29f77e06cbf0ff890cbade7,2009-02-16T16:45:28+00:00
TOBAGO-354,c78799dae96e0e9f04ad47f59f02a83e9635a00a,2007-04-12T11:29:46+00:00
TOBAGO-234,dae1b16e212d660efe565190f9c67b9b406b543b,2007-01-09T21:26:48+00:00
TOBAGO-234,a41373968a5582b359412c923c1f58a085bfe2fe,2007-01-08T17:02:24+00:00
TOBAGO-234,32c767eec209221d513c1c93158cbe8b293ae0ca,2007-01-08T16:38:02+00:00
TOBAGO-1073,bb0c6658f8e2995d5e194da2c094e698bc8a1b25,2012-01-20T08:58:25+00:00
TOBAGO-598,f924c4f72300c4e95e5198b741511ae708fc9d71,2008-01-16T17:08:49+00:00
TOBAGO-477,ee1e0d421c78eb4b2cbeb96550b0051e3ea56e78,2007-09-07T09:39:47+00:00
TOBAGO-235,3ee2397b7e5c640f455517cae98d4602f6282a59,2007-01-09T15:37:45+00:00
TOBAGO-236,fb5b8cf7ebb81e1696ca050985f065cbbdc5d9b5,2007-01-09T21:27:57+00:00
TOBAGO-1071,ad296c31dc2112d34004bed714ddfb960a3d3aa2,2011-12-13T12:32:19+00:00
TOBAGO-238,b74a69e955957a04bee112a1cd0aaf4267f34cd6,2007-01-11T20:32:25+00:00
TOBAGO-117,e380c8b2a514251c48c607c6ea44038d8808716b,2006-08-24T18:20:21+00:00
TOBAGO-1390,18f1040b5e0322dfb1e9a7eced19010361aedcf3,2014-04-24T15:52:04+00:00
TOBAGO-1390,47d8a75725b1dc90f81405e8d04b592fa8f62d97,2014-04-24T15:50:23+00:00
TOBAGO-1270,cc0c19aa38a147ef92f89555b85c52c6db54ddb0,2013-05-22T07:22:25+00:00
TOBAGO-1271,c3def3c9f7be2940699108fa153f632c8cd7a869,2013-05-31T13:40:02+00:00
TOBAGO-1150,97c1f86c6ef1034bc82be52a269e7a99e9a1b47a,2012-06-08T09:50:08+00:00
TOBAGO-1150,c2c4476e7db92fcea3580c6b4b94c99e6236074b,2012-06-06T15:56:20+00:00
TOBAGO-1150,f4745ef3d0aace3ae43fab519a2f275ff550005d,2012-06-06T13:49:39+00:00
TOBAGO-1393,eb7632aeb7addf7385861111c4e5b20d27fcaef1,2014-04-30T15:33:26+00:00
TOBAGO-1393,f8a2c6b96ab05064f92c9bee57ed06c5d7f1a20d,2014-04-29T14:58:06+00:00
TOBAGO-1151,a80659de2a533a13d7ea3df2a1f50c1aa5959007,2012-06-08T10:04:41+00:00
TOBAGO-1151,b37ae9eee61a74cb0f0d3128ab9ffba771ec7192,2012-06-08T09:13:48+00:00
TOBAGO-1151,de2a7ce2a49409d6ab47b9f347a2b4793b5b5dd3,2012-06-08T09:13:21+00:00
TOBAGO-1151,a72e3381f01ef11c1714584d0586d66be90541c4,2012-06-06T17:51:33+00:00
TOBAGO-1151,4509f87646c0d79df1b52b218fb08a2fb3bdf4dd,2012-06-06T17:46:03+00:00
TOBAGO-1151,9a597382cf808f7f057cb1c2d6f9582a41a1b6c5,2012-06-06T15:51:59+00:00
TOBAGO-1394,12a2fa7f77189737d6f8f8e8e12c25c5cd7ee3de,2014-05-16T07:24:27+00:00
TOBAGO-1394,f29961b6e25661ce82505e9695e3749816e1f414,2014-05-16T07:23:14+00:00
TOBAGO-1394,ed4ee0cca2aae78654b930fd5accf17ef0097ec8,2014-05-16T07:20:45+00:00
TOBAGO-1152,cf2682d8c6b13f025b9b7dab737572501c5fea49,2012-06-08T07:47:27+00:00
TOBAGO-1274,ede7f67d5d5615f719ab2232a18bb2c83ca81259,2013-06-04T08:28:56+00:00
TOBAGO-2002,567d9f85e5c5fc6920355a20ab54870e70a2c464,2019-08-22T17:36:58+02:00
TOBAGO-2003,77df54d311418b241fb2fb757e77a728e8c5c4e0,2019-08-26T13:31:42+02:00
TOBAGO-1278,2415f1f91c469ba30155814bfa73e00d74de51e5,2013-06-24T16:03:36+00:00
TOBAGO-1157,e25ddb921c3321dfd075b9820cdca53a7db641db,2012-06-20T06:37:15+00:00
TOBAGO-1279,71ad36a8db79afcb82a95d98b1650a6eca188501,2014-03-18T09:26:38+00:00
TOBAGO-1279,dbfa94ef8c27e133a2c1efeeee7ef65acddbf290,2014-03-14T12:57:56+00:00
TOBAGO-1279,a9628f7341cc2cdf75502ec921ab4dec29594ea5,2014-03-14T12:57:21+00:00
TOBAGO-1279,f378942f63d495915c4d89a546a97e1474a888d6,2013-06-25T17:07:33+00:00
TOBAGO-1028,92594b00c50656c097754a79965e7974e8bb22bd,2011-09-13T08:12:43+00:00
TOBAGO-291,a2b05ab1e6aa9a2131b9cadc91df2be1ea83c1f6,2007-02-17T15:19:35+00:00
TOBAGO-291,b61c8857c8875103c4aa25eb1068cbfba0a2de6f,2007-02-17T08:53:38+00:00
TOBAGO-170,864558f61b67dcc120b7272b1cec23d741bd09c6,2006-11-06T11:21:38+00:00
TOBAGO-282,7ec36c130a7dc3690c94927e9f416238e348020e,2007-02-14T12:57:02+00:00
TOBAGO-1024,264157c36ccea4963f1e868b5f3964a2ced0c3eb,2011-10-04T12:51:05+00:00
TOBAGO-1024,1f9328adc88dec7c986cc8c2578f44f68ffc184d,2011-09-07T06:56:28+00:00
TOBAGO-1024,8e2e0487560d7cbf7a24a0b89092be8258ebe165,2011-09-07T06:55:35+00:00
TOBAGO-284,b7973aa48f3455d2f7cc4cd2882d6c7e2b26feb0,2007-05-10T18:49:06+00:00
TOBAGO-284,dd074a05152bb22078b02a8343ec50183345242b,2007-05-03T09:57:59+00:00
TOBAGO-163,673b5d8ddc220bdf17cda2dd6562ffce596677f8,2006-11-26T23:07:15+00:00
TOBAGO-1021,26359fac7bc3275c82baeb7d6ff00220203ae2d7,2011-09-18T19:44:56+00:00
TOBAGO-1021,4da14ebf0ca32203ae621af3077906d494a44fac,2011-09-06T06:38:03+00:00
TOBAGO-1020,284a6cf2dc00e9699945e3338b1d813b3493d919,2011-08-22T09:35:29+00:00
TOBAGO-1020,9d127c361b76931f0d2b2fc984bd54ffe6284529,2011-08-22T09:30:17+00:00
TOBAGO-168,956a9e55522b07ca3090b0651e0d5565dd65d7bf,2006-11-10T15:21:32+00:00
TOBAGO-168,e844ee6f4c30930a0305be1b2d84af2fb5faaa64,2006-10-31T14:04:16+00:00
TOBAGO-169,6623bfdc85a700424d20825eec85edf60578a63b,2006-11-06T09:10:03+00:00
TOBAGO-1280,8b0f09a6942177d46c686b2959240a5330608fdb,2013-07-03T09:22:59+00:00
TOBAGO-1280,1ba14c5f548d25faffac4a09f9c62341477a58b7,2013-06-26T07:29:10+00:00
TOBAGO-1160,bbc055fc311d2d4779589d2441d7d86cf4cc514d,2012-06-22T09:43:22+00:00
TOBAGO-1282,d1f95929a67362d3f19e9bce742e74ff03a10527,2013-06-25T17:08:11+00:00
TOBAGO-1161,8c5b7f95a7d93c8f0b43e7dad45d5f795971fd0b,2012-06-22T09:55:17+00:00
TOBAGO-1162,5aab12830d1b614651e93a58bd5c71ca43ff88aa,2012-06-23T06:10:15+00:00
TOBAGO-1284,7bd6fafea3ecaa2084cab4d72ad11af7761be54c,2013-07-02T11:43:22+00:00
TOBAGO-1285,93beb5de42893761c930dbceb24763797b95ff7a,2013-06-28T09:07:40+00:00
TOBAGO-1164,2a9adf7fcedabf86e3103b7cca4602131f88fbb1,2012-06-27T11:39:18+00:00
TOBAGO-1286,59d68db12ce677247555a3e7cc7890b50a11dc88,2013-07-25T08:50:15+00:00
TOBAGO-1165,26b21afbad53b474e0579b09aea1524365e97ef1,2012-06-27T09:55:46+00:00
TOBAGO-1166,175a8f86f04f3599e3fbdb1a07afc55c6f0a61de,2012-06-27T14:37:22+00:00
TOBAGO-1288,9c66dffa5d2c80e1cb5ccecfdad9483242c6d26b,2013-08-01T08:30:52+00:00
TOBAGO-1167,978da0e2c3162806c93a91d99ae28d0572eb1600,2012-07-03T07:27:48+00:00
TOBAGO-1167,5945f6286e46d0635ecc85e88b40015eb37539b4,2012-06-27T21:46:22+00:00
TOBAGO-1167,0814aa18a5e30024e95e159f4c6be239faf4a69f,2012-06-27T20:25:10+00:00
TOBAGO-1168,482df344f3a150afe5f3e90655d6bcc8645a9693,2012-07-02T22:46:50+00:00
TOBAGO-1019,2215778160b4a9f48c73e2afae407e8eb44209ad,2011-08-17T06:49:22+00:00
TOBAGO-1169,d289e99f7af4852038863dc6ab79f7552ae98962,2012-07-04T08:18:09+00:00
TOBAGO-1018,e05a19afe2fc8a2aeb329c0f5661e31bb466af3d,2011-08-03T21:07:59+00:00
TOBAGO-1016,1373d984cd39f913bba7ab1fb11f4b3056e195a2,2011-07-14T07:18:24+00:00
TOBAGO-1014,72181cadb369ab2c5baeb872a5b5dfd2a8fa8534,2011-07-08T09:19:04+00:00
TOBAGO-296,27cfdbd6de1694a83bc1ce4cef3da0a9404273cd,2007-03-12T13:16:30+00:00
TOBAGO-297,27469a2d4d91583f9633cdcf592e9bf4cb8e6c90,2007-02-20T11:03:07+00:00
TOBAGO-297,feab1d9167d81e1c1bb3f8dab5b79ed1baf3d435,2007-02-20T10:45:39+00:00
TOBAGO-1370,63393cc7e4923edd8b2ab09f5acccb13f43d0d96,2014-03-11T12:50:46+00:00
TOBAGO-1370,c4c68b4188bd80cc300349798cf3a89a034ed2a7,2014-03-11T12:45:27+00:00
TOBAGO-1250,31379d77799e7de215333d8965bbda3c69623cfe,2013-04-19T13:46:49+00:00
TOBAGO-1250,71b81bffc5c9918c6a0793795aa005ac50b84da6,2013-04-19T09:18:36+00:00
TOBAGO-1251,cacc816cd9387d053a3ac50c2e3c9fc528854daa,2013-05-24T06:17:02+00:00
TOBAGO-1251,21d911b307f79612b1d2b4328a906f72b3ce6286,2013-05-24T06:10:09+00:00
TOBAGO-1251,ed3690f4bd6cf6fd7a19ef7fefa0a723dbc312ac,2013-05-22T09:30:03+00:00
TOBAGO-1251,5d9a87ae438efc39d887553cf2b4f4fe032382ac,2013-04-23T14:57:32+00:00
TOBAGO-1251,185bb8346d3e585bdd98334a957c9887228a93a7,2013-04-17T13:17:14+00:00
TOBAGO-1374,89ea84544af1edced7f1a1149a090ad1b3d91d87,2014-03-17T10:32:11+00:00
TOBAGO-1374,13dbab0d15c922040b00b78df253a7f8290b9944,2014-03-17T10:31:30+00:00
TOBAGO-1374,e8f5f2a15be6c3d53abe859d391f0184e7d8ff5d,2014-03-14T19:34:55+00:00
TOBAGO-1374,812a137455ce4276b5c970fdf4dbdba58c51ef29,2014-03-14T19:34:04+00:00
TOBAGO-1374,803d4d6e11316b7dbe4635548a7a34f93526c663,2014-03-14T19:15:27+00:00
TOBAGO-1374,11be9fda98f0bbf1c4c8b09882caf1996d2407cc,2014-03-14T19:07:47+00:00
TOBAGO-1132,e2d6331b7c59e015c67bb91e8e32f8ddf509ac46,2012-05-16T09:54:38+00:00
TOBAGO-1132,97085f7e09ba387359a297d1c6c3c75c09671573,2012-05-16T09:53:25+00:00
TOBAGO-1132,648457cf5b09a2209424d0f50b1956a0d4f89b17,2012-05-16T09:38:51+00:00
TOBAGO-1132,49b1946c9ae5c7128e2c538567edbd77a8c82fc0,2012-05-16T09:06:26+00:00
TOBAGO-1375,ead599ae09e3b280f0b1a4868109a6298e292e38,2014-03-12T19:06:36+00:00
TOBAGO-1375,c5bc9ec73b8f189c4874b11f8addfd9f94d98f98,2014-03-12T17:11:19+00:00
TOBAGO-1376,107dce67d3ac3bd447d37699dd1d4383bca2ff16,2014-03-14T17:20:31+00:00
TOBAGO-1376,c81c6888a34af582a42b53282706dbfaec65969e,2014-03-14T16:36:58+00:00
TOBAGO-1134,3ca6b7e4052bef0cafd4a90310cdc6ab335d6bec,2012-06-12T13:52:02+00:00
TOBAGO-1377,107dce67d3ac3bd447d37699dd1d4383bca2ff16,2014-03-14T17:20:31+00:00
TOBAGO-1377,c81c6888a34af582a42b53282706dbfaec65969e,2014-03-14T16:36:58+00:00
TOBAGO-1377,8d0f9e06aa44feedcdc45c46dd29e25706f07b18,2014-03-14T16:20:19+00:00
TOBAGO-1377,d532f011f3ccf82e5fe430793a4af3f7aa927115,2014-03-14T16:19:40+00:00
TOBAGO-1499,8744598eefb71bcdc5a75560b1e5a422aa3780d2,2015-10-16T12:27:13+00:00
TOBAGO-1499,1095acc19fb8111e71ab86bd83e6a2b62e2548e5,2015-10-16T12:25:22+00:00
TOBAGO-1257,87852704f2ce6c35c5f19a2415fba43669885bf8,2013-04-24T13:18:12+00:00
TOBAGO-1136,69a119a28dfe1f96e9027bdb1cbc37d633110539,2012-05-16T15:40:56+00:00
TOBAGO-1379,984b0da8edfecbb8986b128b67657f46bcedcf41,2014-03-28T11:18:25+00:00
TOBAGO-1379,37e2770c2e0aeb7c842d333b10323d0e541235d0,2014-03-28T10:29:30+00:00
TOBAGO-1258,54e8a05a6f9d4a5ead01f234c5cfb92d2d06b38e,2014-07-09T14:56:07+00:00
TOBAGO-1258,89bc93758c851ac96e96afbe1fc9a16838a2f829,2014-07-09T14:55:17+00:00
TOBAGO-1258,ce2572432925e1aface5ae5ad8fc10eeaa0680f0,2013-05-15T10:07:14+00:00
TOBAGO-1258,4bca5e53eaefef478dd836d6a632f2ec6c579c81,2013-04-29T15:13:50+00:00
TOBAGO-1258,3135a89f7a52568ed2f74245bbeba9505e359aac,2013-04-26T17:51:41+00:00
TOBAGO-1258,0d7b37318ce2043e1b4eb250ff91c80c820c9d9e,2013-04-26T17:24:49+00:00
TOBAGO-1258,4a4bd3c51c69e82521cda93431dfcf01a5f7e40f,2013-04-26T17:10:13+00:00
TOBAGO-1258,165a058f1db8c5a9b3e22260815088c4eec30fd4,2013-04-26T14:57:09+00:00
TOBAGO-1259,c46e4a0fa69827a32cb9ace285d1ce925e17ef08,2013-04-29T11:56:25+00:00
TOBAGO-1048,1c2493b8323e52b82d0d700ec4d973aa80ef4876,2011-11-10T18:30:52+00:00
TOBAGO-260,087d0f6ae83e6e188763b9055f7dfa5839b3c362,2007-01-26T20:08:55+00:00
TOBAGO-1046,e2ea13ffeb13b94797451bf8f0e66a48c5571d06,2011-11-01T08:46:12+00:00
TOBAGO-383,3d94f73f49cf62c37f2ac8c40b6620f80fc5115b,2007-05-04T14:57:52+00:00
TOBAGO-262,bfa3d358e45dba33e2433bb2ec9a50b3e30d11fc,2007-01-31T09:54:03+00:00
TOBAGO-141,73ac02bb2d37cf32f57eb175dfd6b4be8d3b4d35,2006-10-02T11:06:13+00:00
TOBAGO-384,321e179f4721c5bc9cf699174ad62fee7a672b4a,2007-07-27T09:52:41+00:00
TOBAGO-384,a8150ddba3a5cf59d2b8bcf661f1f922e6d33c42,2007-07-27T09:36:09+00:00
TOBAGO-1043,04ecc7828c53d0e3f58dfb7e578831a6e844c9e2,2011-10-26T17:50:05+00:00
TOBAGO-1042,41f7d487390375ea32aa3c87e6a0e3bde049e7ce,2011-10-26T17:33:13+00:00
TOBAGO-145,377b40b2d75f82c597341679d4a17a5bf7e23485,2006-10-06T10:22:28+00:00
TOBAGO-1041,8693e7f29ece6af09b84253099f4161a5460c047,2012-02-28T07:03:39+00:00
TOBAGO-1041,1504625b9ecf7ad44255857ddc4eaf15f733d0f2,2012-02-17T15:59:35+00:00
TOBAGO-1041,e0a1e63fce2eb4fc08828d342e95f8a21a0f61d9,2012-02-15T18:19:59+00:00
TOBAGO-388,639a35b46dc12f9b1bf02887dcb228906827b5c3,2007-05-07T14:56:03+00:00
TOBAGO-146,c0df3e67a8ee013598654ea5795cebd736c85256,2006-10-06T12:04:36+00:00
TOBAGO-1040,fed7c6d53c202bb5eb55220531bb171023f4b046,2011-10-18T05:48:08+00:00
TOBAGO-147,9efd45fb0015b907b0fce6c460d20282ceb46452,2006-10-06T12:16:14+00:00
TOBAGO-149,e1a886951b0a788ab46e4789ff45fd1098cb1151,2006-10-07T08:41:16+00:00
TOBAGO-1381,0302bd69417069e7d53b99174338ac560d3b2120,2014-03-31T09:36:15+00:00
TOBAGO-1381,e1f8ece176fd9bed91c1869f0e105808b27e2726,2014-03-31T09:32:01+00:00
TOBAGO-1381,5815d6b543b54da4c51b5473b1deea25d597e984,2014-03-31T09:29:27+00:00
TOBAGO-1263,c6d349243ac96c88bc1714c27d7a9f5e788cc05e,2014-10-08T14:00:35+00:00
TOBAGO-1263,941bd0b10ecf4a135d9aa9fe6061d964ffa40714,2014-10-01T08:52:35+00:00
TOBAGO-1263,f99fc3b80ba105a0f2fc3189912406a207383594,2013-05-10T07:59:35+00:00
TOBAGO-1142,61360d1a3915202bd2733f6fb01ba3f8c36dceed,2012-05-23T11:22:11+00:00
TOBAGO-1385,afe6b0d8c46035a3aab0030d82658d9b2576f4c2,2014-04-22T14:51:39+00:00
TOBAGO-1265,6c2267dbda749eed14166143831b41f8ca6cba88,2013-05-10T08:16:51+00:00
TOBAGO-1387,07c64e84a89beb40a84918cb524218fa357da18c,2014-04-25T09:28:23+00:00
TOBAGO-1387,29e086a93892cdd12acae5501919ec2210f349cb,2014-04-25T09:25:38+00:00
TOBAGO-1388,6f05cfaa81e5148a82f63c536b82febcb06532ca,2014-04-24T14:10:31+00:00
TOBAGO-1268,42dbec0549d63c9fc126cb1e2a9e695cacff0a1c,2013-05-15T17:06:42+00:00
TOBAGO-1147,a0c90732c2fa9a434b2f91fabce0f65b94827bc0,2012-05-31T10:01:11+00:00
TOBAGO-1269,9a34952f9b85dadceecb1bed2950dff972d659a6,2013-05-16T08:00:13+00:00
TOBAGO-1148,cf30922c73a86d18b8315a035a573ff1e5fd7f9e,2012-06-12T12:37:29+00:00
TOBAGO-1148,d834e87caa4b6c12d2442f84518be773b49adbec,2012-06-12T12:26:58+00:00
TOBAGO-1148,7094456ef9bf6f294b230695872abff15b889e7f,2012-05-31T10:05:38+00:00
TOBAGO-1149,f8ba128d5e2a643a6ac7582a60f52201c821568f,2012-05-31T10:08:23+00:00
TOBAGO-391,3c8f16b99c4c473dd5edadb5d3cd12f09f16cb1f,2007-05-08T12:28:12+00:00
TOBAGO-1037,c60977ff61b5e234eb9190c0b083166738ef00e0,2011-10-09T14:51:48+00:00
TOBAGO-272,c5d4223a0dc282273dd5e7d3f647521dada1dfa2,2007-07-09T13:13:32+00:00
TOBAGO-153,5578630b19b0e8895bd4d24d8f2f8d41961aa17f,2006-10-08T10:30:29+00:00
TOBAGO-396,e86ea89b26f87cccd2b79c979eecb76e5364bda9,2007-05-16T16:00:32+00:00
TOBAGO-1032,08e383f33d4343e2b9eb1608bbe61cc68ab25483,2011-10-04T12:29:54+00:00
TOBAGO-276,5278903adb858e8adac7af9a283d7003524c9460,2007-02-20T23:09:08+00:00
TOBAGO-155,2d747e753790f0e2b381b60e211be0075c14a7ca,2006-10-13T15:59:33+00:00
TOBAGO-1031,9c9e40df1f0b2ff60f06ff88d1c87d06eb609aa4,2011-10-04T07:45:42+00:00
TOBAGO-399,2bb4f95bc0726d3a5cfc20f696b558cb79e58b47,2007-05-15T21:24:43+00:00
TOBAGO-157,623152dd65347cc65c5f72cf8b1731b46cb42048,2006-10-15T11:56:42+00:00
TOBAGO-279,e8ba0e9fea787d3ecf42a9163c2e0e28b0fff97a,2007-02-19T21:56:38+00:00
TOBAGO-279,fab3d48bbaf7f4d7cc9b86a6a257e915cbcc9b0f,2007-02-18T22:14:24+00:00
TOBAGO-279,fc2c658b0e54b71bcb0f78fc9394ad95ed14426b,2007-02-12T10:28:12+00:00
TOBAGO-528,ee6482307035c44944a22bb4c20e1db8377073ee,2007-10-31T10:43:49+00:00
TOBAGO-407,a998de99641ec95c3d16c7f60ac67b4d30080d4f,2007-05-22T20:47:25+00:00
TOBAGO-409,f4e487db8475259596583af21dafa6c2f28fc281,2007-05-23T19:56:26+00:00
TOBAGO-1911,33a5e87ce0cf07bdca6f5ca2f10f4e3669758619,2018-07-30T14:17:38+02:00
TOBAGO-1914,b9df35320ef7a68ad51ffbd805326a3d61406996,2018-11-09T12:02:42+01:00
TOBAGO-520,dab53f970c8136fd3ae37388f41920b8ac4183ae,2007-11-01T13:17:10+00:00
TOBAGO-763,d1bb490c87a0f2b7f709f1a4472b4e399f13443f,2009-06-11T13:54:33+00:00
TOBAGO-642,7a38b44fd171dbd5ff2e6773723eea4f2155760c,2008-04-02T12:02:34+00:00
TOBAGO-400,4a00baec9bd7ab8cb7a222d535b7a9c1db28eefc,2007-05-16T15:26:43+00:00
TOBAGO-1918,2693d35c64644f20449238dc1a75bf29b441c65d,2018-08-23T14:47:01+02:00
TOBAGO-643,699a6d686a0decdbd4a553d5c8bba7dd4b645c91,2008-04-02T16:11:33+00:00
TOBAGO-522,1ce642959acdf961269aac5e7ad97f2693cc3d9d,2007-12-10T08:55:52+00:00
TOBAGO-524,8e7facf99a3d36c8b0feed766e9e009f2b822dd1,2008-02-02T19:59:56+00:00
TOBAGO-888,349e82eb3251a4ef4c03de0c8bdec6553486ff2e,2010-06-02T18:58:58+00:00
TOBAGO-888,67d68b1017294d6c7c42480ff43d0cf515af4d04,2010-06-02T17:27:23+00:00
TOBAGO-647,f463f4017f64aaa1cb86377b7c546e2e831025be,2008-04-16T18:21:50+00:00
TOBAGO-648,865cbe6a0056e0255fd016ea4d939d06e84c3894,2014-08-28T16:00:04+00:00
TOBAGO-648,056cb8a24f04830483b812d7679202c6fe45e8bd,2014-08-28T13:35:36+00:00
TOBAGO-406,fd8cbf68190ffe201a01fda1111130ad594faf43,2007-05-22T10:14:30+00:00
TOBAGO-539,0810eb0086b3d0aaa4ebd861fc5071651ad95246,2008-01-22T19:28:52+00:00
TOBAGO-419,e9259a3553a62a98638fe7aba9583e5f9994be8d,2007-12-16T20:27:16+00:00
TOBAGO-12,b7afd76ed63fe3dc5d486aad873e1f6442376e6b,2006-09-25T16:22:57+00:00
TOBAGO-1922,cc3819e8442f58151d00b085eccc5512e02d6b25,2018-08-28T12:56:55+02:00
TOBAGO-1801,7b97c1e9737d87dbef44768fc5112290a6e38882,2017-09-15T09:23:32+02:00
TOBAGO-1923,a0521423e59414a5bc3f3f16662e79849f28c09f,2018-09-20T10:18:58+02:00
TOBAGO-1923,a03521430e314fc1ff34efe15b12692d1248ab1f,2018-08-31T12:46:24+02:00
TOBAGO-16,0dc7f711293eb999b9589ea3ec56e039ef06c1aa,2006-03-11T18:43:20+00:00
TOBAGO-410,620e05beb90e451b7533c089b37253b7c5a3841b,2007-05-24T10:46:52+00:00
TOBAGO-1928,f1ae29d24e065928d6b26f8aef139b1c8e6bc41b,2018-09-20T10:33:06+02:00
TOBAGO-1928,12ba836ee953bced82573a1902b15de35346baac,2018-09-17T16:57:24+02:00
TOBAGO-1929,db2641055151676bdf4832bd1cdddd682c0caf2d,2018-11-09T15:36:36+01:00
TOBAGO-777,98e316e119046f588643ae58052b3ab292b9bdd3,2009-07-30T15:18:08+00:00
TOBAGO-414,a5fd7116997717e2a027844fd2effa75f2bec2e0,2007-06-01T16:25:02+00:00
TOBAGO-538,af02c13e7761d61fc232c845f56e2420ac965013,2010-08-10T15:55:16+00:00
TOBAGO-538,abc37b4ce844d53b7a27de90e59405207bc0d426,2007-11-25T17:53:22+00:00
TOBAGO-538,9218ba037c812dde2e1fbdb105a3b007e01b713d,2007-11-08T20:26:22+00:00
TOBAGO-417,6559ea42c2c04cacda3f9029332ab4574711636e,2007-06-08T18:53:52+00:00
TOBAGO-748,79d5c26d5852a8baec97783414d740e5efa28fe2,2009-07-06T04:18:41+00:00
TOBAGO-748,07b8c1f6f5d0f7c5969fa9776d85add638b36511,2009-07-06T04:12:44+00:00
TOBAGO-748,b4de186cb89cb263eb903287a351ebbea3b8e85d,2009-07-03T20:59:49+00:00
TOBAGO-627,afbcbd1841689a0d3a5a19be55f3a65d91263d01,2008-04-03T07:16:27+00:00
TOBAGO-627,f3258b33b2065e7350ff8ad23d60105608d3dfb7,2008-04-03T07:06:59+00:00
TOBAGO-627,4dd28fbdc25ededdcd6228a18c206ca4ac587898,2008-04-02T07:35:14+00:00
TOBAGO-627,8c5d8f4d837c84caf52aae66eebe3bde9e352522,2008-04-02T07:24:31+00:00
TOBAGO-627,4128273168fba16c1b22ded66ffd906a74557551,2008-04-02T07:22:51+00:00
TOBAGO-749,5b14b1fc2e0b36dba58d07800fc7275ae698a64f,2009-05-25T20:53:12+00:00
TOBAGO-628,dd1aff6b097655bd53487e6d31f9e1e24ca83a00,2008-05-01T12:24:17+00:00
TOBAGO-628,d8e3cd8b2051b3a42bfff1f7663bb04955197199,2008-03-05T19:42:49+00:00
TOBAGO-629,5248ec195595492a2ad251664da32065ea514615,2008-03-05T19:46:53+00:00
TOBAGO-509,a5ff8ed808be3072adc4c03b333d1de8d643596f,2010-08-03T10:53:02+00:00
TOBAGO-509,8e6ce62ddb1d18f411b4770ca57c629cd879828e,2010-08-02T13:32:06+00:00
TOBAGO-980,415edcaef2104c9a434bf406dad249e2277f87b6,2011-03-17T14:24:49+00:00
TOBAGO-983,3f30a010dab33990c752aa0c2b0a0fd576587055,2011-03-22T10:18:48+00:00
TOBAGO-741,c9636cb7be940506d894fef487a00431932405e4,2009-02-04T22:42:02+00:00
TOBAGO-620,88ac8ef17c124883b586831f553a280e308b17fd,2008-02-09T08:47:13+00:00
TOBAGO-500,a79061b7dce0a0c6d476987fc0e3296e43b5b5af,2007-09-26T08:04:52+00:00
TOBAGO-624,2f7de0ccca7a7ad3199c9dca4c7b70b5f42cfa8a,2008-09-21T12:50:11+00:00
TOBAGO-759,0b8a6e827ed8664a293460fe9d704b72705ef516,2009-05-27T14:47:29+00:00
TOBAGO-638,36f6914726892d169701e5cffe6efd4a212cf32a,2008-03-18T14:01:56+00:00
TOBAGO-517,39e900ada5f400087aa7f0b6c4d95531ff963250,2007-10-18T17:29:24+00:00
TOBAGO-1900,9e0ad7533b11960ac5981286f173a11c8b2576ed,2018-05-30T15:04:07+02:00
TOBAGO-1900,bb55cd99c5a4849b12297127265ef06b7e43966a,2018-05-23T18:00:15+02:00
TOBAGO-993,c4073cc7c186535ac608db8fb0c0861ae0fac9fa,2011-05-04T19:44:08+00:00
TOBAGO-993,f4508895d36265dd3216bed9bc00d49b78fc3e6b,2011-05-04T19:24:36+00:00
TOBAGO-752,4a9de1c2a2e5738746150d66de65faa84952bebc,2009-04-21T12:55:35+00:00
TOBAGO-510,7f700bbc1446f4e7b1b86ac82f5f4cdf6aa67b01,2007-10-05T17:50:45+00:00
TOBAGO-510,f0576b454bb097edee30767cc115f0575abaff5f,2007-10-05T13:00:02+00:00
TOBAGO-995,522cdb6c76c9a74d8a6f75ebe17bc79a935c8e9f,2011-05-04T10:49:23+00:00
TOBAGO-874,befcfd5a7df798debf49b7d9ca2571e69778014e,2010-04-16T16:14:52+00:00
TOBAGO-996,23055b26ee8fb8d78b79fee44ecda014fdef9ddd,2011-05-24T08:44:25+00:00
TOBAGO-996,8dd5b233a3fa963f8d090bfd0c3cc8c3dfcd67fe,2011-05-05T17:38:44+00:00
TOBAGO-512,7d3e0c68d8b9ab8880158021751e09fbb5e11b84,2007-10-10T07:43:43+00:00
TOBAGO-1909,270bcd188dc2e6bc243856aa3eadb00454cbc0b8,2018-08-24T15:05:35+02:00
TOBAGO-1909,f987dd104022344ff4c6704bc9d11a639e7cde8f,2018-07-25T15:59:20+02:00
TOBAGO-999,d035b8212f60b5dce103b8f8dcc75263e11e4026,2011-11-25T09:51:21+00:00
TOBAGO-758,108832b388b59df8d6222b384f71e7a4056313fd,2009-05-26T08:30:57+00:00
TOBAGO-516,1fcc46766e9bd81b20b26ec3480ca716653a90d0,2008-01-22T18:17:24+00:00
TOBAGO-209,eb885eca737c3a25d29d11659b13eed60ed94128,2006-12-06T19:34:11+00:00
TOBAGO-45,04e77558bdab9d24240b89c03ce04b9e9d885283,2006-03-20T12:10:10+00:00
TOBAGO-43,a24895122e3f0f13ca8bf8a0c326889b5c213263,2006-03-10T18:21:40+00:00
TOBAGO-683,ca27d4fca75b1fed2962a7a377a0ed782e3ce868,2008-09-21T19:40:32+00:00
TOBAGO-562,ade5534f35a88901d4bb04cacb3a9bf979fa9be2,2007-12-10T12:59:09+00:00
TOBAGO-562,6ea0032b2a0888ea16c1ea6de6bc9ca6f5fc0cee,2007-12-10T11:06:52+00:00
TOBAGO-562,1aa901ea703584a45c668521a0b60937d082026f,2007-12-10T10:49:03+00:00
TOBAGO-562,e286b8f04ec8ac6d3356b4e6ad4e9f4a31c9335f,2007-11-30T21:53:30+00:00
TOBAGO-562,926f1f33faf1829322c00200c04538ba0c1138cd,2007-11-30T21:42:40+00:00
TOBAGO-562,b19edb5a51fe739f8529a49a3873c99c25da884f,2007-11-30T12:31:54+00:00
TOBAGO-442,b9f92838133da122edf6d0d0a77ad236e4fd30ee,2007-07-11T15:27:51+00:00
TOBAGO-322,400d7ab4437744df55b7796ac7a94f264e694e57,2007-04-12T17:56:21+00:00
TOBAGO-322,5d888a736e3ae081214832509a1429e976019221,2007-04-12T17:49:29+00:00
TOBAGO-322,01531e581e907287a4dce9f59f2dd4380f9e899d,2007-03-14T18:04:18+00:00
TOBAGO-202,cde684f39611eeff2b9e1131d4778db20a90cf95,2006-11-29T14:09:56+00:00
TOBAGO-324,26365ffff42f9aa8134d5f80e7de864bcd04fdfd,2007-05-10T21:13:51+00:00
TOBAGO-324,bd8d33b298e50db2354c698fee2d60a8b6eef7d2,2007-04-21T14:44:45+00:00
TOBAGO-688,eca1e7cea1f18cd0dd1d45a05d2bd3f5bfa42e42,2008-07-18T19:47:16+00:00
TOBAGO-567,1e6521aa362a7311fdecb8b63b1cde982a2e0ea9,2007-12-05T09:43:16+00:00
TOBAGO-446,dc61c5466a75f2e093625ccb66977a4a032b1c81,2007-07-13T08:16:36+00:00
TOBAGO-325,9aaa8dbccf110b2c6b622c79c90026bdb6d2afbc,2008-05-12T10:10:49+00:00
TOBAGO-325,2945fcd83ea67eae07bd7d107301490e6f7dfb6f,2008-03-26T09:10:36+00:00
TOBAGO-325,d0df89f21b7933a9a0fff7af6f2071b5f86fa22d,2008-02-11T14:50:18+00:00
TOBAGO-447,e98e85b096a959852e441e84e9b7dc5bebaff835,2007-07-30T09:19:08+00:00
TOBAGO-206,f57a450822f5c15cc098511b19bc7bc9efcc128e,2006-12-03T16:26:35+00:00
TOBAGO-329,bce3cbddf199986d7463f6346ed1f3aae8181e64,2007-04-10T19:20:57+00:00
TOBAGO-59,f9fe3528efd1007da9a98b1f1e5a839459a6a028,2006-05-04T18:09:43+00:00
TOBAGO-59,bc70146bada133342d6d75bc90487188c461b52f,2006-04-27T02:29:22+00:00
TOBAGO-55,27bbe66a8b924112acf6a083680deb0c9d805ac1,2006-04-19T12:52:04+00:00
TOBAGO-690,b997bc4bb64c67dcc0418e9160c0cafc3f2d1e1e,2008-08-06T07:04:15+00:00
TOBAGO-690,20aac174d504a736808e146f89402e7083d78de4,2008-08-06T07:03:13+00:00
TOBAGO-690,faa60e1b29a4e83258e468a9ce179b72e2934786,2008-08-05T21:21:21+00:00
TOBAGO-690,b9faa76d6418f2050913f15ebc21f01ebfb5c0b6,2008-08-05T21:19:14+00:00
TOBAGO-690,96d62ad6507bf5d9ae0a174b33df49103d4efa49,2008-08-05T17:41:52+00:00
TOBAGO-330,ebd75b56b571f261caa85223b2ce3f0a9518ebcc,2007-03-22T21:46:59+00:00
TOBAGO-694,d2ce94c223bcd67682f44ca99ca8d90c44029592,2012-03-07T19:55:05+00:00
TOBAGO-694,ed4ac34337d37387b7ef003ecbec52f6514aa9ff,2008-08-22T08:15:31+00:00
TOBAGO-1097,d8959cb557c656a9f29bde6c32e70020cd8949da,2012-02-28T12:10:12+00:00
TOBAGO-332,3305d658382948a47da64d5c3aada3081ab197d3,2008-05-20T20:25:52+00:00
TOBAGO-332,1106de30b87bff8da06cca77947de74161d21e22,2008-05-20T19:43:33+00:00
TOBAGO-332,b5e39e5f893d6fb68190d5f0063d808ae0582976,2008-05-14T13:23:03+00:00
TOBAGO-332,9cfda6cd607c5afa9ef002c7f6d18cddd63b3183,2008-05-14T13:17:03+00:00
TOBAGO-211,3ee6cf2836b1ef608c0487d61d05960a79be5363,2006-12-08T20:27:15+00:00
TOBAGO-333,3de08e52f4aad9c15340fadd8e3691156b5f569d,2007-04-05T09:04:31+00:00
TOBAGO-333,4f0c256d853c1ee1b0b64e1c658a6c02c9e094d6,2007-04-05T08:40:46+00:00
TOBAGO-333,2f0273a997fc8cf6fbb56a2e971f8e2dcc077b99,2007-03-22T22:45:07+00:00
TOBAGO-212,c70e4a269397d0405624bab2034800b9d9ca82d2,2007-02-12T21:05:40+00:00
TOBAGO-697,5d32fe92000aa22a91bd0afc358cc3cb58cc9fa8,2008-09-19T21:08:09+00:00
TOBAGO-1094,5951b08089f791ddb3a7fdf74187fb7a54d10d76,2015-12-11T12:32:04+00:00
TOBAGO-1094,19400b8330cf2228eaa97940cb2eefe2f52cc35e,2012-02-21T16:29:43+00:00
TOBAGO-458,37900393fc8846bdbb422fe157f6e650c04e5504,2007-07-30T13:54:19+00:00
TOBAGO-1091,6c540af39a29d5c677fe48c20df5b728471846f3,2012-02-22T13:24:13+00:00
TOBAGO-1091,2acf73ba78ce8fa7c39bfccd6dcd025a87b5df48,2012-02-14T09:47:56+00:00
TOBAGO-1090,35335a1d10d67ea501ca45e54453c5076e4188b8,2012-02-14T12:48:39+00:00
TOBAGO-1090,75ecc6f023450edad59d1add657bc41849760bca,2012-02-14T12:29:18+00:00
TOBAGO-218,da5a85cefb0ca6634b400e218098c11faeb42168,2007-01-04T13:39:41+00:00
TOBAGO-218,2338004cab238a2095d123d56b7ecb70c00dc611,2007-01-04T13:38:34+00:00
TOBAGO-429,7f409f364faf92f3f210d445dc856226788f7ebf,2007-06-17T08:13:24+00:00
TOBAGO-309,5f554c72f63d189bbbd8de4144623221490f454e,2007-04-03T19:43:14+00:00
TOBAGO-6,77180d645b8e46760d99cdfb1b689f72415094a3,2006-03-16T11:37:57+00:00
TOBAGO-540,721e411eea90b78fc3ec49d7c81318b1c6199e90,2007-11-19T12:56:21+00:00
TOBAGO-541,3d2a18a1f65fbf28787a642ecd8f537c87be0393,2007-11-19T10:07:28+00:00
TOBAGO-541,66bcc5d8dd48980ac4a8ff679141d811f558613a,2007-11-19T10:03:00+00:00
TOBAGO-420,4acaff5d42b0b2c27d0e9a44cfcdea0f774c0eca,2011-07-07T15:41:21+00:00
TOBAGO-663,9ab9c9848b1fc0801ee1e95b9192b4ffa6e7dc06,2008-05-08T06:47:16+00:00
TOBAGO-542,72e81bd9ccc913b85e9d21b0b0835570a23c587e,2007-11-19T10:21:43+00:00
TOBAGO-542,8f2e6a26dac66e4dce03bb881fd1d38a8c4e9ce2,2007-11-19T10:19:29+00:00
TOBAGO-421,3cebb9ad7d0e3901088c808ff6ffe4ec3bbedaca,2007-06-13T10:06:37+00:00
TOBAGO-422,458bb04da256e940099efb0ab5aa6febb5467315,2007-07-24T08:47:45+00:00
TOBAGO-544,8807f280fbe2d8a43a356eb7e14628ba578c3c33,2007-11-20T09:45:48+00:00
TOBAGO-544,ce15f3f7daa1ec329bd256a66153ebe138051010,2007-11-19T13:53:49+00:00
TOBAGO-423,17579738abd0a4a3b075116f929bcccd24372870,2007-06-13T10:43:33+00:00
TOBAGO-302,138a7103719d471586632da4f76e0b83522e7f53,2007-03-06T07:34:42+00:00
TOBAGO-302,842908ef9146df40a2e57c0f5db141892fdba604,2007-03-05T22:38:00+00:00
TOBAGO-666,4976443de1f14d5e09f8f7e55a1962192b9cae51,2008-05-13T17:47:39+00:00
TOBAGO-545,a717943bad0169062f3cb44c1599b38062a6261b,2007-11-19T14:14:59+00:00
TOBAGO-303,79a13d5da183ce604a65f24c44386c0d2bc2dfc1,2007-03-02T19:05:17+00:00
TOBAGO-303,0efacc66cda964581f603a57c7079b1e6dfbbd73,2007-03-01T21:14:24+00:00
TOBAGO-303,21f9f5e7375c962e267d5d97b89560130b899d46,2007-02-26T19:55:16+00:00
TOBAGO-788,724943656836d4ab3598d752d79e21135b3054c8,2009-09-10T21:25:28+00:00
TOBAGO-425,9d073034b7ae4949bda45e805d245a479df12fa7,2007-07-26T17:36:48+00:00
TOBAGO-425,c15c7b40e20652f06867d7735745d4b8e21b7ca4,2007-07-26T17:35:14+00:00
TOBAGO-304,c2cca698b0fdfb5151e092a9ed0a7955a18c7de1,2010-09-15T18:11:39+00:00
TOBAGO-789,eb3410c2038005feeacfcca498ad6aefb196ac07,2010-08-09T12:31:19+00:00
TOBAGO-789,e9c64df3e00bb27ef4d1dcfd8bcc98bee8b2bba0,2009-09-11T14:49:24+00:00
TOBAGO-789,b2a88c1cb384cc3d597ef77b6324c54d86134b6f,2009-08-27T16:21:10+00:00
TOBAGO-668,bb5b767d6842e6ff5683e4cf28aac19b55254540,2008-05-22T15:24:59+00:00
TOBAGO-428,c9ecdf8b4e3a9a8ce17c0d0d92579b0bd1420359,2007-07-30T16:41:05+00:00
TOBAGO-790,91666dd8fbd141d5d95206444ccf720d3c677234,2009-09-02T10:50:45+00:00
TOBAGO-791,2811c1832727fe368345ab3a1fab1feab6a976b1,2009-10-26T10:25:13+00:00
TOBAGO-671,ad4cfde362df829e87c1b630549fc07839fe8254,2008-05-28T10:14:11+00:00
TOBAGO-793,1a84f3dfe0c50d2c29b9562926c3ffd689dfc151,2009-09-10T21:17:31+00:00
TOBAGO-675,7b9b0a9be15bb7ce05463a8301365f0bebc3c6ae,2008-06-13T05:48:35+00:00
TOBAGO-433,4b9795699abacb9bd8570382d9a1da23d04ec1ce,2007-07-10T09:33:52+00:00
TOBAGO-433,1d4f371448ae6b31abc8e55c6445093805248212,2007-07-10T09:32:58+00:00
TOBAGO-556,1a1ee25df40b94c56a9627515a85daf0a922864b,2007-11-27T16:15:10+00:00
TOBAGO-557,d7ee103d099d208e087f883fab64b5b2d505f90e,2007-11-29T22:11:52+00:00
TOBAGO-558,fa0ddbf2802609ba68208cce6dea986bb76bb1f3,2007-11-28T15:41:44+00:00
TOBAGO-437,6de2cdd2fa984ec72509d779fd5629bc2b298f43,2007-07-07T08:23:13+00:00
TOBAGO-438,2eaf454468f7f3a450b9efe384203ca92932b473,2007-07-09T15:42:50+00:00
TOBAGO-439,4b9795699abacb9bd8570382d9a1da23d04ec1ce,2007-07-10T09:33:52+00:00
TOBAGO-439,a0811850f72047eaede709cc3f59b74824b158ef,2007-07-10T09:32:06+00:00
TOBAGO-318,352413cbd456281508f2ec94622cf9c75ca5479e,2007-03-12T09:01:29+00:00
TOBAGO-318,cf9c273558179a40d5c82f395228e92be8db5785,2007-03-12T08:13:59+00:00
TOBAGO-803,bd06283f689e8915e1acd604b461a220cb7f4a49,2009-10-20T08:54:50+00:00
TOBAGO-927,624674707dde9995a9e4426674b21d1dc30e2da1,2011-06-22T09:50:51+00:00
TOBAGO-927,3712c88b09329f6f6c3cef750d1523f7a722c4e1,2010-10-22T17:06:29+00:00
TOBAGO-929,f96163f0c32dbc78a8c96889de5a59cbeb8e58e7,2010-11-09T21:41:50+00:00
TOBAGO-929,775a24a252e72394fd88820471ca8063084a164e,2010-11-08T23:06:29+00:00
TOBAGO-1870,36afb933c5e989183979938270110850402b2001,2018-04-04T09:20:46+02:00
TOBAGO-1870,dc15ddfb92b8c34f27db717712b90b9cc9c2d938,2018-03-31T09:48:13+02:00
TOBAGO-1870,92920d69459840309f56fd1dfd4af95818c37e48,2018-03-31T09:46:07+02:00
TOBAGO-1870,6fea424ed06c3dec49b22f765209f05552793bee,2018-03-15T10:07:28+01:00
TOBAGO-1870,915aa54133a791a33e46cc77860b2caf35ffab25,2018-03-12T09:57:42+01:00
TOBAGO-1870,ad7bf9d70884f5f3e5ea8d75b109b121cd03c662,2018-03-11T11:41:19+01:00
TOBAGO-1870,88e3099e76139a2d009225318ee6980afff3136e,2018-03-09T13:27:29+01:00
TOBAGO-1870,ce3f4a8a8bb9eeaa7995de72f203eb7064959871,2018-03-09T08:22:16+01:00
TOBAGO-1870,6e8f4baf4ac60e431cb00c66f5eff49e606bf17a,2018-03-09T08:20:57+01:00
TOBAGO-1870,b11d3e0f1f50b64be2af6154d80f5c57633cd8b9,2018-03-08T21:30:21+01:00
TOBAGO-1870,bf89551c6127acf44f8aa9c95d90d5ec9a67d5ff,2018-03-07T10:51:19+01:00
TOBAGO-1871,b365f8599a9b355bf31c648a694499c47d69633a,2018-03-07T16:01:35+01:00
TOBAGO-1750,c1f66547acaf258eb507deab687f1ea2cf1a0c29,2017-06-08T15:11:36+00:00
TOBAGO-1750,efd3323656a6a200098b3ffc7e0eaa9d1cb1f3b6,2017-06-08T14:31:49+00:00
TOBAGO-1873,ae6acc80a894237a947ffe39d282b6869ec6f979,2018-03-08T11:57:25+01:00
TOBAGO-1752,387a851904a7c5c41eac30c6d3878f857f08817d,2017-08-02T14:21:33+00:00
TOBAGO-1752,0d6497deea59e47b31cd5e0ce77627bc9c699b32,2017-08-02T12:00:36+00:00
TOBAGO-1752,10407d56dab1f13e98cdcfde71e7578cbdc0540b,2017-06-28T14:16:58+00:00
TOBAGO-1752,32a9178438d07cf6ce665d43832509e0db3e4ab8,2017-06-26T16:08:49+00:00
TOBAGO-1752,716bb0506c73c574de19e0615627ef5690e78e07,2017-06-15T13:17:18+00:00
TOBAGO-1752,a203af624f0cd29f5f6dee52cde817fe6f61fd90,2017-06-15T13:16:02+00:00
TOBAGO-1752,aa42b11a0a4de6b8da35ab59d3537cae181da20d,2017-06-14T15:02:30+00:00
TOBAGO-1996,b37dba1d132896abcda26503458442b3e42b969f,2019-07-15T17:25:44+02:00
TOBAGO-1634,a77b1ab39a603988591a7c37c185c6c5d7d86bd2,2017-01-13T22:57:45+00:00
TOBAGO-1634,a80b99c02f54c591497f17b7eb4e64ed962709c8,2016-12-03T10:53:25+00:00
TOBAGO-1634,f775888b9d4c1e2476a71d9860f1359f95e9eb87,2016-12-03T10:39:10+00:00
TOBAGO-1634,5a228f8c60c145785f0b964d066c1e71cf6bd1c9,2016-12-02T08:02:10+00:00
TOBAGO-1634,9293ab036064e498dfc182aeaae6c8c9a87e4812,2016-12-01T15:21:50+00:00
TOBAGO-1878,d75fa956ed0ae0d6cae67abb3062ec25f56f4576,2018-03-28T15:22:08+02:00
TOBAGO-1758,f4b6b1fe96f4be1704885ee2d30777a46b6969e3,2017-09-13T18:44:15+02:00
TOBAGO-1517,eea4fe6303ef2dcfc43f0ab9b0f5d1baf9f079c4,2016-08-24T08:32:50+00:00
TOBAGO-800,48956b41e4ede3bc6e4eb9d971f6cf201bcfc2b4,2009-09-30T21:04:31+00:00
TOBAGO-800,115dd7395ad816c2934835b8a9fe9ecafd4ccdfe,2009-09-30T09:26:37+00:00
TOBAGO-922,8b052b2dbd7bf458734e55cd631b6a3e8bf627ee,2010-10-18T15:53:33+00:00
TOBAGO-936,2e3d86f9ef9dfca571fb89d54eddf7ccdc2f3c10,2010-10-30T18:48:07+00:00
TOBAGO-815,91947576554a76fa924637e60a7c17a78f0517f8,2009-12-16T16:46:28+00:00
TOBAGO-815,fae813c63ffa72db45ffd2b0d5f92261184b7218,2009-12-16T10:53:38+00:00
TOBAGO-815,4c45cc94963fc4f61e9e11d0213073e77de11e63,2009-12-16T09:01:08+00:00
TOBAGO-815,33212dc2a47f5b01283e8b620c0fbab4a05e8962,2009-12-10T08:22:27+00:00
TOBAGO-1880,c5f3abffb3ca0c5d9277fc613b214259be152200,2018-09-25T15:03:10+02:00
TOBAGO-1761,9a3db2bc0d136283e95ebb2b2b278df1b20ef012,2017-06-27T14:19:14+00:00
TOBAGO-1761,bfa92230d49761dfd24b7d4bfa841676de8ece4f,2017-06-27T12:41:38+00:00
TOBAGO-1761,70cf310a89fd3ae4eabae8d1410d1d50128b58af,2017-06-27T10:59:01+00:00
TOBAGO-1761,0851731f2b908a610c16e8cfdd636a89bf4a93b9,2017-06-26T16:51:05+00:00
TOBAGO-1883,d75fa956ed0ae0d6cae67abb3062ec25f56f4576,2018-03-28T15:22:08+02:00
TOBAGO-1884,9576d3dcafedcba312d5cdcaadee139de9fdb2e9,2018-04-04T10:45:33+02:00
TOBAGO-1763,bfbbe1ac82821276c8b4be55eff7d8b39d99ae69,2017-07-03T11:47:47+00:00
TOBAGO-1642,007d825287071cde85e685eab228f42fd7db000b,2016-11-28T19:33:58+00:00
TOBAGO-1764,3685a46e015a9951203ba51a6731fd3a08b0c8d0,2017-07-05T08:26:36+00:00
TOBAGO-1522,76be869e79776b43a4e8670452fb7b3f4ec796c0,2016-01-27T09:49:21+00:00
TOBAGO-1522,6bf4cac58f096ce8030353ab2c50e82f41a45a85,2016-01-27T09:48:25+00:00
TOBAGO-1522,0ee65e9a513cf96d00afd513cf853930fd117af3,2016-01-25T21:12:05+00:00
TOBAGO-1522,aa93d78405aa002a07d62e16dd8e9d8343e4debb,2016-01-25T21:08:57+00:00
TOBAGO-1522,b381770b59c1f7ca71a827d0956256d983e2d65e,2016-01-25T11:36:07+00:00
TOBAGO-1522,4225af6f34840e83f9d91175c0fb14586dd4ef8a,2016-01-25T11:27:30+00:00
TOBAGO-1401,afc3df997fa22f6941121618573a72dfafbf8bed,2014-06-06T13:56:58+00:00
TOBAGO-1401,bb1be2435dc392c914f1bcee0bca46393c6eb807,2014-06-06T07:41:50+00:00
TOBAGO-1401,af694a4d9751533239d2145e2aa00729b639c7bc,2014-05-30T12:59:08+00:00
TOBAGO-1886,9743019a931418274df38fecf39a5144bedec3fc,2018-04-04T11:59:50+02:00
TOBAGO-1765,810fe0d74802d39c97e289244890fb388d1ca7ea,2017-07-05T09:35:37+00:00
TOBAGO-1887,f2e7e8b0fc9e16735938d12afd604741aa88e44c,2018-04-06T11:16:03+02:00
TOBAGO-1887,0da1046c8caf13fdb1edb21319a5ab9a168cf321,2018-04-04T14:49:20+02:00
TOBAGO-1645,37baa8ed602e13d40ac1de8b1543a57ee217cb0f,2018-02-20T10:33:05+01:00
TOBAGO-1647,74e069daed3a21ca5a69ef80e8447ece0b6e0858,2017-01-11T12:19:37+00:00
TOBAGO-1769,0122d910b0ad4d53a639b7b5e01ca3be75039459,2017-07-26T15:04:22+00:00
TOBAGO-1769,6232b6d66c25c1062c58731e454825c95de705e4,2017-07-26T15:02:16+00:00
TOBAGO-1769,04c3dce3c1fff324412a7fa4de8abab178a5050d,2017-07-26T14:49:49+00:00
TOBAGO-1769,a7e3e5f6302a15f238705fe916481e479eba317b,2017-07-21T14:25:41+00:00
TOBAGO-1648,ecac6cda45c90b794e789a7d17c742f4771c2c60,2017-02-10T10:00:05+00:00
TOBAGO-1406,f0f58f914fbfd1bf38ab57912379044761e9be68,2014-06-17T08:54:51+00:00
TOBAGO-1649,bf79f4c0998f7dd4b738676ff4ecabad13d49b0c,2017-01-11T12:56:10+00:00
TOBAGO-811,38fa3f9979ed4a22df03fc5675b2c016fde466b3,2010-03-15T11:44:24+00:00
TOBAGO-811,2bd2b66099802ab66aabff9a766c46f4e52826bc,2009-10-30T13:35:19+00:00
TOBAGO-811,20651fb06e5c6e34068c6d035eab9adb0bdab6d2,2009-10-30T09:43:12+00:00
TOBAGO-811,903f3c613562da6b96f85288d878dd6754e320cd,2009-10-29T16:21:36+00:00
TOBAGO-933,ed8366ffc1cf2d6aa0823387b1606ff526d0a617,2010-10-30T18:18:46+00:00
TOBAGO-934,bb00db8822058642faf7d4e1ad2624057f4fce44,2010-10-30T19:31:40+00:00
TOBAGO-934,0d346c144c0dcdca113cd7f3817db3dedb7456f3,2010-10-30T19:25:59+00:00
TOBAGO-934,5e9d2e13377100fe303bb7f00f08b78f9b75f1bc,2010-10-30T18:25:43+00:00
TOBAGO-904,afefd33be9b05c5a29ed6186b26e55106964d34e,2010-08-18T20:59:07+00:00
TOBAGO-905,7b75516b866dd62e90bfc4402c115d4bfeba2d0b,2010-08-09T15:03:26+00:00
TOBAGO-905,70f3960aa3c65bc0a84b53896f74b65222a9cbcc,2010-08-06T16:30:58+00:00
TOBAGO-909,eb0eed35970d0ce95f226f2344aa29dc46a5de5c,2010-09-10T08:26:39+00:00
TOBAGO-1972,cfbd636617b082816e96e246d7102429788c5448,2019-02-27T14:48:21+01:00
TOBAGO-1972,a326499fb79055cb5838054349371b473f8a6e7d,2019-01-09T18:36:21+01:00
TOBAGO-1973,c6f6f91a5e8a1524f8b6873de71f3dd0ffd97418,2019-01-10T17:38:20+01:00
TOBAGO-1852,6a8602f538e7b7f0b2e16c19df02dcb21fceef14,2018-03-14T11:06:20+01:00
TOBAGO-1852,fa9d600c94068b46d3508e88065bd100fb80effd,2018-03-13T19:25:34+01:00
TOBAGO-1731,acdf81ad96f4b72bc7873ba2eb17a6b9e155a95d,2017-04-06T07:15:15+00:00
TOBAGO-1974,bd946d0f7384a76765a536747b363e2f334d9b62,2019-03-07T20:00:44+01:00
TOBAGO-1975,8fb1cad8a9206de19723a34f469028ae5f6546f3,2019-01-17T13:54:32+01:00
TOBAGO-1612,62d179a5f2a28dd45e2ce7d34221005398043aa1,2016-11-17T11:29:20+00:00
TOBAGO-1734,a8f0508122c67e94e91a395b71268008c620bbcf,2017-04-21T12:18:52+00:00
TOBAGO-1735,6e2679bee27f9031d3551435d313ecf8d1be8303,2017-04-18T17:05:28+00:00
TOBAGO-1857,aaeda50d72ad3ecb4841086d987a8f3c9119d1a3,2018-02-21T15:09:37+01:00
TOBAGO-1616,ddd81db97f924e464c99e03db08a098a1c0967b2,2017-03-19T18:31:25+00:00
TOBAGO-1739,98e7fb1c0f3a3ad1ff9ce9c361b9b218c51125b0,2017-05-05T09:40:39+00:00
TOBAGO-1619,692a798d31d7a45776405a7af5155a32e044530c,2016-11-17T10:47:37+00:00
TOBAGO-901,c2cca698b0fdfb5151e092a9ed0a7955a18c7de1,2010-09-15T18:11:39+00:00
TOBAGO-913,a9a18c15a502d82270b2bd6dc681df11fbaefdac,2012-05-10T09:40:14+00:00
TOBAGO-913,b0cc752abc34bb97126eb0fdbf9cf927432d4bdb,2012-05-09T14:31:21+00:00
TOBAGO-913,3389797aecfa007ef53f4e73deb1a0d395d71f62,2010-09-10T17:41:03+00:00
TOBAGO-916,4ba5275622f4668839c802fd661cb6f1dacf0851,2010-09-13T14:14:25+00:00
TOBAGO-1981,7338d782fb24d6fb44cb0f624f1e08dac0d28bef,2019-02-14T15:11:15+01:00
TOBAGO-1981,bc3d626f20f86ef1253ab8c41071b36c0b598d12,2019-02-14T15:00:32+01:00
TOBAGO-1860,e2c2e3d49e75c192a7c6a30bb3d8db1f6694b949,2018-02-22T12:04:57+01:00
TOBAGO-1740,5cb9f01e6208113644ef8a14ebb7b254f8e2a998,2017-09-14T15:12:55+02:00
TOBAGO-1862,f081d3508ec9577fd1a2682a565e5c1b1229b7f8,2018-03-02T11:42:36+01:00
TOBAGO-1741,b499b50df84dce337a74e06cac34ce2440f9bafc,2017-06-01T13:36:20+00:00
TOBAGO-1741,80079cc18dff6276426cdc91cb1642e6a4e1ce75,2017-05-19T16:04:09+00:00
TOBAGO-1622,9c0719a6b5abba47ca967a601eb7630bcc62528b,2016-11-18T13:10:28+00:00
TOBAGO-1622,04eb951f4166cf13ecdfd8641793657023ef956d,2016-11-11T10:45:07+00:00
TOBAGO-1865,bcfbe03d96e54f7c529dafc1d3d9b3d0eb28b1e0,2018-03-05T17:30:46+01:00
TOBAGO-1866,26e9590adef52b2db112ee500d0172e990984a9d,2018-03-01T11:04:57+01:00
TOBAGO-1988,7ef804f78b045658501f2fe05fc153de7061d860,2019-05-14T17:46:11+02:00
TOBAGO-1988,bec2bf8b300d5d258ad6c8bd657beeb7968c39b7,2019-05-08T14:51:44+02:00
TOBAGO-1988,9b0059f4efcf7d376dca75d97136df6e6a0b50d6,2019-05-07T18:47:56+02:00
TOBAGO-1749,ceaa76eb9161712151b5f8e8f87f4506db11f1c4,2017-06-08T08:49:26+00:00
TOBAGO-1628,177d1bd8003ce2b88717dc105cd414d55554be27,2017-06-07T15:26:24+00:00
TOBAGO-1507,bedc5ee86eefb809c16cd9004e3b38f1bb3dbdd0,2015-10-27T11:19:07+00:00
TOBAGO-1508,79a013e9489a79755ea8e23685814d76ef3308be,2015-11-11T13:22:28+00:00
TOBAGO-1509,559a08800b740005ce06c0b4e4790c3c460a2f1b,2015-11-12T11:00:18+00:00
TOBAGO-910,60db672aed43d96b80f128700cd286284ebb334b,2010-09-02T13:49:01+00:00
TOBAGO-1950,418bab9b33aae94a9bdb8a45d19bd9bd4f486ee9,2018-11-12T20:30:18+01:00
TOBAGO-1952,38ce974203134029c04b8d64e806f0f879981f21,2018-11-12T20:30:18+01:00
TOBAGO-1831,00651c4e8510c8c491a6b77ca0bbabd831ca777c,2017-11-29T15:18:59+01:00
TOBAGO-1831,3b5f966e98198a43405e52a2911f93c4cc9706f8,2017-11-28T19:00:07+01:00
TOBAGO-1710,c3091d87ce6d770948b28038a6b316a345f6d5db,2017-04-25T14:15:05+00:00
TOBAGO-1710,cb8c0f8d7b288fc68b53c9ba7ce3f50a38506d8f,2017-04-21T13:38:24+00:00
TOBAGO-1710,4b9c8bb9540154097a4e4b312586bd916d6d620b,2017-03-08T09:51:27+00:00
TOBAGO-1953,52a6cea2e03caecea6e5f01be1ad3821a55532a6,2018-11-15T07:13:06+01:00
TOBAGO-1834,dab2535b56dc0996614e1bfbb1c97378dab2b769,2017-12-13T19:26:05+01:00
TOBAGO-1834,41fb94f9bb7466db6521a093fcdecec05721bd64,2017-12-13T16:05:59+01:00
TOBAGO-1834,99f43dd12a6089a8a8b82fe078502e69ba63203b,2017-12-13T15:52:23+01:00
TOBAGO-1834,7d883f167c89b33a336c1f7274abe9665fda848d,2017-12-13T13:24:42+01:00
TOBAGO-1713,0c9e57e8096674b9973995126f7abb8f107cddbd,2017-04-21T10:38:53+00:00
TOBAGO-1835,0fa4ee5ad9fcfb46a5bb57d1697bcbb525d9b7f4,2017-12-14T09:04:53+01:00
TOBAGO-1958,263a291828797cd0867a5225072fdc18980fb1f5,2018-11-21T14:27:18+01:00
TOBAGO-1718,aa0343c372edf6ba4fc829db06c35f5f6c72d50f,2017-03-15T10:26:10+00:00
TOBAGO-960,ba38a67cd92ed0d7abf4fe19fde5134e7fd793b9,2010-12-21T08:03:22+00:00
TOBAGO-964,1dac5a1ea4d16b3431db80a60c4caddccf1da44f,2011-02-02T21:36:24+00:00
TOBAGO-601,c049953a559431f77d31c06d87bbb1c93c51d0ea,2008-01-20T22:03:18+00:00
TOBAGO-965,f085f154e1b441f01bc2691b80c662feef3641a3,2011-02-02T22:06:42+00:00
TOBAGO-724,a21aa2d02bd8663be840d9cc34a2cdccb11cb4c9,2008-11-16T11:02:14+00:00
TOBAGO-858,f29cc037c1670e34657192672c3440868b93d7e5,2010-03-04T08:47:35+00:00
TOBAGO-858,340aec576f3d6a74ba0f3b25cad73709621bd99d,2010-03-03T19:01:14+00:00
TOBAGO-737,aee2cb4ae9df16a7b7bc26511eccb6b1026e9e62,2007-05-03T09:43:48+00:00
TOBAGO-737,3a2f7440cba9915d1d49699031eb476efa5daaf2,2007-05-02T15:55:35+00:00
TOBAGO-737,267254aa54c8f2e35ecd7a714ec8f8b2116fe02f,2007-05-02T12:26:34+00:00
TOBAGO-1963,5a758f88ab9fe22552575353875a82aa9f6402b0,2018-12-05T15:12:11+01:00
TOBAGO-1842,1cc5ad0e12fef34439cc9b04afc89d023f259e73,2018-01-17T09:55:57+01:00
TOBAGO-1842,9f4f0a11c140c3590a97fe57ff99aad8afdcb75a,2018-01-16T19:16:54+01:00
TOBAGO-1721,66f2839d71a2fb62849b73beafc303eb5575004f,2017-10-12T16:56:45+02:00
TOBAGO-1721,ad1e655e02a7fe750d2f05b5a77c064691029b5a,2017-10-12T13:38:18+02:00
TOBAGO-1721,2a3a3786b12ebdf9b3f5938d1730025ae3fbd267,2017-09-15T13:55:09+02:00
TOBAGO-1721,eae262e9f9200889f07cddf8542a9cadf6d6cc73,2017-08-11T12:25:41+00:00
TOBAGO-1721,2d2823903c4d1ba18d7730151a8922bacd883f81,2017-06-22T09:40:32+00:00
TOBAGO-1721,6eb8c0f7455dcf4638d2d1ee755ae1b9cc1bcc86,2017-05-29T09:26:58+00:00
TOBAGO-1721,ba8e2b25cc58d379ec34713f462826b6411bdaa5,2017-05-19T12:22:24+00:00
TOBAGO-1721,d4babc4209d2a4dc58f6964944eee76f4575ccc7,2017-05-19T10:00:29+00:00
TOBAGO-1721,3eb7e61e7e30d302c4d37d3198d6d6bd27769297,2017-05-12T12:25:17+00:00
TOBAGO-1721,b096661518794a1125947ab5666114e7ceb3a13c,2017-05-12T11:53:59+00:00
TOBAGO-1721,160fcb6fd6661076fc3bdc85716d607e22127f19,2017-05-12T11:33:56+00:00
TOBAGO-1721,839e2dd0a30af8870fcc655c04c4ef7481d34474,2017-05-05T13:19:40+00:00
TOBAGO-1721,5847c83856824c021a393be1d88f4450ad5e3189,2017-05-05T12:39:50+00:00
TOBAGO-1721,496225a4392b706a8f2c1782a1a3f02785cc6b6e,2017-04-13T11:37:31+00:00
TOBAGO-1721,736cca50b7a0ce2629a0588beb56664885078513,2017-04-06T11:33:51+00:00
TOBAGO-1721,4b64bc373fc535eef1395735568441478a80f527,2017-04-06T07:53:16+00:00
TOBAGO-1721,26b09d5250a329bb220a719291abd4f1d6024307,2017-03-30T11:44:44+00:00
TOBAGO-1723,dc8660161f4564cd7a09500925c979eeb7380070,2017-09-27T15:58:06+02:00
TOBAGO-1723,ffbf37854e833b410a319a60c2765820c01f4664,2017-09-14T16:12:25+02:00
TOBAGO-1602,2bed33e905f96a6f61d0c3e8d80735b8083c53fb,2016-10-21T15:14:59+00:00
TOBAGO-1966,7bee817f6f520ed69534ca5fe370bb99fbf62b32,2018-12-12T16:22:16+01:00
TOBAGO-1724,0b14a0161ec39e6486f660ffbbaa403de3400006,2017-03-22T15:49:18+00:00
TOBAGO-1726,71deee508e28fc8cab2b07567852bef04efac590,2017-03-24T09:42:55+00:00
TOBAGO-1726,77d5786059c4467d57809de9302b880ae70b4753,2017-03-23T13:34:10+00:00
TOBAGO-1726,8a8213c2b1797f9ccf1f0a86ec6d75e669f0e948,2017-03-23T10:37:48+00:00
TOBAGO-1726,a227745a4e6d6c3f346a4abd9b92742af9ab9304,2017-03-23T10:32:22+00:00
TOBAGO-1726,3ed8aa9a234a23fe769042853a5a5e236c16bca7,2017-03-23T08:49:12+00:00
TOBAGO-1727,97c463dbccadc141f5b418badcdf0db28e7b609b,2017-03-24T15:46:24+00:00
TOBAGO-1728,ca2a546f839566d08a843da0cdea9691693b991d,2017-04-05T13:53:21+00:00
TOBAGO-1728,e31eeab1e06d5d722155219a008922e822c9e0af,2017-04-05T13:02:57+00:00
TOBAGO-1607,285ee36de0af4198ec294a688e503e83ce3d0ea7,2016-10-05T15:53:08+00:00
TOBAGO-970,12c488138f7bbfa08f122567522d2982a00eaf77,2011-02-08T21:55:30+00:00
TOBAGO-970,bb4d33750ac5185cdac5389c0f3dbfdfdaf69f5f,2011-02-02T21:56:53+00:00
TOBAGO-1729,9a5a00ce654c5132ac1f5effb3365ab92fb8f711,2017-03-29T12:50:16+00:00
TOBAGO-1729,b75e7b599169d5053a3c56acd637b4637c0a3e7a,2017-03-29T12:17:00+00:00
TOBAGO-1729,348accfe5d1631fc7452162c6eb557ec5071a387,2017-03-29T12:14:45+00:00
TOBAGO-971,ce08ef856601f6d788b26ec9a0371e972ca38f11,2011-02-04T16:04:16+00:00
TOBAGO-850,4e1a24bbba587e21d0bef37f47df59b8adcc6df7,2010-02-17T09:52:35+00:00
TOBAGO-850,3b79cda6445fd3429a3e733e723c1cf68465dc87,2010-02-16T15:58:41+00:00
TOBAGO-850,85d1dbfae37fe5b273ee594b628ea8c8e3405452,2010-02-16T14:18:08+00:00
TOBAGO-973,b4e4a10210390147869a498b0b7f2a109ec946d2,2011-02-15T09:15:33+00:00
TOBAGO-852,1b03d64b948fd6f07e8511b6451dd7c3070e02f4,2010-03-26T15:21:39+00:00
TOBAGO-611,3e68fc3a4fed83bcb7019b0f79a9d9b098f5e2e7,2008-02-04T17:01:18+00:00
TOBAGO-735,d43ea8ee5d250aa02b627d047bea140145aa4c59,2009-01-02T23:21:52+00:00
TOBAGO-735,bdea94439888efef69d280f5f1e49556e59838cc,2009-01-02T22:05:03+00:00
TOBAGO-735,137af166d1489c3f0daf544cd3cf9089dee0cd3b,2009-01-01T18:36:50+00:00
TOBAGO-946,d99a75a5d0034f3452457d936a002efac5c41c10,2010-11-22T14:42:54+00:00
TOBAGO-826,14726286b8992ee88bc0cee9a294362a09ddb7f2,2009-11-22T19:29:05+00:00
TOBAGO-820,0d343e2ff0c2446ba783b740d4a3ffe2fb9e7115,2009-11-06T14:01:25+00:00
TOBAGO-703,44c67f6b55d106fa986a8d6c6f6c8ecfb39e159e,2016-07-03T17:21:15+00:00
TOBAGO-717,42880fdcb75270b44547c02ae8fe34587ea60ed7,2008-10-29T13:01:42+00:00
TOBAGO-1941,396d965cf8b679c595cbe8821de3daabd5cae962,2018-09-27T16:17:43+02:00
TOBAGO-1942,8d88d3c54dae2c6c9e4eeea12b23954e01dc2fed,2018-10-18T10:40:39+02:00
TOBAGO-1700,1a59ffe8e4b07c3520368ccda94cbcef69288da3,2017-05-24T13:32:13+00:00
TOBAGO-1700,41b7ac2076559f5372c35094feb98737e2cc2ef7,2017-03-01T12:35:40+00:00
TOBAGO-1700,cb2b35950517a6305193470fd914f8d534f2b04b,2017-03-01T08:24:55+00:00
TOBAGO-1700,c5846764dd996af11d4c3e146a26dd74fee18349,2017-02-16T13:40:20+00:00
TOBAGO-1700,a3c6e784f3f91ea80b4b6db5d56efe6093d47d99,2017-02-16T08:50:35+00:00
TOBAGO-1700,f262d9a637afa012df5ad73a00920e5da381b329,2017-02-15T17:49:23+00:00
TOBAGO-1700,0a15afc201f1e6ac6b14bc67baa608499dfeca82,2017-02-15T13:46:54+00:00
TOBAGO-1700,4a7af9984f6781f18a7239d7b9fc6e263397d78b,2017-02-15T12:38:54+00:00
TOBAGO-1823,73e625d1b8b62dad937c487220dd6eb79ee767be,2017-11-10T16:25:46+01:00
TOBAGO-1702,50739b23302e590f795a0e1d839df6e0814733fb,2017-02-15T09:35:58+00:00
TOBAGO-1702,9ecb2cf5ff9d08f8426163803546d9c3c226e639,2017-02-15T08:59:13+00:00
TOBAGO-1703,53962c641a2c391816837a59f3a93c33725f5731,2017-03-03T08:18:46+00:00
TOBAGO-1947,7dcbe82a5248b2bb9f497453dc4f596502b62f1c,2018-11-01T11:56:48+01:00
TOBAGO-1705,60a2261698db1ba69319509ab6aed5480f17f556,2017-03-29T15:25:04+00:00
TOBAGO-1949,ced20c0635c8705b897c515789d3feb985eb33c4,2018-11-08T09:45:46+01:00
TOBAGO-1708,e90d7e7a092512fb488f089d4bb3ba489447efea,2017-03-17T16:00:22+00:00
TOBAGO-1708,6cb522a832d1c944c51a5ae4d669ff13ddace7a1,2017-03-17T15:40:46+00:00
TOBAGO-1709,549036370e3076c479dc944a0eb443f01874fbe4,2017-04-18T18:04:27+00:00
TOBAGO-951,95a94d4b7e9d2d8c7064b34167918578f7093cd0,2010-11-25T21:12:12+00:00
TOBAGO-712,42880fdcb75270b44547c02ae8fe34587ea60ed7,2008-10-29T13:01:42+00:00
TOBAGO-955,99ac82ce105194cbb26783194e3a3ce6c7e8568f,2011-09-13T07:15:13+00:00
TOBAGO-955,cd16a7c94470004159535ff1e9eb72ea5c97c99c,2011-09-12T16:10:11+00:00
TOBAGO-834,60b11ce4f52283af270598c531acec3fe48b93e2,2010-06-07T09:40:27+00:00
TOBAGO-834,022f7328f4f6d3704ef73deb5d716214e756ebf7,2009-12-07T17:00:53+00:00
TOBAGO-834,d87250fef967bc578a059732d95f3ad1aaa84f55,2009-12-07T16:50:02+00:00
