fixrevision,buggy_revision,project,szz_date,fix_date,issuecode
5cb144f5d6c14ebebb54f6a0ea6b6db168fc0ed3,,marmotta,2013-02-21 05:46:37,2013-03-13T12:56:10+01:00,MARMOTTA-100
5cb144f5d6c14ebebb54f6a0ea6b6db168fc0ed3,,marmotta,2013-03-01 06:56:34,2013-03-13T12:56:10+01:00,MARMOTTA-100
dd498a5c503c4cfc491ad6cd50ef77c3809e9c05,,marmotta,2013-02-19 07:50:16,2013-03-08T14:54:43+01:00,MARMOTTA-129
06aa84e793b4a1cfa8d082ca1723d4309fcb6725,,marmotta,2013-03-06 06:49:20,2013-03-12T14:06:05+01:00,MARMOTTA-139
06aa84e793b4a1cfa8d082ca1723d4309fcb6725,,marmotta,2013-02-22 10:54:23,2013-03-12T14:06:05+01:00,MARMOTTA-139
06aa84e793b4a1cfa8d082ca1723d4309fcb6725,,marmotta,2013-02-19 07:50:16,2013-03-12T14:06:05+01:00,MARMOTTA-139
06aa84e793b4a1cfa8d082ca1723d4309fcb6725,,marmotta,2013-02-22 10:18:28,2013-03-12T14:06:05+01:00,MARMOTTA-139
06aa84e793b4a1cfa8d082ca1723d4309fcb6725,,marmotta,2013-02-28 02:39:59,2013-03-12T14:06:05+01:00,MARMOTTA-139
19a098bb510629228edf055dd7dad4da0e26d86c,,marmotta,2013-03-12 09:06:05,2013-03-13T14:20:15+01:00,MARMOTTA-147
19a098bb510629228edf055dd7dad4da0e26d86c,,marmotta,2013-03-12 09:12:44,2013-03-13T14:20:15+01:00,MARMOTTA-147
19a098bb510629228edf055dd7dad4da0e26d86c,,marmotta,2013-02-19 07:50:16,2013-03-13T14:20:15+01:00,MARMOTTA-147
819c97b71742ac93b7fb18cf5e59a917bdbe3edf,,marmotta,2013-02-19 07:50:16,2013-09-03T15:48:53+02:00,MARMOTTA-150
819c97b71742ac93b7fb18cf5e59a917bdbe3edf,,marmotta,2013-09-03 04:05:49,2013-09-03T15:48:53+02:00,MARMOTTA-150
c60d039b961c43335c308276cfe040b7f40ce588,,marmotta,2013-06-14 13:01:21,2013-09-03T10:05:49+02:00,MARMOTTA-150
c60d039b961c43335c308276cfe040b7f40ce588,,marmotta,2013-02-19 07:50:16,2013-09-03T10:05:49+02:00,MARMOTTA-150
ed09ff2725191d18905b21024b9c882465c0377c,,marmotta,2013-03-07 09:01:12,2013-09-03T15:09:01+02:00,MARMOTTA-150
ed09ff2725191d18905b21024b9c882465c0377c,,marmotta,2013-04-11 07:17:05,2013-09-03T15:09:01+02:00,MARMOTTA-150
ed09ff2725191d18905b21024b9c882465c0377c,,marmotta,2013-02-26 06:28:49,2013-09-03T15:09:01+02:00,MARMOTTA-150
ed09ff2725191d18905b21024b9c882465c0377c,,marmotta,2013-03-25 09:44:47,2013-09-03T15:09:01+02:00,MARMOTTA-150
ed09ff2725191d18905b21024b9c882465c0377c,,marmotta,2013-04-08 12:11:24,2013-09-03T15:09:01+02:00,MARMOTTA-150
ed09ff2725191d18905b21024b9c882465c0377c,,marmotta,2013-02-19 07:50:16,2013-09-03T15:09:01+02:00,MARMOTTA-150
ad4f9cf1a703744c544d4c3a18363b9d4b6600a0,,marmotta,2013-02-19 07:50:16,2013-03-14T14:49:59+01:00,MARMOTTA-151
58baf97fc49549f4b6fcc149459c5429abd538a9,,marmotta,2013-09-04 06:05:42,2013-09-11T13:01:43+10:00,MARMOTTA-155
58baf97fc49549f4b6fcc149459c5429abd538a9,,marmotta,2013-02-19 07:50:16,2013-09-11T13:01:43+10:00,MARMOTTA-155
58baf97fc49549f4b6fcc149459c5429abd538a9,,marmotta,2013-09-10 08:44:16,2013-09-11T13:01:43+10:00,MARMOTTA-155
d467cec7e5dbabf37a9f4f9f3b2f71979e1b4726,,marmotta,2013-09-04 06:05:42,2013-09-10T14:44:16+02:00,MARMOTTA-155
d467cec7e5dbabf37a9f4f9f3b2f71979e1b4726,,marmotta,2013-04-29 10:41:18,2013-09-10T14:44:16+02:00,MARMOTTA-155
d467cec7e5dbabf37a9f4f9f3b2f71979e1b4726,,marmotta,2013-02-19 07:50:16,2013-09-10T14:44:16+02:00,MARMOTTA-155
d467cec7e5dbabf37a9f4f9f3b2f71979e1b4726,,marmotta,2013-03-20 10:13:43,2013-09-10T14:44:16+02:00,MARMOTTA-155
2aa0b315519689257cc1d69ff5c30792220788b9,,marmotta,2013-03-07 06:27:50,2013-03-15T13:47:30+01:00,MARMOTTA-156
45a2e856af07a5e4b898711214f205de86c59e2a,,marmotta,2013-02-19 07:50:16,2013-03-19T13:01:00+01:00,MARMOTTA-160
2af1d8ac4b7a4e2c0b62d0e889cd0d176ed0c0eb,,marmotta,2013-02-19 07:50:16,2014-01-08T17:06:21+01:00,MARMOTTA-168
969ce1705efeac185680b1a2bd8b7be7dee8f38c,,marmotta,2013-03-06 02:51:04,2013-03-25T10:16:19+01:00,MARMOTTA-170
f9ce1c9dafcb0412f82be11b56eecbfff5817a40,,marmotta,2013-02-21 05:46:37,2013-03-29T12:10:09+01:00,MARMOTTA-175
f9ce1c9dafcb0412f82be11b56eecbfff5817a40,,marmotta,2013-02-19 07:50:16,2013-03-29T12:10:09+01:00,MARMOTTA-175
f52a0dc22daed38456c4864b8fef7fefa8ac37b7,,marmotta,2013-04-05 06:50:22,2013-04-05T17:48:12+02:00,MARMOTTA-188
f52a0dc22daed38456c4864b8fef7fefa8ac37b7,,marmotta,2013-04-05 08:14:33,2013-04-05T17:48:12+02:00,MARMOTTA-188
deb2d4f30d006d0dfb2a8a32dea0ba9f1bbcb5bb,,marmotta,2013-04-08 09:59:04,2013-07-11T13:04:46+02:00,MARMOTTA-191
deb2d4f30d006d0dfb2a8a32dea0ba9f1bbcb5bb,,marmotta,2013-02-19 07:50:16,2013-07-11T13:04:46+02:00,MARMOTTA-191
6c6288f4c77d9bcdfefcda3cf7d7e6610c9db2cb,,marmotta,2013-03-27 08:25:40,2013-04-11T13:17:05+02:00,MARMOTTA-194
6c6288f4c77d9bcdfefcda3cf7d7e6610c9db2cb,,marmotta,2013-03-15 04:28:59,2013-04-11T13:17:05+02:00,MARMOTTA-194
6c6288f4c77d9bcdfefcda3cf7d7e6610c9db2cb,,marmotta,2013-02-19 07:50:16,2013-04-11T13:17:05+02:00,MARMOTTA-194
6c6288f4c77d9bcdfefcda3cf7d7e6610c9db2cb,,marmotta,2013-04-08 04:24:58,2013-04-11T13:17:05+02:00,MARMOTTA-194
6c6288f4c77d9bcdfefcda3cf7d7e6610c9db2cb,,marmotta,2013-04-08 06:49:20,2013-04-11T13:17:05+02:00,MARMOTTA-194
6c6288f4c77d9bcdfefcda3cf7d7e6610c9db2cb,,marmotta,2013-04-08 05:27:06,2013-04-11T13:17:05+02:00,MARMOTTA-194
8a59038f03a648a65a268bd493c289a8b7ad4559,,marmotta,2013-02-19 07:50:16,2013-07-11T16:24:56+02:00,MARMOTTA-201
1ff9df65e72e69d42f35bb68f2caf5602ff36a93,,marmotta,2013-02-19 07:50:16,2013-04-17T09:10:35+02:00,MARMOTTA-204
1ff9df65e72e69d42f35bb68f2caf5602ff36a93,,marmotta,2013-03-21 09:55:54,2013-04-17T09:10:35+02:00,MARMOTTA-204
1ff9df65e72e69d42f35bb68f2caf5602ff36a93,,marmotta,2013-03-20 10:13:43,2013-04-17T09:10:35+02:00,MARMOTTA-204
2a2baa770b9532f280c56f958099e6cbc568fbe6,,marmotta,2013-03-12 05:10:09,2013-04-17T09:30:15+02:00,MARMOTTA-204
2a2baa770b9532f280c56f958099e6cbc568fbe6,,marmotta,2013-02-19 07:50:16,2013-04-17T09:30:15+02:00,MARMOTTA-204
a830bd01799de0ff573afa94fa42b5db74c299de,,marmotta,2013-04-17 03:30:15,2013-04-22T09:08:39+02:00,MARMOTTA-204
a830bd01799de0ff573afa94fa42b5db74c299de,,marmotta,2013-02-19 07:50:16,2013-04-22T09:08:39+02:00,MARMOTTA-204
bc33de369d52610a34e8fb9afdfdeefd672a55c1,,marmotta,2013-02-19 07:50:16,2013-04-17T09:49:03+02:00,MARMOTTA-204
f448464485f9d27ab96ee05d18d93cba04b7bd71,,marmotta,2013-04-17 03:30:15,2013-04-22T09:02:14+02:00,MARMOTTA-204
f448464485f9d27ab96ee05d18d93cba04b7bd71,,marmotta,2013-02-19 07:50:16,2013-04-22T09:02:14+02:00,MARMOTTA-204
a9a549eee408aeb8a955ff808e72a177f1d44e54,,marmotta,2013-02-19 07:50:16,2013-04-22T09:15:06+02:00,MARMOTTA-206
1a3a45ccc5724113ae1f5d6ada219d1a34152213,,marmotta,2013-02-21 05:46:37,2013-09-10T12:30:34+02:00,MARMOTTA-22
4e767a740abf395f826c133548b6e6dd744a3f48,,marmotta,2013-04-11 07:17:05,2013-09-11T17:00:00+02:00,MARMOTTA-22
4e767a740abf395f826c133548b6e6dd744a3f48,,marmotta,2013-02-19 07:50:16,2013-09-11T17:00:00+02:00,MARMOTTA-22
4e767a740abf395f826c133548b6e6dd744a3f48,,marmotta,2013-04-08 06:49:20,2013-09-11T17:00:00+02:00,MARMOTTA-22
d871482ed2aeec9ecbec7f2ba8f838b41553adde,,marmotta,2013-02-21 05:46:37,2013-10-31T16:57:55+01:00,MARMOTTA-22
d871482ed2aeec9ecbec7f2ba8f838b41553adde,,marmotta,2013-03-08 05:53:36,2013-10-31T16:57:55+01:00,MARMOTTA-22
6d60b0476f5523ed0d002bd2a65a9acb2a10ff5d,,marmotta,2013-02-19 07:50:16,2013-09-11T14:38:58+02:00,MARMOTTA-231
69cc8f3a9835f1ba02af162fd393ace7048ba97b,,marmotta,2013-02-19 07:50:16,2013-09-09T18:16:09+02:00,MARMOTTA-232
79265a7f8dd2a0659ec3bc92367141f0c753bfdc,,marmotta,2013-02-19 07:50:16,2013-05-07T10:30:29+02:00,MARMOTTA-235
58c3b5cd587f4d44d41b626124fdf3fc82f7b909,,marmotta,2013-02-19 07:50:16,2013-05-13T14:32:26+02:00,MARMOTTA-240
0eed02773c8de1dda60a3c075a4d20cf102e763a,,marmotta,2013-02-21 05:46:37,2013-08-28T14:09:47+02:00,MARMOTTA-242
733020216dd1c71fdca1c75ff7abc429f2bdb388,,marmotta,2013-09-03 09:09:01,2013-09-04T10:17:03+02:00,MARMOTTA-247
fe53dfb82077acc6045cab96b7e8e3af61d6ddf4,,marmotta,2013-02-19 07:50:16,2013-12-06T09:03:18+01:00,MARMOTTA-248
3e71a5396862232b29f5e175116c26a17a4eba6e,,marmotta,2013-02-19 07:50:16,2013-05-29T08:31:46+02:00,MARMOTTA-250
5a5659a1307abda3355534daaa4de23089bdedb9,,marmotta,2013-02-19 07:50:16,2013-06-05T09:59:44+02:00,MARMOTTA-254
5a5659a1307abda3355534daaa4de23089bdedb9,,marmotta,2013-03-21 09:55:54,2013-06-05T09:59:44+02:00,MARMOTTA-254
5f1c39cd86eab05f3940afa062856f25a7883e4f,,marmotta,2013-03-13 09:20:15,2014-01-07T18:19:25+01:00,MARMOTTA-257
5f1c39cd86eab05f3940afa062856f25a7883e4f,,marmotta,2013-10-14 04:49:33,2014-01-07T18:19:25+01:00,MARMOTTA-257
5f1c39cd86eab05f3940afa062856f25a7883e4f,,marmotta,2014-01-07 11:50:35,2014-01-07T18:19:25+01:00,MARMOTTA-257
5f1c39cd86eab05f3940afa062856f25a7883e4f,,marmotta,2013-02-19 07:50:16,2014-01-07T18:19:25+01:00,MARMOTTA-257
86d1a4004e5f0c03c18ad1a8ad010a740181575f,,marmotta,2013-03-13 09:20:15,2014-01-07T17:50:35+01:00,MARMOTTA-257
86d1a4004e5f0c03c18ad1a8ad010a740181575f,,marmotta,2013-02-19 07:50:16,2014-01-07T17:50:35+01:00,MARMOTTA-257
f3cd959044fd3910f837ed3e9fbedb592924b7c3,,marmotta,2013-02-19 07:50:16,2013-07-08T14:58:38+02:00,MARMOTTA-266
51448dc5e7cbb382cbf83640745fa8258473dbeb,,marmotta,2013-04-05 06:50:22,2013-07-09T18:11:38+02:00,MARMOTTA-267
51448dc5e7cbb382cbf83640745fa8258473dbeb,,marmotta,2013-04-05 08:14:33,2013-07-09T18:11:38+02:00,MARMOTTA-267
51448dc5e7cbb382cbf83640745fa8258473dbeb,,marmotta,2013-02-22 10:54:23,2013-07-09T18:11:38+02:00,MARMOTTA-267
51448dc5e7cbb382cbf83640745fa8258473dbeb,,marmotta,2013-02-19 07:50:16,2013-07-09T18:11:38+02:00,MARMOTTA-267
d12f782ce68f1ad6cf1818ce44a537c635fdfe2c,,marmotta,2013-04-24 10:52:44,2013-07-09T17:45:02+02:00,MARMOTTA-267
d12f782ce68f1ad6cf1818ce44a537c635fdfe2c,,marmotta,2013-04-29 10:41:18,2013-07-09T17:45:02+02:00,MARMOTTA-267
d12f782ce68f1ad6cf1818ce44a537c635fdfe2c,,marmotta,2013-05-03 08:33:48,2013-07-09T17:45:02+02:00,MARMOTTA-267
f3cd959044fd3910f837ed3e9fbedb592924b7c3,,marmotta,2013-02-19 07:50:16,2013-07-08T14:58:38+02:00,MARMOTTA-268
81cfb376dfe737731e90dd8f2d6f3090be29ccb4,,marmotta,2013-02-19 07:50:16,2013-07-25T18:26:32+02:00,MARMOTTA-277
e7f512ec88fda11fa3fd413aa871e66891143b92,,marmotta,2013-07-22 10:36:21,2013-07-29T16:03:47+02:00,MARMOTTA-278
e7f512ec88fda11fa3fd413aa871e66891143b92,,marmotta,2013-07-11 08:32:38,2013-07-29T16:03:47+02:00,MARMOTTA-278
e7f512ec88fda11fa3fd413aa871e66891143b92,,marmotta,2013-02-19 07:50:16,2013-07-29T16:03:47+02:00,MARMOTTA-278
e7f512ec88fda11fa3fd413aa871e66891143b92,,marmotta,2013-07-22 10:36:21,2013-07-29T16:03:47+02:00,MARMOTTA-279
e7f512ec88fda11fa3fd413aa871e66891143b92,,marmotta,2013-07-11 08:32:38,2013-07-29T16:03:47+02:00,MARMOTTA-279
e7f512ec88fda11fa3fd413aa871e66891143b92,,marmotta,2013-02-19 07:50:16,2013-07-29T16:03:47+02:00,MARMOTTA-279
0b5ef8023fa369caecc4f064ca345e54e4696ce3,,marmotta,2013-06-18 05:07:23,2013-08-23T12:05:30+02:00,MARMOTTA-28
0b5ef8023fa369caecc4f064ca345e54e4696ce3,,marmotta,2013-02-19 07:50:16,2013-08-23T12:05:30+02:00,MARMOTTA-28
11aae1b5ae23aca6dfab392ed2d94fa7f8957e4b,,marmotta,2013-06-18 06:42:42,2013-09-02T17:57:03+02:00,MARMOTTA-28
11aae1b5ae23aca6dfab392ed2d94fa7f8957e4b,,marmotta,2013-06-18 16:16:05,2013-09-02T17:57:03+02:00,MARMOTTA-28
11aae1b5ae23aca6dfab392ed2d94fa7f8957e4b,,marmotta,2013-07-22 06:55:36,2013-09-02T17:57:03+02:00,MARMOTTA-28
11aae1b5ae23aca6dfab392ed2d94fa7f8957e4b,,marmotta,2013-06-14 13:04:06,2013-09-02T17:57:03+02:00,MARMOTTA-28
11aae1b5ae23aca6dfab392ed2d94fa7f8957e4b,,marmotta,2013-06-21 04:42:34,2013-09-02T17:57:03+02:00,MARMOTTA-28
11aae1b5ae23aca6dfab392ed2d94fa7f8957e4b,,marmotta,2013-04-24 10:52:44,2013-09-02T17:57:03+02:00,MARMOTTA-28
11aae1b5ae23aca6dfab392ed2d94fa7f8957e4b,,marmotta,2013-06-19 05:48:19,2013-09-02T17:57:03+02:00,MARMOTTA-28
11aae1b5ae23aca6dfab392ed2d94fa7f8957e4b,,marmotta,2013-06-18 05:07:23,2013-09-02T17:57:03+02:00,MARMOTTA-28
11aae1b5ae23aca6dfab392ed2d94fa7f8957e4b,,marmotta,2013-08-05 10:02:52,2013-09-02T17:57:03+02:00,MARMOTTA-28
11aae1b5ae23aca6dfab392ed2d94fa7f8957e4b,,marmotta,2013-02-19 07:50:16,2013-09-02T17:57:03+02:00,MARMOTTA-28
11aae1b5ae23aca6dfab392ed2d94fa7f8957e4b,,marmotta,2013-03-21 09:55:54,2013-09-02T17:57:03+02:00,MARMOTTA-28
11aae1b5ae23aca6dfab392ed2d94fa7f8957e4b,,marmotta,2013-06-17 07:51:08,2013-09-02T17:57:03+02:00,MARMOTTA-28
11aae1b5ae23aca6dfab392ed2d94fa7f8957e4b,,marmotta,2013-06-18 05:45:28,2013-09-02T17:57:03+02:00,MARMOTTA-28
11aae1b5ae23aca6dfab392ed2d94fa7f8957e4b,,marmotta,2013-08-02 08:06:46,2013-09-02T17:57:03+02:00,MARMOTTA-28
4a25be776a5a98374c7f5cc62b6429258d0d82f3,,marmotta,2013-07-09 11:45:02,2013-07-29T18:18:00+02:00,MARMOTTA-28
5f777a16a38cf69761bd3d0d001a63f20d80dab5,,marmotta,2013-07-09 12:11:38,2013-09-11T17:17:00+02:00,MARMOTTA-28
5f777a16a38cf69761bd3d0d001a63f20d80dab5,,marmotta,2013-04-24 10:52:44,2013-09-11T17:17:00+02:00,MARMOTTA-28
5f777a16a38cf69761bd3d0d001a63f20d80dab5,,marmotta,2013-07-09 11:45:02,2013-09-11T17:17:00+02:00,MARMOTTA-28
647cbaed0f84a76ac031b561c2f6753f266c2cd9,,marmotta,2013-07-09 12:19:45,2013-09-11T17:56:02+02:00,MARMOTTA-28
a20d9357313ed9818551507bbc60b302262d6c03,,marmotta,2013-02-19 07:50:16,2013-08-23T18:07:58+02:00,MARMOTTA-28
a766304cc24a67e27798a96226ed5f36331ef1ce,,marmotta,2013-03-15 08:47:30,2013-09-02T18:15:00+02:00,MARMOTTA-28
a766304cc24a67e27798a96226ed5f36331ef1ce,,marmotta,2013-05-16 11:56:14,2013-09-02T18:15:00+02:00,MARMOTTA-28
a766304cc24a67e27798a96226ed5f36331ef1ce,,marmotta,2013-06-18 05:07:23,2013-09-02T18:15:00+02:00,MARMOTTA-28
a766304cc24a67e27798a96226ed5f36331ef1ce,,marmotta,2013-02-19 07:50:16,2013-09-02T18:15:00+02:00,MARMOTTA-28
b605f15d1bc4e7ea0ada0eb248a40be9e9d2c1e0,,marmotta,2013-02-19 07:50:16,2013-08-23T12:05:29+02:00,MARMOTTA-28
4a25be776a5a98374c7f5cc62b6429258d0d82f3,,marmotta,2013-07-09 11:45:02,2013-07-29T18:18:00+02:00,MARMOTTA-280
5f777a16a38cf69761bd3d0d001a63f20d80dab5,,marmotta,2013-07-09 12:11:38,2013-09-11T17:17:00+02:00,MARMOTTA-280
5f777a16a38cf69761bd3d0d001a63f20d80dab5,,marmotta,2013-04-24 10:52:44,2013-09-11T17:17:00+02:00,MARMOTTA-280
5f777a16a38cf69761bd3d0d001a63f20d80dab5,,marmotta,2013-07-09 11:45:02,2013-09-11T17:17:00+02:00,MARMOTTA-280
647cbaed0f84a76ac031b561c2f6753f266c2cd9,,marmotta,2013-07-09 12:19:45,2013-09-11T17:56:02+02:00,MARMOTTA-280
b605f15d1bc4e7ea0ada0eb248a40be9e9d2c1e0,,marmotta,2013-02-19 07:50:16,2013-08-23T12:05:29+02:00,MARMOTTA-282
009566090cea4a6bf6042997418cb1cfec9ed104,,marmotta,2013-08-27 10:13:49,2013-09-02T10:08:48+02:00,MARMOTTA-29
11aae1b5ae23aca6dfab392ed2d94fa7f8957e4b,,marmotta,2013-06-18 06:42:42,2013-09-02T17:57:03+02:00,MARMOTTA-29
11aae1b5ae23aca6dfab392ed2d94fa7f8957e4b,,marmotta,2013-06-18 16:16:05,2013-09-02T17:57:03+02:00,MARMOTTA-29
11aae1b5ae23aca6dfab392ed2d94fa7f8957e4b,,marmotta,2013-07-22 06:55:36,2013-09-02T17:57:03+02:00,MARMOTTA-29
11aae1b5ae23aca6dfab392ed2d94fa7f8957e4b,,marmotta,2013-06-14 13:04:06,2013-09-02T17:57:03+02:00,MARMOTTA-29
11aae1b5ae23aca6dfab392ed2d94fa7f8957e4b,,marmotta,2013-06-21 04:42:34,2013-09-02T17:57:03+02:00,MARMOTTA-29
11aae1b5ae23aca6dfab392ed2d94fa7f8957e4b,,marmotta,2013-04-24 10:52:44,2013-09-02T17:57:03+02:00,MARMOTTA-29
11aae1b5ae23aca6dfab392ed2d94fa7f8957e4b,,marmotta,2013-06-19 05:48:19,2013-09-02T17:57:03+02:00,MARMOTTA-29
11aae1b5ae23aca6dfab392ed2d94fa7f8957e4b,,marmotta,2013-06-18 05:07:23,2013-09-02T17:57:03+02:00,MARMOTTA-29
11aae1b5ae23aca6dfab392ed2d94fa7f8957e4b,,marmotta,2013-08-05 10:02:52,2013-09-02T17:57:03+02:00,MARMOTTA-29
11aae1b5ae23aca6dfab392ed2d94fa7f8957e4b,,marmotta,2013-02-19 07:50:16,2013-09-02T17:57:03+02:00,MARMOTTA-29
11aae1b5ae23aca6dfab392ed2d94fa7f8957e4b,,marmotta,2013-03-21 09:55:54,2013-09-02T17:57:03+02:00,MARMOTTA-29
11aae1b5ae23aca6dfab392ed2d94fa7f8957e4b,,marmotta,2013-06-17 07:51:08,2013-09-02T17:57:03+02:00,MARMOTTA-29
11aae1b5ae23aca6dfab392ed2d94fa7f8957e4b,,marmotta,2013-06-18 05:45:28,2013-09-02T17:57:03+02:00,MARMOTTA-29
11aae1b5ae23aca6dfab392ed2d94fa7f8957e4b,,marmotta,2013-08-02 08:06:46,2013-09-02T17:57:03+02:00,MARMOTTA-29
1b697565ec6c1c9c865c741c899001525c05db75,,marmotta,2013-02-19 07:50:16,2013-09-02T11:12:51+02:00,MARMOTTA-29
3d388d38da2bccd19673bd9200e449bcaed9c2d6,,marmotta,2013-09-02 04:08:48,2013-10-17T17:22:20+02:00,MARMOTTA-29
3d388d38da2bccd19673bd9200e449bcaed9c2d6,,marmotta,2013-10-14 08:06:16,2013-10-17T17:22:20+02:00,MARMOTTA-29
3d388d38da2bccd19673bd9200e449bcaed9c2d6,,marmotta,2013-08-26 11:56:41,2013-10-17T17:22:20+02:00,MARMOTTA-29
3d388d38da2bccd19673bd9200e449bcaed9c2d6,,marmotta,2013-08-27 03:21:20,2013-10-17T17:22:20+02:00,MARMOTTA-29
3d388d38da2bccd19673bd9200e449bcaed9c2d6,,marmotta,2013-09-02 05:12:51,2013-10-17T17:22:20+02:00,MARMOTTA-29
3d388d38da2bccd19673bd9200e449bcaed9c2d6,,marmotta,2013-08-27 10:17:40,2013-10-17T17:22:20+02:00,MARMOTTA-29
3d388d38da2bccd19673bd9200e449bcaed9c2d6,,marmotta,2013-08-27 07:34:14,2013-10-17T17:22:20+02:00,MARMOTTA-29
3d388d38da2bccd19673bd9200e449bcaed9c2d6,,marmotta,2013-08-27 10:13:49,2013-10-17T17:22:20+02:00,MARMOTTA-29
3d388d38da2bccd19673bd9200e449bcaed9c2d6,,marmotta,2013-08-27 02:49:58,2013-10-17T17:22:20+02:00,MARMOTTA-29
3d388d38da2bccd19673bd9200e449bcaed9c2d6,,marmotta,2013-09-02 10:14:33,2013-10-17T17:22:20+02:00,MARMOTTA-29
54b765008bbb6a2d976a68d7cfb5983fb2f0e707,,marmotta,2013-08-27 10:13:49,2013-08-27T16:17:40+02:00,MARMOTTA-29
9cc67b2c8482923605f1c3c51738b5d51c78d812,,marmotta,2013-09-02 04:08:48,2013-10-24T16:10:21+02:00,MARMOTTA-29
9cc67b2c8482923605f1c3c51738b5d51c78d812,,marmotta,2013-10-14 08:06:16,2013-10-24T16:10:21+02:00,MARMOTTA-29
9cc67b2c8482923605f1c3c51738b5d51c78d812,,marmotta,2013-08-26 11:56:41,2013-10-24T16:10:21+02:00,MARMOTTA-29
9cc67b2c8482923605f1c3c51738b5d51c78d812,,marmotta,2013-09-02 05:12:51,2013-10-24T16:10:21+02:00,MARMOTTA-29
9cc67b2c8482923605f1c3c51738b5d51c78d812,,marmotta,2013-10-17 11:22:20,2013-10-24T16:10:21+02:00,MARMOTTA-29
9cc67b2c8482923605f1c3c51738b5d51c78d812,,marmotta,2013-09-02 06:45:59,2013-10-24T16:10:21+02:00,MARMOTTA-29
9cc67b2c8482923605f1c3c51738b5d51c78d812,,marmotta,2013-08-27 10:13:49,2013-10-24T16:10:21+02:00,MARMOTTA-29
9cc67b2c8482923605f1c3c51738b5d51c78d812,,marmotta,2013-08-27 02:49:58,2013-10-24T16:10:21+02:00,MARMOTTA-29
9cc67b2c8482923605f1c3c51738b5d51c78d812,,marmotta,2013-09-02 10:14:33,2013-10-24T16:10:21+02:00,MARMOTTA-29
bac8dee5882c3a17981ee86e2c1ba11147fbe8de,,marmotta,2013-08-27 03:21:20,2013-08-27T13:34:14+02:00,MARMOTTA-29
d9c4190ed978d9e75bcd5bc000b3994df2cdb91f,,marmotta,2013-08-26 11:56:41,2013-08-27T16:13:49+02:00,MARMOTTA-29
d9c4190ed978d9e75bcd5bc000b3994df2cdb91f,,marmotta,2013-08-27 03:21:20,2013-08-27T16:13:49+02:00,MARMOTTA-29
d9c4190ed978d9e75bcd5bc000b3994df2cdb91f,,marmotta,2013-08-27 07:34:14,2013-08-27T16:13:49+02:00,MARMOTTA-29
d9c4190ed978d9e75bcd5bc000b3994df2cdb91f,,marmotta,2013-08-27 02:49:58,2013-08-27T16:13:49+02:00,MARMOTTA-29
bac8dee5882c3a17981ee86e2c1ba11147fbe8de,,marmotta,2013-08-27 03:21:20,2013-08-27T13:34:14+02:00,MARMOTTA-290
3d388d38da2bccd19673bd9200e449bcaed9c2d6,,marmotta,2013-09-02 04:08:48,2013-10-17T17:22:20+02:00,MARMOTTA-294
3d388d38da2bccd19673bd9200e449bcaed9c2d6,,marmotta,2013-10-14 08:06:16,2013-10-17T17:22:20+02:00,MARMOTTA-294
3d388d38da2bccd19673bd9200e449bcaed9c2d6,,marmotta,2013-08-26 11:56:41,2013-10-17T17:22:20+02:00,MARMOTTA-294
3d388d38da2bccd19673bd9200e449bcaed9c2d6,,marmotta,2013-08-27 03:21:20,2013-10-17T17:22:20+02:00,MARMOTTA-294
3d388d38da2bccd19673bd9200e449bcaed9c2d6,,marmotta,2013-09-02 05:12:51,2013-10-17T17:22:20+02:00,MARMOTTA-294
3d388d38da2bccd19673bd9200e449bcaed9c2d6,,marmotta,2013-08-27 10:17:40,2013-10-17T17:22:20+02:00,MARMOTTA-294
3d388d38da2bccd19673bd9200e449bcaed9c2d6,,marmotta,2013-08-27 07:34:14,2013-10-17T17:22:20+02:00,MARMOTTA-294
3d388d38da2bccd19673bd9200e449bcaed9c2d6,,marmotta,2013-08-27 10:13:49,2013-10-17T17:22:20+02:00,MARMOTTA-294
3d388d38da2bccd19673bd9200e449bcaed9c2d6,,marmotta,2013-08-27 02:49:58,2013-10-17T17:22:20+02:00,MARMOTTA-294
3d388d38da2bccd19673bd9200e449bcaed9c2d6,,marmotta,2013-09-02 10:14:33,2013-10-17T17:22:20+02:00,MARMOTTA-294
3d388d38da2bccd19673bd9200e449bcaed9c2d6,,marmotta,2013-09-02 04:08:48,2013-10-17T17:22:20+02:00,MARMOTTA-295
3d388d38da2bccd19673bd9200e449bcaed9c2d6,,marmotta,2013-10-14 08:06:16,2013-10-17T17:22:20+02:00,MARMOTTA-295
3d388d38da2bccd19673bd9200e449bcaed9c2d6,,marmotta,2013-08-26 11:56:41,2013-10-17T17:22:20+02:00,MARMOTTA-295
3d388d38da2bccd19673bd9200e449bcaed9c2d6,,marmotta,2013-08-27 03:21:20,2013-10-17T17:22:20+02:00,MARMOTTA-295
3d388d38da2bccd19673bd9200e449bcaed9c2d6,,marmotta,2013-09-02 05:12:51,2013-10-17T17:22:20+02:00,MARMOTTA-295
3d388d38da2bccd19673bd9200e449bcaed9c2d6,,marmotta,2013-08-27 10:17:40,2013-10-17T17:22:20+02:00,MARMOTTA-295
3d388d38da2bccd19673bd9200e449bcaed9c2d6,,marmotta,2013-08-27 07:34:14,2013-10-17T17:22:20+02:00,MARMOTTA-295
3d388d38da2bccd19673bd9200e449bcaed9c2d6,,marmotta,2013-08-27 10:13:49,2013-10-17T17:22:20+02:00,MARMOTTA-295
3d388d38da2bccd19673bd9200e449bcaed9c2d6,,marmotta,2013-08-27 02:49:58,2013-10-17T17:22:20+02:00,MARMOTTA-295
3d388d38da2bccd19673bd9200e449bcaed9c2d6,,marmotta,2013-09-02 10:14:33,2013-10-17T17:22:20+02:00,MARMOTTA-295
11aae1b5ae23aca6dfab392ed2d94fa7f8957e4b,,marmotta,2013-06-18 06:42:42,2013-09-02T17:57:03+02:00,MARMOTTA-297
11aae1b5ae23aca6dfab392ed2d94fa7f8957e4b,,marmotta,2013-06-18 16:16:05,2013-09-02T17:57:03+02:00,MARMOTTA-297
11aae1b5ae23aca6dfab392ed2d94fa7f8957e4b,,marmotta,2013-07-22 06:55:36,2013-09-02T17:57:03+02:00,MARMOTTA-297
11aae1b5ae23aca6dfab392ed2d94fa7f8957e4b,,marmotta,2013-06-14 13:04:06,2013-09-02T17:57:03+02:00,MARMOTTA-297
11aae1b5ae23aca6dfab392ed2d94fa7f8957e4b,,marmotta,2013-06-21 04:42:34,2013-09-02T17:57:03+02:00,MARMOTTA-297
11aae1b5ae23aca6dfab392ed2d94fa7f8957e4b,,marmotta,2013-04-24 10:52:44,2013-09-02T17:57:03+02:00,MARMOTTA-297
11aae1b5ae23aca6dfab392ed2d94fa7f8957e4b,,marmotta,2013-06-19 05:48:19,2013-09-02T17:57:03+02:00,MARMOTTA-297
11aae1b5ae23aca6dfab392ed2d94fa7f8957e4b,,marmotta,2013-06-18 05:07:23,2013-09-02T17:57:03+02:00,MARMOTTA-297
11aae1b5ae23aca6dfab392ed2d94fa7f8957e4b,,marmotta,2013-08-05 10:02:52,2013-09-02T17:57:03+02:00,MARMOTTA-297
11aae1b5ae23aca6dfab392ed2d94fa7f8957e4b,,marmotta,2013-02-19 07:50:16,2013-09-02T17:57:03+02:00,MARMOTTA-297
11aae1b5ae23aca6dfab392ed2d94fa7f8957e4b,,marmotta,2013-03-21 09:55:54,2013-09-02T17:57:03+02:00,MARMOTTA-297
11aae1b5ae23aca6dfab392ed2d94fa7f8957e4b,,marmotta,2013-06-17 07:51:08,2013-09-02T17:57:03+02:00,MARMOTTA-297
11aae1b5ae23aca6dfab392ed2d94fa7f8957e4b,,marmotta,2013-06-18 05:45:28,2013-09-02T17:57:03+02:00,MARMOTTA-297
11aae1b5ae23aca6dfab392ed2d94fa7f8957e4b,,marmotta,2013-08-02 08:06:46,2013-09-02T17:57:03+02:00,MARMOTTA-297
1b697565ec6c1c9c865c741c899001525c05db75,,marmotta,2013-02-19 07:50:16,2013-09-02T11:12:51+02:00,MARMOTTA-297
83522bfc1f38f4cad7068043abd6fb62f86c5f96,,marmotta,2013-03-27 11:34:52,2013-09-10T11:44:51+02:00,MARMOTTA-300
83522bfc1f38f4cad7068043abd6fb62f86c5f96,,marmotta,2013-02-19 07:50:16,2013-09-10T11:44:51+02:00,MARMOTTA-300
83522bfc1f38f4cad7068043abd6fb62f86c5f96,,marmotta,2013-07-04 11:56:58,2013-09-10T11:44:51+02:00,MARMOTTA-300
83522bfc1f38f4cad7068043abd6fb62f86c5f96,,marmotta,2013-03-27 11:34:52,2013-09-10T11:44:51+02:00,MARMOTTA-302
83522bfc1f38f4cad7068043abd6fb62f86c5f96,,marmotta,2013-02-19 07:50:16,2013-09-10T11:44:51+02:00,MARMOTTA-302
83522bfc1f38f4cad7068043abd6fb62f86c5f96,,marmotta,2013-07-04 11:56:58,2013-09-10T11:44:51+02:00,MARMOTTA-302
c262fbc681b27ad4c3f5741185253864a8788a8e,,marmotta,2013-09-10 05:44:51,2013-09-12T21:40:58+02:00,MARMOTTA-305
c262fbc681b27ad4c3f5741185253864a8788a8e,,marmotta,2013-09-03 09:09:01,2013-09-12T21:40:58+02:00,MARMOTTA-305
6e97cc082354952466325b4efda949674ef6f2ec,,marmotta,2013-02-19 07:50:16,2013-09-13T12:36:31+02:00,MARMOTTA-307
6e97cc082354952466325b4efda949674ef6f2ec,,marmotta,2013-09-13 06:22:55,2013-09-13T12:36:31+02:00,MARMOTTA-307
188d7533fe6ea30fbb3716dd7b7f21276e4f330a,,marmotta,2013-10-02 11:18:59,2013-10-03T17:13:27+02:00,MARMOTTA-31
188d7533fe6ea30fbb3716dd7b7f21276e4f330a,,marmotta,2013-10-01 11:15:45,2013-10-03T17:13:27+02:00,MARMOTTA-31
29d158126a2f85c249dadfa120e49598016821ad,,marmotta,2013-10-03 11:13:27,2013-10-14T12:11:36+02:00,MARMOTTA-31
29d158126a2f85c249dadfa120e49598016821ad,,marmotta,2013-10-02 11:18:59,2013-10-14T12:11:36+02:00,MARMOTTA-31
29d158126a2f85c249dadfa120e49598016821ad,,marmotta,2013-10-01 11:15:45,2013-10-14T12:11:36+02:00,MARMOTTA-31
3a9d46d7c36f618403f3b465319b1bb13e33386e,,marmotta,2013-09-10 06:30:33,2013-10-25T12:39:42+02:00,MARMOTTA-31
3a9d46d7c36f618403f3b465319b1bb13e33386e,,marmotta,2013-05-08 04:07:38,2013-10-25T12:39:42+02:00,MARMOTTA-31
5978d1f972a53f73066c7544063bedb52c61d65b,,marmotta,2013-02-19 07:50:16,2013-09-26T17:50:16+02:00,MARMOTTA-31
780948f8cdcf04d72504b58d9888cdf06294c352,,marmotta,2013-10-01 11:15:45,2013-10-02T17:18:59+02:00,MARMOTTA-31
e7692e68bdcae9e1d988cbd9cc108ab0631bb402,,marmotta,2013-10-03 11:13:27,2013-11-06T19:09:17+01:00,MARMOTTA-31
e7692e68bdcae9e1d988cbd9cc108ab0631bb402,,marmotta,2013-10-14 06:11:36,2013-11-06T19:09:17+01:00,MARMOTTA-31
e7692e68bdcae9e1d988cbd9cc108ab0631bb402,,marmotta,2013-10-02 11:18:59,2013-11-06T19:09:17+01:00,MARMOTTA-31
e7692e68bdcae9e1d988cbd9cc108ab0631bb402,,marmotta,2013-10-01 11:15:45,2013-11-06T19:09:17+01:00,MARMOTTA-31
fc701b8cee75b4d7675aa203c0feaa5fd4d21f54,,marmotta,2013-09-10 06:30:33,2013-10-25T15:52:05+02:00,MARMOTTA-31
fc701b8cee75b4d7675aa203c0feaa5fd4d21f54,,marmotta,2013-05-08 04:07:38,2013-10-25T15:52:05+02:00,MARMOTTA-31
fe6b7d00728b61e2931a4d9c23390f54dd0faee1,,marmotta,2013-11-15 19:05:47,2013-11-22T15:12:19+01:00,MARMOTTA-31
fe6b7d00728b61e2931a4d9c23390f54dd0faee1,,marmotta,2013-11-15 14:40:54,2013-11-22T15:12:19+01:00,MARMOTTA-31
fe6b7d00728b61e2931a4d9c23390f54dd0faee1,,marmotta,2013-11-15 15:18:22,2013-11-22T15:12:19+01:00,MARMOTTA-31
fe6b7d00728b61e2931a4d9c23390f54dd0faee1,,marmotta,2013-11-18 11:25:59,2013-11-22T15:12:19+01:00,MARMOTTA-31
fe6b7d00728b61e2931a4d9c23390f54dd0faee1,,marmotta,2013-11-15 12:54:17,2013-11-22T15:12:19+01:00,MARMOTTA-31
fe6b7d00728b61e2931a4d9c23390f54dd0faee1,,marmotta,2013-11-15 16:00:46,2013-11-22T15:12:19+01:00,MARMOTTA-31
3a9d46d7c36f618403f3b465319b1bb13e33386e,,marmotta,2013-09-10 06:30:33,2013-10-25T12:39:42+02:00,MARMOTTA-314
3a9d46d7c36f618403f3b465319b1bb13e33386e,,marmotta,2013-05-08 04:07:38,2013-10-25T12:39:42+02:00,MARMOTTA-314
fc701b8cee75b4d7675aa203c0feaa5fd4d21f54,,marmotta,2013-09-10 06:30:33,2013-10-25T15:52:05+02:00,MARMOTTA-314
fc701b8cee75b4d7675aa203c0feaa5fd4d21f54,,marmotta,2013-05-08 04:07:38,2013-10-25T15:52:05+02:00,MARMOTTA-314
5978d1f972a53f73066c7544063bedb52c61d65b,,marmotta,2013-02-19 07:50:16,2013-09-26T17:50:16+02:00,MARMOTTA-317
5f0045d1c39a1240256bff8e05ca8929c2240d9a,,marmotta,2013-09-26 10:24:39,2013-09-26T16:47:13+02:00,MARMOTTA-322
7122c51502d9358c49806e3ee516ea22cc2679c5,,marmotta,2013-03-25 08:17:57,2013-09-26T17:05:38+02:00,MARMOTTA-322
7122c51502d9358c49806e3ee516ea22cc2679c5,,marmotta,2013-09-26 10:16:17,2013-09-26T17:05:38+02:00,MARMOTTA-322
7122c51502d9358c49806e3ee516ea22cc2679c5,,marmotta,2013-02-19 07:50:16,2013-09-26T17:05:38+02:00,MARMOTTA-322
aed338df683de95f7e2873c5a043e417a19bda24,,marmotta,2013-07-11 10:30:18,2013-09-26T16:16:17+02:00,MARMOTTA-322
aed338df683de95f7e2873c5a043e417a19bda24,,marmotta,2013-03-11 09:31:39,2013-09-26T16:16:17+02:00,MARMOTTA-322
aed338df683de95f7e2873c5a043e417a19bda24,,marmotta,2013-07-09 12:11:38,2013-09-26T16:16:17+02:00,MARMOTTA-322
aed338df683de95f7e2873c5a043e417a19bda24,,marmotta,2013-09-09 09:49:24,2013-09-26T16:16:17+02:00,MARMOTTA-322
aed338df683de95f7e2873c5a043e417a19bda24,,marmotta,2013-02-19 07:50:16,2013-09-26T16:16:17+02:00,MARMOTTA-322
aed338df683de95f7e2873c5a043e417a19bda24,,marmotta,2013-07-11 07:04:46,2013-09-26T16:16:17+02:00,MARMOTTA-322
b3bb9d71115132c253889c08e16fa8bfa817b4f5,,marmotta,2013-03-11 09:31:39,2013-09-26T16:24:39+02:00,MARMOTTA-322
b3bb9d71115132c253889c08e16fa8bfa817b4f5,,marmotta,2013-02-19 07:50:16,2013-09-26T16:24:39+02:00,MARMOTTA-322
d1a4ab682652b456a8b60f375a01dd68210e43f4,,marmotta,2013-03-11 09:31:39,2013-09-26T16:33:38+02:00,MARMOTTA-322
d1a4ab682652b456a8b60f375a01dd68210e43f4,,marmotta,2013-03-11 06:22:37,2013-09-26T16:33:38+02:00,MARMOTTA-322
d1a4ab682652b456a8b60f375a01dd68210e43f4,,marmotta,2013-02-19 07:50:16,2013-09-26T16:33:38+02:00,MARMOTTA-322
7de7ffe1efc6e8de73e4c1f1273c494b95fe4eb4,,marmotta,2013-02-19 07:50:16,2013-09-26T17:08:22+02:00,MARMOTTA-323
4b8b86802a9814f8cffbb03a5262b00f7a42f9a9,,marmotta,2013-09-04 06:05:42,2013-09-30T18:12:32+02:00,MARMOTTA-324
4b8b86802a9814f8cffbb03a5262b00f7a42f9a9,,marmotta,2013-09-02 11:57:03,2013-09-30T18:12:32+02:00,MARMOTTA-324
4b8b86802a9814f8cffbb03a5262b00f7a42f9a9,,marmotta,2013-07-19 05:02:07,2013-09-30T18:12:32+02:00,MARMOTTA-324
4b8b86802a9814f8cffbb03a5262b00f7a42f9a9,,marmotta,2013-06-18 17:55:35,2013-09-30T18:12:32+02:00,MARMOTTA-324
4b8b86802a9814f8cffbb03a5262b00f7a42f9a9,,marmotta,2013-06-18 16:16:05,2013-09-30T18:12:32+02:00,MARMOTTA-324
4b8b86802a9814f8cffbb03a5262b00f7a42f9a9,,marmotta,2013-07-22 06:55:36,2013-09-30T18:12:32+02:00,MARMOTTA-324
4b8b86802a9814f8cffbb03a5262b00f7a42f9a9,,marmotta,2013-06-21 04:42:34,2013-09-30T18:12:32+02:00,MARMOTTA-324
4b8b86802a9814f8cffbb03a5262b00f7a42f9a9,,marmotta,2013-08-05 10:02:52,2013-09-30T18:12:32+02:00,MARMOTTA-324
4b8b86802a9814f8cffbb03a5262b00f7a42f9a9,,marmotta,2013-02-19 07:50:16,2013-09-30T18:12:32+02:00,MARMOTTA-324
4b8b86802a9814f8cffbb03a5262b00f7a42f9a9,,marmotta,2013-08-02 11:43:05,2013-09-30T18:12:32+02:00,MARMOTTA-324
92ecc0f8f532d9a378d133c374ec021bd10bae60,,marmotta,2013-09-30 12:12:32,2013-10-02T09:58:06+02:00,MARMOTTA-327
18ced91cd569a4cde799205136c24415a4e925d5,,marmotta,2013-10-02 15:14:29,2013-10-03T12:37:02+02:00,MARMOTTA-328
18ced91cd569a4cde799205136c24415a4e925d5,,marmotta,2013-10-02 12:12:42,2013-10-03T12:37:02+02:00,MARMOTTA-328
fa0aef8a05c81cd8b8998ffd2fa68715319e25db,,marmotta,2013-04-24 10:52:44,2013-10-09T12:26:59+02:00,MARMOTTA-340
fa0aef8a05c81cd8b8998ffd2fa68715319e25db,,marmotta,2013-04-29 10:41:18,2013-10-09T12:26:59+02:00,MARMOTTA-340
fa0aef8a05c81cd8b8998ffd2fa68715319e25db,,marmotta,2013-07-09 11:45:02,2013-10-09T12:26:59+02:00,MARMOTTA-340
71060552950901cbae197c24b63afb410b7e70f7,,marmotta,2013-06-18 17:55:35,2013-10-09T12:52:37+02:00,MARMOTTA-341
71060552950901cbae197c24b63afb410b7e70f7,,marmotta,2013-09-02 12:30:58,2013-10-09T12:52:37+02:00,MARMOTTA-341
71060552950901cbae197c24b63afb410b7e70f7,,marmotta,2013-06-18 05:07:23,2013-10-09T12:52:37+02:00,MARMOTTA-341
71060552950901cbae197c24b63afb410b7e70f7,,marmotta,2013-10-02 12:12:42,2013-10-09T12:52:37+02:00,MARMOTTA-341
0a3a562e1393b2f3ab06033f33fa0068a40c5576,,marmotta,2013-11-20 14:35:06,2013-11-21T13:00:48+01:00,MARMOTTA-369
0a3a562e1393b2f3ab06033f33fa0068a40c5576,,marmotta,2013-11-20 12:52:46,2013-11-21T13:00:48+01:00,MARMOTTA-369
0a3a562e1393b2f3ab06033f33fa0068a40c5576,,marmotta,2013-11-21 04:11:37,2013-11-21T13:00:48+01:00,MARMOTTA-369
c8616cf66690cbd1c5b780709c475f3f2b5c7c88,,marmotta,2013-11-06 15:16:07,2013-11-22T12:56:57+01:00,MARMOTTA-369
c8616cf66690cbd1c5b780709c475f3f2b5c7c88,,marmotta,2013-07-22 06:55:36,2013-11-22T12:56:57+01:00,MARMOTTA-369
c8616cf66690cbd1c5b780709c475f3f2b5c7c88,,marmotta,2013-06-18 05:07:23,2013-11-22T12:56:57+01:00,MARMOTTA-369
c8616cf66690cbd1c5b780709c475f3f2b5c7c88,,marmotta,2013-08-05 10:02:52,2013-11-22T12:56:57+01:00,MARMOTTA-369
c8616cf66690cbd1c5b780709c475f3f2b5c7c88,,marmotta,2013-02-19 07:50:16,2013-11-22T12:56:57+01:00,MARMOTTA-369
c8616cf66690cbd1c5b780709c475f3f2b5c7c88,,marmotta,2013-11-06 13:09:17,2013-11-22T12:56:57+01:00,MARMOTTA-369
433d6326e82815c16af83d368e037f6071aa0863,,marmotta,2013-02-19 07:50:16,2014-01-08T12:02:32+01:00,MARMOTTA-379
bc88f463f2e73fee10c0b4c18a69f0b1ba6c718d,,marmotta,2013-11-11 04:11:46,2014-01-08T12:02:32+01:00,MARMOTTA-379
bc88f463f2e73fee10c0b4c18a69f0b1ba6c718d,,marmotta,2013-11-11 04:11:25,2014-01-08T12:02:32+01:00,MARMOTTA-379
74c2c7df4085805c6db292b3893811b83be0c04b,,marmotta,2013-10-02 15:39:23,2013-11-28T17:17:23+01:00,MARMOTTA-382
74c2c7df4085805c6db292b3893811b83be0c04b,,marmotta,2013-09-26 10:16:17,2013-11-28T17:17:23+01:00,MARMOTTA-382
74c2c7df4085805c6db292b3893811b83be0c04b,,marmotta,2013-02-19 07:50:16,2013-11-28T17:17:23+01:00,MARMOTTA-382
2e854cd512aeb11f60179742557ca245d6802683,,marmotta,2013-11-28 06:38:37,2013-12-04T12:55:06+01:00,MARMOTTA-392
5fca08c66c12e2b0949629060d3df4b7423fd061,,marmotta,2013-10-14 09:27:39,2013-11-29T15:26:00+01:00,MARMOTTA-394
d6cebf97d9c97bef6c9f579b0d5ffcfd84f48474,,marmotta,2013-02-19 07:50:16,2014-03-19T16:47:32+01:00,MARMOTTA-395
0596fa600d4cfc16a15dc7ebe2a1f97ebf7dffb1,,marmotta,2013-07-05 11:30:38,2013-12-10T17:31:22+01:00,MARMOTTA-401
10955ed5b6c203d39deec7002c84bf0ad1a9d490,,marmotta,2013-02-19 07:50:16,2013-12-12T00:43:34+01:00,MARMOTTA-401
7c1f7d7667dc4fca8a751ece877333d3c23eaded,,marmotta,2013-12-11 18:43:34,2013-12-13T17:20:00+01:00,MARMOTTA-401
be14d59851313fcad448675902346d7e1b2cfba4,,marmotta,2013-12-10 11:31:22,2013-12-10T21:00:16+01:00,MARMOTTA-401
be14d59851313fcad448675902346d7e1b2cfba4,,marmotta,2013-02-19 07:50:16,2013-12-10T21:00:16+01:00,MARMOTTA-401
3bd9c85f18831d4d570b5f29deeabf0674f26420,,marmotta,2013-03-06 14:48:13,2013-12-13T15:02:59+01:00,MARMOTTA-405
3bd9c85f18831d4d570b5f29deeabf0674f26420,,marmotta,2013-02-19 07:50:16,2013-12-13T15:02:59+01:00,MARMOTTA-405
b027ad098f79c0e06453767b8169d65ff96cee5a,,marmotta,2014-10-31 06:16:21,2014-11-01T11:37:11+01:00,MARMOTTA-406
31b83be3adc1c1de4a0abb091e6de325a508f265,,marmotta,2013-09-30 12:12:32,2014-01-07T18:29:19+01:00,MARMOTTA-410
0adf79d15ae0b77f48536bf35fcba2e19ccd52f0,,marmotta,2013-10-09 06:26:59,2014-01-20T16:33:51+01:00,MARMOTTA-42
387e2f330a08e1e2917d989b1718265341f056ef,,marmotta,2014-01-18 05:58:51,2014-01-20T10:18:52+01:00,MARMOTTA-42
47af9e7c2e54ee06c76d41a42f015e62f9c61a8d,,marmotta,2014-01-17 04:03:23,2014-01-17T10:31:09+01:00,MARMOTTA-42
5cb0ba1d12ae580d1a88db2e76e80de6290d7062,,marmotta,2014-01-20 04:18:52,2014-01-22T12:36:34+01:00,MARMOTTA-42
5cb0ba1d12ae580d1a88db2e76e80de6290d7062,,marmotta,2014-01-20 11:10:02,2014-01-22T12:36:34+01:00,MARMOTTA-42
5cb0ba1d12ae580d1a88db2e76e80de6290d7062,,marmotta,2014-01-21 11:05:13,2014-01-22T12:36:34+01:00,MARMOTTA-42
68dcda20d8e6a1c116b5463c5c1f8a3b489cad1e,,marmotta,2014-01-20 04:18:52,2014-01-20T17:57:02+01:00,MARMOTTA-42
68dcda20d8e6a1c116b5463c5c1f8a3b489cad1e,,marmotta,2014-01-20 11:10:02,2014-01-20T17:57:02+01:00,MARMOTTA-42
7caa4557500e1d85f257c4459760ffcdce680512,,marmotta,2014-01-17 09:17:44,2014-01-17T15:29:04+01:00,MARMOTTA-42
8d1946c84349cf0a6ed74c2afa0f5bd1cf6f00b5,,marmotta,2014-01-20 04:18:52,2014-01-20T17:10:02+01:00,MARMOTTA-42
904a87360b62b011058ddf81e0699fdc8b257ba1,,marmotta,2014-01-20 11:57:02,2014-01-22T10:47:47+01:00,MARMOTTA-42
904a87360b62b011058ddf81e0699fdc8b257ba1,,marmotta,2014-01-20 11:10:02,2014-01-22T10:47:47+01:00,MARMOTTA-42
904a87360b62b011058ddf81e0699fdc8b257ba1,,marmotta,2014-01-21 11:05:13,2014-01-22T10:47:47+01:00,MARMOTTA-42
9e737af916fcaae92d406f127607b3628a768407,,marmotta,2014-01-17 04:03:23,2014-01-17T15:17:44+01:00,MARMOTTA-42
9ee949a296f6b73b299c4cc20deab16a70bc8de4,,marmotta,2014-01-17 09:17:44,2014-01-18T11:05:23+01:00,MARMOTTA-42
a298c723386343959c8dbf86cb0396fe14fab8fd,,marmotta,2014-01-22 04:47:47,2014-01-22T12:34:22+01:00,MARMOTTA-42
c71dc35c38c0f62da1892eab1fc79f3e5acc6daa,,marmotta,2014-01-20 04:18:52,2014-01-21T17:05:13+01:00,MARMOTTA-42
c71dc35c38c0f62da1892eab1fc79f3e5acc6daa,,marmotta,2014-01-20 11:57:02,2014-01-21T17:05:13+01:00,MARMOTTA-42
c71dc35c38c0f62da1892eab1fc79f3e5acc6daa,,marmotta,2014-01-20 11:10:02,2014-01-21T17:05:13+01:00,MARMOTTA-42
d8374a31a48489baa34c01c3f73bba8be8abc6cf,,marmotta,2013-05-07 04:31:30,2014-01-13T16:58:22+01:00,MARMOTTA-42
d8374a31a48489baa34c01c3f73bba8be8abc6cf,,marmotta,2013-02-19 07:50:16,2014-01-13T16:58:22+01:00,MARMOTTA-42
d8374a31a48489baa34c01c3f73bba8be8abc6cf,,marmotta,2013-05-07 04:31:30,2014-01-13T16:58:22+01:00,MARMOTTA-421
d8374a31a48489baa34c01c3f73bba8be8abc6cf,,marmotta,2013-02-19 07:50:16,2014-01-13T16:58:22+01:00,MARMOTTA-421
5c6e30dd188af34357a18a90f29151a3e2180342,,marmotta,2013-03-27 11:34:53,2014-02-26T14:16:20+01:00,MARMOTTA-445
5c6e30dd188af34357a18a90f29151a3e2180342,,marmotta,2013-02-21 05:46:37,2014-02-26T14:16:20+01:00,MARMOTTA-445
5c6e30dd188af34357a18a90f29151a3e2180342,,marmotta,2013-10-25 10:04:09,2014-02-26T14:16:20+01:00,MARMOTTA-445
30dd42820c064bcf77e5b9cd7187bbf50a57fa7b,,marmotta,2013-07-09 05:46:21,2014-03-17T15:28:42+01:00,MARMOTTA-466
237f356e77daeef763bca3bd806186e116c62649,,marmotta,2013-03-11 09:31:39,2014-03-25T15:38:56+01:00,MARMOTTA-47
237f356e77daeef763bca3bd806186e116c62649,,marmotta,2013-09-11 11:56:02,2014-03-25T15:38:56+01:00,MARMOTTA-47
237f356e77daeef763bca3bd806186e116c62649,,marmotta,2013-09-26 22:26:32,2014-03-25T15:38:56+01:00,MARMOTTA-47
237f356e77daeef763bca3bd806186e116c62649,,marmotta,2013-09-26 10:16:17,2014-03-25T15:38:56+01:00,MARMOTTA-47
237f356e77daeef763bca3bd806186e116c62649,,marmotta,2013-07-09 12:19:45,2014-03-25T15:38:56+01:00,MARMOTTA-47
237f356e77daeef763bca3bd806186e116c62649,,marmotta,2013-02-19 07:50:16,2014-03-25T15:38:56+01:00,MARMOTTA-47
2c1b1f5e5538edaff47cdfb31767c03be65ac3fc,,marmotta,2013-03-19 08:01:00,2014-04-08T11:05:47+02:00,MARMOTTA-47
2c1b1f5e5538edaff47cdfb31767c03be65ac3fc,,marmotta,2013-02-19 07:50:16,2014-04-08T11:05:47+02:00,MARMOTTA-47
9730c3c6abb90e9f9a8a6e6914236e3d7dfbd561,,marmotta,2013-08-23 12:07:58,2014-06-02T09:29:35+02:00,MARMOTTA-489
0921acaa1e310beef16aa7ebdfd00e4170f89f49,,marmotta,2014-09-15 12:08:12,2014-09-16T11:20:18+02:00,MARMOTTA-49
0921acaa1e310beef16aa7ebdfd00e4170f89f49,,marmotta,2014-05-15 08:09:01,2014-09-16T11:20:18+02:00,MARMOTTA-49
1dd77c478c1c8771af966e4e0352c94213e6154c,,marmotta,2014-07-09 02:31:45,2014-07-09T09:03:09+02:00,MARMOTTA-49
3753fe06066135adc1e33ad2ef192800dc9907cb,,marmotta,2014-09-15 12:08:12,2014-09-16T11:52:55+02:00,MARMOTTA-49
3753fe06066135adc1e33ad2ef192800dc9907cb,,marmotta,2013-04-24 10:52:44,2014-09-16T11:52:55+02:00,MARMOTTA-49
3753fe06066135adc1e33ad2ef192800dc9907cb,,marmotta,2014-05-15 08:09:01,2014-09-16T11:52:55+02:00,MARMOTTA-49
3753fe06066135adc1e33ad2ef192800dc9907cb,,marmotta,2013-10-09 06:26:59,2014-09-16T11:52:55+02:00,MARMOTTA-49
3753fe06066135adc1e33ad2ef192800dc9907cb,,marmotta,2014-01-13 13:46:25,2014-09-16T11:52:55+02:00,MARMOTTA-49
4e63ca961f4687ce14e6242667ce140f23a522e8,,marmotta,2014-05-15 08:09:01,2014-09-16T18:27:29+02:00,MARMOTTA-49
9198e978cc3f5f6c2432083a7d050e81134a4cf3,,marmotta,2013-07-05 05:12:34,2014-05-19T14:45:27+02:00,MARMOTTA-49
9730c3c6abb90e9f9a8a6e6914236e3d7dfbd561,,marmotta,2013-08-23 12:07:58,2014-06-02T09:29:35+02:00,MARMOTTA-49
99cca9dc9e13bb41e6a45f16f9b260f52a237123,,marmotta,2013-12-17 08:13:17,2014-07-09T07:42:47+02:00,MARMOTTA-49
99cca9dc9e13bb41e6a45f16f9b260f52a237123,,marmotta,2013-02-19 07:50:16,2014-07-09T07:42:47+02:00,MARMOTTA-49
dfde1a8ea61dbbd43318af63b7278d42beddc38d,,marmotta,2013-07-05 05:12:34,2014-05-15T15:16:53+02:00,MARMOTTA-49
e447515dce46926dbbeb7268749c414907edeccd,,marmotta,2013-02-19 07:50:16,2014-07-09T08:31:45+02:00,MARMOTTA-49
e447515dce46926dbbeb7268749c414907edeccd,,marmotta,2014-07-08 04:33:18,2014-07-09T08:31:45+02:00,MARMOTTA-49
f89f61f2128fcb70db885b31b42077782ad411a6,,marmotta,2013-02-19 07:50:16,2014-07-08T10:33:18+02:00,MARMOTTA-49
9198e978cc3f5f6c2432083a7d050e81134a4cf3,,marmotta,2013-07-05 05:12:34,2014-05-19T14:45:27+02:00,MARMOTTA-498
dfde1a8ea61dbbd43318af63b7278d42beddc38d,,marmotta,2013-07-05 05:12:34,2014-05-15T15:16:53+02:00,MARMOTTA-498
1dd77c478c1c8771af966e4e0352c94213e6154c,,marmotta,2014-07-09 02:31:45,2014-07-09T09:03:09+02:00,MARMOTTA-499
99cca9dc9e13bb41e6a45f16f9b260f52a237123,,marmotta,2013-12-17 08:13:17,2014-07-09T07:42:47+02:00,MARMOTTA-499
99cca9dc9e13bb41e6a45f16f9b260f52a237123,,marmotta,2013-02-19 07:50:16,2014-07-09T07:42:47+02:00,MARMOTTA-499
e447515dce46926dbbeb7268749c414907edeccd,,marmotta,2013-02-19 07:50:16,2014-07-09T08:31:45+02:00,MARMOTTA-499
e447515dce46926dbbeb7268749c414907edeccd,,marmotta,2014-07-08 04:33:18,2014-07-09T08:31:45+02:00,MARMOTTA-499
f89f61f2128fcb70db885b31b42077782ad411a6,,marmotta,2013-02-19 07:50:16,2014-07-08T10:33:18+02:00,MARMOTTA-499
d6c49ac1edaf1b0ff3cf3bab44f2a1e0ea4cf27d,,marmotta,2013-09-02 11:57:03,2014-09-22T14:51:17+02:00,MARMOTTA-506
d6c49ac1edaf1b0ff3cf3bab44f2a1e0ea4cf27d,,marmotta,2013-09-05 08:27:52,2014-09-22T14:51:17+02:00,MARMOTTA-506
d6c49ac1edaf1b0ff3cf3bab44f2a1e0ea4cf27d,,marmotta,2013-02-19 07:50:16,2014-09-22T14:51:17+02:00,MARMOTTA-506
bd6f585fec50e8566ffd92d25be6b7f5f816ab56,,marmotta,2013-09-26 10:16:17,2014-07-08T10:32:27+02:00,MARMOTTA-511
0a791f4260f9cfd8ca74265c0ff0d6fa94f3b164,,marmotta,2014-09-07 10:27:12,2014-09-16T17:45:07+02:00,MARMOTTA-514
0a791f4260f9cfd8ca74265c0ff0d6fa94f3b164,,marmotta,2014-09-05 04:22:48,2014-09-16T17:45:07+02:00,MARMOTTA-514
0a791f4260f9cfd8ca74265c0ff0d6fa94f3b164,,marmotta,2014-02-25 14:47:42,2014-09-16T17:45:07+02:00,MARMOTTA-514
0a791f4260f9cfd8ca74265c0ff0d6fa94f3b164,,marmotta,2014-03-28 04:13:04,2014-09-16T17:45:07+02:00,MARMOTTA-514
8e0160f8dffcae7bb344712edaa5c0a4cbb9db1f,,marmotta,2014-07-15 04:26:23,2014-09-25T18:11:37+02:00,MARMOTTA-514
8e0160f8dffcae7bb344712edaa5c0a4cbb9db1f,,marmotta,2014-06-13 05:01:59,2014-09-25T18:11:37+02:00,MARMOTTA-514
0a791f4260f9cfd8ca74265c0ff0d6fa94f3b164,,marmotta,2014-09-07 10:27:12,2014-09-16T17:45:07+02:00,MARMOTTA-52
0a791f4260f9cfd8ca74265c0ff0d6fa94f3b164,,marmotta,2014-09-05 04:22:48,2014-09-16T17:45:07+02:00,MARMOTTA-52
0a791f4260f9cfd8ca74265c0ff0d6fa94f3b164,,marmotta,2014-02-25 14:47:42,2014-09-16T17:45:07+02:00,MARMOTTA-52
0a791f4260f9cfd8ca74265c0ff0d6fa94f3b164,,marmotta,2014-03-28 04:13:04,2014-09-16T17:45:07+02:00,MARMOTTA-52
30227f31c12babe6716bc3e43df68b3aba53a20a,,marmotta,2014-02-19 06:28:35,2014-09-05T10:22:48+02:00,MARMOTTA-52
30227f31c12babe6716bc3e43df68b3aba53a20a,,marmotta,2014-03-10 10:44:07,2014-09-05T10:22:48+02:00,MARMOTTA-52
30227f31c12babe6716bc3e43df68b3aba53a20a,,marmotta,2014-03-06 10:46:15,2014-09-05T10:22:48+02:00,MARMOTTA-52
30227f31c12babe6716bc3e43df68b3aba53a20a,,marmotta,2014-02-25 13:21:09,2014-09-05T10:22:48+02:00,MARMOTTA-52
30227f31c12babe6716bc3e43df68b3aba53a20a,,marmotta,2014-02-25 14:47:42,2014-09-05T10:22:48+02:00,MARMOTTA-52
30227f31c12babe6716bc3e43df68b3aba53a20a,,marmotta,2014-03-03 08:23:52,2014-09-05T10:22:48+02:00,MARMOTTA-52
30227f31c12babe6716bc3e43df68b3aba53a20a,,marmotta,2014-03-06 10:43:39,2014-09-05T10:22:48+02:00,MARMOTTA-52
30227f31c12babe6716bc3e43df68b3aba53a20a,,marmotta,2014-07-15 05:52:43,2014-09-05T10:22:48+02:00,MARMOTTA-52
30227f31c12babe6716bc3e43df68b3aba53a20a,,marmotta,2014-06-26 10:49:42,2014-09-05T10:22:48+02:00,MARMOTTA-52
30227f31c12babe6716bc3e43df68b3aba53a20a,,marmotta,2014-03-12 07:40:26,2014-09-05T10:22:48+02:00,MARMOTTA-52
30227f31c12babe6716bc3e43df68b3aba53a20a,,marmotta,2014-02-25 13:11:12,2014-09-05T10:22:48+02:00,MARMOTTA-52
30227f31c12babe6716bc3e43df68b3aba53a20a,,marmotta,2014-03-10 12:13:47,2014-09-05T10:22:48+02:00,MARMOTTA-52
30227f31c12babe6716bc3e43df68b3aba53a20a,,marmotta,2014-02-25 13:26:58,2014-09-05T10:22:48+02:00,MARMOTTA-52
30227f31c12babe6716bc3e43df68b3aba53a20a,,marmotta,2014-03-02 07:08:05,2014-09-05T10:22:48+02:00,MARMOTTA-52
30227f31c12babe6716bc3e43df68b3aba53a20a,,marmotta,2014-07-14 09:53:27,2014-09-05T10:22:48+02:00,MARMOTTA-52
30227f31c12babe6716bc3e43df68b3aba53a20a,,marmotta,2014-06-30 11:36:30,2014-09-05T10:22:48+02:00,MARMOTTA-52
30227f31c12babe6716bc3e43df68b3aba53a20a,,marmotta,2014-07-15 04:26:23,2014-09-05T10:22:48+02:00,MARMOTTA-52
30227f31c12babe6716bc3e43df68b3aba53a20a,,marmotta,2014-03-11 06:56:48,2014-09-05T10:22:48+02:00,MARMOTTA-52
30227f31c12babe6716bc3e43df68b3aba53a20a,,marmotta,2014-03-28 04:13:04,2014-09-05T10:22:48+02:00,MARMOTTA-52
30227f31c12babe6716bc3e43df68b3aba53a20a,,marmotta,2014-03-11 12:03:17,2014-09-05T10:22:48+02:00,MARMOTTA-52
30227f31c12babe6716bc3e43df68b3aba53a20a,,marmotta,2014-06-13 05:01:59,2014-09-05T10:22:48+02:00,MARMOTTA-52
7e8b71388257a4a851c76bdc81931297e7ad1803,,marmotta,2014-03-06 10:46:15,2014-09-10T10:00:43+02:00,MARMOTTA-52
7e8b71388257a4a851c76bdc81931297e7ad1803,,marmotta,2014-09-05 04:22:48,2014-09-10T10:00:43+02:00,MARMOTTA-52
7e8b71388257a4a851c76bdc81931297e7ad1803,,marmotta,2014-02-25 14:47:42,2014-09-10T10:00:43+02:00,MARMOTTA-52
7e8b71388257a4a851c76bdc81931297e7ad1803,,marmotta,2014-03-03 08:23:52,2014-09-10T10:00:43+02:00,MARMOTTA-52
7e8b71388257a4a851c76bdc81931297e7ad1803,,marmotta,2014-07-15 04:26:23,2014-09-10T10:00:43+02:00,MARMOTTA-52
7e8b71388257a4a851c76bdc81931297e7ad1803,,marmotta,2014-03-28 04:13:04,2014-09-10T10:00:43+02:00,MARMOTTA-52
98a73d1631df1bb6e72aa1d23c77485e05e3bc2c,,marmotta,2014-06-12 14:32:11,2014-09-07T16:36:57+02:00,MARMOTTA-52
f995f4bb3526c21c1f2297e65ca1ec6cc17ffd25,,marmotta,2014-02-24 04:11:21,2014-09-05T10:22:47+02:00,MARMOTTA-52
f995f4bb3526c21c1f2297e65ca1ec6cc17ffd25,,marmotta,2014-02-19 06:28:35,2014-09-05T10:22:47+02:00,MARMOTTA-52
f995f4bb3526c21c1f2297e65ca1ec6cc17ffd25,,marmotta,2014-02-24 04:11:21,2014-09-05T10:22:47+02:00,MARMOTTA-525
f995f4bb3526c21c1f2297e65ca1ec6cc17ffd25,,marmotta,2014-02-19 06:28:35,2014-09-05T10:22:47+02:00,MARMOTTA-525
0f12ac815078c04fb2f24e887d66b0277d36a396,,marmotta,2013-02-19 07:50:16,2017-05-10T10:28:30+02:00,MARMOTTA-53
2b2a803ede39f17fb60b1c1a91edad467090eadd,,marmotta,2013-02-19 07:50:16,2017-05-10T08:48:17+02:00,MARMOTTA-53
2d6a60f28481c8d0000f155bbf40b04bfef5b534,,marmotta,2013-02-19 07:50:16,2017-05-10T10:29:04+02:00,MARMOTTA-53
406ce989f1617be2ece53e4258a1d1a360bb88c1,,marmotta,2014-09-12 07:16:51,2014-10-31T09:56:38+01:00,MARMOTTA-53
4a33f414dc1e3663bbd1cf02f6e59fa41eb15e09,,marmotta,2014-09-15 12:08:12,2014-09-17T18:16:42+02:00,MARMOTTA-53
4a33f414dc1e3663bbd1cf02f6e59fa41eb15e09,,marmotta,2014-09-17 07:53:28,2014-09-17T18:16:42+02:00,MARMOTTA-53
4a33f414dc1e3663bbd1cf02f6e59fa41eb15e09,,marmotta,2014-09-16 05:52:55,2014-09-17T18:16:42+02:00,MARMOTTA-53
4a33f414dc1e3663bbd1cf02f6e59fa41eb15e09,,marmotta,2014-09-16 12:27:29,2014-09-17T18:16:42+02:00,MARMOTTA-53
4a33f414dc1e3663bbd1cf02f6e59fa41eb15e09,,marmotta,2014-09-16 09:45:35,2014-09-17T18:16:42+02:00,MARMOTTA-53
4a33f414dc1e3663bbd1cf02f6e59fa41eb15e09,,marmotta,2014-09-17 06:26:43,2014-09-17T18:16:42+02:00,MARMOTTA-53
4a33f414dc1e3663bbd1cf02f6e59fa41eb15e09,,marmotta,2014-09-16 07:10:47,2014-09-17T18:16:42+02:00,MARMOTTA-53
4a33f414dc1e3663bbd1cf02f6e59fa41eb15e09,,marmotta,2014-05-15 08:09:01,2014-09-17T18:16:42+02:00,MARMOTTA-53
4a33f414dc1e3663bbd1cf02f6e59fa41eb15e09,,marmotta,2013-11-26 12:39:36,2014-09-17T18:16:42+02:00,MARMOTTA-53
5be6ef2eb2ad43407a1d82b787e209fcb0af56c1,,marmotta,2014-09-15 12:08:12,2014-09-16T15:45:35+02:00,MARMOTTA-53
5be6ef2eb2ad43407a1d82b787e209fcb0af56c1,,marmotta,2014-09-16 05:52:55,2014-09-16T15:45:35+02:00,MARMOTTA-53
5be6ef2eb2ad43407a1d82b787e209fcb0af56c1,,marmotta,2013-04-29 11:12:50,2014-09-16T15:45:35+02:00,MARMOTTA-53
5be6ef2eb2ad43407a1d82b787e209fcb0af56c1,,marmotta,2014-09-16 07:10:47,2014-09-16T15:45:35+02:00,MARMOTTA-53
5be6ef2eb2ad43407a1d82b787e209fcb0af56c1,,marmotta,2014-05-15 08:09:01,2014-09-16T15:45:35+02:00,MARMOTTA-53
5be6ef2eb2ad43407a1d82b787e209fcb0af56c1,,marmotta,2013-04-29 10:41:18,2014-09-16T15:45:35+02:00,MARMOTTA-53
5be6ef2eb2ad43407a1d82b787e209fcb0af56c1,,marmotta,2013-11-06 07:06:16,2014-09-16T15:45:35+02:00,MARMOTTA-53
5be6ef2eb2ad43407a1d82b787e209fcb0af56c1,,marmotta,2013-11-26 12:39:36,2014-09-16T15:45:35+02:00,MARMOTTA-53
6272b263f655a4b9c7e408afcdeabf85abb7204c,,marmotta,2013-02-19 07:50:16,2017-05-10T11:37:04+02:00,MARMOTTA-53
6d81ef5345ff1f47e19d939868d8a5bfbc4d1329,,marmotta,2014-09-17 12:16:42,2014-09-17T18:24:38+02:00,MARMOTTA-53
8429f690dfd5835c6dd8e0e3e5a048df5edaa44d,,marmotta,2014-09-16 05:52:55,2014-09-16T13:10:47+02:00,MARMOTTA-53
8429f690dfd5835c6dd8e0e3e5a048df5edaa44d,,marmotta,2014-05-15 08:09:01,2014-09-16T13:10:47+02:00,MARMOTTA-53
87623b181f8726ab5eab52392e601a3556ad3495,,marmotta,2014-02-25 14:47:42,2014-09-16T17:45:07+02:00,MARMOTTA-53
87623b181f8726ab5eab52392e601a3556ad3495,,marmotta,2014-02-28 08:17:11,2014-09-16T17:45:07+02:00,MARMOTTA-53
87623b181f8726ab5eab52392e601a3556ad3495,,marmotta,2014-07-15 04:26:23,2014-09-16T17:45:07+02:00,MARMOTTA-53
93caa0f613ba1978221f621fc541902cd086874a,,marmotta,2014-02-25 14:47:42,2014-09-12T13:16:51+02:00,MARMOTTA-53
93caa0f613ba1978221f621fc541902cd086874a,,marmotta,2014-09-12 07:16:51,2014-09-12T13:16:51+02:00,MARMOTTA-53
93caa0f613ba1978221f621fc541902cd086874a,,marmotta,2014-09-10 04:00:43,2014-09-12T13:16:51+02:00,MARMOTTA-53
ee1f7b8ec0b548bb8f21ddfd8519de590a65a791,,marmotta,2014-09-15 12:08:12,2014-09-18T17:17:05+02:00,MARMOTTA-53
ee1f7b8ec0b548bb8f21ddfd8519de590a65a791,,marmotta,2014-09-17 07:53:28,2014-09-18T17:17:05+02:00,MARMOTTA-53
ee1f7b8ec0b548bb8f21ddfd8519de590a65a791,,marmotta,2014-09-16 05:52:55,2014-09-18T17:17:05+02:00,MARMOTTA-53
ee1f7b8ec0b548bb8f21ddfd8519de590a65a791,,marmotta,2014-09-17 12:16:42,2014-09-18T17:17:05+02:00,MARMOTTA-53
ee1f7b8ec0b548bb8f21ddfd8519de590a65a791,,marmotta,2013-07-29 12:26:00,2014-09-18T17:17:05+02:00,MARMOTTA-53
ee1f7b8ec0b548bb8f21ddfd8519de590a65a791,,marmotta,2013-09-11 11:17:00,2014-09-18T17:17:05+02:00,MARMOTTA-53
ee1f7b8ec0b548bb8f21ddfd8519de590a65a791,,marmotta,2014-09-16 07:10:47,2014-09-18T17:17:05+02:00,MARMOTTA-53
ee1f7b8ec0b548bb8f21ddfd8519de590a65a791,,marmotta,2013-04-24 10:52:44,2014-09-18T17:17:05+02:00,MARMOTTA-53
ee1f7b8ec0b548bb8f21ddfd8519de590a65a791,,marmotta,2014-05-15 08:09:01,2014-09-18T17:17:05+02:00,MARMOTTA-53
ee1f7b8ec0b548bb8f21ddfd8519de590a65a791,,marmotta,2013-04-29 10:41:18,2014-09-18T17:17:05+02:00,MARMOTTA-53
ee1f7b8ec0b548bb8f21ddfd8519de590a65a791,,marmotta,2013-04-30 04:50:38,2014-09-18T17:17:05+02:00,MARMOTTA-53
ee1f7b8ec0b548bb8f21ddfd8519de590a65a791,,marmotta,2013-07-09 11:45:02,2014-09-18T17:17:05+02:00,MARMOTTA-53
ee1f7b8ec0b548bb8f21ddfd8519de590a65a791,,marmotta,2014-09-18 09:08:34,2014-09-18T17:17:05+02:00,MARMOTTA-53
ee1f7b8ec0b548bb8f21ddfd8519de590a65a791,,marmotta,2014-09-17 12:34:08,2014-09-18T17:17:05+02:00,MARMOTTA-53
ee1f7b8ec0b548bb8f21ddfd8519de590a65a791,,marmotta,2013-10-09 06:26:59,2014-09-18T17:17:05+02:00,MARMOTTA-53
ee1f7b8ec0b548bb8f21ddfd8519de590a65a791,,marmotta,2014-01-13 13:46:25,2014-09-18T17:17:05+02:00,MARMOTTA-53
f222bf4c57c08fd0c5abc16d2e374c46bf07d884,,marmotta,2014-09-17 12:16:42,2014-09-17T18:34:08+02:00,MARMOTTA-53
3696d9d66850083d773f4543f3ba7d1395d4cf82,,marmotta,2014-05-15 08:09:01,2014-09-18T18:18:27+02:00,MARMOTTA-54
3d822f672cfe477da3c90050b62a5337896d49a7,,marmotta,2013-03-25 08:17:57,2014-09-22T08:36:35+02:00,MARMOTTA-54
3d822f672cfe477da3c90050b62a5337896d49a7,,marmotta,2013-02-19 07:50:16,2014-09-22T08:36:35+02:00,MARMOTTA-54
564282f0ae3068686373a44d91971aecb490096d,,marmotta,2014-09-15 12:08:12,2014-09-19T12:09:19+02:00,MARMOTTA-54
564282f0ae3068686373a44d91971aecb490096d,,marmotta,2014-09-16 07:10:47,2014-09-19T12:09:19+02:00,MARMOTTA-54
564282f0ae3068686373a44d91971aecb490096d,,marmotta,2014-09-19 04:43:25,2014-09-19T12:09:19+02:00,MARMOTTA-54
5d94ae2ef03ea97db630814eeb400dfe6c2bf36f,,marmotta,2014-09-16 09:53:44,2014-09-19T18:39:22+02:00,MARMOTTA-54
5d94ae2ef03ea97db630814eeb400dfe6c2bf36f,,marmotta,2014-09-17 07:53:28,2014-09-19T18:39:22+02:00,MARMOTTA-54
5d94ae2ef03ea97db630814eeb400dfe6c2bf36f,,marmotta,2014-09-16 05:52:55,2014-09-19T18:39:22+02:00,MARMOTTA-54
5d94ae2ef03ea97db630814eeb400dfe6c2bf36f,,marmotta,2014-01-27 12:08:15,2014-09-19T18:39:22+02:00,MARMOTTA-54
5d94ae2ef03ea97db630814eeb400dfe6c2bf36f,,marmotta,2013-11-26 10:11:55,2014-09-19T18:39:22+02:00,MARMOTTA-54
5d94ae2ef03ea97db630814eeb400dfe6c2bf36f,,marmotta,2014-09-17 12:16:42,2014-09-19T18:39:22+02:00,MARMOTTA-54
5d94ae2ef03ea97db630814eeb400dfe6c2bf36f,,marmotta,2014-09-18 08:42:49,2014-09-19T18:39:22+02:00,MARMOTTA-54
5d94ae2ef03ea97db630814eeb400dfe6c2bf36f,,marmotta,2014-09-16 09:45:35,2014-09-19T18:39:22+02:00,MARMOTTA-54
5d94ae2ef03ea97db630814eeb400dfe6c2bf36f,,marmotta,2014-09-17 06:55:50,2014-09-19T18:39:22+02:00,MARMOTTA-54
5d94ae2ef03ea97db630814eeb400dfe6c2bf36f,,marmotta,2014-09-19 10:45:45,2014-09-19T18:39:22+02:00,MARMOTTA-54
5d94ae2ef03ea97db630814eeb400dfe6c2bf36f,,marmotta,2014-03-17 12:01:25,2014-09-19T18:39:22+02:00,MARMOTTA-54
5d94ae2ef03ea97db630814eeb400dfe6c2bf36f,,marmotta,2013-11-06 11:15:55,2014-09-19T18:39:22+02:00,MARMOTTA-54
5d94ae2ef03ea97db630814eeb400dfe6c2bf36f,,marmotta,2013-07-04 11:17:04,2014-09-19T18:39:22+02:00,MARMOTTA-54
5d94ae2ef03ea97db630814eeb400dfe6c2bf36f,,marmotta,2014-09-16 07:10:47,2014-09-19T18:39:22+02:00,MARMOTTA-54
5d94ae2ef03ea97db630814eeb400dfe6c2bf36f,,marmotta,2013-06-21 04:42:34,2014-09-19T18:39:22+02:00,MARMOTTA-54
5d94ae2ef03ea97db630814eeb400dfe6c2bf36f,,marmotta,2014-05-15 08:09:01,2014-09-19T18:39:22+02:00,MARMOTTA-54
5d94ae2ef03ea97db630814eeb400dfe6c2bf36f,,marmotta,2013-11-06 07:06:16,2014-09-19T18:39:22+02:00,MARMOTTA-54
5d94ae2ef03ea97db630814eeb400dfe6c2bf36f,,marmotta,2014-09-16 12:44:17,2014-09-19T18:39:22+02:00,MARMOTTA-54
5d94ae2ef03ea97db630814eeb400dfe6c2bf36f,,marmotta,2013-11-26 12:39:36,2014-09-19T18:39:22+02:00,MARMOTTA-54
5d94ae2ef03ea97db630814eeb400dfe6c2bf36f,,marmotta,2013-11-06 11:09:01,2014-09-19T18:39:22+02:00,MARMOTTA-54
5d94ae2ef03ea97db630814eeb400dfe6c2bf36f,,marmotta,2014-09-18 11:17:05,2014-09-19T18:39:22+02:00,MARMOTTA-54
67c2b87802ae2bac611fc24654d0e2dc43823d4f,,marmotta,2014-09-16 09:45:35,2014-09-19T16:45:45+02:00,MARMOTTA-54
becba188adeef1760f6a91cd435e5ac55e752cce,,marmotta,2014-09-15 12:08:12,2014-09-19T10:43:25+02:00,MARMOTTA-54
becba188adeef1760f6a91cd435e5ac55e752cce,,marmotta,2014-09-17 07:53:28,2014-09-19T10:43:25+02:00,MARMOTTA-54
becba188adeef1760f6a91cd435e5ac55e752cce,,marmotta,2014-09-18 12:18:27,2014-09-19T10:43:25+02:00,MARMOTTA-54
becba188adeef1760f6a91cd435e5ac55e752cce,,marmotta,2014-09-17 12:16:42,2014-09-19T10:43:25+02:00,MARMOTTA-54
becba188adeef1760f6a91cd435e5ac55e752cce,,marmotta,2014-09-18 11:17:05,2014-09-19T10:43:25+02:00,MARMOTTA-54
d58451153f1a42d9e755156abc3e3ae7f3bc10da,,marmotta,2014-03-10 10:44:07,2014-09-24T17:39:18+02:00,MARMOTTA-54
d58451153f1a42d9e755156abc3e3ae7f3bc10da,,marmotta,2014-09-22 02:36:35,2014-09-24T17:39:18+02:00,MARMOTTA-54
d58451153f1a42d9e755156abc3e3ae7f3bc10da,,marmotta,2014-03-02 06:29:50,2014-09-24T17:39:18+02:00,MARMOTTA-54
ee1f7b8ec0b548bb8f21ddfd8519de590a65a791,,marmotta,2014-09-15 12:08:12,2014-09-18T17:17:05+02:00,MARMOTTA-54
ee1f7b8ec0b548bb8f21ddfd8519de590a65a791,,marmotta,2014-09-17 07:53:28,2014-09-18T17:17:05+02:00,MARMOTTA-54
ee1f7b8ec0b548bb8f21ddfd8519de590a65a791,,marmotta,2014-09-16 05:52:55,2014-09-18T17:17:05+02:00,MARMOTTA-54
ee1f7b8ec0b548bb8f21ddfd8519de590a65a791,,marmotta,2014-09-17 12:16:42,2014-09-18T17:17:05+02:00,MARMOTTA-54
ee1f7b8ec0b548bb8f21ddfd8519de590a65a791,,marmotta,2013-07-29 12:26:00,2014-09-18T17:17:05+02:00,MARMOTTA-54
ee1f7b8ec0b548bb8f21ddfd8519de590a65a791,,marmotta,2013-09-11 11:17:00,2014-09-18T17:17:05+02:00,MARMOTTA-54
ee1f7b8ec0b548bb8f21ddfd8519de590a65a791,,marmotta,2014-09-16 07:10:47,2014-09-18T17:17:05+02:00,MARMOTTA-54
ee1f7b8ec0b548bb8f21ddfd8519de590a65a791,,marmotta,2013-04-24 10:52:44,2014-09-18T17:17:05+02:00,MARMOTTA-54
ee1f7b8ec0b548bb8f21ddfd8519de590a65a791,,marmotta,2014-05-15 08:09:01,2014-09-18T17:17:05+02:00,MARMOTTA-54
ee1f7b8ec0b548bb8f21ddfd8519de590a65a791,,marmotta,2013-04-29 10:41:18,2014-09-18T17:17:05+02:00,MARMOTTA-54
ee1f7b8ec0b548bb8f21ddfd8519de590a65a791,,marmotta,2013-04-30 04:50:38,2014-09-18T17:17:05+02:00,MARMOTTA-54
ee1f7b8ec0b548bb8f21ddfd8519de590a65a791,,marmotta,2013-07-09 11:45:02,2014-09-18T17:17:05+02:00,MARMOTTA-54
ee1f7b8ec0b548bb8f21ddfd8519de590a65a791,,marmotta,2014-09-18 09:08:34,2014-09-18T17:17:05+02:00,MARMOTTA-54
ee1f7b8ec0b548bb8f21ddfd8519de590a65a791,,marmotta,2014-09-17 12:34:08,2014-09-18T17:17:05+02:00,MARMOTTA-54
ee1f7b8ec0b548bb8f21ddfd8519de590a65a791,,marmotta,2013-10-09 06:26:59,2014-09-18T17:17:05+02:00,MARMOTTA-54
ee1f7b8ec0b548bb8f21ddfd8519de590a65a791,,marmotta,2014-01-13 13:46:25,2014-09-18T17:17:05+02:00,MARMOTTA-54
f20648f358d1b672131f394efb5ca968fd5a27ff,,marmotta,2013-02-19 07:50:16,2014-09-22T08:46:27+02:00,MARMOTTA-54
d58451153f1a42d9e755156abc3e3ae7f3bc10da,,marmotta,2014-03-10 10:44:07,2014-09-24T17:39:18+02:00,MARMOTTA-545
d58451153f1a42d9e755156abc3e3ae7f3bc10da,,marmotta,2014-09-22 02:36:35,2014-09-24T17:39:18+02:00,MARMOTTA-545
d58451153f1a42d9e755156abc3e3ae7f3bc10da,,marmotta,2014-03-02 06:29:50,2014-09-24T17:39:18+02:00,MARMOTTA-545
23b6404b306cec2b08563362834d3a66d0ca68be,,marmotta,2013-05-07 04:23:33,2014-10-31T13:05:52+01:00,MARMOTTA-55
a8dc9014d44922c46e5b03cb036ccdd79e8c0d26,,marmotta,2013-04-11 07:17:05,2014-10-16T14:16:01+02:00,MARMOTTA-55
a8dc9014d44922c46e5b03cb036ccdd79e8c0d26,,marmotta,2013-10-21 06:06:02,2014-10-16T14:16:01+02:00,MARMOTTA-55
a8dc9014d44922c46e5b03cb036ccdd79e8c0d26,,marmotta,2013-04-17 03:29:31,2014-10-16T14:16:01+02:00,MARMOTTA-55
a8dc9014d44922c46e5b03cb036ccdd79e8c0d26,,marmotta,2013-02-19 07:50:16,2014-10-16T14:16:01+02:00,MARMOTTA-55
a8dc9014d44922c46e5b03cb036ccdd79e8c0d26,,marmotta,2013-09-03 04:05:49,2014-10-16T14:16:01+02:00,MARMOTTA-55
bac15e8caedaf07550457df337ee00e55ff15d4a,,marmotta,2013-04-11 07:17:05,2014-10-16T14:17:01+02:00,MARMOTTA-55
bf7ee37ebd6d85fdea746199fd4cd1dda1961f77,,marmotta,2014-02-19 06:28:35,2014-10-31T09:56:38+01:00,MARMOTTA-55
bf7ee37ebd6d85fdea746199fd4cd1dda1961f77,,marmotta,2014-02-25 14:47:42,2014-10-31T09:56:38+01:00,MARMOTTA-55
bf7ee37ebd6d85fdea746199fd4cd1dda1961f77,,marmotta,2014-09-10 04:00:43,2014-10-31T09:56:38+01:00,MARMOTTA-55
bf7ee37ebd6d85fdea746199fd4cd1dda1961f77,,marmotta,2014-09-12 07:16:51,2014-10-31T09:56:38+01:00,MARMOTTA-55
bf7ee37ebd6d85fdea746199fd4cd1dda1961f77,,marmotta,2014-03-11 06:56:48,2014-10-31T09:56:38+01:00,MARMOTTA-55
bf7ee37ebd6d85fdea746199fd4cd1dda1961f77,,marmotta,2014-02-26 10:01:59,2014-10-31T09:56:38+01:00,MARMOTTA-55
fa8ef614e2029d2a3d1eb27d756a968199e2ce94,,marmotta,2014-09-25 06:31:01,2014-10-16T11:23:03+02:00,MARMOTTA-55
fa8ef614e2029d2a3d1eb27d756a968199e2ce94,,marmotta,2014-09-17 12:16:42,2014-10-16T11:23:03+02:00,MARMOTTA-55
fa8ef614e2029d2a3d1eb27d756a968199e2ce94,,marmotta,2014-09-18 11:17:05,2014-10-16T11:23:03+02:00,MARMOTTA-55
fa8ef614e2029d2a3d1eb27d756a968199e2ce94,,marmotta,2014-09-25 06:31:01,2014-10-16T11:23:03+02:00,MARMOTTA-552
fa8ef614e2029d2a3d1eb27d756a968199e2ce94,,marmotta,2014-09-17 12:16:42,2014-10-16T11:23:03+02:00,MARMOTTA-552
fa8ef614e2029d2a3d1eb27d756a968199e2ce94,,marmotta,2014-09-18 11:17:05,2014-10-16T11:23:03+02:00,MARMOTTA-552
a8dc9014d44922c46e5b03cb036ccdd79e8c0d26,,marmotta,2013-04-11 07:17:05,2014-10-16T14:16:01+02:00,MARMOTTA-553
a8dc9014d44922c46e5b03cb036ccdd79e8c0d26,,marmotta,2013-10-21 06:06:02,2014-10-16T14:16:01+02:00,MARMOTTA-553
a8dc9014d44922c46e5b03cb036ccdd79e8c0d26,,marmotta,2013-04-17 03:29:31,2014-10-16T14:16:01+02:00,MARMOTTA-553
a8dc9014d44922c46e5b03cb036ccdd79e8c0d26,,marmotta,2013-02-19 07:50:16,2014-10-16T14:16:01+02:00,MARMOTTA-553
a8dc9014d44922c46e5b03cb036ccdd79e8c0d26,,marmotta,2013-09-03 04:05:49,2014-10-16T14:16:01+02:00,MARMOTTA-553
bac15e8caedaf07550457df337ee00e55ff15d4a,,marmotta,2013-04-11 07:17:05,2014-10-16T14:17:01+02:00,MARMOTTA-553
bf7ee37ebd6d85fdea746199fd4cd1dda1961f77,,marmotta,2014-02-19 06:28:35,2014-10-31T09:56:38+01:00,MARMOTTA-558
bf7ee37ebd6d85fdea746199fd4cd1dda1961f77,,marmotta,2014-02-25 14:47:42,2014-10-31T09:56:38+01:00,MARMOTTA-558
bf7ee37ebd6d85fdea746199fd4cd1dda1961f77,,marmotta,2014-09-10 04:00:43,2014-10-31T09:56:38+01:00,MARMOTTA-558
bf7ee37ebd6d85fdea746199fd4cd1dda1961f77,,marmotta,2014-09-12 07:16:51,2014-10-31T09:56:38+01:00,MARMOTTA-558
bf7ee37ebd6d85fdea746199fd4cd1dda1961f77,,marmotta,2014-03-11 06:56:48,2014-10-31T09:56:38+01:00,MARMOTTA-558
bf7ee37ebd6d85fdea746199fd4cd1dda1961f77,,marmotta,2014-02-26 10:01:59,2014-10-31T09:56:38+01:00,MARMOTTA-558
0965f73f27e49efc67fde688f81895cc14cadf04,,marmotta,2014-03-02 14:46:45,2014-11-05T15:30:50+01:00,MARMOTTA-56
3ecce0469f88e48ae0e0649f6e866323f33a48f1,,marmotta,2014-11-05 09:30:50,2014-11-05T15:30:50+01:00,MARMOTTA-56
3ecce0469f88e48ae0e0649f6e866323f33a48f1,,marmotta,2014-03-02 14:46:45,2014-11-05T15:30:50+01:00,MARMOTTA-56
41842d07e575a0063aeb980aa794cb08631d986e,,marmotta,2013-02-19 07:50:16,2014-11-05T15:30:50+01:00,MARMOTTA-56
442763861be1f234379222bc4f39ed8702b85a55,,marmotta,2014-11-10 13:27:59,2014-11-10T20:01:03+01:00,MARMOTTA-56
442763861be1f234379222bc4f39ed8702b85a55,,marmotta,2014-10-13 09:29:21,2014-11-10T20:01:03+01:00,MARMOTTA-56
442763861be1f234379222bc4f39ed8702b85a55,,marmotta,2013-11-26 04:03:26,2014-11-10T20:01:03+01:00,MARMOTTA-56
442763861be1f234379222bc4f39ed8702b85a55,,marmotta,2013-11-06 13:09:17,2014-11-10T20:01:03+01:00,MARMOTTA-56
477a538666a42f7d922932f320b689b25a9f3097,,marmotta,2014-03-02 14:46:45,2014-11-05T16:50:21+01:00,MARMOTTA-56
4f53948572b9f28b8e6f6f56f7ce02d5f6a3273d,,marmotta,2014-09-05 04:22:48,2014-11-12T16:16:30+01:00,MARMOTTA-56
4f53948572b9f28b8e6f6f56f7ce02d5f6a3273d,,marmotta,2014-07-15 04:26:23,2014-11-12T16:16:30+01:00,MARMOTTA-56
4f53948572b9f28b8e6f6f56f7ce02d5f6a3273d,,marmotta,2014-10-31 04:56:38,2014-11-12T16:16:30+01:00,MARMOTTA-56
7a824559431331e008abd42421418f7bbe032d30,,marmotta,2013-11-22 10:24:39,2014-11-10T18:39:34+01:00,MARMOTTA-56
7a824559431331e008abd42421418f7bbe032d30,,marmotta,2014-03-31 11:06:23,2014-11-10T18:39:34+01:00,MARMOTTA-56
7a824559431331e008abd42421418f7bbe032d30,,marmotta,2014-10-22 06:37:18,2014-11-10T18:39:34+01:00,MARMOTTA-56
7a824559431331e008abd42421418f7bbe032d30,,marmotta,2013-11-26 10:11:55,2014-11-10T18:39:34+01:00,MARMOTTA-56
7a824559431331e008abd42421418f7bbe032d30,,marmotta,2013-11-27 07:33:55,2014-11-10T18:39:34+01:00,MARMOTTA-56
7a824559431331e008abd42421418f7bbe032d30,,marmotta,2014-10-13 09:30:23,2014-11-10T18:39:34+01:00,MARMOTTA-56
7a824559431331e008abd42421418f7bbe032d30,,marmotta,2013-11-06 15:16:07,2014-11-10T18:39:34+01:00,MARMOTTA-56
7a824559431331e008abd42421418f7bbe032d30,,marmotta,2014-03-05 08:36:14,2014-11-10T18:39:34+01:00,MARMOTTA-56
7a824559431331e008abd42421418f7bbe032d30,,marmotta,2013-05-24 11:53:21,2014-11-10T18:39:34+01:00,MARMOTTA-56
7a824559431331e008abd42421418f7bbe032d30,,marmotta,2014-09-25 06:06:27,2014-11-10T18:39:34+01:00,MARMOTTA-56
7a824559431331e008abd42421418f7bbe032d30,,marmotta,2013-06-19 07:10:29,2014-11-10T18:39:34+01:00,MARMOTTA-56
7a824559431331e008abd42421418f7bbe032d30,,marmotta,2014-02-04 17:58:08,2014-11-10T18:39:34+01:00,MARMOTTA-56
7a824559431331e008abd42421418f7bbe032d30,,marmotta,2014-11-07 10:00:14,2014-11-10T18:39:34+01:00,MARMOTTA-56
7a824559431331e008abd42421418f7bbe032d30,,marmotta,2013-12-16 11:55:59,2014-11-10T18:39:34+01:00,MARMOTTA-56
7a824559431331e008abd42421418f7bbe032d30,,marmotta,2013-02-19 07:50:16,2014-11-10T18:39:34+01:00,MARMOTTA-56
7a824559431331e008abd42421418f7bbe032d30,,marmotta,2013-11-26 04:03:26,2014-11-10T18:39:34+01:00,MARMOTTA-56
7a824559431331e008abd42421418f7bbe032d30,,marmotta,2013-11-06 13:09:17,2014-11-10T18:39:34+01:00,MARMOTTA-56
7a824559431331e008abd42421418f7bbe032d30,,marmotta,2014-01-17 05:33:10,2014-11-10T18:39:34+01:00,MARMOTTA-56
7a824559431331e008abd42421418f7bbe032d30,,marmotta,2014-10-22 05:58:16,2014-11-10T18:39:34+01:00,MARMOTTA-56
80e7eb6f3523996c4681f7d1470ec4594912fb72,,marmotta,2014-11-05 10:55:26,2014-11-05T17:31:12+01:00,MARMOTTA-56
8348d0dc5e5bfdf687bc191bc94994a6e5bd1616,,marmotta,2014-11-05 09:30:50,2014-11-05T16:55:26+01:00,MARMOTTA-56
a10c6efc81ea76f762f2c7ce9cac8f4902469cd5,,marmotta,2014-11-10 12:39:34,2014-11-10T19:27:59+01:00,MARMOTTA-56
a10c6efc81ea76f762f2c7ce9cac8f4902469cd5,,marmotta,2013-11-15 12:54:17,2014-11-10T19:27:59+01:00,MARMOTTA-56
bc25e32651e0021f90e057a73b44c0156342d51d,,marmotta,2013-07-09 05:46:21,2014-11-05T15:30:50+01:00,MARMOTTA-56
bc25e32651e0021f90e057a73b44c0156342d51d,,marmotta,2013-02-19 07:50:16,2014-11-05T15:30:50+01:00,MARMOTTA-56
bc25e32651e0021f90e057a73b44c0156342d51d,,marmotta,2013-02-25 10:57:28,2014-11-05T15:30:50+01:00,MARMOTTA-56
7a824559431331e008abd42421418f7bbe032d30,,marmotta,2013-11-22 10:24:39,2014-11-10T18:39:34+01:00,MARMOTTA-564
7a824559431331e008abd42421418f7bbe032d30,,marmotta,2014-03-31 11:06:23,2014-11-10T18:39:34+01:00,MARMOTTA-564
7a824559431331e008abd42421418f7bbe032d30,,marmotta,2014-10-22 06:37:18,2014-11-10T18:39:34+01:00,MARMOTTA-564
7a824559431331e008abd42421418f7bbe032d30,,marmotta,2013-11-26 10:11:55,2014-11-10T18:39:34+01:00,MARMOTTA-564
7a824559431331e008abd42421418f7bbe032d30,,marmotta,2013-11-27 07:33:55,2014-11-10T18:39:34+01:00,MARMOTTA-564
7a824559431331e008abd42421418f7bbe032d30,,marmotta,2014-10-13 09:30:23,2014-11-10T18:39:34+01:00,MARMOTTA-564
7a824559431331e008abd42421418f7bbe032d30,,marmotta,2013-11-06 15:16:07,2014-11-10T18:39:34+01:00,MARMOTTA-564
7a824559431331e008abd42421418f7bbe032d30,,marmotta,2014-03-05 08:36:14,2014-11-10T18:39:34+01:00,MARMOTTA-564
7a824559431331e008abd42421418f7bbe032d30,,marmotta,2013-05-24 11:53:21,2014-11-10T18:39:34+01:00,MARMOTTA-564
7a824559431331e008abd42421418f7bbe032d30,,marmotta,2014-09-25 06:06:27,2014-11-10T18:39:34+01:00,MARMOTTA-564
7a824559431331e008abd42421418f7bbe032d30,,marmotta,2013-06-19 07:10:29,2014-11-10T18:39:34+01:00,MARMOTTA-564
7a824559431331e008abd42421418f7bbe032d30,,marmotta,2014-02-04 17:58:08,2014-11-10T18:39:34+01:00,MARMOTTA-564
7a824559431331e008abd42421418f7bbe032d30,,marmotta,2014-11-07 10:00:14,2014-11-10T18:39:34+01:00,MARMOTTA-564
7a824559431331e008abd42421418f7bbe032d30,,marmotta,2013-12-16 11:55:59,2014-11-10T18:39:34+01:00,MARMOTTA-564
7a824559431331e008abd42421418f7bbe032d30,,marmotta,2013-02-19 07:50:16,2014-11-10T18:39:34+01:00,MARMOTTA-564
7a824559431331e008abd42421418f7bbe032d30,,marmotta,2013-11-26 04:03:26,2014-11-10T18:39:34+01:00,MARMOTTA-564
7a824559431331e008abd42421418f7bbe032d30,,marmotta,2013-11-06 13:09:17,2014-11-10T18:39:34+01:00,MARMOTTA-564
7a824559431331e008abd42421418f7bbe032d30,,marmotta,2014-01-17 05:33:10,2014-11-10T18:39:34+01:00,MARMOTTA-564
7a824559431331e008abd42421418f7bbe032d30,,marmotta,2014-10-22 05:58:16,2014-11-10T18:39:34+01:00,MARMOTTA-564
442763861be1f234379222bc4f39ed8702b85a55,,marmotta,2014-11-10 13:27:59,2014-11-10T20:01:03+01:00,MARMOTTA-565
442763861be1f234379222bc4f39ed8702b85a55,,marmotta,2014-10-13 09:29:21,2014-11-10T20:01:03+01:00,MARMOTTA-565
442763861be1f234379222bc4f39ed8702b85a55,,marmotta,2013-11-26 04:03:26,2014-11-10T20:01:03+01:00,MARMOTTA-565
442763861be1f234379222bc4f39ed8702b85a55,,marmotta,2013-11-06 13:09:17,2014-11-10T20:01:03+01:00,MARMOTTA-565
a10c6efc81ea76f762f2c7ce9cac8f4902469cd5,,marmotta,2014-11-10 12:39:34,2014-11-10T19:27:59+01:00,MARMOTTA-565
a10c6efc81ea76f762f2c7ce9cac8f4902469cd5,,marmotta,2013-11-15 12:54:17,2014-11-10T19:27:59+01:00,MARMOTTA-565
4f53948572b9f28b8e6f6f56f7ce02d5f6a3273d,,marmotta,2014-09-05 04:22:48,2014-11-12T16:16:30+01:00,MARMOTTA-569
4f53948572b9f28b8e6f6f56f7ce02d5f6a3273d,,marmotta,2014-07-15 04:26:23,2014-11-12T16:16:30+01:00,MARMOTTA-569
4f53948572b9f28b8e6f6f56f7ce02d5f6a3273d,,marmotta,2014-10-31 04:56:38,2014-11-12T16:16:30+01:00,MARMOTTA-569
c0ff84edde8a4427ba80b35a1dc8563c9b249fb3,,marmotta,2014-03-25 10:38:56,2014-12-09T09:53:18+01:00,MARMOTTA-578
c0ff84edde8a4427ba80b35a1dc8563c9b249fb3,,marmotta,2013-03-11 09:31:39,2014-12-09T09:53:18+01:00,MARMOTTA-578
c0ff84edde8a4427ba80b35a1dc8563c9b249fb3,,marmotta,2013-10-02 15:39:23,2014-12-09T09:53:18+01:00,MARMOTTA-578
c0ff84edde8a4427ba80b35a1dc8563c9b249fb3,,marmotta,2013-09-26 11:05:38,2014-12-09T09:53:18+01:00,MARMOTTA-578
c0ff84edde8a4427ba80b35a1dc8563c9b249fb3,,marmotta,2013-11-28 11:17:23,2014-12-09T09:53:18+01:00,MARMOTTA-578
c0ff84edde8a4427ba80b35a1dc8563c9b249fb3,,marmotta,2014-11-11 10:22:54,2014-12-09T09:53:18+01:00,MARMOTTA-578
c0ff84edde8a4427ba80b35a1dc8563c9b249fb3,,marmotta,2013-09-26 10:16:17,2014-12-09T09:53:18+01:00,MARMOTTA-578
c0ff84edde8a4427ba80b35a1dc8563c9b249fb3,,marmotta,2013-09-26 10:24:39,2014-12-09T09:53:18+01:00,MARMOTTA-578
c0ff84edde8a4427ba80b35a1dc8563c9b249fb3,,marmotta,2013-09-29 20:32:15,2014-12-09T09:53:18+01:00,MARMOTTA-578
c0ff84edde8a4427ba80b35a1dc8563c9b249fb3,,marmotta,2014-07-08 04:32:27,2014-12-09T09:53:18+01:00,MARMOTTA-578
c0ff84edde8a4427ba80b35a1dc8563c9b249fb3,,marmotta,2013-03-11 06:22:37,2014-12-09T09:53:18+01:00,MARMOTTA-578
c0ff84edde8a4427ba80b35a1dc8563c9b249fb3,,marmotta,2013-02-19 07:50:16,2014-12-09T09:53:18+01:00,MARMOTTA-578
c0ff84edde8a4427ba80b35a1dc8563c9b249fb3,,marmotta,2014-10-08 07:39:24,2014-12-09T09:53:18+01:00,MARMOTTA-578
c0ff84edde8a4427ba80b35a1dc8563c9b249fb3,,marmotta,2013-09-26 10:33:38,2014-12-09T09:53:18+01:00,MARMOTTA-578
c0ff84edde8a4427ba80b35a1dc8563c9b249fb3,,marmotta,2013-12-10 09:48:01,2014-12-09T09:53:18+01:00,MARMOTTA-578
c0ff84edde8a4427ba80b35a1dc8563c9b249fb3,,marmotta,2014-10-08 07:41:38,2014-12-09T09:53:18+01:00,MARMOTTA-578
c0ff84edde8a4427ba80b35a1dc8563c9b249fb3,,marmotta,2013-03-11 10:01:33,2014-12-09T09:53:18+01:00,MARMOTTA-578
b3e88dc5548dcd908e8a2d0e95ffc9603647775d,,marmotta,2014-03-25 10:38:56,2015-02-10T09:21:24+01:00,MARMOTTA-59
b3e88dc5548dcd908e8a2d0e95ffc9603647775d,,marmotta,2014-11-11 10:22:54,2015-02-10T09:21:24+01:00,MARMOTTA-59
b3e88dc5548dcd908e8a2d0e95ffc9603647775d,,marmotta,2013-09-26 10:16:17,2015-02-10T09:21:24+01:00,MARMOTTA-59
b3e88dc5548dcd908e8a2d0e95ffc9603647775d,,marmotta,2014-07-08 04:32:27,2015-02-10T09:21:24+01:00,MARMOTTA-59
b3e88dc5548dcd908e8a2d0e95ffc9603647775d,,marmotta,2013-02-19 07:50:16,2015-02-10T09:21:24+01:00,MARMOTTA-59
c271df95f5867bedf8260b369f4b26adca053806,,marmotta,2014-09-05 04:22:48,2015-05-08T13:12:14+02:00,MARMOTTA-59
c271df95f5867bedf8260b369f4b26adca053806,,marmotta,2014-09-12 07:16:51,2015-05-08T13:12:14+02:00,MARMOTTA-59
d19a04afc4628eb6c2ae740b0a68eeceba54ec9c,,marmotta,2014-09-25 12:11:37,2015-02-09T14:35:27+01:00,MARMOTTA-59
b3e88dc5548dcd908e8a2d0e95ffc9603647775d,,marmotta,2014-03-25 10:38:56,2015-02-10T09:21:24+01:00,MARMOTTA-591
b3e88dc5548dcd908e8a2d0e95ffc9603647775d,,marmotta,2014-11-11 10:22:54,2015-02-10T09:21:24+01:00,MARMOTTA-591
b3e88dc5548dcd908e8a2d0e95ffc9603647775d,,marmotta,2013-09-26 10:16:17,2015-02-10T09:21:24+01:00,MARMOTTA-591
b3e88dc5548dcd908e8a2d0e95ffc9603647775d,,marmotta,2014-07-08 04:32:27,2015-02-10T09:21:24+01:00,MARMOTTA-591
b3e88dc5548dcd908e8a2d0e95ffc9603647775d,,marmotta,2013-02-19 07:50:16,2015-02-10T09:21:24+01:00,MARMOTTA-591
c271df95f5867bedf8260b369f4b26adca053806,,marmotta,2014-09-05 04:22:48,2015-05-08T13:12:14+02:00,MARMOTTA-598
c271df95f5867bedf8260b369f4b26adca053806,,marmotta,2014-09-12 07:16:51,2015-05-08T13:12:14+02:00,MARMOTTA-598
8ac1d06c62fde2a71456be4a3ad401fe5432890a,,marmotta,2014-09-17 07:53:28,2015-04-08T19:05:03+02:00,MARMOTTA-608
8ac1d06c62fde2a71456be4a3ad401fe5432890a,,marmotta,2014-09-16 12:27:29,2015-04-08T19:05:03+02:00,MARMOTTA-608
348e60bdb808834edd303a78cf1eb906e19515c4,,marmotta,2015-05-04 04:32:45,2015-05-11T08:15:44+02:00,MARMOTTA-609
a377e5e00b16a0b93f5baf1c7402d692b2ffc59b,,marmotta,2013-02-19 07:50:16,2015-10-02T13:10:49+02:00,MARMOTTA-618
cfdf9e604352382ede3f05dac39004c929981ebe,,marmotta,2013-04-29 10:41:18,2016-02-11T14:27:43+01:00,MARMOTTA-627
503cbc8daae89641b8f5d60c04274e1dcde012ec,,marmotta,2013-02-19 07:50:16,2016-03-03T11:36:04+01:00,MARMOTTA-63
b8d9e567075d9a69e24cbb03fafbadfb0f7feac7,,marmotta,2013-06-21 04:42:34,2013-07-11T14:32:38+02:00,MARMOTTA-63
b8d9e567075d9a69e24cbb03fafbadfb0f7feac7,,marmotta,2013-02-19 07:50:16,2013-07-11T14:32:38+02:00,MARMOTTA-63
503cbc8daae89641b8f5d60c04274e1dcde012ec,,marmotta,2013-02-19 07:50:16,2016-03-03T11:36:04+01:00,MARMOTTA-631
05ecd8a8b827a04a5ed142427b3a2d93ba408e77,,marmotta,2014-09-17 07:53:28,2016-06-20T09:10:07+02:00,MARMOTTA-640
7df4029df21288cc9f6b1b9c041e7d428b644b8f,,marmotta,2014-09-25 06:31:01,2016-06-10T16:55:25+02:00,MARMOTTA-640
7df4029df21288cc9f6b1b9c041e7d428b644b8f,,marmotta,2014-09-17 12:16:42,2016-06-10T16:55:25+02:00,MARMOTTA-640
7df4029df21288cc9f6b1b9c041e7d428b644b8f,,marmotta,2013-04-24 10:52:44,2016-06-10T16:55:25+02:00,MARMOTTA-640
7df4029df21288cc9f6b1b9c041e7d428b644b8f,,marmotta,2014-09-19 04:43:25,2016-06-10T16:55:25+02:00,MARMOTTA-640
b1b899c5168a8e364a183329bc833ae8606513bf,,marmotta,2016-06-20 03:10:07,2016-06-20T09:50:29+02:00,MARMOTTA-640
b1b899c5168a8e364a183329bc833ae8606513bf,,marmotta,2016-06-10 10:55:25,2016-06-20T09:50:29+02:00,MARMOTTA-640
ffd00144bde44609ff708fc903020d6eb8fcbc39,,marmotta,2013-10-02 15:39:23,2016-07-26T10:34:54+02:00,MARMOTTA-651
ffd00144bde44609ff708fc903020d6eb8fcbc39,,marmotta,2013-09-26 10:24:39,2016-07-26T10:34:54+02:00,MARMOTTA-651
ffd00144bde44609ff708fc903020d6eb8fcbc39,,marmotta,2014-10-08 07:39:24,2016-07-26T10:34:54+02:00,MARMOTTA-651
a1cd1e24ad605750d7182ccaee8b181ee1a4c409,,marmotta,2013-11-28 11:17:23,2016-09-21T12:03:42+02:00,MARMOTTA-656
9abcdd92f3e1615bf7c98540ecc2d9d776313f73,,marmotta,2014-12-09 13:59:22,2017-04-09T17:44:17-05:00,MARMOTTA-657
7f691913264d03b5540314d643748baa5f7e0408,,marmotta,2013-02-19 07:50:16,2017-06-07T11:28:46+02:00,MARMOTTA-66
b75ca1c642701863adad5e6c2167add35fd15ccb,,marmotta,2013-02-19 07:50:16,2013-03-27T16:34:52+01:00,MARMOTTA-66
f7ac43c602e294afb3ebd1dbede5e01c04433098,,marmotta,2013-02-19 07:50:16,2013-08-28T15:31:36+02:00,MARMOTTA-66
7f691913264d03b5540314d643748baa5f7e0408,,marmotta,2013-02-19 07:50:16,2017-06-07T11:28:46+02:00,MARMOTTA-666
2f2a9d1d74cfc0a5e2d1c7ed4793544fbe6bc466,,marmotta,2013-02-19 07:50:16,2013-03-13T15:57:18+01:00,MARMOTTA-93
